// Created by Crowbar 0.62
version 1
nodes
  0 "Dummy (Root)" -1
  1 "Dummy (Antenna Pivot)" 0
  2 "Dummy (Pupil)" 0
  3 "Dummy (EyeShield1)" 2
  4 "Dummy (EyeShield2)" 2
  5 "Dummy (EyeShield3)" 2
  6 "Dummy (EyeShield4)" 2
  7 "Dummy (Inner Wheel Pivot)" 0
  8 "Dummy (L Arm1c)" 2
  9 "Dummy (L Arm1b)" 8
  10 "Dummy (L Arm1a)" 9
  11 "Dummy (L Arm2c)" 2
  12 "Dummy (L Arm2b)" 11
  13 "Dummy (L Arm2a)" 12
  14 "Dummy (L Arm3c)" 2
  15 "Dummy (L Arm3b)" 14
  16 "Dummy (L Arm3a)" 15
  17 "Dummy (L Prong1Pivot)" 0
  18 "Dummy (L Prong2 Pivot)" 0
  19 "Dummy (L Prong3Pivot)" 0
  20 "Dummy (L Prong4Pivot)" 0
  21 "Dummy (L Prong5Pivot)" 0
  22 "Dummy (L Prong6Pivot)" 0
  23 "Dummy (Tail Gun)" 0
end
skeleton
  time 0
    0 0.000616 0.675802 -1.394990 1.570800 0.000000 1.570774
    1 -5.676169 -10.205956 -0.036927 0.000000 0.000000 0.000000
    2 -12.201421 1.904737 0.015999 3.141593 0.000000 -3.141593
    3 -5.287980 8.712280 -8.712730 0.000000 1.570451 0.000000
    4 -5.287980 8.700730 8.764190 0.000000 1.570451 0.000000
    5 -5.287980 -8.776230 8.752700 0.000000 1.570451 0.000000
    6 -5.287990 -8.727910 -8.712730 0.000000 1.570451 0.000000
    7 -1.762286 5.911245 0.000001 -3.141593 0.000000 -3.054327
    8 -2.841770 -0.132410 -7.037760 -3.141593 0.969358 3.141593
    9 -6.216228 0.000000 -0.009538 3.141593 -0.000003 -3.141593
    10 -6.044681 0.000000 -0.123807 3.141593 0.000000 3.141593
    11 -2.841770 -7.400337 0.154318 3.141593 0.000000 -2.232928
    12 -6.216228 0.011102 0.009510 0.000000 0.000000 -3.141592
    13 -6.044682 0.123416 0.123833 0.000000 0.000000 -3.141592
    14 -2.841769 -0.132410 6.858287 -3.141593 -0.963582 -3.141593
    15 -6.216228 0.000000 0.009509 -3.141593 0.000000 3.141593
    16 -6.044682 0.000000 0.123834 3.141593 0.000000 -3.141593
    17 -5.269850 1.858320 4.892870 0.000000 -1.570793 -1.570800
    18 -5.320000 1.887550 2.043220 0.000000 0.000000 0.000000
    19 -5.271080 1.859040 2.043220 0.000000 0.000000 0.000000
    20 -5.269850 1.858320 -4.891440 0.000000 -1.570793 -1.570800
    21 -5.271080 1.887550 -2.041910 0.000000 0.000000 0.000000
    22 -5.271080 1.859040 -2.041910 0.000000 0.000000 0.000000
    23 6.127056 4.060575 0.000002 3.141593 0.000000 -3.141593
  time 1
    0 0.000616 0.675802 -1.387177 1.570800 0.000000 1.570774
    1 -5.676169 -10.205956 -0.036927 0.000000 0.052337 0.000000
    2 -12.201421 1.904737 0.015999 3.141593 0.000000 -3.141593
    3 -5.784089 9.438865 -9.454941 0.000000 1.570451 0.000000
    4 -5.784089 9.427315 9.502494 0.000000 1.570451 0.000000
    5 -5.784089 -9.498908 9.491004 0.000000 1.570451 0.000000
    6 -5.784099 -9.450588 -9.454941 0.000000 1.570451 0.000000
    7 -1.762286 5.911245 0.000001 -3.141593 0.000000 -3.054327
    8 -2.841770 -0.132410 -7.037760 -3.141593 0.969358 3.141593
    9 -6.216228 0.000000 -0.009538 3.141593 -0.000003 -3.141593
    10 -6.044681 0.000000 -0.123807 3.141593 0.000000 3.141593
    11 -2.841770 -7.400337 0.154318 3.141593 0.000000 -2.232928
    12 -6.216228 0.011102 0.009510 0.000000 0.000000 -3.141592
    13 -6.044682 0.123416 0.123833 0.000000 0.000000 -3.141592
    14 -2.841769 -0.132410 6.858287 -3.141593 -0.963582 -3.141593
    15 -6.216228 0.000000 0.009509 -3.141593 0.000000 3.141593
    16 -6.044682 0.000000 0.123834 3.141593 0.000000 -3.141593
    17 -5.269850 1.858320 4.892870 0.000000 -1.570793 -1.549161
    18 -5.320000 1.887550 2.043220 0.000000 0.000000 0.000000
    19 -5.271080 1.859040 2.043220 0.000000 0.000000 0.000000
    20 -5.269850 1.858320 -4.891440 0.000000 -1.570793 -1.549161
    21 -5.271080 1.887550 -2.041910 0.000000 0.000000 0.000000
    22 -5.271080 1.859040 -2.041910 0.000000 0.000000 0.000000
    23 6.127056 4.060575 0.000002 3.141593 0.000000 -3.141593
  time 2
    0 0.000616 0.675802 -1.363739 1.570800 0.000000 1.570774
    1 -5.676169 -10.205956 -0.036927 0.000000 0.104674 0.000000
    2 -12.201421 1.904737 0.015999 3.141593 0.000000 -3.141593
    3 -6.284104 10.169356 -10.201057 0.000000 1.570451 0.000000
    4 -6.284104 10.157806 10.244704 0.000000 1.570451 0.000000
    5 -6.284104 -10.225493 10.233214 0.000000 1.570451 0.000000
    6 -6.284114 -10.177173 -10.201057 0.000000 1.570451 0.000000
    7 -1.762286 5.911245 0.000001 -3.141593 0.000000 -3.054327
    8 -2.841770 -0.132410 -7.037760 -3.141593 0.969358 3.141593
    9 -6.216228 0.000000 -0.009538 3.141593 -0.000003 -3.141593
    10 -6.044681 0.000000 -0.123807 3.141593 0.000000 3.141593
    11 -2.841770 -7.400337 0.154318 3.141593 0.000000 -2.232928
    12 -6.216228 0.011102 0.009510 0.000000 0.000000 -3.141592
    13 -6.044682 0.123416 0.123833 0.000000 0.000000 -3.141592
    14 -2.841769 -0.132410 6.858287 -3.141593 -0.963582 -3.141593
    15 -6.216228 0.000000 0.009509 -3.141593 0.000000 3.141593
    16 -6.044682 0.000000 0.123834 3.141593 0.000000 -3.141593
    17 -5.269850 1.858320 4.892870 0.000000 -1.570793 -1.523331
    18 -5.320000 1.887550 2.043220 0.000000 0.000000 0.000000
    19 -5.271080 1.859040 2.043220 0.000000 0.000000 0.000000
    20 -5.269850 1.858320 -4.891440 0.000000 -1.570793 -1.523331
    21 -5.271080 1.887550 -2.041910 0.000000 0.000000 0.000000
    22 -5.271080 1.859040 -2.041910 0.000000 0.000000 0.000000
    23 6.127056 4.060575 0.000002 3.141593 0.000000 -3.141593
  time 3
    0 0.000616 0.675802 -1.320769 1.570800 0.000000 1.570774
    1 -5.676169 -10.205956 -0.036927 0.000000 0.157059 0.000000
    2 -12.201421 1.904737 0.015999 3.141593 0.000000 -3.141593
    3 -6.284104 10.169356 -10.201057 0.000000 1.570451 0.000000
    4 -6.284104 10.157806 10.244704 0.000000 1.570451 0.000000
    5 -6.284104 -10.225493 10.233214 0.000000 1.570451 0.000000
    6 -6.284114 -10.177173 -10.201057 0.000000 1.570451 0.000000
    7 -1.762286 5.911245 0.000001 -3.141593 0.000000 -3.054327
    8 -2.841770 -0.132410 -7.037760 -3.141593 0.969358 3.141593
    9 -6.216228 0.000000 -0.009538 3.141593 -0.000003 -3.141593
    10 -6.044681 0.000000 -0.123807 3.141593 0.000000 3.141593
    11 -2.841770 -7.400337 0.154318 3.141593 0.000000 -2.232928
    12 -6.216228 0.011102 0.009510 0.000000 0.000000 -3.141592
    13 -6.044682 0.123416 0.123833 0.000000 0.000000 -3.141592
    14 -2.841769 -0.132410 6.858287 -3.141593 -0.963582 -3.141593
    15 -6.216228 0.000000 0.009509 -3.141593 0.000000 3.141593
    16 -6.044682 0.000000 0.123834 3.141593 0.000000 -3.141593
    17 -5.269850 1.858320 4.892870 0.000000 -1.570793 -1.499597
    18 -5.320000 1.887550 2.043220 0.000000 0.000000 0.000000
    19 -5.271080 1.859040 2.043220 0.000000 0.000000 0.000000
    20 -5.269850 1.858320 -4.891440 0.000000 -1.570793 -1.499597
    21 -5.271080 1.887550 -2.041910 0.000000 0.000000 0.000000
    22 -5.271080 1.859040 -2.041910 0.000000 0.000000 0.000000
    23 6.127056 4.060575 0.000002 3.141593 0.000000 -3.141593
  time 4
    0 0.000616 0.675802 -1.266080 1.570800 0.000000 1.570774
    1 -5.676169 -10.205956 -0.036927 0.000000 0.209397 0.000000
    2 -12.201421 1.904737 0.015999 3.141593 0.000000 -3.141593
    3 -6.284104 10.169356 -10.201057 0.000000 1.570451 0.000000
    4 -6.284104 10.157806 10.244704 0.000000 1.570451 0.000000
    5 -6.284104 -10.225493 10.233214 0.000000 1.570451 0.000000
    6 -6.284114 -10.177173 -10.201057 0.000000 1.570451 0.000000
    7 -1.762286 5.911245 0.000001 -3.141593 0.000000 -3.054327
    8 -2.841770 -0.132410 -7.037760 -3.141593 0.969358 3.141593
    9 -6.216228 0.000000 -0.009538 3.141593 -0.000003 -3.141593
    10 -6.044681 0.000000 -0.123807 3.141593 0.000000 3.141593
    11 -2.841770 -7.400337 0.154318 3.141593 0.000000 -2.232928
    12 -6.216228 0.011102 0.009510 0.000000 0.000000 -3.141592
    13 -6.044682 0.123416 0.123833 0.000000 0.000000 -3.141592
    14 -2.841769 -0.132410 6.858287 -3.141593 -0.963582 -3.141593
    15 -6.216228 0.000000 0.009509 -3.141593 0.000000 3.141593
    16 -6.044682 0.000000 0.123834 3.141593 0.000000 -3.141593
    17 -5.269850 1.858320 4.892870 0.000000 -1.570793 -1.484232
    18 -5.320000 1.887550 2.043220 0.000000 0.000000 0.000000
    19 -5.271080 1.859040 2.043220 0.000000 0.000000 0.000000
    20 -5.269850 1.858320 -4.891440 0.000000 -1.570793 -1.484232
    21 -5.271080 1.887550 -2.041910 0.000000 0.000000 0.000000
    22 -5.271080 1.859040 -2.041910 0.000000 0.000000 0.000000
    23 6.127056 4.060575 0.000002 3.141593 0.000000 -3.141593
  time 5
    0 0.000616 0.675802 -1.199672 1.570800 0.000000 1.570774
    1 -5.676169 -10.205956 -0.036927 0.000000 0.261782 0.000000
    2 -12.201421 1.904737 0.015999 3.141593 0.000000 -3.141593
    3 -6.284104 10.169356 -10.201057 0.000000 1.570451 0.000000
    4 -6.284104 10.157806 10.244704 0.000000 1.570451 0.000000
    5 -6.284104 -10.225493 10.233214 0.000000 1.570451 0.000000
    6 -6.284114 -10.177173 -10.201057 0.000000 1.570451 0.000000
    7 -1.762286 5.911245 0.000001 -3.141593 0.000000 -3.054327
    8 -2.841770 -0.132410 -7.037760 -3.141593 0.969358 3.141593
    9 -6.216228 0.000000 -0.009538 3.141593 -0.000003 -3.141593
    10 -6.044681 0.000000 -0.123807 3.141593 0.000000 3.141593
    11 -2.841770 -7.400337 0.154318 3.141593 0.000000 -2.232928
    12 -6.216228 0.011102 0.009510 0.000000 0.000000 -3.141592
    13 -6.044682 0.123416 0.123833 0.000000 0.000000 -3.141592
    14 -2.841769 -0.132410 6.858287 -3.141593 -0.963582 -3.141593
    15 -6.216228 0.000000 0.009509 -3.141593 0.000000 3.141593
    16 -6.044682 0.000000 0.123834 3.141593 0.000000 -3.141593
    17 -5.269850 1.858320 4.892870 0.000000 -1.570793 -1.483538
    18 -5.320000 1.887550 2.043220 0.000000 0.000000 0.000000
    19 -5.271080 1.859040 2.043220 0.000000 0.000000 0.000000
    20 -5.269850 1.858320 -4.891440 0.000000 -1.570793 -1.483538
    21 -5.271080 1.887550 -2.041910 0.000000 0.000000 0.000000
    22 -5.271080 1.859040 -2.041910 0.000000 0.000000 0.000000
    23 6.127056 4.060575 0.000002 3.141593 0.000000 -3.141593
  time 6
    0 0.000616 0.675802 -1.117638 1.570800 0.000000 1.570774
    1 -5.676169 -10.205956 -0.036927 0.000000 0.314119 0.000000
    2 -12.201421 1.904737 0.015999 3.141593 0.000000 -3.141593
    3 -6.284104 10.169356 -10.201057 0.000000 1.570451 0.000000
    4 -6.284104 10.157806 10.244704 0.000000 1.570451 0.000000
    5 -6.284104 -10.225493 10.233214 0.000000 1.570451 0.000000
    6 -6.284114 -10.177173 -10.201057 0.000000 1.570451 0.000000
    7 -1.762286 5.911245 0.000001 -3.141593 0.000000 -3.054327
    8 -2.841770 -0.132410 -7.037760 -3.141593 0.969358 3.141593
    9 -6.216228 0.000000 -0.009538 3.141593 -0.000003 -3.141593
    10 -6.044681 0.000000 -0.123807 3.141593 0.000000 3.141593
    11 -2.841770 -7.400337 0.154318 3.141593 0.000000 -2.232928
    12 -6.216228 0.011102 0.009510 0.000000 0.000000 -3.141592
    13 -6.044682 0.123416 0.123833 0.000000 0.000000 -3.141592
    14 -2.841769 -0.132410 6.858287 -3.141593 -0.963582 -3.141593
    15 -6.216228 0.000000 0.009509 -3.141593 0.000000 3.141593
    16 -6.044682 0.000000 0.123834 3.141593 0.000000 -3.141593
    17 -5.269850 1.858320 4.892870 0.000000 -1.570793 -1.507272
    18 -5.320000 1.887550 2.043220 0.000000 0.000000 0.000000
    19 -5.271080 1.859040 2.043220 0.000000 0.000000 0.000000
    20 -5.269850 1.858320 -4.891440 0.000000 -1.570793 -1.507272
    21 -5.271080 1.887550 -2.041910 0.000000 0.000000 0.000000
    22 -5.271080 1.859040 -2.041910 0.000000 0.000000 0.000000
    23 6.127056 4.060575 0.000002 3.141593 0.000000 -3.141593
  time 7
    0 0.000616 0.675802 -1.027791 1.570800 0.000000 1.570774
    1 -5.676169 -10.205956 -0.036927 0.000000 0.366504 0.000000
    2 -12.201421 1.904737 0.015999 3.141593 0.000000 -3.141593
    3 -6.284104 10.169356 -10.201057 0.000000 1.570451 0.000000
    4 -6.284104 10.157806 10.244704 0.000000 1.570451 0.000000
    5 -6.284104 -10.225493 10.233214 0.000000 1.570451 0.000000
    6 -6.284114 -10.177173 -10.201057 0.000000 1.570451 0.000000
    7 -1.762286 5.911245 0.000001 -3.141593 0.000000 -3.054327
    8 -2.841770 -0.132410 -7.037760 -3.141593 0.969358 3.141593
    9 -6.216228 0.000000 -0.009538 3.141593 -0.000003 -3.141593
    10 -6.044681 0.000000 -0.123807 3.141593 0.000000 3.141593
    11 -2.841770 -7.400337 0.154318 3.141593 0.000000 -2.232928
    12 -6.216228 0.011102 0.009510 0.000000 0.000000 -3.141592
    13 -6.044682 0.123416 0.123833 0.000000 0.000000 -3.141592
    14 -2.841769 -0.132410 6.858287 -3.141593 -0.963582 -3.141593
    15 -6.216228 0.000000 0.009509 -3.141593 0.000000 3.141593
    16 -6.044682 0.000000 0.123834 3.141593 0.000000 -3.141593
    17 -5.269850 1.858320 4.892870 0.000000 -1.570793 -1.551257
    18 -5.320000 1.887550 2.043220 0.000000 0.000000 0.000000
    19 -5.271080 1.859040 2.043220 0.000000 0.000000 0.000000
    20 -5.269850 1.858320 -4.891440 0.000000 -1.570793 -1.551257
    21 -5.271080 1.887550 -2.041910 0.000000 0.000000 0.000000
    22 -5.271080 1.859040 -2.041910 0.000000 0.000000 0.000000
    23 6.127056 4.060575 0.000002 3.141593 0.000000 -3.141593
  time 8
    0 0.000616 0.675802 -0.926226 1.570800 0.000000 1.570774
    1 -5.676169 -10.205956 -0.036927 0.000000 0.418841 0.000000
    2 -12.201421 1.904737 0.015999 3.141593 0.000000 -3.141593
    3 -6.284104 10.169356 -10.201057 0.000000 1.570451 0.000000
    4 -6.284104 10.157806 10.244704 0.000000 1.570451 0.000000
    5 -6.284104 -10.225493 10.233214 0.000000 1.570451 0.000000
    6 -6.284114 -10.177173 -10.201057 0.000000 1.570451 0.000000
    7 -1.762286 5.911245 0.000001 -3.141593 0.000000 -3.054327
    8 -2.841770 -0.132410 -7.037760 -3.141593 0.969358 3.141593
    9 -6.216228 0.000000 -0.009538 3.141593 -0.000003 -3.141593
    10 -6.044681 0.000000 -0.123807 3.141593 0.000000 3.141593
    11 -2.841770 -7.400337 0.154318 3.141593 0.000000 -2.232928
    12 -6.216228 0.011102 0.009510 0.000000 0.000000 -3.141592
    13 -6.044682 0.123416 0.123833 0.000000 0.000000 -3.141592
    14 -2.841769 -0.132410 6.858287 -3.141593 -0.963582 -3.141593
    15 -6.216228 0.000000 0.009509 -3.141593 0.000000 3.141593
    16 -6.044682 0.000000 0.123834 3.141593 0.000000 -3.141593
    17 -5.269850 1.858320 4.892870 0.000000 -1.570793 -1.600808
    18 -5.320000 1.887550 2.043220 0.000000 0.000000 0.000000
    19 -5.271080 1.859040 2.043220 0.000000 0.000000 0.000000
    20 -5.269850 1.858320 -4.891440 0.000000 -1.570793 -1.600808
    21 -5.271080 1.887550 -2.041910 0.000000 0.000000 0.000000
    22 -5.271080 1.859040 -2.041910 0.000000 0.000000 0.000000
    23 6.127056 4.060575 0.000002 3.141593 0.000000 -3.141593
  time 9
    0 0.000616 0.675802 -0.820754 1.570800 0.000000 1.570774
    1 -5.676169 -10.205956 -0.036927 0.000000 0.471226 0.000000
    2 -12.201421 1.904737 0.015999 3.141593 0.000000 -3.141593
    3 -6.284104 10.169356 -10.201057 0.000000 1.570451 0.000000
    4 -6.284104 10.157806 10.244704 0.000000 1.570451 0.000000
    5 -6.284104 -10.225493 10.233214 0.000000 1.570451 0.000000
    6 -6.284114 -10.177173 -10.201057 0.000000 1.570451 0.000000
    7 -1.762286 5.911245 0.000001 -3.141593 0.000000 -3.054327
    8 -2.841770 -0.132410 -7.037760 -3.141593 0.969358 3.141593
    9 -6.216228 0.000000 -0.009538 3.141593 -0.000003 -3.141593
    10 -6.044681 0.000000 -0.123807 3.141593 0.000000 3.141593
    11 -2.841770 -7.400337 0.154318 3.141593 0.000000 -2.232928
    12 -6.216228 0.011102 0.009510 0.000000 0.000000 -3.141592
    13 -6.044682 0.123416 0.123833 0.000000 0.000000 -3.141592
    14 -2.841769 -0.132410 6.858287 -3.141593 -0.963582 -3.141593
    15 -6.216228 0.000000 0.009509 -3.141593 0.000000 3.141593
    16 -6.044682 0.000000 0.123834 3.141593 0.000000 -3.141593
    17 -5.269850 1.858320 4.892870 0.000000 -1.570793 -1.641295
    18 -5.320000 1.887550 2.043220 0.000000 0.000000 0.000000
    19 -5.271080 1.859040 2.043220 0.000000 0.000000 0.000000
    20 -5.269850 1.858320 -4.891440 0.000000 -1.570793 -1.641295
    21 -5.271080 1.887550 -2.041910 0.000000 0.000000 0.000000
    22 -5.271080 1.859040 -2.041910 0.000000 0.000000 0.000000
    23 6.127056 4.060575 0.000002 3.141593 0.000000 -3.141593
  time 10
    0 0.000616 0.675802 -0.703563 1.570800 0.000000 1.570774
    1 -5.676169 -10.205956 -0.036927 0.000000 0.523564 0.000000
    2 -12.201421 1.904737 0.015999 3.141593 0.000000 -3.141593
    3 -6.284104 10.169356 -10.201057 0.000000 1.570451 0.000000
    4 -6.284104 10.157806 10.244704 0.000000 1.570451 0.000000
    5 -6.284104 -10.225493 10.233214 0.000000 1.570451 0.000000
    6 -6.284114 -10.177173 -10.201057 0.000000 1.570451 0.000000
    7 -1.762286 5.911245 0.000001 -3.141593 0.000000 -3.054327
    8 -2.841770 -0.132410 -7.037760 -3.141593 0.969358 3.141593
    9 -6.216228 0.000000 -0.009538 3.141593 -0.000003 -3.141593
    10 -6.044681 0.000000 -0.123807 3.141593 0.000000 3.141593
    11 -2.841770 -7.400337 0.154318 3.141593 0.000000 -2.232928
    12 -6.216228 0.011102 0.009510 0.000000 0.000000 -3.141592
    13 -6.044682 0.123416 0.123833 0.000000 0.000000 -3.141592
    14 -2.841769 -0.132410 6.858287 -3.141593 -0.963582 -3.141593
    15 -6.216228 0.000000 0.009509 -3.141593 0.000000 3.141593
    16 -6.044682 0.000000 0.123834 3.141593 0.000000 -3.141593
    17 -5.269850 1.858320 4.892870 0.000000 -1.570793 -1.658062
    18 -5.320000 1.887550 2.043220 0.000000 0.000000 0.000000
    19 -5.271080 1.859040 2.043220 0.000000 0.000000 0.000000
    20 -5.269850 1.858320 -4.891440 0.000000 -1.570793 -1.658062
    21 -5.271080 1.887550 -2.041910 0.000000 0.000000 0.000000
    22 -5.271080 1.859040 -2.041910 0.000000 0.000000 0.000000
    23 6.127056 4.060575 0.000002 3.141593 0.000000 -3.141593
  time 11
    0 0.000616 0.675802 -0.582465 1.570800 0.000000 1.570774
    1 -5.676169 -10.205956 -0.036927 0.000000 0.575949 0.000000
    2 -12.201421 1.904737 0.015999 3.141593 0.000000 -3.141593
    3 -6.284104 10.169356 -10.201057 0.000000 1.570451 0.000000
    4 -6.284104 10.157806 10.244704 0.000000 1.570451 0.000000
    5 -6.284104 -10.225493 10.233214 0.000000 1.570451 0.000000
    6 -6.284114 -10.177173 -10.201057 0.000000 1.570451 0.000000
    7 -1.762286 5.911245 0.000001 -3.141593 0.000000 -3.054327
    8 -2.841770 -0.132410 -7.037760 -3.141593 0.969358 3.141593
    9 -6.216228 0.000000 -0.009538 3.141593 -0.000003 -3.141593
    10 -6.044681 0.000000 -0.123807 3.141593 0.000000 3.141593
    11 -2.841770 -7.400337 0.154318 3.141593 0.000000 -2.232928
    12 -6.216228 0.011102 0.009510 0.000000 0.000000 -3.141592
    13 -6.044682 0.123416 0.123833 0.000000 0.000000 -3.141592
    14 -2.841769 -0.132410 6.858287 -3.141593 -0.963582 -3.141593
    15 -6.216228 0.000000 0.009509 -3.141593 0.000000 3.141593
    16 -6.044682 0.000000 0.123834 3.141593 0.000000 -3.141593
    17 -5.293288 1.858320 6.389009 0.000000 -1.570793 -1.642697
    18 -5.320000 1.887550 3.539359 0.000000 0.000000 0.191981
    19 -5.271080 1.859040 3.539359 0.000000 0.000000 -0.255488
    20 -5.269850 1.858320 -6.383673 0.000000 -1.570793 -1.642697
    21 -5.271080 1.887550 -3.534143 0.000000 0.000000 0.191981
    22 -5.271080 1.859040 -3.534143 0.000000 0.000000 -0.255746
    23 6.127056 4.060575 0.000002 3.141593 0.000000 -3.141593
  time 12
    0 0.000616 0.675802 -0.457461 1.570800 0.000000 1.570774
    1 -5.676169 -10.205956 -0.036927 0.000000 0.628286 0.000000
    2 -12.201421 1.904737 0.015999 3.141593 0.000000 -3.141593
    3 -6.284104 10.169356 -10.201057 0.000000 1.570451 0.000000
    4 -6.284104 10.157806 10.244704 0.000000 1.570451 0.000000
    5 -6.284104 -10.225493 10.233214 0.000000 1.570451 0.000000
    6 -6.284114 -10.177173 -10.201057 0.000000 1.570451 0.000000
    7 -1.762286 5.911245 0.000001 -3.141593 0.000000 -3.054327
    8 -2.841770 -0.132410 -7.037760 -3.141593 0.969358 3.141593
    9 -6.216228 0.000000 -0.009538 3.141593 -0.000003 -3.141593
    10 -6.044681 0.000000 -0.123807 3.141593 0.000000 3.141593
    11 -2.841770 -7.400337 0.154318 3.141593 0.000000 -2.232928
    12 -6.216228 0.011102 0.009510 0.000000 0.000000 -3.141592
    13 -6.044682 0.123416 0.123833 0.000000 0.000000 -3.141592
    14 -2.841769 -0.132410 6.858287 -3.141593 -0.963582 -3.141593
    15 -6.216228 0.000000 0.009509 -3.141593 0.000000 3.141593
    16 -6.044682 0.000000 0.123834 3.141593 0.000000 -3.141593
    17 -5.316726 1.858320 7.885149 0.000000 -1.570793 -1.605000
    18 -5.320000 1.887550 5.035499 0.000000 0.000000 0.383961
    19 -5.271080 1.859040 5.035499 0.000000 0.000000 -0.511000
    20 -5.269850 1.858320 -7.875906 0.000000 -1.570793 -1.605000
    21 -5.271080 1.887550 -5.026376 0.000000 0.000000 0.383961
    22 -5.271080 1.859040 -5.026376 0.000000 0.000000 -0.511515
    23 6.127056 4.060575 0.000002 3.141593 0.000000 -3.141593
  time 13
    0 0.000616 0.675802 -0.324645 1.570800 0.000000 1.570774
    1 -5.676169 -10.205956 -0.036927 0.000000 0.680671 0.000000
    2 -12.201421 1.904737 0.015999 3.141593 0.000000 -3.141593
    3 -6.284104 10.169356 -10.201057 0.000000 1.570451 0.000000
    4 -6.284104 10.157806 10.244704 0.000000 1.570451 0.000000
    5 -6.284104 -10.225493 10.233214 0.000000 1.570451 0.000000
    6 -6.284114 -10.177173 -10.201057 0.000000 1.570451 0.000000
    7 -1.762286 5.911245 0.000001 -3.141593 0.000000 -3.054327
    8 -2.841770 -0.132410 -7.037760 -3.141593 0.969358 3.141593
    9 -6.216228 0.000000 -0.009538 3.141593 -0.000003 -3.141593
    10 -6.044681 0.000000 -0.123807 3.141593 0.000000 3.141593
    11 -2.841770 -7.400337 0.154318 3.141593 0.000000 -2.232928
    12 -6.216228 0.011102 0.009510 0.000000 0.000000 -3.141592
    13 -6.044682 0.123416 0.123833 0.000000 0.000000 -3.141592
    14 -2.841769 -0.132410 6.858287 -3.141593 -0.963582 -3.141593
    15 -6.216228 0.000000 0.009509 -3.141593 0.000000 3.141593
    16 -6.044682 0.000000 0.123834 3.141593 0.000000 -3.141593
    17 -5.316726 1.858320 7.885149 0.000000 -1.570793 -1.557545
    18 -5.320000 1.887550 5.035499 0.000000 0.000000 0.575942
    19 -5.271080 1.859040 5.035499 0.000000 0.000000 -0.766488
    20 -5.269850 1.858320 -7.875906 0.000000 -1.570793 -1.557545
    21 -5.271080 1.887550 -5.026376 0.000000 0.000000 0.575942
    22 -5.271080 1.859040 -5.026376 0.000000 0.000000 -0.767261
    23 6.127056 4.060575 0.000002 3.141593 0.000000 -3.141593
  time 14
    0 0.000616 0.675802 -0.195735 1.570800 0.000000 1.570774
    1 -5.676169 -10.205956 -0.036927 0.000000 0.733008 0.000000
    2 -12.201421 1.904737 0.015999 3.141593 0.000000 -3.141593
    3 -6.284104 10.169356 -10.201057 0.000000 1.570451 0.000000
    4 -6.284104 10.157806 10.244704 0.000000 1.570451 0.000000
    5 -6.284104 -10.225493 10.233214 0.000000 1.570451 0.000000
    6 -6.284114 -10.177173 -10.201057 0.000000 1.570451 0.000000
    7 -1.762286 5.911245 0.000001 -3.141593 0.000000 -3.054327
    8 -2.841770 -0.132410 -7.037760 -3.141593 0.969358 3.141593
    9 -6.216228 0.000000 -0.009538 3.141593 -0.000003 -3.141593
    10 -6.044681 0.000000 -0.123807 3.141593 0.000000 3.141593
    11 -2.841770 -7.400337 0.154318 3.141593 0.000000 -2.232928
    12 -6.216228 0.011102 0.009510 0.000000 0.000000 -3.141592
    13 -6.044682 0.123416 0.123833 0.000000 0.000000 -3.141592
    14 -2.841769 -0.132410 6.858287 -3.141593 -0.963582 -3.141593
    15 -6.216228 0.000000 0.009509 -3.141593 0.000000 3.141593
    16 -6.044682 0.000000 0.123834 3.141593 0.000000 -3.141593
    17 -5.316726 1.858320 7.885149 0.000000 -1.570793 -1.512852
    18 -5.320000 1.887550 5.035499 0.000000 0.000000 0.575942
    19 -5.271080 1.859040 5.035499 0.000000 0.000000 -0.766488
    20 -5.269850 1.858320 -7.875906 0.000000 -1.570793 -1.512852
    21 -5.271080 1.887550 -5.026376 0.000000 0.000000 0.575942
    22 -5.271080 1.859040 -5.026376 0.000000 0.000000 -0.767261
    23 6.127056 4.060575 0.000002 3.141593 0.000000 -3.141593
  time 15
    0 0.000616 0.675802 -0.059012 1.570800 0.000000 1.570774
    1 -5.676169 -10.205956 -0.036927 0.000000 0.785393 0.000000
    2 -12.201421 1.904737 0.015999 3.141593 0.000000 -3.141593
    3 -6.284104 10.169356 -10.201057 0.000000 1.570451 0.000000
    4 -6.284104 10.157806 10.244704 0.000000 1.570451 0.000000
    5 -6.284104 -10.225493 10.233214 0.000000 1.570451 0.000000
    6 -6.284114 -10.177173 -10.201057 0.000000 1.570451 0.000000
    7 -1.762286 5.911245 0.000001 -3.141593 0.000000 -3.054327
    8 -2.841770 -0.132410 -7.037760 -3.141593 0.969358 3.141593
    9 -6.216228 0.000000 -0.009538 3.141593 -0.000003 -3.141593
    10 -6.044681 0.000000 -0.123807 3.141593 0.000000 3.141593
    11 -2.841770 -7.400337 0.154318 3.141593 0.000000 -2.232928
    12 -6.216228 0.011102 0.009510 0.000000 0.000000 -3.141592
    13 -6.044682 0.123416 0.123833 0.000000 0.000000 -3.141592
    14 -2.841769 -0.132410 6.858287 -3.141593 -0.963582 -3.141593
    15 -6.216228 0.000000 0.009509 -3.141593 0.000000 3.141593
    16 -6.044682 0.000000 0.123834 3.141593 0.000000 -3.141593
    17 -5.316726 1.858320 7.885149 0.000000 -1.570793 -1.483538
    18 -5.320000 1.887550 5.035499 0.000000 0.000000 0.575942
    19 -5.271080 1.859040 5.035499 0.000000 0.000000 -0.766488
    20 -5.269850 1.858320 -7.875906 0.000000 -1.570793 -1.483538
    21 -5.271080 1.887550 -5.026376 0.000000 0.000000 0.575942
    22 -5.271080 1.859040 -5.026376 0.000000 0.000000 -0.767261
    23 6.127056 4.060575 0.000002 3.141593 0.000000 -3.141593
  time 16
    0 0.000616 0.675802 0.073805 1.570800 0.000000 1.570774
    1 -5.676169 -10.205956 -0.036927 0.000000 0.837730 0.000000
    2 -12.201421 1.904737 0.015999 3.141593 0.000000 -3.141593
    3 -6.284104 10.169356 -10.201057 0.000000 1.570451 0.000000
    4 -6.284104 10.157806 10.244704 0.000000 1.570451 0.000000
    5 -6.284104 -10.225493 10.233214 0.000000 1.570451 0.000000
    6 -6.284114 -10.177173 -10.201057 0.000000 1.570451 0.000000
    7 -1.762286 5.911245 0.000001 -3.141593 0.000000 -3.054327
    8 -2.841770 -0.132410 -7.037760 -3.141593 0.969358 3.141593
    9 -6.216228 0.000000 -0.009538 3.141593 -0.000003 -3.141593
    10 -6.044681 0.000000 -0.123807 3.141593 0.000000 3.141593
    11 -2.841770 -7.400337 0.154318 3.141593 0.000000 -2.232928
    12 -6.216228 0.011102 0.009510 0.000000 0.000000 -3.141592
    13 -6.044682 0.123416 0.123833 0.000000 0.000000 -3.141592
    14 -2.841769 -0.132410 6.858287 -3.141593 -0.963582 -3.141593
    15 -6.216228 0.000000 0.009509 -3.141593 0.000000 3.141593
    16 -6.044682 0.000000 0.123834 3.141593 0.000000 -3.141593
    17 -5.316726 1.858320 7.885149 0.000000 -1.570793 -1.469575
    18 -5.320000 1.887550 5.035499 0.000000 0.000000 0.575942
    19 -5.271080 1.859040 5.035499 0.000000 0.000000 -0.766488
    20 -5.269850 1.858320 -7.875906 0.000000 -1.570793 -1.469575
    21 -5.271080 1.887550 -5.026376 0.000000 0.000000 0.575942
    22 -5.271080 1.859040 -5.026376 0.000000 0.000000 -0.767261
    23 6.127056 4.060575 0.000002 3.141593 0.000000 -3.141593
  time 17
    0 0.000616 0.675802 0.206621 1.570800 0.000000 1.570774
    1 -5.676169 -10.205956 -0.036927 0.000000 0.890116 0.000000
    2 -12.201421 1.904737 0.015999 3.141593 0.000000 -3.141593
    3 -6.284104 10.169356 -10.201057 0.000000 1.570451 0.000000
    4 -6.284104 10.157806 10.244704 0.000000 1.570451 0.000000
    5 -6.284104 -10.225493 10.233214 0.000000 1.570451 0.000000
    6 -6.284114 -10.177173 -10.201057 0.000000 1.570451 0.000000
    7 -1.762286 5.911245 0.000001 -3.141593 0.000000 -3.054327
    8 -2.841770 -0.132410 -7.037760 -3.141593 0.969358 3.141593
    9 -6.216228 0.000000 -0.009538 3.141593 -0.000003 -3.141593
    10 -6.044681 0.000000 -0.123807 3.141593 0.000000 3.141593
    11 -2.841770 -7.400337 0.154318 3.141593 0.000000 -2.232928
    12 -6.216228 0.011102 0.009510 0.000000 0.000000 -3.141592
    13 -6.044682 0.123416 0.123833 0.000000 0.000000 -3.141592
    14 -2.841769 -0.132410 6.858287 -3.141593 -0.963582 -3.141593
    15 -6.216228 0.000000 0.009509 -3.141593 0.000000 3.141593
    16 -6.044682 0.000000 0.123834 3.141593 0.000000 -3.141593
    17 -5.316726 1.858320 7.885149 0.000000 -1.570793 -1.462594
    18 -5.320000 1.887550 5.035499 0.000000 0.000000 0.575942
    19 -5.271080 1.859040 5.035499 0.000000 0.000000 -0.766488
    20 -5.269850 1.858320 -7.875906 0.000000 -1.570793 -1.462594
    21 -5.271080 1.887550 -5.026376 0.000000 0.000000 0.575942
    22 -5.271080 1.859040 -5.026376 0.000000 0.000000 -0.767261
    23 6.127056 4.060575 0.000002 3.141593 0.000000 -3.141593
  time 18
    0 0.000616 0.675802 0.335532 1.570800 0.000000 1.570774
    1 -5.676169 -10.205956 -0.036927 0.000000 0.942453 0.000000
    2 -12.201421 1.904737 0.015999 3.141593 0.000000 -3.141593
    3 -6.284104 10.169356 -10.201057 0.000000 1.570451 0.000000
    4 -6.284104 10.157806 10.244704 0.000000 1.570451 0.000000
    5 -6.284104 -10.225493 10.233214 0.000000 1.570451 0.000000
    6 -6.284114 -10.177173 -10.201057 0.000000 1.570451 0.000000
    7 -1.762286 5.911245 0.000001 -3.141593 0.000000 -3.054327
    8 -2.841770 -0.132410 -7.037760 -3.141593 0.969358 3.141593
    9 -6.216228 0.000000 -0.009538 3.141593 -0.000003 -3.141593
    10 -6.044681 0.000000 -0.123807 3.141593 0.000000 3.141593
    11 -2.841770 -7.400337 0.154318 3.141593 0.000000 -2.232928
    12 -6.216228 0.011102 0.009510 0.000000 0.000000 -3.141592
    13 -6.044682 0.123416 0.123833 0.000000 0.000000 -3.141592
    14 -2.841769 -0.132410 6.858287 -3.141593 -0.963582 -3.141593
    15 -6.216228 0.000000 0.009509 -3.141593 0.000000 3.141593
    16 -6.044682 0.000000 0.123834 3.141593 0.000000 -3.141593
    17 -5.316726 1.858320 7.885149 0.000000 -1.570793 -1.462594
    18 -5.320000 1.887550 5.035499 0.000000 0.000000 0.575942
    19 -5.271080 1.859040 5.035499 0.000000 0.000000 -0.766488
    20 -5.269850 1.858320 -7.875906 0.000000 -1.570793 -1.462594
    21 -5.271080 1.887550 -5.026376 0.000000 0.000000 0.575942
    22 -5.271080 1.859040 -5.026376 0.000000 0.000000 -0.767261
    23 6.127056 4.060575 0.000002 3.141593 0.000000 -3.141593
  time 19
    0 0.000616 0.675802 0.460535 1.570800 0.000000 1.570774
    1 -5.676169 -10.205956 -0.036927 0.000000 0.994838 0.000000
    2 -12.201421 1.904737 0.015999 3.141593 0.000000 -3.141593
    3 -6.284104 10.169356 -10.201057 0.000000 1.570451 0.000000
    4 -6.284104 10.157806 10.244704 0.000000 1.570451 0.000000
    5 -6.284104 -10.225493 10.233214 0.000000 1.570451 0.000000
    6 -6.284114 -10.177173 -10.201057 0.000000 1.570451 0.000000
    7 -1.762286 5.911245 0.000001 -3.141593 0.000000 -3.054327
    8 -2.841770 -0.132410 -7.037760 -3.141593 0.969358 3.141593
    9 -6.216228 0.000000 -0.009538 3.141593 -0.000003 -3.141593
    10 -6.044681 0.000000 -0.123807 3.141593 0.000000 3.141593
    11 -2.841770 -7.400337 0.154318 3.141593 0.000000 -2.232928
    12 -6.216228 0.011102 0.009510 0.000000 0.000000 -3.141592
    13 -6.044682 0.123416 0.123833 0.000000 0.000000 -3.141592
    14 -2.841769 -0.132410 6.858287 -3.141593 -0.963582 -3.141593
    15 -6.216228 0.000000 0.009509 -3.141593 0.000000 3.141593
    16 -6.044682 0.000000 0.123834 3.141593 0.000000 -3.141593
    17 -5.316726 1.858320 7.885149 0.000000 -1.570793 -1.469575
    18 -5.320000 1.887550 5.035499 0.000000 0.000000 0.575942
    19 -5.271080 1.859040 5.035499 0.000000 0.000000 -0.766488
    20 -5.269850 1.858320 -7.875906 0.000000 -1.570793 -1.469575
    21 -5.271080 1.887550 -5.026376 0.000000 0.000000 0.575942
    22 -5.271080 1.859040 -5.026376 0.000000 0.000000 -0.767261
    23 6.127056 4.060575 0.000002 3.141593 0.000000 -3.141593
  time 20
    0 0.000616 0.675802 0.581633 1.570800 0.000000 1.570774
    1 -5.676169 -10.205956 -0.036927 0.000000 1.047175 0.000000
    2 -12.201421 1.904737 0.015999 3.141593 0.000000 -3.141593
    3 -6.284104 10.169356 -10.201057 0.000000 1.570451 0.000000
    4 -6.284104 10.157806 10.244704 0.000000 1.570451 0.000000
    5 -6.284104 -10.225493 10.233214 0.000000 1.570451 0.000000
    6 -6.284114 -10.177173 -10.201057 0.000000 1.570451 0.000000
    7 -1.762286 5.911245 0.000001 -3.141593 0.000000 -3.054327
    8 -2.841770 -0.132410 -7.037760 -3.141593 0.969358 3.141593
    9 -6.216228 0.000000 -0.009538 3.141593 -0.000003 -3.141593
    10 -6.044681 0.000000 -0.123807 3.141593 0.000000 3.141593
    11 -2.841770 -7.400337 0.154318 3.141593 0.000000 -2.232928
    12 -6.216228 0.011102 0.009510 0.000000 0.000000 -3.141592
    13 -6.044682 0.123416 0.123833 0.000000 0.000000 -3.141592
    14 -2.841769 -0.132410 6.858287 -3.141593 -0.963582 -3.141593
    15 -6.216228 0.000000 0.009509 -3.141593 0.000000 3.141593
    16 -6.044682 0.000000 0.123834 3.141593 0.000000 -3.141593
    17 -5.316726 1.858320 7.885149 0.000000 -1.570793 -1.483538
    18 -5.320000 1.887550 5.035499 0.000000 0.000000 0.575942
    19 -5.271080 1.859040 5.035499 0.000000 0.000000 -0.766488
    20 -5.269850 1.858320 -7.875906 0.000000 -1.570793 -1.483538
    21 -5.271080 1.887550 -5.026376 0.000000 0.000000 0.575942
    22 -5.271080 1.859040 -5.026376 0.000000 0.000000 -0.767261
    23 6.127056 4.060575 0.000002 3.141593 0.000000 -3.141593
  time 21
    0 0.000616 0.675802 0.698824 1.570800 0.000000 1.570774
    1 -5.676169 -10.205956 -0.036927 0.000000 1.099512 0.000000
    2 -12.201421 1.904737 0.015999 3.141593 0.000000 -3.141593
    3 -6.284104 10.169356 -10.201057 0.000000 1.570451 0.000000
    4 -6.284104 10.157806 10.244704 0.000000 1.570451 0.000000
    5 -6.284104 -10.225493 10.233214 0.000000 1.570451 0.000000
    6 -6.284114 -10.177173 -10.201057 0.000000 1.570451 0.000000
    7 -1.762286 5.911245 0.000001 -3.141593 0.000000 -3.054327
    8 -2.841770 -0.132410 -7.037760 -3.141593 0.969358 3.141593
    9 -6.216228 0.000000 -0.009538 3.141593 -0.000003 -3.141593
    10 -6.044681 0.000000 -0.123807 3.141593 0.000000 3.141593
    11 -2.841770 -7.400337 0.154318 3.141593 0.000000 -2.232928
    12 -6.216228 0.011102 0.009510 0.000000 0.000000 -3.141592
    13 -6.044682 0.123416 0.123833 0.000000 0.000000 -3.141592
    14 -2.841769 -0.132410 6.858287 -3.141593 -0.963582 -3.141593
    15 -6.216228 0.000000 0.009509 -3.141593 0.000000 3.141593
    16 -6.044682 0.000000 0.123834 3.141593 0.000000 -3.141593
    17 -5.316726 1.858320 7.885149 0.000000 -1.570793 -1.514254
    18 -5.320000 1.887550 5.035499 0.000000 0.000000 0.575942
    19 -5.271080 1.859040 5.035499 0.000000 0.000000 -0.766488
    20 -5.269850 1.858320 -7.875906 0.000000 -1.570793 -1.514254
    21 -5.271080 1.887550 -5.026376 0.000000 0.000000 0.575942
    22 -5.271080 1.859040 -5.026376 0.000000 0.000000 -0.767261
    23 6.127056 4.060575 0.000002 3.141593 0.000000 -3.141593
  time 22
    0 0.000616 0.675802 0.808202 1.570800 0.000000 1.570774
    1 -5.676169 -10.205956 -0.036927 0.000000 1.151897 0.000000
    2 -12.201421 1.904737 0.015999 3.141593 0.000000 -3.141593
    3 -6.284104 10.169356 -10.201057 0.000000 1.570451 0.000000
    4 -6.284104 10.157806 10.244704 0.000000 1.570451 0.000000
    5 -6.284104 -10.225493 10.233214 0.000000 1.570451 0.000000
    6 -6.284114 -10.177173 -10.201057 0.000000 1.570451 0.000000
    7 -1.762286 5.911245 0.000001 -3.141593 0.000000 -3.054327
    8 -2.841770 -0.132410 -7.037760 -3.141593 0.969358 3.141593
    9 -6.216228 0.000000 -0.009538 3.141593 -0.000003 -3.141593
    10 -6.044681 0.000000 -0.123807 3.141593 0.000000 3.141593
    11 -2.841770 -7.400337 0.154318 3.141593 0.000000 -2.232928
    12 -6.216228 0.011102 0.009510 0.000000 0.000000 -3.141592
    13 -6.044682 0.123416 0.123833 0.000000 0.000000 -3.141592
    14 -2.841769 -0.132410 6.858287 -3.141593 -0.963582 -3.141593
    15 -6.216228 0.000000 0.009509 -3.141593 0.000000 3.141593
    16 -6.044682 0.000000 0.123834 3.141593 0.000000 -3.141593
    17 -5.316726 1.858320 7.885149 0.000000 -1.570793 -1.561723
    18 -5.320000 1.887550 5.035499 0.000000 0.000000 0.575942
    19 -5.271080 1.859040 5.035499 0.000000 0.000000 -0.766488
    20 -5.269850 1.858320 -7.875906 0.000000 -1.570793 -1.561723
    21 -5.271080 1.887550 -5.026376 0.000000 0.000000 0.575942
    22 -5.271080 1.859040 -5.026376 0.000000 0.000000 -0.767261
    23 6.127056 4.060575 0.000002 3.141593 0.000000 -3.141593
  time 23
    0 0.000616 0.675802 0.905861 1.570800 0.000000 1.570774
    1 -5.676169 -10.205956 -0.036927 0.000000 1.204235 0.000000
    2 -12.201421 1.904737 0.015999 3.141593 0.000000 -3.141593
    3 -6.284104 10.169356 -10.201057 0.000000 1.570451 0.000000
    4 -6.284104 10.157806 10.244704 0.000000 1.570451 0.000000
    5 -6.284104 -10.225493 10.233214 0.000000 1.570451 0.000000
    6 -6.284114 -10.177173 -10.201057 0.000000 1.570451 0.000000
    7 -1.762286 5.911245 0.000001 -3.141593 0.000000 -3.054327
    8 -2.841770 -0.132410 -7.037760 -3.141593 0.969358 3.141593
    9 -6.216228 0.000000 -0.009538 3.141593 -0.000003 -3.141593
    10 -6.044681 0.000000 -0.123807 3.141593 0.000000 3.141593
    11 -2.841770 -7.400337 0.154318 3.141593 0.000000 -2.232928
    12 -6.216228 0.011102 0.009510 0.000000 0.000000 -3.141592
    13 -6.044682 0.123416 0.123833 0.000000 0.000000 -3.141592
    14 -2.841769 -0.132410 6.858287 -3.141593 -0.963582 -3.141593
    15 -6.216228 0.000000 0.009509 -3.141593 0.000000 3.141593
    16 -6.044682 0.000000 0.123834 3.141593 0.000000 -3.141593
    17 -5.316726 1.858320 7.885149 0.000000 -1.570793 -1.611287
    18 -5.320000 1.887550 5.035499 0.000000 0.000000 0.575942
    19 -5.271080 1.859040 5.035499 0.000000 0.000000 -0.766488
    20 -5.269850 1.858320 -7.875906 0.000000 -1.570793 -1.611287
    21 -5.271080 1.887550 -5.026376 0.000000 0.000000 0.575942
    22 -5.271080 1.859040 -5.026376 0.000000 0.000000 -0.767261
    23 6.127056 4.060575 0.000002 3.141593 0.000000 -3.141593
  time 24
    0 0.000616 0.675802 0.999614 1.570800 0.000000 1.570774
    1 -5.676169 -10.205956 -0.036927 0.000000 1.256620 0.000000
    2 -12.201421 1.904737 0.015999 3.141593 0.000000 -3.141593
    3 -6.284104 10.169356 -10.201057 0.000000 1.570451 0.000000
    4 -6.284104 10.157806 10.244704 0.000000 1.570451 0.000000
    5 -6.284104 -10.225493 10.233214 0.000000 1.570451 0.000000
    6 -6.284114 -10.177173 -10.201057 0.000000 1.570451 0.000000
    7 -1.762286 5.911245 0.000001 -3.141593 0.000000 -3.054327
    8 -2.841770 -0.132410 -7.037760 -3.141593 0.969358 3.141593
    9 -6.216228 0.000000 -0.009538 3.141593 -0.000003 -3.141593
    10 -6.044681 0.000000 -0.123807 3.141593 0.000000 3.141593
    11 -2.841770 -7.400337 0.154318 3.141593 0.000000 -2.232928
    12 -6.216228 0.011102 0.009510 0.000000 0.000000 -3.141592
    13 -6.044682 0.123416 0.123833 0.000000 0.000000 -3.141592
    14 -2.841769 -0.132410 6.858287 -3.141593 -0.963582 -3.141593
    15 -6.216228 0.000000 0.009509 -3.141593 0.000000 3.141593
    16 -6.044682 0.000000 0.123834 3.141593 0.000000 -3.141593
    17 -5.316726 1.858320 7.885149 0.000000 -1.570793 -1.648277
    18 -5.320000 1.887550 5.035499 0.000000 0.000000 0.575942
    19 -5.271080 1.859040 5.035499 0.000000 0.000000 -0.766488
    20 -5.269850 1.858320 -7.875906 0.000000 -1.570793 -1.648277
    21 -5.271080 1.887550 -5.026376 0.000000 0.000000 0.575942
    22 -5.271080 1.859040 -5.026376 0.000000 0.000000 -0.767261
    23 6.127056 4.060575 0.000002 3.141593 0.000000 -3.141593
  time 25
    0 0.000616 0.675802 1.077742 1.570800 0.000000 1.570774
    1 -5.676169 -10.205956 -0.036927 0.000000 1.308957 0.000000
    2 -12.201421 1.904737 0.015999 3.141593 0.000000 -3.141593
    3 -6.284104 10.169356 -10.201057 0.000000 1.570451 0.000000
    4 -6.284104 10.157806 10.244704 0.000000 1.570451 0.000000
    5 -6.284104 -10.225493 10.233214 0.000000 1.570451 0.000000
    6 -6.284114 -10.177173 -10.201057 0.000000 1.570451 0.000000
    7 -1.762286 5.911245 0.000001 -3.141593 0.000000 -3.054327
    8 -2.841770 -0.132410 -7.037760 -3.141593 0.969358 3.141593
    9 -6.216228 0.000000 -0.009538 3.141593 -0.000003 -3.141593
    10 -6.044681 0.000000 -0.123807 3.141593 0.000000 3.141593
    11 -2.841770 -7.400337 0.154318 3.141593 0.000000 -2.232928
    12 -6.216228 0.011102 0.009510 0.000000 0.000000 -3.141592
    13 -6.044682 0.123416 0.123833 0.000000 0.000000 -3.141592
    14 -2.841769 -0.132410 6.858287 -3.141593 -0.963582 -3.141593
    15 -6.216228 0.000000 0.009509 -3.141593 0.000000 3.141593
    16 -6.044682 0.000000 0.123834 3.141593 0.000000 -3.141593
    17 -5.316726 1.858320 7.885149 0.000000 -1.570793 -1.658062
    18 -5.320000 1.887550 5.035499 0.000000 0.000000 0.575942
    19 -5.271080 1.859040 5.035499 0.000000 0.000000 -0.766488
    20 -5.269850 1.858320 -7.875906 0.000000 -1.570793 -1.658062
    21 -5.271080 1.887550 -5.026376 0.000000 0.000000 0.575942
    22 -5.271080 1.859040 -5.026376 0.000000 0.000000 -0.767261
    23 6.127056 4.060575 0.000002 3.141593 0.000000 -3.141593
  time 26
    0 0.000616 0.675802 1.148056 1.570800 0.000000 1.570774
    1 -5.676169 -10.205956 -0.036927 0.000000 1.361342 0.000000
    2 -12.201421 1.904737 0.015999 3.141593 0.000000 -3.141593
    3 -6.284104 10.169356 -10.201057 0.000000 1.570451 0.000000
    4 -6.284104 10.157806 10.244704 0.000000 1.570451 0.000000
    5 -6.284104 -10.225493 10.233214 0.000000 1.570451 0.000000
    6 -6.284114 -10.177173 -10.201057 0.000000 1.570451 0.000000
    7 -1.762286 5.911245 0.000001 -3.141593 0.000000 -3.054327
    8 -2.841770 -0.132410 -7.037760 -3.141593 0.969358 3.141593
    9 -6.216228 0.000000 -0.009538 3.141593 -0.000003 -3.141593
    10 -6.044681 0.000000 -0.123807 3.141593 0.000000 3.141593
    11 -2.841770 -7.400337 0.154318 3.141593 0.000000 -2.232928
    12 -6.216228 0.011102 0.009510 0.000000 0.000000 -3.141592
    13 -6.044682 0.123416 0.123833 0.000000 0.000000 -3.141592
    14 -2.841769 -0.132410 6.858287 -3.141593 -0.963582 -3.141593
    15 -6.216228 0.000000 0.009509 -3.141593 0.000000 3.141593
    16 -6.044682 0.000000 0.123834 3.141593 0.000000 -3.141593
    17 -5.316726 1.858320 7.885149 0.000000 -1.570793 -1.626638
    18 -5.320000 1.887550 5.035499 0.000000 0.000000 0.575942
    19 -5.271080 1.859040 5.035499 0.000000 0.000000 -0.766488
    20 -5.269850 1.858320 -7.875906 0.000000 -1.570793 -1.626638
    21 -5.271080 1.887550 -5.026376 0.000000 0.000000 0.575942
    22 -5.271080 1.859040 -5.026376 0.000000 0.000000 -0.767261
    23 6.127056 4.060575 0.000002 3.141593 0.000000 -3.141593
  time 27
    0 0.000616 0.675802 1.202746 1.570800 0.000000 1.570774
    1 -5.676169 -10.205956 -0.036927 0.000000 1.413679 0.000000
    2 -12.201421 1.904737 0.015999 3.141593 0.000000 -3.141593
    3 -6.284104 10.169356 -10.201057 0.000000 1.570451 0.000000
    4 -6.284104 10.157806 10.244704 0.000000 1.570451 0.000000
    5 -6.284104 -10.225493 10.233214 0.000000 1.570451 0.000000
    6 -6.284114 -10.177173 -10.201057 0.000000 1.570451 0.000000
    7 -1.762286 5.911245 0.000001 -3.141593 0.000000 -3.054327
    8 -2.841770 -0.132410 -7.037760 -3.141593 0.969358 3.141593
    9 -6.216228 0.000000 -0.009538 3.141593 -0.000003 -3.141593
    10 -6.044681 0.000000 -0.123807 3.141593 0.000000 3.141593
    11 -2.841770 -7.400337 0.154318 3.141593 0.000000 -2.232928
    12 -6.216228 0.011102 0.009510 0.000000 0.000000 -3.141592
    13 -6.044682 0.123416 0.123833 0.000000 0.000000 -3.141592
    14 -2.841769 -0.132410 6.858287 -3.141593 -0.963582 -3.141593
    15 -6.216228 0.000000 0.009509 -3.141593 0.000000 3.141593
    16 -6.044682 0.000000 0.123834 3.141593 0.000000 -3.141593
    17 -5.316726 1.858320 7.885149 0.000000 -1.570793 -1.563818
    18 -5.320000 1.887550 5.035499 0.000000 0.000000 0.575942
    19 -5.271080 1.859040 5.035499 0.000000 0.000000 -0.766488
    20 -5.269850 1.858320 -7.875906 0.000000 -1.570793 -1.563818
    21 -5.271080 1.887550 -5.026376 0.000000 0.000000 0.575942
    22 -5.271080 1.859040 -5.026376 0.000000 0.000000 -0.767261
    23 6.127056 4.060575 0.000002 3.141593 0.000000 -3.141593
  time 28
    0 0.000616 0.675802 1.241809 1.570800 0.000000 1.570774
    1 -5.676169 -10.205956 -0.036927 0.000000 1.466064 0.000000
    2 -12.201421 1.904737 0.015999 3.141593 0.000000 -3.141593
    3 -6.284104 10.169356 -10.201057 0.000000 1.570451 0.000000
    4 -6.284104 10.157806 10.244704 0.000000 1.570451 0.000000
    5 -6.284104 -10.225493 10.233214 0.000000 1.570451 0.000000
    6 -6.284114 -10.177173 -10.201057 0.000000 1.570451 0.000000
    7 -1.762286 5.911245 0.000001 -3.141593 0.000000 -3.054327
    8 -2.841770 -0.132410 -7.037760 -3.141593 0.969358 3.141593
    9 -6.216228 0.000000 -0.009538 3.141593 -0.000003 -3.141593
    10 -6.044681 0.000000 -0.123807 3.141593 0.000000 3.141593
    11 -2.841770 -7.400337 0.154318 3.141593 0.000000 -2.232928
    12 -6.216228 0.011102 0.009510 0.000000 0.000000 -3.141592
    13 -6.044682 0.123416 0.123833 0.000000 0.000000 -3.141592
    14 -2.841769 -0.132410 6.858287 -3.141593 -0.963582 -3.141593
    15 -6.216228 0.000000 0.009509 -3.141593 0.000000 3.141593
    16 -6.044682 0.000000 0.123834 3.141593 0.000000 -3.141593
    17 -5.316726 1.858320 7.885149 0.000000 -1.570793 -1.490520
    18 -5.320000 1.887550 5.035499 0.000000 0.000000 0.575942
    19 -5.271080 1.859040 5.035499 0.000000 0.000000 -0.766488
    20 -5.269850 1.858320 -7.875906 0.000000 -1.570793 -1.490520
    21 -5.271080 1.887550 -5.026376 0.000000 0.000000 0.575942
    22 -5.271080 1.859040 -5.026376 0.000000 0.000000 -0.767261
    23 6.127056 4.060575 0.000002 3.141593 0.000000 -3.141593
  time 29
    0 0.000616 0.675802 1.269154 1.570800 0.000000 1.570774
    1 -5.676169 -10.205956 -0.036927 0.000000 1.518401 0.000000
    2 -12.201421 1.904737 0.015999 3.141593 0.000000 -3.141593
    3 -6.284104 10.169356 -10.201057 0.000000 1.570451 0.000000
    4 -6.284104 10.157806 10.244704 0.000000 1.570451 0.000000
    5 -6.284104 -10.225493 10.233214 0.000000 1.570451 0.000000
    6 -6.284114 -10.177173 -10.201057 0.000000 1.570451 0.000000
    7 -1.762286 5.911245 0.000001 -3.141593 0.000000 -3.054327
    8 -2.841770 -0.132410 -7.037760 -3.141593 0.969358 3.141593
    9 -6.216228 0.000000 -0.009538 3.141593 -0.000003 -3.141593
    10 -6.044681 0.000000 -0.123807 3.141593 0.000000 3.141593
    11 -2.841770 -7.400337 0.154318 3.141593 0.000000 -2.232928
    12 -6.216228 0.011102 0.009510 0.000000 0.000000 -3.141592
    13 -6.044682 0.123416 0.123833 0.000000 0.000000 -3.141592
    14 -2.841769 -0.132410 6.858287 -3.141593 -0.963582 -3.141593
    15 -6.216228 0.000000 0.009509 -3.141593 0.000000 3.141593
    16 -6.044682 0.000000 0.123834 3.141593 0.000000 -3.141593
    17 -5.316726 1.858320 7.885149 0.000000 -1.570793 -1.427686
    18 -5.320000 1.887550 5.035499 0.000000 0.000000 0.575942
    19 -5.271080 1.859040 5.035499 0.000000 0.000000 -0.766488
    20 -5.269850 1.858320 -7.875906 0.000000 -1.570793 -1.427686
    21 -5.271080 1.887550 -5.026376 0.000000 0.000000 0.575942
    22 -5.271080 1.859040 -5.026376 0.000000 0.000000 -0.767261
    23 6.127056 4.060575 0.000002 3.141593 0.000000 -3.141593
  time 30
    0 0.000616 0.675802 1.276967 1.570800 0.000000 1.570774
    1 -5.676169 -10.205956 -0.036927 0.000000 1.570451 0.000000
    2 -12.201421 1.904737 0.015999 3.141593 0.000000 -3.141593
    3 -6.284104 10.169356 -10.201057 0.000000 1.570451 0.000000
    4 -6.284104 10.157806 10.244704 0.000000 1.570451 0.000000
    5 -6.284104 -10.225493 10.233214 0.000000 1.570451 0.000000
    6 -6.284114 -10.177173 -10.201057 0.000000 1.570451 0.000000
    7 -1.762286 5.911245 0.000001 -3.141593 0.000000 -3.054327
    8 -2.841770 -0.132410 -7.037760 -3.141593 0.969358 3.141593
    9 -6.216228 0.000000 -0.009538 3.141593 -0.000003 -3.141593
    10 -6.044681 0.000000 -0.123807 3.141593 0.000000 3.141593
    11 -2.841770 -7.400337 0.154318 3.141593 0.000000 -2.232928
    12 -6.216228 0.011102 0.009510 0.000000 0.000000 -3.141592
    13 -6.044682 0.123416 0.123833 0.000000 0.000000 -3.141592
    14 -2.841769 -0.132410 6.858287 -3.141593 -0.963582 -3.141593
    15 -6.216228 0.000000 0.009509 -3.141593 0.000000 3.141593
    16 -6.044682 0.000000 0.123834 3.141593 0.000000 -3.141593
    17 -5.316726 1.858320 7.885149 0.000000 -1.570793 -1.396276
    18 -5.320000 1.887550 5.035499 0.000000 0.000000 0.575942
    19 -5.271080 1.859040 5.035499 0.000000 0.000000 -0.766488
    20 -5.269850 1.858320 -7.875906 0.000000 -1.570793 -1.396276
    21 -5.271080 1.887550 -5.026376 0.000000 0.000000 0.575942
    22 -5.271080 1.859040 -5.026376 0.000000 0.000000 -0.767261
    23 6.127056 4.060575 0.000002 3.141593 0.000000 -3.141593
  time 31
    0 0.000616 0.675802 1.269154 1.570800 0.000000 1.570774
    1 -5.676169 -10.205956 -0.036927 -3.141497 1.518401 -3.141497
    2 -12.201421 1.904737 0.015999 3.141593 0.000000 -3.141593
    3 -6.284104 10.169356 -10.201057 0.000000 1.570451 0.000000
    4 -6.284104 10.157806 10.244704 0.000000 1.570451 0.000000
    5 -6.284104 -10.225493 10.233214 0.000000 1.570451 0.000000
    6 -6.284114 -10.177173 -10.201057 0.000000 1.570451 0.000000
    7 -1.762286 5.911245 0.000001 -3.141593 0.000000 -3.054327
    8 -2.841770 -0.132410 -7.037760 -3.141593 0.969358 3.141593
    9 -6.216228 0.000000 -0.009538 3.141593 -0.000003 -3.141593
    10 -6.044681 0.000000 -0.123807 3.141593 0.000000 3.141593
    11 -2.841770 -7.400337 0.154318 3.141593 0.000000 -2.232928
    12 -6.216228 0.011102 0.009510 0.000000 0.000000 -3.141592
    13 -6.044682 0.123416 0.123833 0.000000 0.000000 -3.141592
    14 -2.841769 -0.132410 6.858287 -3.141593 -0.963582 -3.141593
    15 -6.216228 0.000000 0.009509 -3.141593 0.000000 3.141593
    16 -6.044682 0.000000 0.123834 3.141593 0.000000 -3.141593
    17 -5.316726 1.858320 7.885149 0.000000 -1.570793 -1.410239
    18 -5.320000 1.887550 5.035499 0.000000 0.000000 0.575942
    19 -5.271080 1.859040 5.035499 0.000000 0.000000 -0.766488
    20 -5.269850 1.858320 -7.875906 0.000000 -1.570793 -1.410239
    21 -5.271080 1.887550 -5.026376 0.000000 0.000000 0.575942
    22 -5.271080 1.859040 -5.026376 0.000000 0.000000 -0.767261
    23 6.127056 4.060575 0.000002 3.141593 0.000000 -3.141593
  time 32
    0 0.000616 0.675802 1.241809 1.570800 0.000000 1.570774
    1 -5.676169 -10.205956 -0.036927 3.141592 1.466064 -3.141592
    2 -12.201421 1.904737 0.015999 3.141593 0.000000 -3.141593
    3 -6.284104 10.169356 -10.201057 0.000000 1.570451 0.000000
    4 -6.284104 10.157806 10.244704 0.000000 1.570451 0.000000
    5 -6.284104 -10.225493 10.233214 0.000000 1.570451 0.000000
    6 -6.284114 -10.177173 -10.201057 0.000000 1.570451 0.000000
    7 -1.762286 5.911245 0.000001 -3.141593 0.000000 -3.054327
    8 -2.841770 -0.132410 -7.037760 -3.141593 0.969358 3.141593
    9 -6.216228 0.000000 -0.009538 3.141593 -0.000003 -3.141593
    10 -6.044681 0.000000 -0.123807 3.141593 0.000000 3.141593
    11 -2.841770 -7.400337 0.154318 3.141593 0.000000 -2.232928
    12 -6.216228 0.011102 0.009510 0.000000 0.000000 -3.141592
    13 -6.044682 0.123416 0.123833 0.000000 0.000000 -3.141592
    14 -2.841769 -0.132410 6.858287 -3.141593 -0.963582 -3.141593
    15 -6.216228 0.000000 0.009509 -3.141593 0.000000 3.141593
    16 -6.044682 0.000000 0.123834 3.141593 0.000000 -3.141593
    17 -5.316726 1.858320 7.885149 0.000000 -1.570793 -1.455612
    18 -5.320000 1.887550 5.035499 0.000000 0.000000 0.575942
    19 -5.271080 1.859040 5.035499 0.000000 0.000000 -0.766488
    20 -5.269850 1.858320 -7.875906 0.000000 -1.570793 -1.455612
    21 -5.271080 1.887550 -5.026376 0.000000 0.000000 0.575942
    22 -5.271080 1.859040 -5.026376 0.000000 0.000000 -0.767261
    23 6.127056 4.060575 0.000002 3.141593 0.000000 -3.141593
  time 33
    0 0.000616 0.675802 1.202746 1.570800 0.000000 1.570774
    1 -5.676169 -10.205956 -0.036927 3.141592 1.413679 3.141592
    2 -12.201421 1.904737 0.015999 3.141593 0.000000 -3.141593
    3 -6.284104 10.169356 -10.201057 0.000000 1.570451 0.000000
    4 -6.284104 10.157806 10.244704 0.000000 1.570451 0.000000
    5 -6.284104 -10.225493 10.233214 0.000000 1.570451 0.000000
    6 -6.284114 -10.177173 -10.201057 0.000000 1.570451 0.000000
    7 -1.762286 5.911245 0.000001 -3.141593 0.000000 -3.054327
    8 -2.841770 -0.132410 -7.037760 -3.141593 0.969358 3.141593
    9 -6.216228 0.000000 -0.009538 3.141593 -0.000003 -3.141593
    10 -6.044681 0.000000 -0.123807 3.141593 0.000000 3.141593
    11 -2.841770 -7.400337 0.154318 3.141593 0.000000 -2.232928
    12 -6.216228 0.011102 0.009510 0.000000 0.000000 -3.141592
    13 -6.044682 0.123416 0.123833 0.000000 0.000000 -3.141592
    14 -2.841769 -0.132410 6.858287 -3.141593 -0.963582 -3.141593
    15 -6.216228 0.000000 0.009509 -3.141593 0.000000 3.141593
    16 -6.044682 0.000000 0.123834 3.141593 0.000000 -3.141593
    17 -5.316726 1.858320 7.885149 0.000000 -1.570793 -1.511464
    18 -5.320000 1.887550 5.035499 0.000000 0.000000 0.575942
    19 -5.271080 1.859040 5.035499 0.000000 0.000000 -0.766488
    20 -5.269850 1.858320 -7.875906 0.000000 -1.570793 -1.511464
    21 -5.271080 1.887550 -5.026376 0.000000 0.000000 0.575942
    22 -5.271080 1.859040 -5.026376 0.000000 0.000000 -0.767261
    23 6.127056 4.060575 0.000002 3.141593 0.000000 -3.141593
  time 34
    0 0.000616 0.675802 1.148056 1.570800 0.000000 1.570774
    1 -5.676169 -10.205956 -0.036927 3.141592 1.361342 3.141592
    2 -12.201421 1.904737 0.015999 3.141593 0.000000 -3.141593
    3 -6.284104 10.169356 -10.201057 0.000000 1.570451 0.000000
    4 -6.284104 10.157806 10.244704 0.000000 1.570451 0.000000
    5 -6.284104 -10.225493 10.233214 0.000000 1.570451 0.000000
    6 -6.284114 -10.177173 -10.201057 0.000000 1.570451 0.000000
    7 -1.762286 5.911245 0.000001 -3.141593 0.000000 -3.054327
    8 -2.841770 -0.132410 -7.037760 -3.141593 0.969358 3.141593
    9 -6.216228 0.000000 -0.009538 3.141593 -0.000003 -3.141593
    10 -6.044681 0.000000 -0.123807 3.141593 0.000000 3.141593
    11 -2.841770 -7.400337 0.154318 3.141593 0.000000 -2.232928
    12 -6.216228 0.011102 0.009510 0.000000 0.000000 -3.141592
    13 -6.044682 0.123416 0.123833 0.000000 0.000000 -3.141592
    14 -2.841769 -0.132410 6.858287 -3.141593 -0.963582 -3.141593
    15 -6.216228 0.000000 0.009509 -3.141593 0.000000 3.141593
    16 -6.044682 0.000000 0.123834 3.141593 0.000000 -3.141593
    17 -5.316726 1.858320 7.885149 0.000000 -1.570793 -1.556837
    18 -5.320000 1.887550 5.035499 0.000000 0.000000 0.575942
    19 -5.271080 1.859040 5.035499 0.000000 0.000000 -0.766488
    20 -5.269850 1.858320 -7.875906 0.000000 -1.570793 -1.556837
    21 -5.271080 1.887550 -5.026376 0.000000 0.000000 0.575942
    22 -5.271080 1.859040 -5.026376 0.000000 0.000000 -0.767261
    23 6.127056 4.060575 0.000002 3.141593 0.000000 -3.141593
  time 35
    0 0.000616 0.675802 1.077742 1.570800 0.000000 1.570774
    1 -5.676169 -10.205956 -0.036927 3.141592 1.308957 3.141592
    2 -12.201421 1.904737 0.015999 3.141593 0.000000 -3.141593
    3 -6.284104 10.169356 -10.201057 0.000000 1.570451 0.000000
    4 -6.284104 10.157806 10.244704 0.000000 1.570451 0.000000
    5 -6.284104 -10.225493 10.233214 0.000000 1.570451 0.000000
    6 -6.284114 -10.177173 -10.201057 0.000000 1.570451 0.000000
    7 -1.762286 5.911245 0.000001 -3.141593 0.000000 -3.054327
    8 -2.841770 -0.132410 -7.037760 -3.141593 0.969358 3.141593
    9 -6.216228 0.000000 -0.009538 3.141593 -0.000003 -3.141593
    10 -6.044681 0.000000 -0.123807 3.141593 0.000000 3.141593
    11 -2.841770 -7.400337 0.154318 3.141593 0.000000 -2.232928
    12 -6.216228 0.011102 0.009510 0.000000 0.000000 -3.141592
    13 -6.044682 0.123416 0.123833 0.000000 0.000000 -3.141592
    14 -2.841769 -0.132410 6.858287 -3.141593 -0.963582 -3.141593
    15 -6.216228 0.000000 0.009509 -3.141593 0.000000 3.141593
    16 -6.044682 0.000000 0.123834 3.141593 0.000000 -3.141593
    17 -5.316726 1.858320 7.885149 0.000000 -1.570793 -1.570800
    18 -5.320000 1.887550 5.035499 0.000000 0.000000 0.575942
    19 -5.271080 1.859040 5.035499 0.000000 0.000000 -0.766488
    20 -5.269850 1.858320 -7.875906 0.000000 -1.570793 -1.570800
    21 -5.271080 1.887550 -5.026376 0.000000 0.000000 0.575942
    22 -5.271080 1.859040 -5.026376 0.000000 0.000000 -0.767261
    23 6.127056 4.060575 0.000002 3.141593 0.000000 -3.141593
  time 36
    0 0.000616 0.675802 0.999614 1.570800 0.000000 1.570774
    1 -5.676169 -10.205956 -0.036927 3.141592 1.256620 3.141592
    2 -12.201421 1.904737 0.015999 3.141593 0.000000 -3.141593
    3 -6.284104 10.169356 -10.201057 0.000000 1.570451 0.000000
    4 -6.284104 10.157806 10.244704 0.000000 1.570451 0.000000
    5 -6.284104 -10.225493 10.233214 0.000000 1.570451 0.000000
    6 -6.284114 -10.177173 -10.201057 0.000000 1.570451 0.000000
    7 -1.762286 5.911245 0.000001 -3.141593 0.000000 -3.054327
    8 -2.841770 -0.132410 -7.037760 -3.141593 0.969358 3.141593
    9 -6.216228 0.000000 -0.009538 3.141593 -0.000003 -3.141593
    10 -6.044681 0.000000 -0.123807 3.141593 0.000000 3.141593
    11 -2.841770 -7.400337 0.154318 3.141593 0.000000 -2.232928
    12 -6.216228 0.011102 0.009510 0.000000 0.000000 -3.141592
    13 -6.044682 0.123416 0.123833 0.000000 0.000000 -3.141592
    14 -2.841769 -0.132410 6.858287 -3.141593 -0.963582 -3.141593
    15 -6.216228 0.000000 0.009509 -3.141593 0.000000 3.141593
    16 -6.044682 0.000000 0.123834 3.141593 0.000000 -3.141593
    17 -5.316726 1.858320 7.885149 0.000000 -1.570793 -1.537988
    18 -5.320000 1.887550 5.035499 0.000000 0.000000 0.575942
    19 -5.271080 1.859040 5.035499 0.000000 0.000000 -0.766488
    20 -5.269850 1.858320 -7.875906 0.000000 -1.570793 -1.537988
    21 -5.271080 1.887550 -5.026376 0.000000 0.000000 0.575942
    22 -5.271080 1.859040 -5.026376 0.000000 0.000000 -0.767261
    23 6.127056 4.060575 0.000002 3.141593 0.000000 -3.141593
  time 37
    0 0.000616 0.675802 0.905861 1.570800 0.000000 1.570774
    1 -5.676169 -10.205956 -0.036927 3.141592 1.204235 -3.141592
    2 -12.201421 1.904737 0.015999 3.141593 0.000000 -3.141593
    3 -6.284104 10.169356 -10.201057 0.000000 1.570451 0.000000
    4 -6.284104 10.157806 10.244704 0.000000 1.570451 0.000000
    5 -6.284104 -10.225493 10.233214 0.000000 1.570451 0.000000
    6 -6.284114 -10.177173 -10.201057 0.000000 1.570451 0.000000
    7 -1.762286 5.911245 0.000001 -3.141593 0.000000 -3.054327
    8 -2.841770 -0.132410 -7.037760 -3.141593 0.969358 3.141593
    9 -6.216228 0.000000 -0.009538 3.141593 -0.000003 -3.141593
    10 -6.044681 0.000000 -0.123807 3.141593 0.000000 3.141593
    11 -2.841770 -7.400337 0.154318 3.141593 0.000000 -2.232928
    12 -6.216228 0.011102 0.009510 0.000000 0.000000 -3.141592
    13 -6.044682 0.123416 0.123833 0.000000 0.000000 -3.141592
    14 -2.841769 -0.132410 6.858287 -3.141593 -0.963582 -3.141593
    15 -6.216228 0.000000 0.009509 -3.141593 0.000000 3.141593
    16 -6.044682 0.000000 0.123834 3.141593 0.000000 -3.141593
    17 -5.316726 1.858320 7.885149 0.000000 -1.570793 -1.472365
    18 -5.320000 1.887550 5.035499 0.000000 0.000000 0.575942
    19 -5.271080 1.859040 5.035499 0.000000 0.000000 -0.766488
    20 -5.269850 1.858320 -7.875906 0.000000 -1.570793 -1.472365
    21 -5.271080 1.887550 -5.026376 0.000000 0.000000 0.575942
    22 -5.271080 1.859040 -5.026376 0.000000 0.000000 -0.767261
    23 6.127056 4.060575 0.000002 3.141593 0.000000 -3.141593
  time 38
    0 0.000616 0.675802 0.808202 1.570800 0.000000 1.570774
    1 -5.676169 -10.205956 -0.036927 3.141592 1.151897 3.141592
    2 -12.201421 1.904737 0.015999 3.141593 0.000000 -3.141593
    3 -6.284104 10.169356 -10.201057 0.000000 1.570451 0.000000
    4 -6.284104 10.157806 10.244704 0.000000 1.570451 0.000000
    5 -6.284104 -10.225493 10.233214 0.000000 1.570451 0.000000
    6 -6.284114 -10.177173 -10.201057 0.000000 1.570451 0.000000
    7 -1.762286 5.911245 0.000001 -3.141593 0.000000 -3.054327
    8 -2.841770 -0.132410 -7.037760 -3.141593 0.969358 3.141593
    9 -6.216228 0.000000 -0.009538 3.141593 -0.000003 -3.141593
    10 -6.044681 0.000000 -0.123807 3.141593 0.000000 3.141593
    11 -2.841770 -7.400337 0.154318 3.141593 0.000000 -2.232928
    12 -6.216228 0.011102 0.009510 0.000000 0.000000 -3.141592
    13 -6.044682 0.123416 0.123833 0.000000 0.000000 -3.141592
    14 -2.841769 -0.132410 6.858287 -3.141593 -0.963582 -3.141593
    15 -6.216228 0.000000 0.009509 -3.141593 0.000000 3.141593
    16 -6.044682 0.000000 0.123834 3.141593 0.000000 -3.141593
    17 -5.316726 1.858320 7.885149 0.000000 -1.570793 -1.396970
    18 -5.320000 1.887550 5.035499 0.000000 0.000000 0.575942
    19 -5.271080 1.859040 5.035499 0.000000 0.000000 -0.766488
    20 -5.269850 1.858320 -7.875906 0.000000 -1.570793 -1.396970
    21 -5.271080 1.887550 -5.026376 0.000000 0.000000 0.575942
    22 -5.271080 1.859040 -5.026376 0.000000 0.000000 -0.767261
    23 6.127056 4.060575 0.000002 3.141593 0.000000 -3.141593
  time 39
    0 0.000616 0.675802 0.698824 1.570800 0.000000 1.570774
    1 -5.676169 -10.205956 -0.036927 3.141592 1.099512 3.141592
    2 -12.201421 1.904737 0.015999 3.141593 0.000000 -3.141593
    3 -6.284104 10.169356 -10.201057 0.000000 1.570451 0.000000
    4 -6.284104 10.157806 10.244704 0.000000 1.570451 0.000000
    5 -6.284104 -10.225493 10.233214 0.000000 1.570451 0.000000
    6 -6.284114 -10.177173 -10.201057 0.000000 1.570451 0.000000
    7 -1.762286 5.911245 0.000001 -3.141593 0.000000 -3.054327
    8 -2.841770 -0.132410 -7.037760 -3.141593 0.969358 3.141593
    9 -6.216228 0.000000 -0.009538 3.141593 -0.000003 -3.141593
    10 -6.044681 0.000000 -0.123807 3.141593 0.000000 3.141593
    11 -2.841770 -7.400337 0.154318 3.141593 0.000000 -2.232928
    12 -6.216228 0.011102 0.009510 0.000000 0.000000 -3.141592
    13 -6.044682 0.123416 0.123833 0.000000 0.000000 -3.141592
    14 -2.841769 -0.132410 6.858287 -3.141593 -0.963582 -3.141593
    15 -6.216228 0.000000 0.009509 -3.141593 0.000000 3.141593
    16 -6.044682 0.000000 0.123834 3.141593 0.000000 -3.141593
    17 -5.316726 1.858320 7.885149 0.000000 -1.570793 -1.334831
    18 -5.320000 1.887550 5.035499 0.000000 0.000000 0.575942
    19 -5.271080 1.859040 5.035499 0.000000 0.000000 -0.766488
    20 -5.269850 1.858320 -7.875906 0.000000 -1.570793 -1.334831
    21 -5.271080 1.887550 -5.026376 0.000000 0.000000 0.575942
    22 -5.271080 1.859040 -5.026376 0.000000 0.000000 -0.767261
    23 6.127056 4.060575 0.000002 3.141593 0.000000 -3.141593
  time 40
    0 0.000616 0.675802 0.581633 1.570800 0.000000 1.570774
    1 -5.676169 -10.205956 -0.036927 3.141592 1.047175 3.141592
    2 -12.201421 1.904737 0.015999 3.141593 0.000000 -3.141593
    3 -6.284104 10.169356 -10.201057 0.000000 1.570451 0.000000
    4 -6.284104 10.157806 10.244704 0.000000 1.570451 0.000000
    5 -6.284104 -10.225493 10.233214 0.000000 1.570451 0.000000
    6 -6.284114 -10.177173 -10.201057 0.000000 1.570451 0.000000
    7 -1.762286 5.911245 0.000001 -3.141593 0.000000 -3.054327
    8 -2.841770 -0.132410 -7.037760 -3.141593 0.969358 3.141593
    9 -6.216228 0.000000 -0.009538 3.141593 -0.000003 -3.141593
    10 -6.044681 0.000000 -0.123807 3.141593 0.000000 3.141593
    11 -2.841770 -7.400337 0.154318 3.141593 0.000000 -2.232928
    12 -6.216228 0.011102 0.009510 0.000000 0.000000 -3.141592
    13 -6.044682 0.123416 0.123833 0.000000 0.000000 -3.141592
    14 -2.841769 -0.132410 6.858287 -3.141593 -0.963582 -3.141593
    15 -6.216228 0.000000 0.009509 -3.141593 0.000000 3.141593
    16 -6.044682 0.000000 0.123834 3.141593 0.000000 -3.141593
    17 -5.316726 1.858320 7.885149 0.000000 -1.570793 -1.309000
    18 -5.320000 1.887550 5.035499 0.000000 0.000000 0.575942
    19 -5.271080 1.859040 5.035499 0.000000 0.000000 -0.766488
    20 -5.269850 1.858320 -7.875906 0.000000 -1.570793 -1.309000
    21 -5.271080 1.887550 -5.026376 0.000000 0.000000 0.575942
    22 -5.271080 1.859040 -5.026376 0.000000 0.000000 -0.767261
    23 6.127056 4.060575 0.000002 3.141593 0.000000 -3.141593
  time 41
    0 0.000616 0.675802 0.460535 1.570800 0.000000 1.570774
    1 -5.676169 -10.205956 -0.036927 3.141592 0.994790 3.141592
    2 -12.201421 1.904737 0.015999 3.141593 0.000000 -3.141593
    3 -6.284104 10.169356 -10.201057 0.000000 1.570451 0.000000
    4 -6.284104 10.157806 10.244704 0.000000 1.570451 0.000000
    5 -6.284104 -10.225493 10.233214 0.000000 1.570451 0.000000
    6 -6.284114 -10.177173 -10.201057 0.000000 1.570451 0.000000
    7 -1.762286 5.911245 0.000001 -3.141593 0.000000 -3.054327
    8 -2.841770 -0.132410 -7.037760 -3.141593 0.969358 3.141593
    9 -6.216228 0.000000 -0.009538 3.141593 -0.000003 -3.141593
    10 -6.044681 0.000000 -0.123807 3.141593 0.000000 3.141593
    11 -2.841770 -7.400337 0.154318 3.141593 0.000000 -2.232928
    12 -6.216228 0.011102 0.009510 0.000000 0.000000 -3.141592
    13 -6.044682 0.123416 0.123833 0.000000 0.000000 -3.141592
    14 -2.841769 -0.132410 6.858287 -3.141593 -0.963582 -3.141593
    15 -6.216228 0.000000 0.009509 -3.141593 0.000000 3.141593
    16 -6.044682 0.000000 0.123834 3.141593 0.000000 -3.141593
    17 -5.316726 1.858320 7.885149 0.000000 -1.570793 -1.333443
    18 -5.320000 1.887550 5.035499 0.000000 0.000000 0.575942
    19 -5.271080 1.859040 5.035499 0.000000 0.000000 -0.766488
    20 -5.269850 1.858320 -7.875906 0.000000 -1.570793 -1.333443
    21 -5.271080 1.887550 -5.026376 0.000000 0.000000 0.575942
    22 -5.271080 1.859040 -5.026376 0.000000 0.000000 -0.767261
    23 6.127056 4.060575 0.000002 3.141593 0.000000 -3.141593
  time 42
    0 0.000616 0.675802 0.335532 1.570800 0.000000 1.570774
    1 -5.676169 -10.205956 -0.036927 3.141592 0.942453 -3.141592
    2 -12.201421 1.904737 0.015999 3.141593 0.000000 -3.141593
    3 -6.284104 10.169356 -10.201057 0.000000 1.570451 0.000000
    4 -6.284104 10.157806 10.244704 0.000000 1.570451 0.000000
    5 -6.284104 -10.225493 10.233214 0.000000 1.570451 0.000000
    6 -6.284114 -10.177173 -10.201057 0.000000 1.570451 0.000000
    7 -1.762286 5.911245 0.000001 -3.141593 0.000000 -3.054327
    8 -2.841770 -0.132410 -7.037760 -3.141593 0.969358 3.141593
    9 -6.216228 0.000000 -0.009538 3.141593 -0.000003 -3.141593
    10 -6.044681 0.000000 -0.123807 3.141593 0.000000 3.141593
    11 -2.841770 -7.400337 0.154318 3.141593 0.000000 -2.232928
    12 -6.216228 0.011102 0.009510 0.000000 0.000000 -3.141592
    13 -6.044682 0.123416 0.123833 0.000000 0.000000 -3.141592
    14 -2.841769 -0.132410 6.858287 -3.141593 -0.963582 -3.141593
    15 -6.216228 0.000000 0.009509 -3.141593 0.000000 3.141593
    16 -6.044682 0.000000 0.123834 3.141593 0.000000 -3.141593
    17 -5.316726 1.858320 7.885149 0.000000 -1.570793 -1.392779
    18 -5.320000 1.887550 5.035499 0.000000 0.000000 0.575942
    19 -5.271080 1.859040 5.035499 0.000000 0.000000 -0.766488
    20 -5.269850 1.858320 -7.875906 0.000000 -1.570793 -1.392779
    21 -5.271080 1.887550 -5.026376 0.000000 0.000000 0.575942
    22 -5.271080 1.859040 -5.026376 0.000000 0.000000 -0.767261
    23 6.127056 4.060575 0.000002 3.141593 0.000000 -3.141593
  time 43
    0 0.000616 0.675802 0.206621 1.570800 0.000000 1.570774
    1 -5.676169 -10.205956 -0.036927 3.141592 0.890116 3.141592
    2 -12.201421 1.904737 0.015999 3.141593 0.000000 -3.141593
    3 -6.284104 10.169356 -10.201057 0.000000 1.570451 0.000000
    4 -6.284104 10.157806 10.244704 0.000000 1.570451 0.000000
    5 -6.284104 -10.225493 10.233214 0.000000 1.570451 0.000000
    6 -6.284114 -10.177173 -10.201057 0.000000 1.570451 0.000000
    7 -1.762286 5.911245 0.000001 -3.141593 0.000000 -3.054327
    8 -2.841770 -0.132410 -7.037760 -3.141593 0.969358 3.141593
    9 -6.216228 0.000000 -0.009538 3.141593 -0.000003 -3.141593
    10 -6.044681 0.000000 -0.123807 3.141593 0.000000 3.141593
    11 -2.841770 -7.400337 0.154318 3.141593 0.000000 -2.232928
    12 -6.216228 0.011102 0.009510 0.000000 0.000000 -3.141592
    13 -6.044682 0.123416 0.123833 0.000000 0.000000 -3.141592
    14 -2.841769 -0.132410 6.858287 -3.141593 -0.963582 -3.141593
    15 -6.216228 0.000000 0.009509 -3.141593 0.000000 3.141593
    16 -6.044682 0.000000 0.123834 3.141593 0.000000 -3.141593
    17 -5.316726 1.858320 7.885149 0.000000 -1.570793 -1.466077
    18 -5.320000 1.887550 5.035499 0.000000 0.000000 0.575942
    19 -5.271080 1.859040 5.035499 0.000000 0.000000 -0.766488
    20 -5.269850 1.858320 -7.875906 0.000000 -1.570793 -1.466077
    21 -5.271080 1.887550 -5.026376 0.000000 0.000000 0.575942
    22 -5.271080 1.859040 -5.026376 0.000000 0.000000 -0.767261
    23 6.127056 4.060575 0.000002 3.141593 0.000000 -3.141593
  time 44
    0 0.000616 0.675802 0.073805 1.570800 0.000000 1.570774
    1 -5.676169 -10.205956 -0.036927 3.141592 0.837730 3.141592
    2 -12.201421 1.904737 0.015999 3.141593 0.000000 -3.141593
    3 -6.284104 10.169356 -10.201057 0.000000 1.570451 0.000000
    4 -6.284104 10.157806 10.244704 0.000000 1.570451 0.000000
    5 -6.284104 -10.225493 10.233214 0.000000 1.570451 0.000000
    6 -6.284114 -10.177173 -10.201057 0.000000 1.570451 0.000000
    7 -1.762286 5.911245 0.000001 -3.141593 0.000000 -3.054327
    8 -2.841770 -0.132410 -7.037760 -3.141593 0.969358 3.141593
    9 -6.216228 0.000000 -0.009538 3.141593 -0.000003 -3.141593
    10 -6.044681 0.000000 -0.123807 3.141593 0.000000 3.141593
    11 -2.841770 -7.400337 0.154318 3.141593 0.000000 -2.232928
    12 -6.216228 0.011102 0.009510 0.000000 0.000000 -3.141592
    13 -6.044682 0.123416 0.123833 0.000000 0.000000 -3.141592
    14 -2.841769 -0.132410 6.858287 -3.141593 -0.963582 -3.141593
    15 -6.216228 0.000000 0.009509 -3.141593 0.000000 3.141593
    16 -6.044682 0.000000 0.123834 3.141593 0.000000 -3.141593
    17 -5.316726 1.858320 7.885149 0.000000 -1.570793 -1.532409
    18 -5.320000 1.887550 5.035499 0.000000 0.000000 0.575942
    19 -5.271080 1.859040 5.035499 0.000000 0.000000 -0.766488
    20 -5.269850 1.858320 -7.875906 0.000000 -1.570793 -1.532409
    21 -5.271080 1.887550 -5.026376 0.000000 0.000000 0.575942
    22 -5.271080 1.859040 -5.026376 0.000000 0.000000 -0.767261
    23 6.127056 4.060575 0.000002 3.141593 0.000000 -3.141593
  time 45
    0 0.000616 0.675802 -0.059012 1.570800 0.000000 1.570774
    1 -5.676169 -10.205956 -0.036927 3.141592 0.785393 -3.141592
    2 -12.201421 1.904737 0.015999 3.141593 0.000000 -3.141593
    3 -6.284104 10.169356 -10.201057 0.000000 1.570451 0.000000
    4 -6.284104 10.157806 10.244704 0.000000 1.570451 0.000000
    5 -6.284104 -10.225493 10.233214 0.000000 1.570451 0.000000
    6 -6.284114 -10.177173 -10.201057 0.000000 1.570451 0.000000
    7 -1.762286 5.911245 0.000001 -3.141593 0.000000 -3.054327
    8 -2.841770 -0.132410 -7.037760 -3.141593 0.969358 3.141593
    9 -6.216228 0.000000 -0.009538 3.141593 -0.000003 -3.141593
    10 -6.044681 0.000000 -0.123807 3.141593 0.000000 3.141593
    11 -2.841770 -7.400337 0.154318 3.141593 0.000000 -2.232928
    12 -6.216228 0.011102 0.009510 0.000000 0.000000 -3.141592
    13 -6.044682 0.123416 0.123833 0.000000 0.000000 -3.141592
    14 -2.841769 -0.132410 6.858287 -3.141593 -0.963582 -3.141593
    15 -6.216228 0.000000 0.009509 -3.141593 0.000000 3.141593
    16 -6.044682 0.000000 0.123834 3.141593 0.000000 -3.141593
    17 -5.316726 1.858320 7.885149 0.000000 -1.570793 -1.570800
    18 -5.320000 1.887550 5.035499 0.000000 0.000000 0.575942
    19 -5.271080 1.859040 5.035499 0.000000 0.000000 -0.766488
    20 -5.269850 1.858320 -7.875906 0.000000 -1.570793 -1.570800
    21 -5.271080 1.887550 -5.026376 0.000000 0.000000 0.575942
    22 -5.271080 1.859040 -5.026376 0.000000 0.000000 -0.767261
    23 6.127056 4.060575 0.000002 3.141593 0.000000 -3.141593
  time 46
    0 0.000616 0.675802 -0.195735 1.570800 0.000000 1.570774
    1 -5.676169 -10.205956 -0.036927 3.141592 0.733008 -3.141592
    2 -12.201421 1.904737 0.015999 3.141593 0.000000 -3.141593
    3 -6.284104 10.169356 -10.201057 0.000000 1.570451 0.000000
    4 -6.284104 10.157806 10.244704 0.000000 1.570451 0.000000
    5 -6.284104 -10.225493 10.233214 0.000000 1.570451 0.000000
    6 -6.284114 -10.177173 -10.201057 0.000000 1.570451 0.000000
    7 -1.762286 5.911245 0.000001 -3.141593 0.000000 -3.054327
    8 -2.841770 -0.132410 -7.037760 -3.141593 0.969358 3.141593
    9 -6.216228 0.000000 -0.009538 3.141593 -0.000003 -3.141593
    10 -6.044681 0.000000 -0.123807 3.141593 0.000000 3.141593
    11 -2.841770 -7.400337 0.154318 3.141593 0.000000 -2.232928
    12 -6.216228 0.011102 0.009510 0.000000 0.000000 -3.141592
    13 -6.044682 0.123416 0.123833 0.000000 0.000000 -3.141592
    14 -2.841769 -0.132410 6.858287 -3.141593 -0.963582 -3.141593
    15 -6.216228 0.000000 0.009509 -3.141593 0.000000 3.141593
    16 -6.044682 0.000000 0.123834 3.141593 0.000000 -3.141593
    17 -5.316726 1.858320 7.885149 0.000000 -1.570793 -1.586748
    18 -5.320000 1.887550 5.035499 0.000000 0.000000 0.575942
    19 -5.271080 1.859040 5.035499 0.000000 0.000000 -0.766488
    20 -5.269850 1.858320 -7.875906 0.000000 -1.570793 -1.586748
    21 -5.271080 1.887550 -5.026376 0.000000 0.000000 0.575942
    22 -5.271080 1.859040 -5.026376 0.000000 0.000000 -0.767261
    23 6.127056 4.060575 0.000002 3.141593 0.000000 -3.141593
  time 47
    0 0.000616 0.675802 -0.324645 1.570800 0.000000 1.570774
    1 -5.676169 -10.205956 -0.036927 3.141592 0.680671 3.141592
    2 -12.201421 1.904737 0.015999 3.141593 0.000000 -3.141593
    3 -6.284104 10.169356 -10.201057 0.000000 1.570451 0.000000
    4 -6.284104 10.157806 10.244704 0.000000 1.570451 0.000000
    5 -6.284104 -10.225493 10.233214 0.000000 1.570451 0.000000
    6 -6.284114 -10.177173 -10.201057 0.000000 1.570451 0.000000
    7 -1.762286 5.911245 0.000001 -3.141593 0.000000 -3.054327
    8 -2.841770 -0.132410 -7.037760 -3.141593 0.969358 3.141593
    9 -6.216228 0.000000 -0.009538 3.141593 -0.000003 -3.141593
    10 -6.044681 0.000000 -0.123807 3.141593 0.000000 3.141593
    11 -2.841770 -7.400337 0.154318 3.141593 0.000000 -2.232928
    12 -6.216228 0.011102 0.009510 0.000000 0.000000 -3.141592
    13 -6.044682 0.123416 0.123833 0.000000 0.000000 -3.141592
    14 -2.841769 -0.132410 6.858287 -3.141593 -0.963582 -3.141593
    15 -6.216228 0.000000 0.009509 -3.141593 0.000000 3.141593
    16 -6.044682 0.000000 0.123834 3.141593 0.000000 -3.141593
    17 -5.316726 1.858320 7.885149 0.000000 -1.570793 -1.599906
    18 -5.320000 1.887550 5.035499 0.000000 0.000000 0.575942
    19 -5.271080 1.859040 5.035499 0.000000 0.000000 -0.766488
    20 -5.269850 1.858320 -7.875906 0.000000 -1.570793 -1.599906
    21 -5.271080 1.887550 -5.026376 0.000000 0.000000 0.575942
    22 -5.271080 1.859040 -5.026376 0.000000 0.000000 -0.767261
    23 6.127056 4.060575 0.000002 3.141593 0.000000 -3.141593
  time 48
    0 0.000616 0.675802 -0.457461 1.570800 0.000000 1.570774
    1 -5.676169 -10.205956 -0.036927 3.141592 0.628286 3.141592
    2 -12.201421 1.904737 0.015999 3.141593 0.000000 -3.141593
    3 -6.284104 10.169356 -10.201057 0.000000 1.570451 0.000000
    4 -6.284104 10.157806 10.244704 0.000000 1.570451 0.000000
    5 -6.284104 -10.225493 10.233214 0.000000 1.570451 0.000000
    6 -6.284114 -10.177173 -10.201057 0.000000 1.570451 0.000000
    7 -1.762286 5.911245 0.000001 -3.141593 0.000000 -3.054327
    8 -2.841770 -0.132410 -7.037760 -3.141593 0.969358 3.141593
    9 -6.216228 0.000000 -0.009538 3.141593 -0.000003 -3.141593
    10 -6.044681 0.000000 -0.123807 3.141593 0.000000 3.141593
    11 -2.841770 -7.400337 0.154318 3.141593 0.000000 -2.232928
    12 -6.216228 0.011102 0.009510 0.000000 0.000000 -3.141592
    13 -6.044682 0.123416 0.123833 0.000000 0.000000 -3.141592
    14 -2.841769 -0.132410 6.858287 -3.141593 -0.963582 -3.141593
    15 -6.216228 0.000000 0.009509 -3.141593 0.000000 3.141593
    16 -6.044682 0.000000 0.123834 3.141593 0.000000 -3.141593
    17 -5.316726 1.858320 7.885149 0.000000 -1.570793 -1.610579
    18 -5.320000 1.887550 5.035499 0.000000 0.000000 0.575942
    19 -5.271080 1.859040 5.035499 0.000000 0.000000 -0.766488
    20 -5.269850 1.858320 -7.875906 0.000000 -1.570793 -1.610579
    21 -5.271080 1.887550 -5.026376 0.000000 0.000000 0.575942
    22 -5.271080 1.859040 -5.026376 0.000000 0.000000 -0.767261
    23 6.127056 4.060575 0.000002 3.141593 0.000000 -3.141593
  time 49
    0 0.000616 0.675802 -0.582465 1.570800 0.000000 1.570774
    1 -5.676169 -10.205956 -0.036927 3.141592 0.575949 3.141592
    2 -12.201421 1.904737 0.015999 3.141593 0.000000 -3.141593
    3 -6.284104 10.169356 -10.201057 0.000000 1.570451 0.000000
    4 -6.284104 10.157806 10.244704 0.000000 1.570451 0.000000
    5 -6.284104 -10.225493 10.233214 0.000000 1.570451 0.000000
    6 -6.284114 -10.177173 -10.201057 0.000000 1.570451 0.000000
    7 -1.762286 5.911245 0.000001 -3.141593 0.000000 -3.054327
    8 -2.841770 -0.132410 -7.037760 -3.141593 0.969358 3.141593
    9 -6.216228 0.000000 -0.009538 3.141593 -0.000003 -3.141593
    10 -6.044681 0.000000 -0.123807 3.141593 0.000000 3.141593
    11 -2.841770 -7.400337 0.154318 3.141593 0.000000 -2.232928
    12 -6.216228 0.011102 0.009510 0.000000 0.000000 -3.141592
    13 -6.044682 0.123416 0.123833 0.000000 0.000000 -3.141592
    14 -2.841769 -0.132410 6.858287 -3.141593 -0.963582 -3.141593
    15 -6.216228 0.000000 0.009509 -3.141593 0.000000 3.141593
    16 -6.044682 0.000000 0.123834 3.141593 0.000000 -3.141593
    17 -5.316726 1.858320 7.885149 0.000000 -1.570793 -1.619088
    18 -5.320000 1.887550 5.035499 0.000000 0.000000 0.575942
    19 -5.271080 1.859040 5.035499 0.000000 0.000000 -0.766488
    20 -5.269850 1.858320 -7.875906 0.000000 -1.570793 -1.619088
    21 -5.271080 1.887550 -5.026376 0.000000 0.000000 0.575942
    22 -5.271080 1.859040 -5.026376 0.000000 0.000000 -0.767261
    23 6.127056 4.060575 0.000002 3.141593 0.000000 -3.141593
  time 50
    0 0.000616 0.675802 -0.703563 1.570800 0.000000 1.570774
    1 -5.676169 -10.205956 -0.036927 3.141592 0.523564 -3.141592
    2 -12.201421 1.904737 0.015999 3.141593 0.000000 -3.141593
    3 -6.284104 10.169356 -10.201057 0.000000 1.570451 0.000000
    4 -6.284104 10.157806 10.244704 0.000000 1.570451 0.000000
    5 -6.284104 -10.225493 10.233214 0.000000 1.570451 0.000000
    6 -6.284114 -10.177173 -10.201057 0.000000 1.570451 0.000000
    7 -1.762286 5.911245 0.000001 -3.141593 0.000000 -3.054327
    8 -2.841770 -0.132410 -7.037760 -3.141593 0.969358 3.141593
    9 -6.216228 0.000000 -0.009538 3.141593 -0.000003 -3.141593
    10 -6.044681 0.000000 -0.123807 3.141593 0.000000 3.141593
    11 -2.841770 -7.400337 0.154318 3.141593 0.000000 -2.232928
    12 -6.216228 0.011102 0.009510 0.000000 0.000000 -3.141592
    13 -6.044682 0.123416 0.123833 0.000000 0.000000 -3.141592
    14 -2.841769 -0.132410 6.858287 -3.141593 -0.963582 -3.141593
    15 -6.216228 0.000000 0.009509 -3.141593 0.000000 3.141593
    16 -6.044682 0.000000 0.123834 3.141593 0.000000 -3.141593
    17 -5.316726 1.858320 7.885149 0.000000 -1.570793 -1.625736
    18 -5.320000 1.887550 5.035499 0.000000 0.000000 0.575942
    19 -5.271080 1.859040 5.035499 0.000000 0.000000 -0.766488
    20 -5.269850 1.858320 -7.875906 0.000000 -1.570793 -1.625736
    21 -5.271080 1.887550 -5.026376 0.000000 0.000000 0.575942
    22 -5.271080 1.859040 -5.026376 0.000000 0.000000 -0.767261
    23 6.127056 4.060575 0.000002 3.141593 0.000000 -3.141593
  time 51
    0 0.000616 0.675802 -0.820754 1.570800 0.000000 1.570774
    1 -5.676169 -10.205956 -0.036927 3.141592 0.471226 3.141592
    2 -12.201421 1.904737 0.015999 3.141593 0.000000 -3.141593
    3 -6.284104 10.169356 -10.201057 0.000000 1.570451 0.000000
    4 -6.284104 10.157806 10.244704 0.000000 1.570451 0.000000
    5 -6.284104 -10.225493 10.233214 0.000000 1.570451 0.000000
    6 -6.284114 -10.177173 -10.201057 0.000000 1.570451 0.000000
    7 -1.762286 5.911245 0.000001 -3.141593 0.000000 -3.054327
    8 -2.841770 -0.132410 -7.037760 -3.141593 0.969358 3.141593
    9 -6.216228 0.000000 -0.009538 3.141593 -0.000003 -3.141593
    10 -6.044681 0.000000 -0.123807 3.141593 0.000000 3.141593
    11 -2.841770 -7.400337 0.154318 3.141593 0.000000 -2.232928
    12 -6.216228 0.011102 0.009510 0.000000 0.000000 -3.141592
    13 -6.044682 0.123416 0.123833 0.000000 0.000000 -3.141592
    14 -2.841769 -0.132410 6.858287 -3.141593 -0.963582 -3.141593
    15 -6.216228 0.000000 0.009509 -3.141593 0.000000 3.141593
    16 -6.044682 0.000000 0.123834 3.141593 0.000000 -3.141593
    17 -5.316726 1.858320 7.885149 0.000000 -1.570793 -1.630830
    18 -5.320000 1.887550 5.035499 0.000000 0.000000 0.575942
    19 -5.271080 1.859040 5.035499 0.000000 0.000000 -0.766488
    20 -5.269850 1.858320 -7.875906 0.000000 -1.570793 -1.630830
    21 -5.271080 1.887550 -5.026376 0.000000 0.000000 0.575942
    22 -5.271080 1.859040 -5.026376 0.000000 0.000000 -0.767261
    23 6.127056 4.060575 0.000002 3.141593 0.000000 -3.141593
  time 52
    0 0.000616 0.675802 -0.926226 1.570800 0.000000 1.570774
    1 -5.676169 -10.205956 -0.036927 3.141592 0.418841 -3.141592
    2 -12.201421 1.904737 0.015999 3.141593 0.000000 -3.141593
    3 -6.284104 10.169356 -10.201057 0.000000 1.570451 0.000000
    4 -6.284104 10.157806 10.244704 0.000000 1.570451 0.000000
    5 -6.284104 -10.225493 10.233214 0.000000 1.570451 0.000000
    6 -6.284114 -10.177173 -10.201057 0.000000 1.570451 0.000000
    7 -1.762286 5.911245 0.000001 -3.141593 0.000000 -3.054327
    8 -2.841770 -0.132410 -7.037760 -3.141593 0.969358 3.141593
    9 -6.216228 0.000000 -0.009538 3.141593 -0.000003 -3.141593
    10 -6.044681 0.000000 -0.123807 3.141593 0.000000 3.141593
    11 -2.841770 -7.400337 0.154318 3.141593 0.000000 -2.232928
    12 -6.216228 0.011102 0.009510 0.000000 0.000000 -3.141592
    13 -6.044682 0.123416 0.123833 0.000000 0.000000 -3.141592
    14 -2.841769 -0.132410 6.858287 -3.141593 -0.963582 -3.141593
    15 -6.216228 0.000000 0.009509 -3.141593 0.000000 3.141593
    16 -6.044682 0.000000 0.123834 3.141593 0.000000 -3.141593
    17 -5.316726 1.858320 7.885149 0.000000 -1.570793 -1.634674
    18 -5.320000 1.887550 5.035499 0.000000 0.000000 0.575942
    19 -5.271080 1.859040 5.035499 0.000000 0.000000 -0.766488
    20 -5.269850 1.858320 -7.875906 0.000000 -1.570793 -1.634674
    21 -5.271080 1.887550 -5.026376 0.000000 0.000000 0.575942
    22 -5.271080 1.859040 -5.026376 0.000000 0.000000 -0.767261
    23 6.127056 4.060575 0.000002 3.141593 0.000000 -3.141593
  time 53
    0 0.000616 0.675802 -1.027791 1.570800 0.000000 1.570774
    1 -5.676169 -10.205956 -0.036927 3.141592 0.366504 -3.141592
    2 -12.201421 1.904737 0.015999 3.141593 0.000000 -3.141593
    3 -6.284104 10.169356 -10.201057 0.000000 1.570451 0.000000
    4 -6.284104 10.157806 10.244704 0.000000 1.570451 0.000000
    5 -6.284104 -10.225493 10.233214 0.000000 1.570451 0.000000
    6 -6.284114 -10.177173 -10.201057 0.000000 1.570451 0.000000
    7 -1.762286 5.911245 0.000001 -3.141593 0.000000 -3.054327
    8 -2.841770 -0.132410 -7.037760 -3.141593 0.969358 3.141593
    9 -6.216228 0.000000 -0.009538 3.141593 -0.000003 -3.141593
    10 -6.044681 0.000000 -0.123807 3.141593 0.000000 3.141593
    11 -2.841770 -7.400337 0.154318 3.141593 0.000000 -2.232928
    12 -6.216228 0.011102 0.009510 0.000000 0.000000 -3.141592
    13 -6.044682 0.123416 0.123833 0.000000 0.000000 -3.141592
    14 -2.841769 -0.132410 6.858287 -3.141593 -0.963582 -3.141593
    15 -6.216228 0.000000 0.009509 -3.141593 0.000000 3.141593
    16 -6.044682 0.000000 0.123834 3.141593 0.000000 -3.141593
    17 -5.316726 1.858320 7.885149 0.000000 -1.570793 -1.637603
    18 -5.320000 1.887550 5.035499 0.000000 0.000000 0.575942
    19 -5.271080 1.859040 5.035499 0.000000 0.000000 -0.766488
    20 -5.269850 1.858320 -7.875906 0.000000 -1.570793 -1.637603
    21 -5.271080 1.887550 -5.026376 0.000000 0.000000 0.575942
    22 -5.271080 1.859040 -5.026376 0.000000 0.000000 -0.767261
    23 6.127056 4.060575 0.000002 3.141593 0.000000 -3.141593
  time 54
    0 0.000616 0.675802 -1.117638 1.570800 0.000000 1.570774
    1 -5.676169 -10.205956 -0.036927 3.141592 0.314119 3.141592
    2 -12.201421 1.904737 0.015999 3.141593 0.000000 -3.141593
    3 -6.284104 10.169356 -10.201057 0.000000 1.570451 0.000000
    4 -6.284104 10.157806 10.244704 0.000000 1.570451 0.000000
    5 -6.284104 -10.225493 10.233214 0.000000 1.570451 0.000000
    6 -6.284114 -10.177173 -10.201057 0.000000 1.570451 0.000000
    7 -1.762286 5.911245 0.000001 -3.141593 0.000000 -3.054327
    8 -2.841770 -0.132410 -7.037760 -3.141593 0.969358 3.141593
    9 -6.216228 0.000000 -0.009538 3.141593 -0.000003 -3.141593
    10 -6.044681 0.000000 -0.123807 3.141593 0.000000 3.141593
    11 -2.841770 -7.400337 0.154318 3.141593 0.000000 -2.232928
    12 -6.216228 0.011102 0.009510 0.000000 0.000000 -3.141592
    13 -6.044682 0.123416 0.123833 0.000000 0.000000 -3.141592
    14 -2.841769 -0.132410 6.858287 -3.141593 -0.963582 -3.141593
    15 -6.216228 0.000000 0.009509 -3.141593 0.000000 3.141593
    16 -6.044682 0.000000 0.123834 3.141593 0.000000 -3.141593
    17 -5.316726 1.858320 7.885149 0.000000 -1.570793 -1.639907
    18 -5.320000 1.887550 5.035499 0.000000 0.000000 0.575942
    19 -5.271080 1.859040 5.035499 0.000000 0.000000 -0.766488
    20 -5.269850 1.858320 -7.875906 0.000000 -1.570793 -1.639907
    21 -5.271080 1.887550 -5.026376 0.000000 0.000000 0.575942
    22 -5.271080 1.859040 -5.026376 0.000000 0.000000 -0.767261
    23 6.127056 4.060575 0.000002 3.141593 0.000000 -3.141593
  time 55
    0 0.000616 0.675802 -1.199672 1.570800 0.000000 1.570774
    1 -5.676169 -10.205956 -0.036927 3.141592 0.261782 -3.141592
    2 -12.201421 1.904737 0.015999 3.141593 0.000000 -3.141593
    3 -6.284104 10.169356 -10.201057 0.000000 1.570451 0.000000
    4 -6.284104 10.157806 10.244704 0.000000 1.570451 0.000000
    5 -6.284104 -10.225493 10.233214 0.000000 1.570451 0.000000
    6 -6.284114 -10.177173 -10.201057 0.000000 1.570451 0.000000
    7 -1.762286 5.911245 0.000001 -3.141593 0.000000 -3.054327
    8 -2.841770 -0.132410 -7.037760 -3.141593 0.969358 3.141593
    9 -6.216228 0.000000 -0.009538 3.141593 -0.000003 -3.141593
    10 -6.044681 0.000000 -0.123807 3.141593 0.000000 3.141593
    11 -2.841770 -7.400337 0.154318 3.141593 0.000000 -2.232928
    12 -6.216228 0.011102 0.009510 0.000000 0.000000 -3.141592
    13 -6.044682 0.123416 0.123833 0.000000 0.000000 -3.141592
    14 -2.841769 -0.132410 6.858287 -3.141593 -0.963582 -3.141593
    15 -6.216228 0.000000 0.009509 -3.141593 0.000000 3.141593
    16 -6.044682 0.000000 0.123834 3.141593 0.000000 -3.141593
    17 -5.316726 1.858320 7.885149 0.000000 -1.570793 -1.641892
    18 -5.320000 1.887550 5.035499 0.000000 0.000000 0.575942
    19 -5.271080 1.859040 5.035499 0.000000 0.000000 -0.766488
    20 -5.269850 1.858320 -7.875906 0.000000 -1.570793 -1.641892
    21 -5.271080 1.887550 -5.026376 0.000000 0.000000 0.575942
    22 -5.271080 1.859040 -5.026376 0.000000 0.000000 -0.767261
    23 6.127056 4.060575 0.000002 3.141593 0.000000 -3.141593
  time 56
    0 0.000616 0.675802 -1.266080 1.570800 0.000000 1.570774
    1 -5.676169 -10.205956 -0.036927 3.141592 0.209397 3.141592
    2 -12.201421 1.904737 0.015999 3.141593 0.000000 -3.141593
    3 -6.284104 10.169356 -10.201057 0.000000 1.570451 0.000000
    4 -6.284104 10.157806 10.244704 0.000000 1.570451 0.000000
    5 -6.284104 -10.225493 10.233214 0.000000 1.570451 0.000000
    6 -6.284114 -10.177173 -10.201057 0.000000 1.570451 0.000000
    7 -1.762286 5.911245 0.000001 -3.141593 0.000000 -3.054327
    8 -2.841770 -0.132410 -7.037760 -3.141593 0.969358 3.141593
    9 -6.216228 0.000000 -0.009538 3.141593 -0.000003 -3.141593
    10 -6.044681 0.000000 -0.123807 3.141593 0.000000 3.141593
    11 -2.841770 -7.400337 0.154318 3.141593 0.000000 -2.232928
    12 -6.216228 0.011102 0.009510 0.000000 0.000000 -3.141592
    13 -6.044682 0.123416 0.123833 0.000000 0.000000 -3.141592
    14 -2.841769 -0.132410 6.858287 -3.141593 -0.963582 -3.141593
    15 -6.216228 0.000000 0.009509 -3.141593 0.000000 3.141593
    16 -6.044682 0.000000 0.123834 3.141593 0.000000 -3.141593
    17 -5.316726 1.858320 7.885149 0.000000 -1.570793 -1.643891
    18 -5.320000 1.887550 5.035499 0.000000 0.000000 0.575942
    19 -5.271080 1.859040 5.035499 0.000000 0.000000 -0.766488
    20 -5.269850 1.858320 -7.875906 0.000000 -1.570793 -1.643891
    21 -5.271080 1.887550 -5.026376 0.000000 0.000000 0.575942
    22 -5.271080 1.859040 -5.026376 0.000000 0.000000 -0.767261
    23 6.127056 4.060575 0.000002 3.141593 0.000000 -3.141593
  time 57
    0 0.000616 0.675802 -1.320769 1.570800 0.000000 1.570774
    1 -5.676169 -10.205956 -0.036927 3.141592 0.157059 -3.141592
    2 -12.201421 1.904737 0.015999 3.141593 0.000000 -3.141593
    3 -6.284104 10.169356 -10.201057 0.000000 1.570451 0.000000
    4 -6.284104 10.157806 10.244704 0.000000 1.570451 0.000000
    5 -6.284104 -10.225493 10.233214 0.000000 1.570451 0.000000
    6 -6.284114 -10.177173 -10.201057 0.000000 1.570451 0.000000
    7 -1.762286 5.911245 0.000001 -3.141593 0.000000 -3.054327
    8 -2.841770 -0.132410 -7.037760 -3.141593 0.969358 3.141593
    9 -6.216228 0.000000 -0.009538 3.141593 -0.000003 -3.141593
    10 -6.044681 0.000000 -0.123807 3.141593 0.000000 3.141593
    11 -2.841770 -7.400337 0.154318 3.141593 0.000000 -2.232928
    12 -6.216228 0.011102 0.009510 0.000000 0.000000 -3.141592
    13 -6.044682 0.123416 0.123833 0.000000 0.000000 -3.141592
    14 -2.841769 -0.132410 6.858287 -3.141593 -0.963582 -3.141593
    15 -6.216228 0.000000 0.009509 -3.141593 0.000000 3.141593
    16 -6.044682 0.000000 0.123834 3.141593 0.000000 -3.141593
    17 -5.316726 1.858320 7.885149 0.000000 -1.570793 -1.646195
    18 -5.320000 1.887550 5.035499 0.000000 0.000000 0.575942
    19 -5.271080 1.859040 5.035499 0.000000 0.000000 -0.766488
    20 -5.269850 1.858320 -7.875906 0.000000 -1.570793 -1.646195
    21 -5.271080 1.887550 -5.026376 0.000000 0.000000 0.575942
    22 -5.271080 1.859040 -5.026376 0.000000 0.000000 -0.767261
    23 6.127056 4.060575 0.000002 3.141593 0.000000 -3.141593
  time 58
    0 0.000616 0.675802 -1.363739 1.570800 0.000000 1.570774
    1 -5.676169 -10.205956 -0.036927 3.141592 0.104674 3.141592
    2 -12.201421 1.904737 0.015999 3.141593 0.000000 -3.141593
    3 -6.284104 10.169356 -10.201057 0.000000 1.570451 0.000000
    4 -6.284104 10.157806 10.244704 0.000000 1.570451 0.000000
    5 -6.284104 -10.225493 10.233214 0.000000 1.570451 0.000000
    6 -6.284114 -10.177173 -10.201057 0.000000 1.570451 0.000000
    7 -1.762286 5.911245 0.000001 -3.141593 0.000000 -3.054327
    8 -2.841770 -0.132410 -7.037760 -3.141593 0.969358 3.141593
    9 -6.216228 0.000000 -0.009538 3.141593 -0.000003 -3.141593
    10 -6.044681 0.000000 -0.123807 3.141593 0.000000 3.141593
    11 -2.841770 -7.400337 0.154318 3.141593 0.000000 -2.232928
    12 -6.216228 0.011102 0.009510 0.000000 0.000000 -3.141592
    13 -6.044682 0.123416 0.123833 0.000000 0.000000 -3.141592
    14 -2.841769 -0.132410 6.858287 -3.141593 -0.963582 -3.141593
    15 -6.216228 0.000000 0.009509 -3.141593 0.000000 3.141593
    16 -6.044682 0.000000 0.123834 3.141593 0.000000 -3.141593
    17 -5.316726 1.858320 7.885149 0.000000 -1.570793 -1.649109
    18 -5.320000 1.887550 5.035499 0.000000 0.000000 0.575942
    19 -5.271080 1.859040 5.035499 0.000000 0.000000 -0.766488
    20 -5.269850 1.858320 -7.875906 0.000000 -1.570793 -1.649109
    21 -5.271080 1.887550 -5.026376 0.000000 0.000000 0.575942
    22 -5.271080 1.859040 -5.026376 0.000000 0.000000 -0.767261
    23 6.127056 4.060575 0.000002 3.141593 0.000000 -3.141593
  time 59
    0 0.000616 0.675802 -1.387177 1.570800 0.000000 1.570774
    1 -5.676169 -10.205956 -0.036927 3.141592 0.052337 3.141592
    2 -12.201421 1.904737 0.015999 3.141593 0.000000 -3.141593
    3 -6.284104 10.169356 -10.201057 0.000000 1.570451 0.000000
    4 -6.284104 10.157806 10.244704 0.000000 1.570451 0.000000
    5 -6.284104 -10.225493 10.233214 0.000000 1.570451 0.000000
    6 -6.284114 -10.177173 -10.201057 0.000000 1.570451 0.000000
    7 -1.762286 5.911245 0.000001 -3.141593 0.000000 -3.054327
    8 -2.841770 -0.132410 -7.037760 -3.141593 0.969358 3.141593
    9 -6.216228 0.000000 -0.009538 3.141593 -0.000003 -3.141593
    10 -6.044681 0.000000 -0.123807 3.141593 0.000000 3.141593
    11 -2.841770 -7.400337 0.154318 3.141593 0.000000 -2.232928
    12 -6.216228 0.011102 0.009510 0.000000 0.000000 -3.141592
    13 -6.044682 0.123416 0.123833 0.000000 0.000000 -3.141592
    14 -2.841769 -0.132410 6.858287 -3.141593 -0.963582 -3.141593
    15 -6.216228 0.000000 0.009509 -3.141593 0.000000 3.141593
    16 -6.044682 0.000000 0.123834 3.141593 0.000000 -3.141593
    17 -5.316726 1.858320 7.885149 0.000000 -1.570793 -1.652968
    18 -5.320000 1.887550 5.035499 0.000000 0.000000 0.575942
    19 -5.271080 1.859040 5.035499 0.000000 0.000000 -0.766488
    20 -5.269850 1.858320 -7.875906 0.000000 -1.570793 -1.652968
    21 -5.271080 1.887550 -5.026376 0.000000 0.000000 0.575942
    22 -5.271080 1.859040 -5.026376 0.000000 0.000000 -0.767261
    23 6.127056 4.060575 0.000002 3.141593 0.000000 -3.141593
  time 60
    0 0.000616 0.675802 -1.394990 1.570800 0.000000 1.570774
    1 -5.676169 -10.205956 -0.036927 3.141592 0.000000 -3.141592
    2 -12.201421 1.904737 0.015999 3.141593 0.000000 -3.141593
    3 -6.284104 10.169356 -10.201057 0.000000 1.570451 0.000000
    4 -6.284104 10.157806 10.244704 0.000000 1.570451 0.000000
    5 -6.284104 -10.225493 10.233214 0.000000 1.570451 0.000000
    6 -6.284114 -10.177173 -10.201057 0.000000 1.570451 0.000000
    7 -1.762286 5.911245 0.000001 -3.141593 0.000000 -3.054327
    8 -2.841770 -0.132410 -7.037760 -3.141593 0.969358 3.141593
    9 -6.216228 0.000000 -0.009538 3.141593 -0.000003 -3.141593
    10 -6.044681 0.000000 -0.123807 3.141593 0.000000 3.141593
    11 -2.841770 -7.400337 0.154318 3.141593 0.000000 -2.232928
    12 -6.216228 0.011102 0.009510 0.000000 0.000000 -3.141592
    13 -6.044682 0.123416 0.123833 0.000000 0.000000 -3.141592
    14 -2.841769 -0.132410 6.858287 -3.141593 -0.963582 -3.141593
    15 -6.216228 0.000000 0.009509 -3.141593 0.000000 3.141593
    16 -6.044682 0.000000 0.123834 3.141593 0.000000 -3.141593
    17 -5.316726 1.858320 7.885149 0.000000 -1.570793 -1.658062
    18 -5.320000 1.887550 5.035499 0.000000 0.000000 0.575942
    19 -5.271080 1.859040 5.035499 0.000000 0.000000 -0.766488
    20 -5.269850 1.858320 -7.875906 0.000000 -1.570793 -1.658062
    21 -5.271080 1.887550 -5.026376 0.000000 0.000000 0.575942
    22 -5.271080 1.859040 -5.026376 0.000000 0.000000 -0.767261
    23 6.127056 4.060575 0.000002 3.141593 0.000000 -3.141593
end
