// Created by Crowbar 0.62
version 1
nodes
  0 "Dummy (Root)" -1
  1 "Dummy (Antenna Pivot)" 0
  2 "Dummy (Pupil)" 0
  3 "Dummy (EyeShield1)" 2
  4 "Dummy (EyeShield2)" 2
  5 "Dummy (EyeShield3)" 2
  6 "Dummy (EyeShield4)" 2
  7 "Dummy (Inner Wheel Pivot)" 0
  8 "Dummy (L Arm1c)" 2
  9 "Dummy (L Arm1b)" 8
  10 "Dummy (L Arm1a)" 9
  11 "Dummy (L Arm2c)" 2
  12 "Dummy (L Arm2b)" 11
  13 "Dummy (L Arm2a)" 12
  14 "Dummy (L Arm3c)" 2
  15 "Dummy (L Arm3b)" 14
  16 "Dummy (L Arm3a)" 15
  17 "Dummy (L Prong1Pivot)" 0
  18 "Dummy (L Prong2 Pivot)" 0
  19 "Dummy (L Prong3Pivot)" 0
  20 "Dummy (L Prong4Pivot)" 0
  21 "Dummy (L Prong5Pivot)" 0
  22 "Dummy (L Prong6Pivot)" 0
  23 "Dummy (Tail Gun)" 0
end
skeleton
  time 0
    0 0.000616 0.675802 -1.394990 1.570800 0.000000 1.570774
    1 -5.676169 -10.205956 -0.036927 0.000000 0.000000 0.000000
    2 -12.201421 1.904737 0.015999 3.141593 0.000000 -3.141593
    3 -6.284104 10.169356 -10.201057 0.000000 1.570451 0.000000
    4 -6.284104 10.157806 10.244704 0.000000 1.570451 0.000000
    5 -6.284104 -10.225493 10.233214 0.000000 1.570451 0.000000
    6 -6.284114 -10.177173 -10.201057 0.000000 1.570451 0.000000
    7 -1.762286 5.911245 0.000001 -3.141593 0.000000 -3.054327
    8 -2.841770 -0.132410 -7.037760 -3.141593 -0.339600 -3.141593
    9 -6.216227 0.000000 -0.009537 -6.283185 -0.436329 -6.283090
    10 -6.044680 0.000000 -0.123807 -6.283185 -0.261771 -6.283090
    11 -2.841770 -7.400337 0.154318 3.141593 -0.000003 -3.454622
    12 -6.216228 0.011103 0.009509 0.000000 0.000000 -0.436332
    13 -6.044682 0.123416 0.123833 0.000000 0.000000 6.021298
    14 -2.841769 -0.132410 6.858286 -3.141593 0.345376 -3.141593
    15 -6.216226 0.000000 0.009509 -6.283185 0.436293 -6.283090
    16 -6.044680 0.000000 0.123834 -6.283185 0.261783 -6.283185
    17 -5.316726 1.858320 7.885149 0.000000 -1.570793 -1.413723
    18 -5.320000 1.887550 5.035499 0.000000 0.000000 0.575942
    19 -5.271080 1.859040 5.035499 0.000000 0.000000 -0.766488
    20 -5.316726 1.858320 -7.875906 0.000000 -1.570793 -1.413723
    21 -5.271080 1.887550 -5.026376 0.000000 0.000000 0.575942
    22 -5.271080 1.859040 -5.026376 0.000000 0.000000 -0.767261
    23 6.127056 4.060575 0.000002 3.141593 0.000000 -3.141593
  time 1
    0 0.000616 0.675802 -1.387177 1.570800 0.000000 1.570774
    1 -5.676169 -10.205956 -0.036927 0.000000 0.052337 0.000000
    2 -12.201421 1.904737 0.015999 3.141593 0.000000 -3.141593
    3 -6.284104 10.169356 -10.201057 0.000000 1.570451 0.000000
    4 -6.284104 10.157806 10.244704 0.000000 1.570451 0.000000
    5 -6.284104 -10.225493 10.233214 0.000000 1.570451 0.000000
    6 -6.284114 -10.177173 -10.201057 0.000000 1.570451 0.000000
    7 -1.762286 5.911245 0.000001 -3.141593 0.000000 -3.054327
    8 -2.841770 -0.132410 -7.037760 -3.141593 -0.339600 -3.141593
    9 -6.216227 0.000000 -0.009537 -6.283185 -0.436329 -6.283090
    10 -6.044680 0.000000 -0.123807 -6.283185 -1.221731 -6.283090
    11 -2.841770 -7.400337 0.154318 3.141593 -0.000003 -3.454622
    12 -6.216228 0.011103 0.009509 0.000000 0.000000 -0.436332
    13 -6.044682 0.123416 0.123833 0.000000 0.000000 5.061395
    14 -2.841769 -0.132410 6.858286 -3.141593 0.345376 -3.141593
    15 -6.216226 0.000000 0.009509 -6.283185 0.436293 -6.283090
    16 -6.044680 0.000000 0.123834 -6.283185 1.221694 -6.283185
    17 -5.316726 1.858320 7.885149 0.000000 -1.570793 -1.378816
    18 -5.320000 1.887550 5.035499 0.000000 0.000000 0.575942
    19 -5.271080 1.859040 5.035499 0.000000 0.000000 -0.766488
    20 -5.316726 1.858320 -7.875906 0.000000 -1.570793 -1.378816
    21 -5.271080 1.887550 -5.026376 0.000000 0.000000 0.575942
    22 -5.271080 1.859040 -5.026376 0.000000 0.000000 -0.767261
    23 6.127056 4.060575 0.000002 3.141593 0.000000 -3.141593
  time 2
    0 0.000616 0.675802 -1.363739 1.570800 0.000000 1.570774
    1 -5.676169 -10.205956 -0.036927 0.000000 0.104674 0.000000
    2 -12.201421 1.904737 0.015999 3.141593 0.000000 -3.141593
    3 -6.284104 10.169356 -10.201057 0.000000 1.570451 0.000000
    4 -6.284104 10.157806 10.244704 0.000000 1.570451 0.000000
    5 -6.284104 -10.225493 10.233214 0.000000 1.570451 0.000000
    6 -6.284114 -10.177173 -10.201057 0.000000 1.570451 0.000000
    7 -1.762286 5.911245 0.000001 -3.141593 0.000000 -3.054327
    8 -2.841770 -0.132410 -7.037760 -3.141593 -0.339600 -3.141593
    9 -6.216227 0.000000 -0.009537 -6.283185 -0.977382 -6.283090
    10 -6.044680 0.000000 -0.123807 -3.141593 -0.959920 -3.141593
    11 -2.841770 -7.400337 0.154318 3.141593 -0.000003 -3.454622
    12 -6.216228 0.011103 0.009509 0.000000 0.000000 -0.436332
    13 -6.044682 0.123416 0.123833 0.000000 0.000000 4.101493
    14 -2.841769 -0.132410 6.858286 -3.141593 0.345376 -3.141593
    15 -6.216226 0.000000 0.009509 -6.283185 0.436293 -6.283090
    16 -6.044680 0.000000 0.123834 -3.141593 0.959913 -3.141593
    17 -5.316726 1.858320 7.885149 0.000000 -1.570793 -1.343908
    18 -5.320000 1.887550 5.035499 0.000000 0.000000 0.575942
    19 -5.271080 1.859040 5.035499 0.000000 0.000000 -0.766488
    20 -5.316726 1.858320 -7.875906 0.000000 -1.570793 -1.343908
    21 -5.271080 1.887550 -5.026376 0.000000 0.000000 0.575942
    22 -5.271080 1.859040 -5.026376 0.000000 0.000000 -0.767261
    23 6.127056 4.060575 0.000002 3.141593 0.000000 -3.141593
  time 3
    0 0.000616 0.675802 -1.320769 1.570800 0.000000 1.570774
    1 -5.676169 -10.205956 -0.036927 0.000000 0.157059 0.000000
    2 -12.201421 1.904737 0.015999 3.141593 0.000000 -3.141593
    3 -6.284104 10.169356 -10.201057 0.000000 1.570451 0.000000
    4 -6.284104 10.157806 10.244704 0.000000 1.570451 0.000000
    5 -6.284104 -10.225493 10.233214 0.000000 1.570451 0.000000
    6 -6.284114 -10.177173 -10.201057 0.000000 1.570451 0.000000
    7 -1.762286 5.911245 0.000001 -3.141593 0.000000 -3.054327
    8 -2.841770 -0.132410 -7.037760 -3.141593 -0.339600 -3.141593
    9 -6.216227 0.000000 -0.009537 -0.000096 -1.518388 -6.283090
    10 -6.044680 0.000000 -0.123807 -3.141593 0.000003 -3.141593
    11 -2.841770 -7.400337 0.154318 3.141593 -0.000003 -3.454622
    12 -6.216228 0.011103 0.009509 0.000000 0.000000 -1.112667
    13 -6.044682 0.123416 0.123833 0.000000 0.000000 3.141590
    14 -2.841769 -0.132410 6.858286 -3.141593 0.345376 -3.141593
    15 -6.216226 0.000000 0.009509 -6.283185 1.112628 -6.283090
    16 -6.044680 0.000000 0.123834 -3.141593 0.000003 -3.141593
    17 -5.316726 1.858320 7.885149 0.000000 -1.570793 -1.309000
    18 -5.320000 1.887550 5.035499 0.000000 0.000000 0.575942
    19 -5.271080 1.859040 5.035499 0.000000 0.000000 -0.766488
    20 -5.316726 1.858320 -7.875906 0.000000 -1.570793 -1.309000
    21 -5.271080 1.887550 -5.026376 0.000000 0.000000 0.575942
    22 -5.271080 1.859040 -5.026376 0.000000 0.000000 -0.767261
    23 6.127056 4.060575 0.000002 3.141593 0.000000 -3.141593
  time 4
    0 0.000616 0.675802 -1.266080 1.570800 0.000000 1.570774
    1 -5.676169 -10.205956 -0.036927 0.000000 0.209397 0.000000
    2 -12.201421 1.904737 0.015999 3.141593 0.000000 -3.141593
    3 -6.284104 10.169356 -10.201057 0.000000 1.570451 0.000000
    4 -6.284104 10.157806 10.244704 0.000000 1.570451 0.000000
    5 -6.284104 -10.225493 10.233214 0.000000 1.570451 0.000000
    6 -6.284114 -10.177173 -10.201057 0.000000 1.570451 0.000000
    7 -1.762286 5.911245 0.000001 -3.141593 0.000000 -3.054327
    8 -2.841770 -0.132410 -7.037760 -3.141593 -0.339600 -3.141593
    9 -6.216227 0.000000 -0.009537 -3.141593 -1.082061 -3.141593
    10 -6.044680 0.000000 -0.123807 -3.141593 0.000003 -3.141593
    11 -2.841770 -7.400337 0.154318 3.141593 -0.000003 -3.454622
    12 -6.216228 0.011103 0.009509 0.000000 0.000000 -1.789002
    13 -6.044682 0.123416 0.123833 0.000000 0.000000 3.141590
    14 -2.841769 -0.132410 6.858286 -3.141593 0.345376 -3.141593
    15 -6.216226 0.000000 0.009509 -3.141593 1.352631 -3.141593
    16 -6.044680 0.000000 0.123834 -3.141593 0.000003 -3.141593
    17 -5.316726 1.858320 7.885149 0.000000 -1.570793 -1.309000
    18 -5.320000 1.887550 5.035499 0.000000 0.000000 0.575942
    19 -5.271080 1.859040 5.035499 0.000000 0.000000 -0.766488
    20 -5.316726 1.858320 -7.875906 0.000000 -1.570793 -1.309000
    21 -5.271080 1.887550 -5.026376 0.000000 0.000000 0.575942
    22 -5.271080 1.859040 -5.026376 0.000000 0.000000 -0.767261
    23 6.127056 4.060575 0.000002 3.141593 0.000000 -3.141593
  time 5
    0 0.000616 0.675802 -1.199672 1.570800 0.000000 1.570774
    1 -5.676169 -10.205956 -0.036927 0.000000 0.261782 0.000000
    2 -12.201421 1.904737 0.015999 3.141593 0.000000 -3.141593
    3 -6.284104 10.169356 -10.201057 0.000000 1.570451 0.000000
    4 -6.284104 10.157806 10.244704 0.000000 1.570451 0.000000
    5 -6.284104 -10.225493 10.233214 0.000000 1.570451 0.000000
    6 -6.284114 -10.177173 -10.201057 0.000000 1.570451 0.000000
    7 -1.762286 5.911245 0.000001 -3.141593 0.000000 -3.054327
    8 -2.841770 -0.132410 -7.037760 -3.141593 -0.339600 -3.141593
    9 -6.216227 0.000000 -0.009537 -3.141593 -0.541009 -3.141593
    10 -6.044680 0.000000 -0.123807 -3.141593 0.000003 -3.141593
    11 -2.841770 -7.400337 0.154318 3.141593 -0.000003 -3.454622
    12 -6.216228 0.011103 0.009509 0.000000 0.000000 -2.465338
    13 -6.044682 0.123416 0.123833 0.000000 0.000000 3.141590
    14 -2.841769 -0.132410 6.858286 -3.141593 0.345376 -3.141593
    15 -6.216226 0.000000 0.009509 -3.141593 0.676296 -3.141593
    16 -6.044680 0.000000 0.123834 -3.141593 0.000003 -3.141593
    17 -5.316726 1.858320 7.885149 0.000000 -1.570793 -1.309000
    18 -5.320000 1.887550 5.035499 0.000000 0.000000 0.575942
    19 -5.271080 1.859040 5.035499 0.000000 0.000000 -0.766488
    20 -5.316726 1.858320 -7.875906 0.000000 -1.570793 -1.309000
    21 -5.271080 1.887550 -5.026376 0.000000 0.000000 0.575942
    22 -5.271080 1.859040 -5.026376 0.000000 0.000000 -0.767261
    23 6.127056 4.060575 0.000002 3.141593 0.000000 -3.141593
  time 6
    0 0.000616 0.675802 -1.117638 1.570800 0.000000 1.570774
    1 -5.676169 -10.205956 -0.036927 0.000000 0.314119 0.000000
    2 -12.201421 1.904737 0.015999 3.141593 0.000000 -3.141593
    3 -6.284104 10.169356 -10.201057 0.000000 1.570451 0.000000
    4 -6.284104 10.157806 10.244704 0.000000 1.570451 0.000000
    5 -6.284104 -10.225493 10.233214 0.000000 1.570451 0.000000
    6 -6.284114 -10.177173 -10.201057 0.000000 1.570451 0.000000
    7 -1.762286 5.911245 0.000001 -3.141593 0.000000 -3.054327
    8 -2.841770 -0.132410 -7.037760 -3.141593 -0.175976 -3.141593
    9 -6.216227 0.000000 -0.009537 -3.141593 -0.000003 -3.141593
    10 -6.044680 0.000000 -0.123807 -3.141593 0.000003 -3.141593
    11 -2.841770 -7.400337 0.154318 3.141593 -0.000003 -3.301905
    12 -6.216228 0.011103 0.009509 0.000000 0.000000 -3.141590
    13 -6.044682 0.123416 0.123833 0.000000 0.000000 3.141590
    14 -2.841769 -0.132410 6.858286 -3.141593 0.181786 -3.141593
    15 -6.216226 0.000000 0.009509 -3.141593 0.000003 -3.141593
    16 -6.044680 0.000000 0.123834 -3.141593 0.000003 -3.141593
    17 -5.316726 1.858320 7.885149 0.000000 -1.570793 -1.309000
    18 -5.320000 1.887550 5.035499 0.000000 0.000000 0.575942
    19 -5.271080 1.859040 5.035499 0.000000 0.000000 -0.766488
    20 -5.316726 1.858320 -7.875906 0.000000 -1.570793 -1.309000
    21 -5.271080 1.887550 -5.026376 0.000000 0.000000 0.575942
    22 -5.271080 1.859040 -5.026376 0.000000 0.000000 -0.767261
    23 6.127056 4.060575 0.000002 3.141593 0.000000 -3.141593
  time 7
    0 0.000616 0.675802 -1.027791 1.570800 0.000000 1.570774
    1 -5.676169 -10.205956 -0.036927 0.000000 0.366504 0.000000
    2 -12.201421 1.904737 0.015999 3.141593 0.000000 -3.141593
    3 -6.284104 10.169356 -10.201057 0.000000 1.570451 0.000000
    4 -6.284104 10.157806 10.244704 0.000000 1.570451 0.000000
    5 -6.284104 -10.225493 10.233214 0.000000 1.570451 0.000000
    6 -6.284114 -10.177173 -10.201057 0.000000 1.570451 0.000000
    7 -1.762286 5.911245 0.000001 -3.141593 0.000000 -3.054327
    8 -2.841770 -0.132410 -7.037760 -3.141593 -0.012352 -3.141593
    9 -6.216227 0.000000 -0.009537 -3.141593 -0.000003 -3.141593
    10 -6.044680 0.000000 -0.123807 -3.141593 0.000003 -3.141593
    11 -2.841770 -7.400337 0.154318 3.141593 -0.000003 -3.149189
    12 -6.216228 0.011103 0.009509 0.000000 0.000000 -3.141590
    13 -6.044682 0.123416 0.123833 0.000000 0.000000 3.141590
    14 -2.841769 -0.132410 6.858286 -3.141593 0.018156 -3.141593
    15 -6.216226 0.000000 0.009509 -3.141593 0.000003 -3.141593
    16 -6.044680 0.000000 0.123834 -3.141593 0.000003 -3.141593
    17 -5.316726 1.858320 7.885149 0.000000 -1.570793 -1.309000
    18 -5.320000 1.887550 5.035499 0.000000 0.000000 0.575942
    19 -5.271080 1.859040 5.035499 0.000000 0.000000 -0.766488
    20 -5.316726 1.858320 -7.875906 0.000000 -1.570793 -1.309000
    21 -5.271080 1.887550 -5.026376 0.000000 0.000000 0.575942
    22 -5.271080 1.859040 -5.026376 0.000000 0.000000 -0.767261
    23 6.127056 4.060575 0.000002 3.141593 0.000000 -3.141593
  time 8
    0 0.000616 0.675802 -0.926226 1.570800 0.000000 1.570774
    1 -5.676169 -10.205956 -0.036927 0.000000 0.418841 0.000000
    2 -12.201421 1.904737 0.015999 3.141593 0.000000 -3.141593
    3 -6.284104 10.169356 -10.201057 0.000000 1.570451 0.000000
    4 -6.284104 10.157806 10.244704 0.000000 1.570451 0.000000
    5 -6.284104 -10.225493 10.233214 0.000000 1.570451 0.000000
    6 -6.284114 -10.177173 -10.201057 0.000000 1.570451 0.000000
    7 -1.762286 5.911245 0.000001 -3.141593 0.000000 -3.054327
    8 -2.841770 -0.132410 -7.037760 -3.141593 0.151272 -3.141593
    9 -6.216227 0.000000 -0.009537 -3.141593 -0.000003 -3.141593
    10 -6.044680 0.000000 -0.123807 -3.141593 0.000003 -3.141593
    11 -2.841770 -7.400337 0.154318 3.141593 -0.000003 -2.996510
    12 -6.216228 0.011103 0.009509 0.000000 0.000000 -3.141590
    13 -6.044682 0.123416 0.123833 0.000000 0.000000 3.141590
    14 -2.841769 -0.132410 6.858286 -3.141593 -0.145474 -3.141593
    15 -6.216226 0.000000 0.009509 -3.141593 0.000003 -3.141593
    16 -6.044680 0.000000 0.123834 -3.141593 0.000003 -3.141593
    17 -5.316726 1.858320 7.885149 0.000000 -1.570793 -1.309000
    18 -5.320000 1.887550 5.035499 0.000000 0.000000 0.575942
    19 -5.271080 1.859040 5.035499 0.000000 0.000000 -0.766488
    20 -5.316726 1.858320 -7.875906 0.000000 -1.570793 -1.309000
    21 -5.271080 1.887550 -5.026376 0.000000 0.000000 0.575942
    22 -5.271080 1.859040 -5.026376 0.000000 0.000000 -0.767261
    23 6.127056 4.060575 0.000002 3.141593 0.000000 -3.141593
  time 9
    0 0.000616 0.675802 -0.816847 1.570800 0.000000 1.570774
    1 -5.676169 -10.205956 -0.036927 0.000000 0.471226 0.000000
    2 -12.201421 1.904737 0.015999 3.141593 0.000000 -3.141593
    3 -6.284104 10.169356 -10.201057 0.000000 1.570451 0.000000
    4 -6.284104 10.157806 10.244704 0.000000 1.570451 0.000000
    5 -6.284104 -10.225493 10.233214 0.000000 1.570451 0.000000
    6 -6.284114 -10.177173 -10.201057 0.000000 1.570451 0.000000
    7 -1.762286 5.911245 0.000001 -3.141593 0.000000 -3.054327
    8 -2.841770 -0.132410 -7.037760 -3.141593 0.314896 -3.141593
    9 -6.216227 0.000000 -0.009537 -3.141593 -0.000003 -3.141593
    10 -6.044680 0.000000 -0.123807 -3.141593 0.000003 -3.141593
    11 -2.841770 -7.400337 0.154318 3.141593 -0.000003 -2.843756
    12 -6.216228 0.011103 0.009509 0.000000 0.000000 -3.141590
    13 -6.044682 0.123416 0.123833 0.000000 0.000000 3.141590
    14 -2.841769 -0.132410 6.858286 -3.141593 -0.309103 -3.141593
    15 -6.216226 0.000000 0.009509 -3.141593 0.000003 -3.141593
    16 -6.044680 0.000000 0.123834 -3.141593 0.000003 -3.141593
    17 -5.316726 1.858320 7.885149 0.000000 -1.570793 -1.352638
    18 -5.320000 1.887550 5.035499 0.000000 0.000000 0.575942
    19 -5.271080 1.859040 5.035499 0.000000 0.000000 -0.766488
    20 -5.316726 1.858320 -7.875906 0.000000 -1.570793 -1.352638
    21 -5.271080 1.887550 -5.026376 0.000000 0.000000 0.575942
    22 -5.271080 1.859040 -5.026376 0.000000 0.000000 -0.767261
    23 6.127056 4.060575 0.000002 3.141593 0.000000 -3.141593
  time 10
    0 0.000616 0.675802 -0.703563 1.570800 0.000000 1.570774
    1 -5.676169 -10.205956 -0.036927 0.000000 0.523564 0.000000
    2 -12.201421 1.904737 0.015999 3.141593 0.000000 -3.141593
    3 -6.284104 10.169356 -10.201057 0.000000 1.570451 0.000000
    4 -6.284104 10.157806 10.244704 0.000000 1.570451 0.000000
    5 -6.284104 -10.225493 10.233214 0.000000 1.570451 0.000000
    6 -6.284114 -10.177173 -10.201057 0.000000 1.570451 0.000000
    7 -1.762286 5.911245 0.000001 -3.141593 0.000000 -3.054327
    8 -2.841770 -0.132410 -7.037760 -3.141593 0.478520 -3.141593
    9 -6.216227 0.000000 -0.009537 -3.141593 -0.000003 -3.141593
    10 -6.044680 0.000000 -0.123807 -3.141593 0.000003 -3.141593
    11 -2.841770 -7.400337 0.154318 3.141593 -0.000003 -2.691040
    12 -6.216228 0.011103 0.009509 0.000000 0.000000 -3.141590
    13 -6.044682 0.123416 0.123833 0.000000 0.000000 3.141590
    14 -2.841769 -0.132410 6.858286 -3.141593 -0.472733 -3.141593
    15 -6.216226 0.000000 0.009509 -3.141593 0.000003 -3.141593
    16 -6.044680 0.000000 0.123834 -3.141593 0.000003 -3.141593
    17 -5.316726 1.858320 7.885149 0.000000 -1.570793 -1.396276
    18 -5.320000 1.887550 5.035499 0.000000 0.000000 0.575942
    19 -5.271080 1.859040 5.035499 0.000000 0.000000 -0.766488
    20 -5.316726 1.858320 -7.875906 0.000000 -1.570793 -1.396276
    21 -5.271080 1.887550 -5.026376 0.000000 0.000000 0.575942
    22 -5.271080 1.859040 -5.026376 0.000000 0.000000 -0.767261
    23 6.127056 4.060575 0.000002 3.141593 0.000000 -3.141593
  time 11
    0 0.000616 0.675802 -0.578559 1.570800 0.000000 1.570774
    1 -5.676169 -10.205956 -0.036927 0.000000 0.575949 0.000000
    2 -12.201421 1.904737 0.015999 3.141593 0.000000 -3.141593
    3 -6.284104 10.169356 -10.201057 0.000000 1.570451 0.000000
    4 -6.284104 10.157806 10.244704 0.000000 1.570451 0.000000
    5 -6.284104 -10.225493 10.233214 0.000000 1.570451 0.000000
    6 -6.284114 -10.177173 -10.201057 0.000000 1.570451 0.000000
    7 -1.762286 5.911245 0.000001 -3.141593 0.000000 -3.054327
    8 -2.841770 -0.132410 -7.037760 -3.141593 0.642145 -3.141593
    9 -6.216227 0.000000 -0.009537 -3.141593 -0.000003 -3.141593
    10 -6.044680 0.000000 -0.123807 -3.141593 0.000003 -3.141593
    11 -2.841770 -7.400337 0.154318 3.141593 -0.000003 -2.538360
    12 -6.216228 0.011103 0.009509 0.000000 0.000000 -3.141590
    13 -6.044682 0.123416 0.123833 0.000000 0.000000 3.141590
    14 -2.841769 -0.132410 6.858286 -3.141593 -0.636363 -3.141593
    15 -6.216226 0.000000 0.009509 -3.141593 0.000003 -3.141593
    16 -6.044680 0.000000 0.123834 -3.141593 0.000003 -3.141593
    17 -5.316726 1.858320 7.885149 0.000000 -1.570793 -1.439900
    18 -5.320000 1.887550 5.035499 0.000000 0.000000 0.575942
    19 -5.271080 1.859040 5.035499 0.000000 0.000000 -0.766488
    20 -5.316726 1.858320 -7.875906 0.000000 -1.570793 -1.439900
    21 -5.271080 1.887550 -5.026376 0.000000 0.000000 0.575942
    22 -5.271080 1.859040 -5.026376 0.000000 0.000000 -0.767261
    23 6.127056 4.060575 0.000002 3.141593 0.000000 -3.141593
  time 12
    0 0.000616 0.675802 -0.453555 1.570800 0.000000 1.570774
    1 -5.676169 -10.205956 -0.036927 0.000000 0.628286 0.000000
    2 -12.201421 1.904737 0.015999 3.141593 0.000000 -3.141593
    3 -6.284104 10.169356 -10.201057 0.000000 1.570451 0.000000
    4 -6.284104 10.157806 10.244704 0.000000 1.570451 0.000000
    5 -6.284104 -10.225493 10.233214 0.000000 1.570451 0.000000
    6 -6.284114 -10.177173 -10.201057 0.000000 1.570451 0.000000
    7 -1.762286 5.911245 0.000001 -3.141593 0.000000 -3.054327
    8 -2.841770 -0.132410 -7.037760 -3.141593 0.805769 -3.141593
    9 -6.216227 0.000000 -0.009537 -3.141593 -0.000003 -3.141593
    10 -6.044680 0.000000 -0.123807 -3.141593 0.000003 -3.141593
    11 -2.841770 -7.400337 0.154318 3.141593 -0.000003 -2.385607
    12 -6.216228 0.011103 0.009509 0.000000 0.000000 -3.141590
    13 -6.044682 0.123416 0.123833 0.000000 0.000000 3.141590
    14 -2.841769 -0.132410 6.858286 -3.141593 -0.799993 -3.141593
    15 -6.216226 0.000000 0.009509 -3.141593 0.000003 -3.141593
    16 -6.044680 0.000000 0.123834 -3.141593 0.000003 -3.141593
    17 -5.316726 1.858320 7.885149 0.000000 -1.570793 -1.483538
    18 -5.320000 1.887550 5.035499 0.000000 0.000000 0.575942
    19 -5.271080 1.859040 5.035499 0.000000 0.000000 -0.766488
    20 -5.316726 1.858320 -7.875906 0.000000 -1.570793 -1.483538
    21 -5.271080 1.887550 -5.026376 0.000000 0.000000 0.575942
    22 -5.271080 1.859040 -5.026376 0.000000 0.000000 -0.767261
    23 6.127056 4.060575 0.000002 3.141593 0.000000 -3.141593
  time 13
    0 0.000616 0.675802 -0.324645 1.570800 0.000000 1.570774
    1 -5.676169 -10.205956 -0.036927 0.000000 0.680671 0.000000
    2 -12.201421 1.904737 0.015999 3.141593 0.000000 -3.141593
    3 -6.284104 10.169356 -10.201057 0.000000 1.570451 0.000000
    4 -6.284104 10.157806 10.244704 0.000000 1.570451 0.000000
    5 -6.284104 -10.225493 10.233214 0.000000 1.570451 0.000000
    6 -6.284114 -10.177173 -10.201057 0.000000 1.570451 0.000000
    7 -1.762286 5.911245 0.000001 -3.141593 0.000000 -3.054327
    8 -2.841770 -0.132410 -7.037760 -3.141593 0.969353 -3.141593
    9 -6.216227 0.000000 -0.009537 -3.141593 -0.000003 -3.141593
    10 -6.044680 0.000000 -0.123807 -3.141593 0.000003 -3.141593
    11 -2.841770 -7.400337 0.154318 3.141593 -0.000003 -2.232928
    12 -6.216228 0.011103 0.009509 0.000000 0.000000 -3.141590
    13 -6.044682 0.123416 0.123833 0.000000 0.000000 3.141590
    14 -2.841769 -0.132410 6.858286 -3.141593 -0.963583 -3.141593
    15 -6.216226 0.000000 0.009509 -3.141593 0.000003 -3.141593
    16 -6.044680 0.000000 0.123834 -3.141593 0.000003 -3.141593
    17 -5.316726 1.858320 7.885149 0.000000 -1.570793 -1.466077
    18 -5.320000 1.887550 5.035499 0.000000 0.000000 0.575942
    19 -5.271080 1.859040 5.035499 0.000000 0.000000 -0.766488
    20 -5.316726 1.858320 -7.875906 0.000000 -1.570793 -1.466077
    21 -5.271080 1.887550 -5.026376 0.000000 0.000000 0.575942
    22 -5.271080 1.859040 -5.026376 0.000000 0.000000 -0.767261
    23 6.127056 4.060575 0.000002 3.141593 0.000000 -3.141593
  time 14
    0 0.000616 0.675802 -0.191828 1.570800 0.000000 1.570774
    1 -5.676169 -10.205956 -0.036927 0.000000 0.733008 0.000000
    2 -12.201421 1.904737 0.015999 3.141593 0.000000 -3.141593
    3 -6.284104 10.169356 -10.201057 0.000000 1.570451 0.000000
    4 -6.284104 10.157806 10.244704 0.000000 1.570451 0.000000
    5 -6.284104 -10.225493 10.233214 0.000000 1.570451 0.000000
    6 -6.284114 -10.177173 -10.201057 0.000000 1.570451 0.000000
    7 -1.762286 5.911245 0.000001 -3.141593 0.000000 -3.054327
    8 -2.841770 -0.132410 -7.037760 -3.141593 0.969353 -3.141593
    9 -6.216227 0.000000 -0.009537 -3.141593 -0.000003 -3.141593
    10 -6.044680 0.000000 -0.123807 -3.141593 0.000003 -3.141593
    11 -2.841770 -7.400337 0.154318 3.141593 -0.000003 -2.232928
    12 -6.216228 0.011103 0.009509 0.000000 0.000000 -3.141590
    13 -6.044682 0.123416 0.123833 0.000000 0.000000 3.141590
    14 -2.841769 -0.132410 6.858286 -3.141593 -0.963583 -3.141593
    15 -6.216226 0.000000 0.009509 -3.141593 0.000003 -3.141593
    16 -6.044680 0.000000 0.123834 -3.141593 0.000003 -3.141593
    17 -5.316726 1.858320 7.885149 0.000000 -1.570793 -1.448631
    18 -5.320000 1.887550 5.035499 0.000000 0.000000 0.575942
    19 -5.271080 1.859040 5.035499 0.000000 0.000000 -0.766488
    20 -5.316726 1.858320 -7.875906 0.000000 -1.570793 -1.448631
    21 -5.271080 1.887550 -5.026376 0.000000 0.000000 0.575942
    22 -5.271080 1.859040 -5.026376 0.000000 0.000000 -0.767261
    23 6.127056 4.060575 0.000002 3.141593 0.000000 -3.141593
  time 15
    0 0.000616 0.675802 -0.055105 1.570800 0.000000 1.570774
    1 -5.676169 -10.205956 -0.036927 0.000000 0.785393 0.000000
    2 -12.201421 1.904737 0.015999 3.141593 0.000000 -3.141593
    3 -6.284104 10.169356 -10.201057 0.000000 1.570451 0.000000
    4 -6.284104 10.157806 10.244704 0.000000 1.570451 0.000000
    5 -6.284104 -10.225493 10.233214 0.000000 1.570451 0.000000
    6 -6.284114 -10.177173 -10.201057 0.000000 1.570451 0.000000
    7 -1.762286 5.911245 0.000001 -3.141593 0.000000 -3.054327
    8 -2.841770 -0.132410 -7.037760 -3.141593 0.969353 -3.141593
    9 -6.216227 0.000000 -0.009537 -3.141593 -0.000003 -3.141593
    10 -6.044680 0.000000 -0.123807 -3.141593 0.000003 -3.141593
    11 -2.841770 -7.400337 0.154318 3.141593 -0.000003 -2.232928
    12 -6.216228 0.011103 0.009509 0.000000 0.000000 -3.141590
    13 -6.044682 0.123416 0.123833 0.000000 0.000000 3.141590
    14 -2.841769 -0.132410 6.858286 -3.141593 -0.963583 -3.141593
    15 -6.216226 0.000000 0.009509 -3.141593 0.000003 -3.141593
    16 -6.044680 0.000000 0.123834 -3.141593 0.000003 -3.141593
    17 -5.316726 1.858320 7.885149 0.000000 -1.570793 -1.431184
    18 -5.320000 1.887550 5.035499 0.000000 0.000000 0.575942
    19 -5.271080 1.859040 5.035499 0.000000 0.000000 -0.766488
    20 -5.316726 1.858320 -7.875906 0.000000 -1.570793 -1.431184
    21 -5.271080 1.887550 -5.026376 0.000000 0.000000 0.575942
    22 -5.271080 1.859040 -5.026376 0.000000 0.000000 -0.767261
    23 6.127056 4.060575 0.000002 3.141593 0.000000 -3.141593
  time 16
    0 0.000616 0.675802 0.077711 1.570800 0.000000 1.570774
    1 -5.676169 -10.205956 -0.036927 0.000000 0.837730 0.000000
    2 -12.201421 1.904737 0.015999 3.141593 0.000000 -3.141593
    3 -6.202070 10.048259 -10.072147 0.000000 1.570451 0.000000
    4 -6.202070 10.036709 10.119700 0.000000 1.570451 0.000000
    5 -6.202070 -10.100489 10.108210 0.000000 1.570451 0.000000
    6 -6.202080 -10.052169 -10.072147 0.000000 1.570451 0.000000
    7 -1.762286 5.911245 0.000001 -3.141593 0.000000 -3.054327
    8 -2.841770 -0.132410 -7.037760 -3.141593 0.969353 -3.141593
    9 -6.216227 0.000000 -0.009537 -3.141593 -0.000003 -3.141593
    10 -6.044680 0.000000 -0.123807 -3.141593 0.000003 -3.141593
    11 -2.841770 -7.400337 0.154318 3.141593 -0.000003 -2.232928
    12 -6.216228 0.011103 0.009509 0.000000 0.000000 -3.141590
    13 -6.044682 0.123416 0.123833 0.000000 0.000000 3.141590
    14 -2.841769 -0.132410 6.858286 -3.141593 -0.963583 -3.141593
    15 -6.216226 0.000000 0.009509 -3.141593 0.000003 -3.141593
    16 -6.044680 0.000000 0.123834 -3.141593 0.000003 -3.141593
    17 -5.316726 1.858320 7.885149 0.000000 -1.570793 -1.413723
    18 -5.320000 1.887550 5.035499 0.000000 0.000000 0.575942
    19 -5.271080 1.859040 5.035499 0.000000 0.000000 -0.766488
    20 -5.316726 1.858320 -7.875906 0.000000 -1.570793 -1.413723
    21 -5.271080 1.887550 -5.026376 0.000000 0.000000 0.575942
    22 -5.271080 1.859040 -5.026376 0.000000 0.000000 -0.767261
    23 6.127056 4.060575 0.000002 3.141593 0.000000 -3.141593
  time 17
    0 0.000616 0.675802 0.210528 1.570800 0.000000 1.570774
    1 -5.676169 -10.205956 -0.036927 0.000000 0.890116 0.000000
    2 -12.201421 1.904737 0.015999 3.141593 0.000000 -3.141593
    3 -6.127849 9.938880 -9.962769 0.000000 1.570451 0.000000
    4 -6.127849 9.927330 10.010321 0.000000 1.570451 0.000000
    5 -6.127849 -9.995017 9.998832 0.000000 1.570451 0.000000
    6 -6.127859 -9.946697 -9.962769 0.000000 1.570451 0.000000
    7 -1.762286 5.911245 0.000001 -3.141593 0.000000 -3.054327
    8 -2.841770 -0.132410 -7.037760 -3.141593 0.969353 -3.141593
    9 -6.216227 0.000000 -0.009537 -3.141593 -0.000003 -3.141593
    10 -6.044680 0.000000 -0.123807 -3.141593 0.000003 -3.141593
    11 -2.841770 -7.400337 0.154318 3.141593 -0.000003 -2.232928
    12 -6.216228 0.011103 0.009509 0.000000 0.000000 -3.141590
    13 -6.044682 0.123416 0.123833 0.000000 0.000000 3.141590
    14 -2.841769 -0.132410 6.858286 -3.141593 -0.963583 -3.141593
    15 -6.216226 0.000000 0.009509 -3.141593 0.000003 -3.141593
    16 -6.044680 0.000000 0.123834 -3.141593 0.000003 -3.141593
    17 -5.316726 1.858320 7.885149 0.000000 -1.570793 -1.396276
    18 -5.320000 1.887550 5.035499 0.000000 0.000000 0.575942
    19 -5.271080 1.859040 5.035499 0.000000 0.000000 -0.766488
    20 -5.316726 1.858320 -7.875906 0.000000 -1.570793 -1.396276
    21 -5.271080 1.887550 -5.026376 0.000000 0.000000 0.575942
    22 -5.271080 1.859040 -5.026376 0.000000 0.000000 -0.767261
    23 6.127056 4.060575 0.000002 3.141593 0.000000 -3.141593
  time 18
    0 0.000616 0.675802 0.339438 1.570800 0.000000 1.570774
    1 -5.676169 -10.205956 -0.036927 0.000000 0.942453 0.000000
    2 -12.201421 1.904737 0.015999 3.141593 0.000000 -3.141593
    3 -6.065348 9.845127 -9.869016 0.000000 1.570451 0.000000
    4 -6.065348 9.833577 9.916569 0.000000 1.570451 0.000000
    5 -6.065348 -9.901264 9.905079 0.000000 1.570451 0.000000
    6 -6.065358 -9.852944 -9.869016 0.000000 1.570451 0.000000
    7 -1.762286 5.911245 0.000001 -3.141593 0.000000 -3.054327
    8 -2.841770 -0.132410 -7.037760 -3.141593 0.969353 -3.141593
    9 -6.216227 0.000000 -0.009537 -3.141593 -0.000003 -3.141593
    10 -6.044680 0.000000 -0.123807 -3.141593 0.000003 -3.141593
    11 -2.841770 -7.400337 0.154318 3.141593 -0.000003 -2.232928
    12 -6.216228 0.011103 0.009509 0.000000 0.000000 -3.141590
    13 -6.044682 0.123416 0.123833 0.000000 0.000000 3.141590
    14 -2.841769 -0.132410 6.858286 -3.141593 -0.963583 -3.141593
    15 -6.216226 0.000000 0.009509 -3.141593 0.000003 -3.141593
    16 -6.044680 0.000000 0.123834 -3.141593 0.000003 -3.141593
    17 -5.316726 1.858320 7.885149 0.000000 -1.570793 -1.431184
    18 -5.320000 1.887550 5.035499 0.000000 0.000000 0.575942
    19 -5.271080 1.859040 5.035499 0.000000 0.000000 -0.766488
    20 -5.316726 1.858320 -7.875906 0.000000 -1.570793 -1.431184
    21 -5.271080 1.887550 -5.026376 0.000000 0.000000 0.575942
    22 -5.271080 1.859040 -5.026376 0.000000 0.000000 -0.767261
    23 6.127056 4.060575 0.000002 3.141593 0.000000 -3.141593
  time 19
    0 0.000616 0.675802 0.468348 1.570800 0.000000 1.570774
    1 -5.676169 -10.205956 -0.036927 0.000000 0.994838 0.000000
    2 -12.201421 1.904737 0.015999 3.141593 0.000000 -3.141593
    3 -6.010658 9.767000 -9.786982 0.000000 1.570451 0.000000
    4 -6.010658 9.755450 9.834535 0.000000 1.570451 0.000000
    5 -6.010658 -9.823137 9.823045 0.000000 1.570451 0.000000
    6 -6.010668 -9.774817 -9.786982 0.000000 1.570451 0.000000
    7 -1.762286 5.911245 0.000001 -3.141593 0.000000 -3.054327
    8 -2.841770 -0.132410 -7.037760 -3.141593 0.969353 -3.141593
    9 -6.216227 0.000000 -0.009537 -3.141593 -0.000003 -3.141593
    10 -6.044680 0.000000 -0.123807 -3.141593 0.000003 -3.141593
    11 -2.841770 -7.400337 0.154318 3.141593 -0.000003 -2.232928
    12 -6.216228 0.011103 0.009509 0.000000 0.000000 -3.141590
    13 -6.044682 0.123416 0.123833 0.000000 0.000000 3.141590
    14 -2.841769 -0.132410 6.858286 -3.141593 -0.963583 -3.141593
    15 -6.216226 0.000000 0.009509 -3.141593 0.000003 -3.141593
    16 -6.044680 0.000000 0.123834 -3.141593 0.000003 -3.141593
    17 -5.316726 1.858320 7.885149 0.000000 -1.570793 -1.466077
    18 -5.320000 1.887550 5.035499 0.000000 0.000000 0.575942
    19 -5.271080 1.859040 5.035499 0.000000 0.000000 -0.766488
    20 -5.316726 1.858320 -7.875906 0.000000 -1.570793 -1.466077
    21 -5.271080 1.887550 -5.026376 0.000000 0.000000 0.575942
    22 -5.271080 1.859040 -5.026376 0.000000 0.000000 -0.767261
    23 6.127056 4.060575 0.000002 3.141593 0.000000 -3.141593
  time 20
    0 0.000616 0.675802 0.589446 1.570800 0.000000 1.570774
    1 -5.676169 -10.205956 -0.036927 0.000000 1.047175 0.000000
    2 -12.201421 1.904737 0.015999 3.141593 0.000000 -3.141593
    3 -5.963782 9.700592 -9.716667 0.000000 1.570451 0.000000
    4 -5.963782 9.689042 9.764220 0.000000 1.570451 0.000000
    5 -5.963782 -9.756729 9.752730 0.000000 1.570451 0.000000
    6 -5.963792 -9.708409 -9.716667 0.000000 1.570451 0.000000
    7 -1.762286 5.911245 0.000001 -3.141593 0.000000 -3.054327
    8 -2.841770 -0.132410 -7.037760 -3.141593 0.969353 -3.141593
    9 -6.216227 0.000000 -0.009537 -3.141593 -0.000003 -3.141593
    10 -6.044680 0.000000 -0.123807 -3.141593 0.000003 -3.141593
    11 -2.841770 -7.400337 0.154318 3.141593 -0.000003 -2.232928
    12 -6.216228 0.011103 0.009509 0.000000 0.000000 -3.141590
    13 -6.044682 0.123416 0.123833 0.000000 0.000000 3.141590
    14 -2.841769 -0.132410 6.858286 -3.141593 -0.963583 -3.141593
    15 -6.216226 0.000000 0.009509 -3.141593 0.000003 -3.141593
    16 -6.044680 0.000000 0.123834 -3.141593 0.000003 -3.141593
    17 -5.316726 1.858320 7.885149 0.000000 -1.570793 -1.500985
    18 -5.320000 1.887550 5.035499 0.000000 0.000000 0.575942
    19 -5.271080 1.859040 5.035499 0.000000 0.000000 -0.766488
    20 -5.316726 1.858320 -7.875906 0.000000 -1.570793 -1.500985
    21 -5.271080 1.887550 -5.026376 0.000000 0.000000 0.575942
    22 -5.271080 1.859040 -5.026376 0.000000 0.000000 -0.767261
    23 6.127056 4.060575 0.000002 3.141593 0.000000 -3.141593
  time 21
    0 0.000616 0.675802 0.706637 1.570800 0.000000 1.570774
    1 -5.676169 -10.205956 -0.036927 0.000000 1.099512 0.000000
    2 -12.201421 1.904737 0.015999 3.141593 0.000000 -3.141593
    3 -5.924718 9.641996 -9.658072 0.000000 1.570451 0.000000
    4 -5.924718 9.630446 9.705625 0.000000 1.570451 0.000000
    5 -5.924718 -9.698133 9.694135 0.000000 1.570451 0.000000
    6 -5.924728 -9.649813 -9.658072 0.000000 1.570451 0.000000
    7 -1.762286 5.911245 0.000001 -3.141593 0.000000 -3.054327
    8 -2.841770 -0.132410 -7.037760 -3.141593 0.969353 -3.141593
    9 -6.216227 0.000000 -0.009537 -3.141593 -0.000003 -3.141593
    10 -6.044680 0.000000 -0.123807 -3.141593 0.000003 -3.141593
    11 -2.841770 -7.400337 0.154318 3.141593 -0.000003 -2.232928
    12 -6.216228 0.011103 0.009509 0.000000 0.000000 -3.141590
    13 -6.044682 0.123416 0.123833 0.000000 0.000000 3.141590
    14 -2.841769 -0.132410 6.858286 -3.141593 -0.963583 -3.141593
    15 -6.216226 0.000000 0.009509 -3.141593 0.000003 -3.141593
    16 -6.044680 0.000000 0.123834 -3.141593 0.000003 -3.141593
    17 -5.316726 1.858320 7.885149 0.000000 -1.570793 -1.535892
    18 -5.320000 1.887550 5.035499 0.000000 0.000000 0.575942
    19 -5.271080 1.859040 5.035499 0.000000 0.000000 -0.766488
    20 -5.316726 1.858320 -7.875906 0.000000 -1.570793 -1.535892
    21 -5.271080 1.887550 -5.026376 0.000000 0.000000 0.575942
    22 -5.271080 1.859040 -5.026376 0.000000 0.000000 -0.767261
    23 6.127056 4.060575 0.000002 3.141593 0.000000 -3.141593
  time 22
    0 0.000616 0.675802 0.812109 1.570800 0.000000 1.570774
    1 -5.676169 -10.205956 -0.036927 0.000000 1.151897 0.000000
    2 -12.201421 1.904737 0.015999 3.141593 0.000000 -3.141593
    3 -5.889561 9.591213 -9.607289 0.000000 1.570451 0.000000
    4 -5.889561 9.579663 9.654842 0.000000 1.570451 0.000000
    5 -5.889561 -9.647350 9.643352 0.000000 1.570451 0.000000
    6 -5.889571 -9.599030 -9.607289 0.000000 1.570451 0.000000
    7 -1.762286 5.911245 0.000001 -3.141593 0.000000 -3.054327
    8 -2.841770 -0.132410 -7.037760 -3.141593 0.969353 -3.141593
    9 -6.216227 0.000000 -0.009537 -3.141593 -0.000003 -3.141593
    10 -6.044680 0.000000 -0.123807 -3.141593 0.000003 -3.141593
    11 -2.841770 -7.400337 0.154318 3.141593 -0.000003 -2.232928
    12 -6.216228 0.011103 0.009509 0.000000 0.000000 -3.141590
    13 -6.044682 0.123416 0.123833 0.000000 0.000000 3.141590
    14 -2.841769 -0.132410 6.858286 -3.141593 -0.963583 -3.141593
    15 -6.216226 0.000000 0.009509 -3.141593 0.000003 -3.141593
    16 -6.044680 0.000000 0.123834 -3.141593 0.000003 -3.141593
    17 -5.316726 1.858320 7.885149 0.000000 -1.570793 -1.570800
    18 -5.320000 1.887550 5.035499 0.000000 0.000000 0.575942
    19 -5.271080 1.859040 5.035499 0.000000 0.000000 -0.766488
    20 -5.316726 1.858320 -7.875906 0.000000 -1.570793 -1.570800
    21 -5.271080 1.887550 -5.026376 0.000000 0.000000 0.575942
    22 -5.271080 1.859040 -5.026376 0.000000 0.000000 -0.767261
    23 6.127056 4.060575 0.000002 3.141593 0.000000 -3.141593
  time 23
    0 0.000616 0.675802 0.913674 1.570800 0.000000 1.570774
    1 -5.676169 -10.205956 -0.036927 0.000000 1.204235 0.000000
    2 -12.201421 1.904737 0.015999 3.141593 0.000000 -3.141593
    3 -5.858310 9.548243 -9.564319 0.000000 1.570451 0.000000
    4 -5.858310 9.536693 9.611872 0.000000 1.570451 0.000000
    5 -5.858310 -9.604380 9.600382 0.000000 1.570451 0.000000
    6 -5.858320 -9.556060 -9.564319 0.000000 1.570451 0.000000
    7 -1.762286 5.911245 0.000001 -3.141593 0.000000 -3.054327
    8 -2.841770 -0.132410 -7.037760 -3.141593 0.969353 -3.141593
    9 -6.216227 0.000000 -0.009537 -3.141593 -0.000003 -3.141593
    10 -6.044680 0.000000 -0.123807 -3.141593 0.000003 -3.141593
    11 -2.841770 -7.400337 0.154318 3.141593 -0.000003 -2.232928
    12 -6.216228 0.011103 0.009509 0.000000 0.000000 -3.141590
    13 -6.044682 0.123416 0.123833 0.000000 0.000000 3.141590
    14 -2.841769 -0.132410 6.858286 -3.141593 -0.963583 -3.141593
    15 -6.216226 0.000000 0.009509 -3.141593 0.000003 -3.141593
    16 -6.044680 0.000000 0.123834 -3.141593 0.000003 -3.141593
    17 -5.316726 1.858320 7.885149 0.000000 -1.570793 -1.535892
    18 -5.320000 1.887550 5.035499 0.000000 0.000000 0.575942
    19 -5.271080 1.859040 5.035499 0.000000 0.000000 -0.766488
    20 -5.316726 1.858320 -7.875906 0.000000 -1.570793 -1.535892
    21 -5.271080 1.887550 -5.026376 0.000000 0.000000 0.575942
    22 -5.271080 1.859040 -5.026376 0.000000 0.000000 -0.767261
    23 6.127056 4.060575 0.000002 3.141593 0.000000 -3.141593
  time 24
    0 0.000616 0.675802 1.003521 1.570800 0.000000 1.570774
    1 -5.676169 -10.205956 -0.036927 0.000000 1.256620 0.000000
    2 -12.201421 1.904737 0.015999 3.141593 0.000000 -3.141593
    3 -5.834872 9.509180 -9.525255 0.000000 1.570451 0.000000
    4 -5.834872 9.497630 9.572808 0.000000 1.570451 0.000000
    5 -5.834872 -9.569223 9.561318 0.000000 1.570451 0.000000
    6 -5.834882 -9.520903 -9.525255 0.000000 1.570451 0.000000
    7 -1.762286 5.911245 0.000001 -3.141593 0.000000 -3.054327
    8 -2.841770 -0.132410 -7.037760 -3.141593 0.969353 -3.141593
    9 -6.216227 0.000000 -0.009537 -3.141593 -0.000003 -3.141593
    10 -6.044680 0.000000 -0.123807 -3.141593 0.000003 -3.141593
    11 -2.841770 -7.400337 0.154318 3.141593 -0.000003 -2.232928
    12 -6.216228 0.011103 0.009509 0.000000 0.000000 -3.141590
    13 -6.044682 0.123416 0.123833 0.000000 0.000000 3.141590
    14 -2.841769 -0.132410 6.858286 -3.141593 -0.963583 -3.141593
    15 -6.216226 0.000000 0.009509 -3.141593 0.000003 -3.141593
    16 -6.044680 0.000000 0.123834 -3.141593 0.000003 -3.141593
    17 -5.316726 1.858320 7.885149 0.000000 -1.570793 -1.500985
    18 -5.320000 1.887550 5.035499 0.000000 0.000000 0.575942
    19 -5.271080 1.859040 5.035499 0.000000 0.000000 -0.766488
    20 -5.316726 1.858320 -7.875906 0.000000 -1.570793 -1.500985
    21 -5.271080 1.887550 -5.026376 0.000000 0.000000 0.575942
    22 -5.271080 1.859040 -5.026376 0.000000 0.000000 -0.767261
    23 6.127056 4.060575 0.000002 3.141593 0.000000 -3.141593
  time 25
    0 0.000616 0.675802 1.085554 1.570800 0.000000 1.570774
    1 -5.676169 -10.205956 -0.036927 0.000000 1.308957 0.000000
    2 -12.201421 1.904737 0.015999 3.141593 0.000000 -3.141593
    3 -5.807527 9.474022 -9.490098 0.000000 1.570451 0.000000
    4 -5.807527 9.462472 9.537651 0.000000 1.570451 0.000000
    5 -5.807527 -9.534065 9.526161 0.000000 1.570451 0.000000
    6 -5.807537 -9.485746 -9.490098 0.000000 1.570451 0.000000
    7 -1.762286 5.911245 0.000001 -3.141593 0.000000 -3.054327
    8 -2.841770 -0.132410 -7.037760 -3.141593 0.969353 -3.141593
    9 -6.216227 0.000000 -0.009537 -3.141593 -0.000003 -3.141593
    10 -6.044680 0.000000 -0.123807 -3.141593 0.000003 -3.141593
    11 -2.841770 -7.400337 0.154318 3.141593 -0.000003 -2.232928
    12 -6.216228 0.011103 0.009509 0.000000 0.000000 -3.141590
    13 -6.044682 0.123416 0.123833 0.000000 0.000000 3.141590
    14 -2.841769 -0.132410 6.858286 -3.141593 -0.963583 -3.141593
    15 -6.216226 0.000000 0.009509 -3.141593 0.000003 -3.141593
    16 -6.044680 0.000000 0.123834 -3.141593 0.000003 -3.141593
    17 -5.316726 1.858320 7.885149 0.000000 -1.570793 -1.466077
    18 -5.320000 1.887550 5.035499 0.000000 0.000000 0.575942
    19 -5.271080 1.859040 5.035499 0.000000 0.000000 -0.766488
    20 -5.316726 1.858320 -7.875906 0.000000 -1.570793 -1.466077
    21 -5.271080 1.887550 -5.026376 0.000000 0.000000 0.575942
    22 -5.271080 1.859040 -5.026376 0.000000 0.000000 -0.767261
    23 6.127056 4.060575 0.000002 3.141593 0.000000 -3.141593
  time 26
    0 0.000616 0.675802 1.151963 1.570800 0.000000 1.570774
    1 -5.676169 -10.205956 -0.036927 0.000000 1.361342 0.000000
    2 -12.201421 1.904737 0.015999 3.141593 0.000000 -3.141593
    3 -5.784089 9.438865 -9.454941 0.000000 1.570451 0.000000
    4 -5.784089 9.427315 9.502494 0.000000 1.570451 0.000000
    5 -5.784089 -9.498908 9.491004 0.000000 1.570451 0.000000
    6 -5.784099 -9.450588 -9.454941 0.000000 1.570451 0.000000
    7 -1.762286 5.911245 0.000001 -3.141593 0.000000 -3.054327
    8 -2.841770 -0.132410 -7.037760 -3.141593 0.969353 -3.141593
    9 -6.216227 0.000000 -0.009537 -3.141593 -0.000003 -3.141593
    10 -6.044680 0.000000 -0.123807 -3.141593 0.000003 -3.141593
    11 -2.841770 -7.400337 0.154318 3.141593 -0.000003 -2.232928
    12 -6.216228 0.011103 0.009509 0.000000 0.000000 -3.141590
    13 -6.044682 0.123416 0.123833 0.000000 0.000000 3.141590
    14 -2.841769 -0.132410 6.858286 -3.141593 -0.963583 -3.141593
    15 -6.216226 0.000000 0.009509 -3.141593 0.000003 -3.141593
    16 -6.044680 0.000000 0.123834 -3.141593 0.000003 -3.141593
    17 -5.316726 1.858320 7.885149 0.000000 -1.570793 -1.431184
    18 -5.320000 1.887550 5.035499 0.000000 0.000000 0.575942
    19 -5.271080 1.859040 5.035499 0.000000 0.000000 -0.766488
    20 -5.316726 1.858320 -7.875906 0.000000 -1.570793 -1.431184
    21 -5.271080 1.887550 -5.026376 0.000000 0.000000 0.575942
    22 -5.271080 1.859040 -5.026376 0.000000 0.000000 -0.767261
    23 6.127056 4.060575 0.000002 3.141593 0.000000 -3.141593
  time 27
    0 0.000616 0.675802 1.210558 1.570800 0.000000 1.570774
    1 -5.676169 -10.205956 -0.036927 0.000000 1.413679 0.000000
    2 -12.201421 1.904737 0.015999 3.141593 0.000000 -3.141593
    3 -5.764557 9.407614 -9.419783 0.000000 1.570451 0.000000
    4 -5.764557 9.396064 9.471243 0.000000 1.570451 0.000000
    5 -5.764557 -9.467657 9.459753 0.000000 1.570451 0.000000
    6 -5.764567 -9.419337 -9.419783 0.000000 1.570451 0.000000
    7 -1.762286 5.911245 0.000001 -3.141593 0.000000 -3.054327
    8 -2.841770 -0.132410 -7.037760 -3.141593 0.969353 -3.141593
    9 -6.216227 0.000000 -0.009537 -3.141593 -0.000003 -3.141593
    10 -6.044680 0.000000 -0.123807 -3.141593 0.000003 -3.141593
    11 -2.841770 -7.400337 0.154318 3.141593 -0.000003 -2.232928
    12 -6.216228 0.011103 0.009509 0.000000 0.000000 -3.141590
    13 -6.044682 0.123416 0.123833 0.000000 0.000000 3.141590
    14 -2.841769 -0.132410 6.858286 -3.141593 -0.963583 -3.141593
    15 -6.216226 0.000000 0.009509 -3.141593 0.000003 -3.141593
    16 -6.044680 0.000000 0.123834 -3.141593 0.000003 -3.141593
    17 -5.316726 1.858320 7.885149 0.000000 -1.570793 -1.396276
    18 -5.320000 1.887550 5.035499 0.000000 0.000000 0.575942
    19 -5.271080 1.859040 5.035499 0.000000 0.000000 -0.766488
    20 -5.316726 1.858320 -7.875906 0.000000 -1.570793 -1.396276
    21 -5.271080 1.887550 -5.026376 0.000000 0.000000 0.575942
    22 -5.271080 1.859040 -5.026376 0.000000 0.000000 -0.767261
    23 6.127056 4.060575 0.000002 3.141593 0.000000 -3.141593
  time 28
    0 0.000616 0.675802 1.249622 1.570800 0.000000 1.570774
    1 -5.676169 -10.205956 -0.036927 0.000000 1.466064 0.000000
    2 -12.201421 1.904737 0.015999 3.141593 0.000000 -3.141593
    3 -5.737213 9.372457 -9.384626 0.000000 1.570451 0.000000
    4 -5.737213 9.360907 9.432179 0.000000 1.570451 0.000000
    5 -5.737213 -9.432500 9.420689 0.000000 1.570451 0.000000
    6 -5.737223 -9.384180 -9.384626 0.000000 1.570451 0.000000
    7 -1.762286 5.911245 0.000001 -3.141593 0.000000 -3.054327
    8 -2.841770 -0.132410 -7.037760 -3.141593 0.969353 -3.141593
    9 -6.216227 0.000000 -0.009537 -3.141593 -0.000003 -3.141593
    10 -6.044680 0.000000 -0.123807 -3.141593 0.000003 -3.141593
    11 -2.841770 -7.400337 0.154318 3.141593 -0.000003 -2.232928
    12 -6.216228 0.011103 0.009509 0.000000 0.000000 -3.141590
    13 -6.044682 0.123416 0.123833 0.000000 0.000000 3.141590
    14 -2.841769 -0.132410 6.858286 -3.141593 -0.963583 -3.141593
    15 -6.216226 0.000000 0.009509 -3.141593 0.000003 -3.141593
    16 -6.044680 0.000000 0.123834 -3.141593 0.000003 -3.141593
    17 -5.316726 1.858320 7.885149 0.000000 -1.570793 -1.396276
    18 -5.320000 1.887550 5.035499 0.000000 0.000000 0.575942
    19 -5.271080 1.859040 5.035499 0.000000 0.000000 -0.766488
    20 -5.316726 1.858320 -7.875906 0.000000 -1.570793 -1.396276
    21 -5.271080 1.887550 -5.026376 0.000000 0.000000 0.575942
    22 -5.271080 1.859040 -5.026376 0.000000 0.000000 -0.767261
    23 6.127056 4.060575 0.000002 3.141593 0.000000 -3.141593
  time 29
    0 0.000616 0.675802 1.276967 1.570800 0.000000 1.570774
    1 -5.676169 -10.205956 -0.036927 0.000000 1.518401 0.000000
    2 -12.201421 1.904737 0.015999 3.141593 0.000000 -3.141593
    3 -5.713774 9.333393 -9.345562 0.000000 1.570451 0.000000
    4 -5.713774 9.321843 9.397022 0.000000 1.570451 0.000000
    5 -5.713774 -9.393436 9.385532 0.000000 1.570451 0.000000
    6 -5.713784 -9.345116 -9.345562 0.000000 1.570451 0.000000
    7 -1.762286 5.911245 0.000001 -3.141593 0.000000 -3.054327
    8 -2.841770 -0.132410 -7.037760 -3.141593 0.969353 -3.141593
    9 -6.216227 0.000000 -0.009537 -3.141593 -0.000003 -3.141593
    10 -6.044680 0.000000 -0.123807 -3.141593 0.000003 -3.141593
    11 -2.841770 -7.400337 0.154318 3.141593 -0.000003 -2.232928
    12 -6.216228 0.011103 0.009509 0.000000 0.000000 -3.141590
    13 -6.044682 0.123416 0.123833 0.000000 0.000000 3.141590
    14 -2.841769 -0.132410 6.858286 -3.141593 -0.963583 -3.141593
    15 -6.216226 0.000000 0.009509 -3.141593 0.000003 -3.141593
    16 -6.044680 0.000000 0.123834 -3.141593 0.000003 -3.141593
    17 -5.316726 1.858320 7.885149 0.000000 -1.570793 -1.396276
    18 -5.320000 1.887550 5.035499 0.000000 0.000000 0.575942
    19 -5.271080 1.859040 5.035499 0.000000 0.000000 -0.766488
    20 -5.316726 1.858320 -7.875906 0.000000 -1.570793 -1.396276
    21 -5.271080 1.887550 -5.026376 0.000000 0.000000 0.575942
    22 -5.271080 1.859040 -5.026376 0.000000 0.000000 -0.767261
    23 6.127056 4.060575 0.000002 3.141593 0.000000 -3.141593
  time 30
    0 0.000616 0.675802 1.284779 1.570800 0.000000 1.570774
    1 -5.676169 -10.205956 -0.036927 0.000000 1.570451 0.000000
    2 -12.201421 1.904737 0.015999 3.141593 0.000000 -3.141593
    3 -5.682523 9.290423 -9.302592 0.000000 1.570451 0.000000
    4 -5.682523 9.278873 9.350145 0.000000 1.570451 0.000000
    5 -5.682523 -9.350466 9.338655 0.000000 1.570451 0.000000
    6 -5.682533 -9.302146 -9.302592 0.000000 1.570451 0.000000
    7 -1.762286 5.911245 0.000001 -3.141593 0.000000 -3.054327
    8 -2.841770 -0.132410 -7.037760 -3.141593 0.969353 -3.141593
    9 -6.216227 0.000000 -0.009537 -3.141593 -0.000003 -3.141593
    10 -6.044680 0.000000 -0.123807 -3.141593 0.000003 -3.141593
    11 -2.841770 -7.400337 0.154318 3.141593 -0.000003 -2.232928
    12 -6.216228 0.011103 0.009509 0.000000 0.000000 -3.141590
    13 -6.044682 0.123416 0.123833 0.000000 0.000000 3.141590
    14 -2.841769 -0.132410 6.858286 -3.141593 -0.963583 -3.141593
    15 -6.216226 0.000000 0.009509 -3.141593 0.000003 -3.141593
    16 -6.044680 0.000000 0.123834 -3.141593 0.000003 -3.141593
    17 -5.316726 1.858320 7.885149 0.000000 -1.570793 -1.396276
    18 -5.320000 1.887550 5.035499 0.000000 0.000000 0.575942
    19 -5.271080 1.859040 5.035499 0.000000 0.000000 -0.766488
    20 -5.316726 1.858320 -7.875906 0.000000 -1.570793 -1.396276
    21 -5.271080 1.887550 -5.026376 0.000000 0.000000 0.575942
    22 -5.271080 1.859040 -5.026376 0.000000 0.000000 -0.767261
    23 6.127056 4.060575 0.000002 3.141593 0.000000 -3.141593
  time 31
    0 0.000616 0.675802 1.276967 1.570800 0.000000 1.570774
    1 -5.676169 -10.205956 -0.036927 -3.141497 1.518401 -3.141497
    2 -12.201421 1.904737 0.015999 3.141593 0.000000 -3.141593
    3 -5.647366 9.239640 -9.251809 0.000000 1.570451 0.000000
    4 -5.647366 9.228090 9.299362 0.000000 1.570451 0.000000
    5 -5.647366 -9.299683 9.287872 0.000000 1.570451 0.000000
    6 -5.647376 -9.251364 -9.251809 0.000000 1.570451 0.000000
    7 -1.762286 5.911245 0.000001 -3.141593 0.000000 -3.054327
    8 -2.841770 -0.132410 -7.037760 -3.141593 0.969353 -3.141593
    9 -6.216227 0.000000 -0.009537 -3.141593 -0.000003 -3.141593
    10 -6.044680 0.000000 -0.123807 -3.141593 0.000003 -3.141593
    11 -2.841770 -7.400337 0.154318 3.141593 -0.000003 -2.232928
    12 -6.216228 0.011103 0.009509 0.000000 0.000000 -3.141590
    13 -6.044682 0.123416 0.123833 0.000000 0.000000 3.141590
    14 -2.841769 -0.132410 6.858286 -3.141593 -0.963583 -3.141593
    15 -6.216226 0.000000 0.009509 -3.141593 0.000003 -3.141593
    16 -6.044680 0.000000 0.123834 -3.141593 0.000003 -3.141593
    17 -5.316726 1.858320 7.885149 0.000000 -1.570793 -1.396276
    18 -5.320000 1.887550 5.035499 0.000000 0.000000 0.575942
    19 -5.271080 1.859040 5.035499 0.000000 0.000000 -0.766488
    20 -5.316726 1.858320 -7.875906 0.000000 -1.570793 -1.396276
    21 -5.271080 1.887550 -5.026376 0.000000 0.000000 0.575942
    22 -5.271080 1.859040 -5.026376 0.000000 0.000000 -0.767261
    23 6.127056 4.060575 0.000002 3.141593 0.000000 -3.141593
  time 32
    0 0.000616 0.675802 1.249622 1.570800 0.000000 1.570774
    1 -5.676169 -10.205956 -0.036927 3.141592 1.466064 -3.141592
    2 -12.201421 1.904737 0.015999 3.141593 0.000000 -3.141593
    3 -5.608302 9.181045 -9.193214 0.000000 1.570451 0.000000
    4 -5.608302 9.169495 9.240767 0.000000 1.570451 0.000000
    5 -5.608302 -9.241088 9.229277 0.000000 1.570451 0.000000
    6 -5.608312 -9.192768 -9.193214 0.000000 1.570451 0.000000
    7 -1.762286 5.911245 0.000001 -3.141593 0.000000 -3.054327
    8 -2.841770 -0.132410 -7.037760 -3.141593 0.969353 -3.141593
    9 -6.216227 0.000000 -0.009537 -3.141593 -0.000003 -3.141593
    10 -6.044680 0.000000 -0.123807 -3.141593 0.000003 -3.141593
    11 -2.841770 -7.400337 0.154318 3.141593 -0.000003 -2.232928
    12 -6.216228 0.011103 0.009509 0.000000 0.000000 -3.141590
    13 -6.044682 0.123416 0.123833 0.000000 0.000000 3.141590
    14 -2.841769 -0.132410 6.858286 -3.141593 -0.963583 -3.141593
    15 -6.216226 0.000000 0.009509 -3.141593 0.000003 -3.141593
    16 -6.044680 0.000000 0.123834 -3.141593 0.000003 -3.141593
    17 -5.316726 1.858320 7.885149 0.000000 -1.570793 -1.396276
    18 -5.320000 1.887550 5.035499 0.000000 0.000000 0.575942
    19 -5.271080 1.859040 5.035499 0.000000 0.000000 -0.766488
    20 -5.316726 1.858320 -7.875906 0.000000 -1.570793 -1.396276
    21 -5.271080 1.887550 -5.026376 0.000000 0.000000 0.575942
    22 -5.271080 1.859040 -5.026376 0.000000 0.000000 -0.767261
    23 6.127056 4.060575 0.000002 3.141593 0.000000 -3.141593
  time 33
    0 0.000616 0.675802 1.210558 1.570800 0.000000 1.570774
    1 -5.676169 -10.205956 -0.036927 3.141592 1.413679 3.141592
    2 -12.201421 1.904737 0.015999 3.141593 0.000000 -3.141593
    3 -5.561426 9.114636 -9.122899 0.000000 1.570451 0.000000
    4 -5.561426 9.103086 9.170452 0.000000 1.570451 0.000000
    5 -5.561426 -9.174680 9.158962 0.000000 1.570451 0.000000
    6 -5.561436 -9.126360 -9.122899 0.000000 1.570451 0.000000
    7 -1.762286 5.911245 0.000001 -3.141593 0.000000 -3.054327
    8 -2.841770 -0.132410 -7.037760 -3.141593 0.969353 -3.141593
    9 -6.216227 0.000000 -0.009537 -3.141593 -0.000003 -3.141593
    10 -6.044680 0.000000 -0.123807 -3.141593 0.000003 -3.141593
    11 -2.841770 -7.400337 0.154318 3.141593 -0.000003 -2.232928
    12 -6.216228 0.011103 0.009509 0.000000 0.000000 -3.141590
    13 -6.044682 0.123416 0.123833 0.000000 0.000000 3.141590
    14 -2.841769 -0.132410 6.858286 -3.141593 -0.963583 -3.141593
    15 -6.216226 0.000000 0.009509 -3.141593 0.000003 -3.141593
    16 -6.044680 0.000000 0.123834 -3.141593 0.000003 -3.141593
    17 -5.316726 1.858320 7.885149 0.000000 -1.570793 -1.439900
    18 -5.320000 1.887550 5.035499 0.000000 0.000000 0.575942
    19 -5.271080 1.859040 5.035499 0.000000 0.000000 -0.766488
    20 -5.316726 1.858320 -7.875906 0.000000 -1.570793 -1.439900
    21 -5.271080 1.887550 -5.026376 0.000000 0.000000 0.575942
    22 -5.271080 1.859040 -5.026376 0.000000 0.000000 -0.767261
    23 6.127056 4.060575 0.000002 3.141593 0.000000 -3.141593
  time 34
    0 0.000616 0.675802 1.151963 1.570800 0.000000 1.570774
    1 -5.676169 -10.205956 -0.036927 3.141592 1.361342 3.141592
    2 -12.201421 1.904737 0.015999 3.141593 0.000000 -3.141593
    3 -5.506737 9.032603 -9.040865 0.000000 1.570451 0.000000
    4 -5.506737 9.021053 9.092325 0.000000 1.570451 0.000000
    5 -5.506737 -9.096552 9.080835 0.000000 1.570451 0.000000
    6 -5.506747 -9.048232 -9.040865 0.000000 1.570451 0.000000
    7 -1.762286 5.911245 0.000001 -3.141593 0.000000 -3.054327
    8 -2.841770 -0.132410 -7.037760 -3.141593 0.969353 -3.141593
    9 -6.216227 0.000000 -0.009537 -3.141593 -0.000003 -3.141593
    10 -6.044680 0.000000 -0.123807 -3.141593 0.000003 -3.141593
    11 -2.841770 -7.400337 0.154318 3.141593 -0.000003 -2.232928
    12 -6.216228 0.011103 0.009509 0.000000 0.000000 -3.141590
    13 -6.044682 0.123416 0.123833 0.000000 0.000000 3.141590
    14 -2.841769 -0.132410 6.858286 -3.141593 -0.963583 -3.141593
    15 -6.216226 0.000000 0.009509 -3.141593 0.000003 -3.141593
    16 -6.044680 0.000000 0.123834 -3.141593 0.000003 -3.141593
    17 -5.316726 1.858320 7.885149 0.000000 -1.570793 -1.483538
    18 -5.320000 1.887550 5.035499 0.000000 0.000000 0.575942
    19 -5.271080 1.859040 5.035499 0.000000 0.000000 -0.766488
    20 -5.316726 1.858320 -7.875906 0.000000 -1.570793 -1.483538
    21 -5.271080 1.887550 -5.026376 0.000000 0.000000 0.575942
    22 -5.271080 1.859040 -5.026376 0.000000 0.000000 -0.767261
    23 6.127056 4.060575 0.000002 3.141593 0.000000 -3.141593
  time 35
    0 0.000616 0.675802 1.085554 1.570800 0.000000 1.570774
    1 -5.676169 -10.205956 -0.036927 3.141592 1.308957 3.141592
    2 -12.201421 1.904737 0.015999 3.141593 0.000000 -3.141593
    3 -5.444235 8.942756 -8.947113 0.000000 1.570451 0.000000
    4 -5.444235 8.931206 8.998572 0.000000 1.570451 0.000000
    5 -5.444235 -9.002799 8.987082 0.000000 1.570451 0.000000
    6 -5.444245 -8.954479 -8.947113 0.000000 1.570451 0.000000
    7 -1.762286 5.911245 0.000001 -3.141593 0.000000 -3.054327
    8 -2.841770 -0.132410 -7.037760 -3.141593 0.969353 -3.141593
    9 -6.216227 0.000000 -0.009537 -3.141593 -0.000003 -3.141593
    10 -6.044680 0.000000 -0.123807 -3.141593 0.000003 -3.141593
    11 -2.841770 -7.400337 0.154318 3.141593 -0.000003 -2.232928
    12 -6.216228 0.011103 0.009509 0.000000 0.000000 -3.141590
    13 -6.044682 0.123416 0.123833 0.000000 0.000000 3.141590
    14 -2.841769 -0.132410 6.858286 -3.141593 -0.963583 -3.141593
    15 -6.216226 0.000000 0.009509 -3.141593 0.000003 -3.141593
    16 -6.044680 0.000000 0.123834 -3.141593 0.000003 -3.141593
    17 -5.316726 1.858320 7.885149 0.000000 -1.570793 -1.527176
    18 -5.320000 1.887550 5.035499 0.000000 0.000000 0.575942
    19 -5.271080 1.859040 5.035499 0.000000 0.000000 -0.766488
    20 -5.316726 1.858320 -7.875906 0.000000 -1.570793 -1.527176
    21 -5.271080 1.887550 -5.026376 0.000000 0.000000 0.575942
    22 -5.271080 1.859040 -5.026376 0.000000 0.000000 -0.767261
    23 6.127056 4.060575 0.000002 3.141593 0.000000 -3.141593
  time 36
    0 0.000616 0.675802 1.003521 1.570800 0.000000 1.570774
    1 -5.676169 -10.205956 -0.036927 3.141592 1.256620 3.141592
    2 -12.201421 1.904737 0.015999 3.141593 0.000000 -3.141593
    3 -5.370014 8.833378 -8.837734 0.000000 1.570451 0.000000
    4 -5.370014 8.821828 8.889194 0.000000 1.570451 0.000000
    5 -5.370014 -8.897327 8.877704 0.000000 1.570451 0.000000
    6 -5.370024 -8.849007 -8.837734 0.000000 1.570451 0.000000
    7 -1.762286 5.911245 0.000001 -3.141593 0.000000 -3.054327
    8 -2.841770 -0.132410 -7.037760 -3.141593 0.969353 -3.141593
    9 -6.216227 0.000000 -0.009537 -3.141593 -0.000003 -3.141593
    10 -6.044680 0.000000 -0.123807 -3.141593 0.000003 -3.141593
    11 -2.841770 -7.400337 0.154318 3.141593 -0.000003 -2.232928
    12 -6.216228 0.011103 0.009509 0.000000 0.000000 -3.141590
    13 -6.044682 0.123416 0.123833 0.000000 0.000000 3.141590
    14 -2.841769 -0.132410 6.858286 -3.141593 -0.963583 -3.141593
    15 -6.216226 0.000000 0.009509 -3.141593 0.000003 -3.141593
    16 -6.044680 0.000000 0.123834 -3.141593 0.000003 -3.141593
    17 -5.316726 1.858320 7.885149 0.000000 -1.570793 -1.570800
    18 -5.320000 1.887550 5.035499 0.000000 0.000000 0.575942
    19 -5.271080 1.859040 5.035499 0.000000 0.000000 -0.766488
    20 -5.316726 1.858320 -7.875906 0.000000 -1.570793 -1.570800
    21 -5.271080 1.887550 -5.026376 0.000000 0.000000 0.575942
    22 -5.271080 1.859040 -5.026376 0.000000 0.000000 -0.767261
    23 6.127056 4.060575 0.000002 3.141593 0.000000 -3.141593
  time 37
    0 0.000616 0.675802 0.913674 1.570800 0.000000 1.570774
    1 -5.676169 -10.205956 -0.036927 3.141592 1.204235 -3.141592
    2 -12.201421 1.904737 0.015999 3.141593 0.000000 -3.141593
    3 -5.287980 8.712280 -8.712730 0.000000 1.570451 0.000000
    4 -5.287980 8.700730 8.764190 0.000000 1.570451 0.000000
    5 -5.287980 -8.776230 8.752700 0.000000 1.570451 0.000000
    6 -5.287990 -8.727910 -8.712730 0.000000 1.570451 0.000000
    7 -1.762286 5.911245 0.000001 -3.141593 0.000000 -3.054327
    8 -2.841770 -0.132410 -7.037760 -3.141593 0.969353 -3.141593
    9 -6.216227 0.000000 -0.009537 -3.141593 -0.000003 -3.141593
    10 -6.044680 0.000000 -0.123807 -3.141593 0.000003 -3.141593
    11 -2.841770 -7.400337 0.154318 3.141593 -0.000003 -2.232928
    12 -6.216228 0.011103 0.009509 0.000000 0.000000 -3.141590
    13 -6.044682 0.123416 0.123833 0.000000 0.000000 3.141590
    14 -2.841769 -0.132410 6.858286 -3.141593 -0.963583 -3.141593
    15 -6.216226 0.000000 0.009509 -3.141593 0.000003 -3.141593
    16 -6.044680 0.000000 0.123834 -3.141593 0.000003 -3.141593
    17 -5.316726 1.858320 7.724988 0.000000 -1.570793 -1.553353
    18 -5.320000 1.887550 4.726896 0.000000 0.000000 0.523596
    19 -5.271080 1.859040 4.726896 0.000000 0.000000 -0.696826
    20 -5.316726 1.858320 -7.719651 0.000000 -1.570793 -1.553353
    21 -5.271080 1.887550 -4.721679 0.000000 0.000000 0.523596
    22 -5.271080 1.859040 -4.721679 0.000000 0.000000 -0.697529
    23 6.127056 4.060575 0.000002 3.141593 0.000000 -3.141593
  time 38
    0 0.000616 0.675802 0.812109 1.570800 0.000000 1.570774
    1 -5.676169 -10.205956 -0.036927 3.141592 1.151897 3.141592
    2 -12.201421 1.904737 0.015999 3.141593 0.000000 -3.141593
    3 -5.287980 8.712280 -8.712730 0.000000 1.570451 0.000000
    4 -5.287980 8.700730 8.764190 0.000000 1.570451 0.000000
    5 -5.287980 -8.776230 8.752700 0.000000 1.570451 0.000000
    6 -5.287990 -8.727910 -8.712730 0.000000 1.570451 0.000000
    7 -1.762286 5.911245 0.000001 -3.141593 0.000000 -3.054327
    8 -2.841770 -0.132410 -7.037760 -3.141593 0.969353 -3.141593
    9 -6.216227 0.000000 -0.009537 -3.141593 -0.000003 -3.141593
    10 -6.044680 0.000000 -0.123807 -3.141593 0.000003 -3.141593
    11 -2.841770 -7.400337 0.154318 3.141593 -0.000003 -2.232928
    12 -6.216228 0.011103 0.009509 0.000000 0.000000 -3.141590
    13 -6.044682 0.123416 0.123833 0.000000 0.000000 3.141590
    14 -2.841769 -0.132410 6.858286 -3.141593 -0.963583 -3.141593
    15 -6.216226 0.000000 0.009509 -3.141593 0.000003 -3.141593
    16 -6.044680 0.000000 0.123834 -3.141593 0.000003 -3.141593
    17 -5.312820 1.858320 7.568733 0.000000 -1.570793 -1.535892
    18 -5.320000 1.887550 4.472982 0.000000 0.000000 0.471233
    19 -5.271080 1.859040 4.472982 0.000000 0.000000 -0.627141
    20 -5.316726 1.858320 -7.563396 0.000000 -1.570793 -1.535892
    21 -5.271080 1.887550 -4.463859 0.000000 0.000000 0.471233
    22 -5.271080 1.859040 -4.463859 0.000000 0.000000 -0.627774
    23 6.127056 4.060575 0.000002 3.141593 0.000000 -3.141593
  time 39
    0 0.000616 0.675802 0.706637 1.570800 0.000000 1.570774
    1 -5.676169 -10.205956 -0.036927 3.141592 1.099512 3.141592
    2 -12.201421 1.904737 0.015999 3.141593 0.000000 -3.141593
    3 -5.287980 8.712280 -8.712730 0.000000 1.570451 0.000000
    4 -5.287980 8.700730 8.764190 0.000000 1.570451 0.000000
    5 -5.287980 -8.776230 8.752700 0.000000 1.570451 0.000000
    6 -5.287990 -8.727910 -8.712730 0.000000 1.570451 0.000000
    7 -1.762286 5.911245 0.000001 -3.141593 0.000000 -3.054327
    8 -2.841770 -0.132410 -7.037760 -3.141593 0.969353 -3.141593
    9 -6.216227 0.000000 -0.009537 -3.141593 -0.000003 -3.141593
    10 -6.044680 0.000000 -0.123807 -3.141593 0.000003 -3.141593
    11 -2.841770 -7.400337 0.154318 3.141593 -0.000003 -2.232928
    12 -6.216228 0.011103 0.009509 0.000000 0.000000 -3.141590
    13 -6.044682 0.123416 0.123833 0.000000 0.000000 3.141590
    14 -2.841769 -0.132410 6.858286 -3.141593 -0.963583 -3.141593
    15 -6.216226 0.000000 0.009509 -3.141593 0.000003 -3.141593
    16 -6.044680 0.000000 0.123834 -3.141593 0.000003 -3.141593
    17 -5.308913 1.858320 7.412478 0.000000 -1.570793 -1.518446
    18 -5.320000 1.887550 4.258131 0.000000 0.000000 0.418870
    19 -5.271080 1.859040 4.258131 0.000000 0.000000 -0.557456
    20 -5.316726 1.858320 -7.403235 0.000000 -1.570793 -1.518446
    21 -5.271080 1.887550 -4.252915 0.000000 0.000000 0.418870
    22 -5.271080 1.859040 -4.252915 0.000000 0.000000 -0.558018
    23 6.127056 4.060575 0.000002 3.141593 0.000000 -3.141593
  time 40
    0 0.000616 0.675802 0.589446 1.570800 0.000000 1.570774
    1 -5.676169 -10.205956 -0.036927 3.141592 1.047175 3.141592
    2 -12.201421 1.904737 0.015999 3.141593 0.000000 -3.141593
    3 -5.287980 8.712280 -8.712730 0.000000 1.570451 0.000000
    4 -5.287980 8.700730 8.764190 0.000000 1.570451 0.000000
    5 -5.287980 -8.776230 8.752700 0.000000 1.570451 0.000000
    6 -5.287990 -8.727910 -8.712730 0.000000 1.570451 0.000000
    7 -1.762286 5.911245 0.000001 -3.141593 0.000000 -3.054327
    8 -2.841770 -0.132410 -7.037760 -3.141593 0.969353 -3.141593
    9 -6.216227 0.000000 -0.009537 -3.141593 -0.000003 -3.141593
    10 -6.044680 0.000000 -0.123807 -3.141593 0.000003 -3.141593
    11 -2.841770 -7.400337 0.154318 3.141593 -0.000003 -2.232928
    12 -6.216228 0.011103 0.009509 0.000000 0.000000 -3.141590
    13 -6.044682 0.123416 0.123833 0.000000 0.000000 3.141590
    14 -2.841769 -0.132410 6.858286 -3.141593 -0.963583 -3.141593
    15 -6.216226 0.000000 0.009509 -3.141593 0.000003 -3.141593
    16 -6.044680 0.000000 0.123834 -3.141593 0.000003 -3.141593
    17 -5.308913 1.858320 7.252317 0.000000 -1.570793 -1.500985
    18 -5.320000 1.887550 4.082345 0.000000 0.000000 0.366507
    19 -5.271080 1.859040 4.082345 0.000000 0.000000 -0.487771
    20 -5.316726 1.858320 -7.246981 0.000000 -1.570793 -1.500985
    21 -5.271080 1.887550 -4.077128 0.000000 0.000000 0.366507
    22 -5.271080 1.859040 -4.077128 0.000000 0.000000 -0.488263
    23 6.127056 4.060575 0.000002 3.141593 0.000000 -3.141593
  time 41
    0 0.000616 0.675802 0.468348 1.570800 0.000000 1.570774
    1 -5.676169 -10.205956 -0.036927 3.141592 0.994790 3.141592
    2 -12.201421 1.904737 0.015999 3.141593 0.000000 -3.141593
    3 -5.287980 8.712280 -8.712730 0.000000 1.570451 0.000000
    4 -5.287980 8.700730 8.764190 0.000000 1.570451 0.000000
    5 -5.287980 -8.776230 8.752700 0.000000 1.570451 0.000000
    6 -5.287990 -8.727910 -8.712730 0.000000 1.570451 0.000000
    7 -1.762286 5.911245 0.000001 -3.141593 0.000000 -3.054327
    8 -2.841770 -0.132410 -7.037760 -3.141593 0.969353 -3.141593
    9 -6.216227 0.000000 -0.009537 -3.141593 -0.000003 -3.141593
    10 -6.044680 0.000000 -0.123807 -3.141593 0.000003 -3.141593
    11 -2.841770 -7.400337 0.154318 3.141593 -0.000003 -2.232928
    12 -6.216228 0.011103 0.009509 0.000000 0.000000 -3.141590
    13 -6.044682 0.123416 0.123833 0.000000 0.000000 3.141590
    14 -2.841769 -0.132410 6.858286 -3.141593 -0.963583 -3.141593
    15 -6.216226 0.000000 0.009509 -3.141593 0.000003 -3.141593
    16 -6.044680 0.000000 0.123834 -3.141593 0.000003 -3.141593
    17 -5.305007 1.858320 7.096062 0.000000 -1.570793 -1.483538
    18 -5.320000 1.887550 3.937809 0.000000 0.000000 0.314144
    19 -5.271080 1.859040 3.937809 0.000000 0.000000 -0.418086
    20 -5.316726 1.858320 -7.090726 0.000000 -1.570793 -1.483538
    21 -5.271080 1.887550 -3.932593 0.000000 0.000000 0.314144
    22 -5.271080 1.859040 -3.932593 0.000000 0.000000 -0.418508
    23 6.127056 4.060575 0.000002 3.141593 0.000000 -3.141593
  time 42
    0 0.000616 0.675802 0.339438 1.570800 0.000000 1.570774
    1 -5.676169 -10.205956 -0.036927 3.141592 0.942453 -3.141592
    2 -12.201421 1.904737 0.015999 3.141593 0.000000 -3.141593
    3 -5.287980 8.712280 -8.712730 0.000000 1.570451 0.000000
    4 -5.287980 8.700730 8.764190 0.000000 1.570451 0.000000
    5 -5.287980 -8.776230 8.752700 0.000000 1.570451 0.000000
    6 -5.287990 -8.727910 -8.712730 0.000000 1.570451 0.000000
    7 -1.762286 5.911245 0.000001 -3.141593 0.000000 -3.054327
    8 -2.841770 -0.132410 -7.037760 -3.141593 0.969353 -3.141593
    9 -6.216227 0.000000 -0.009537 -3.141593 -0.000003 -3.141593
    10 -6.044680 0.000000 -0.123807 -3.141593 0.000003 -3.141593
    11 -2.841770 -7.400337 0.154318 3.141593 -0.000003 -2.232928
    12 -6.216228 0.011103 0.009509 0.000000 0.000000 -3.141590
    13 -6.044682 0.123416 0.123833 0.000000 0.000000 3.141590
    14 -2.841769 -0.132410 6.858286 -3.141593 -0.963583 -3.141593
    15 -6.216226 0.000000 0.009509 -3.141593 0.000003 -3.141593
    16 -6.044680 0.000000 0.123834 -3.141593 0.000003 -3.141593
    17 -5.301101 1.858320 6.939807 0.000000 -1.570793 -1.518446
    18 -5.320000 1.887550 3.816712 0.000000 0.000000 0.261798
    19 -5.271080 1.859040 3.816712 0.000000 0.000000 -0.348401
    20 -5.316726 1.858320 -6.934471 0.000000 -1.570793 -1.518446
    21 -5.271080 1.887550 -3.811495 0.000000 0.000000 0.261798
    22 -5.271080 1.859040 -3.811495 0.000000 0.000000 -0.348753
    23 6.127056 4.060575 0.000002 3.141593 0.000000 -3.141593
  time 43
    0 0.000616 0.675802 0.210528 1.570800 0.000000 1.570774
    1 -5.676169 -10.205956 -0.036927 3.141592 0.890116 3.141592
    2 -12.201421 1.904737 0.015999 3.141593 0.000000 -3.141593
    3 -5.287980 8.712280 -8.712730 0.000000 1.570451 0.000000
    4 -5.287980 8.700730 8.764190 0.000000 1.570451 0.000000
    5 -5.287980 -8.776230 8.752700 0.000000 1.570451 0.000000
    6 -5.287990 -8.727910 -8.712730 0.000000 1.570451 0.000000
    7 -1.762286 5.911245 0.000001 -3.141593 0.000000 -3.054327
    8 -2.841770 -0.132410 -7.037760 -3.141593 0.969353 -3.141593
    9 -6.216227 0.000000 -0.009537 -3.141593 -0.000003 -3.141593
    10 -6.044680 0.000000 -0.123807 -3.141593 0.000003 -3.141593
    11 -2.841770 -7.400337 0.154318 3.141593 -0.000003 -2.232928
    12 -6.216228 0.011103 0.009509 0.000000 0.000000 -3.141590
    13 -6.044682 0.123416 0.123833 0.000000 0.000000 3.141590
    14 -2.841769 -0.132410 6.858286 -3.141593 -0.963583 -3.141593
    15 -6.216226 0.000000 0.009509 -3.141593 0.000003 -3.141593
    16 -6.044680 0.000000 0.123834 -3.141593 0.000003 -3.141593
    17 -5.301101 1.858320 6.779646 0.000000 -1.570793 -1.553353
    18 -5.320000 1.887550 3.711240 0.000000 0.000000 0.209435
    19 -5.271080 1.859040 3.711240 0.000000 0.000000 -0.278716
    20 -5.316726 1.858320 -6.774310 0.000000 -1.570793 -1.553353
    21 -5.271080 1.887550 -3.706023 0.000000 0.000000 0.209435
    22 -5.271080 1.859040 -3.706023 0.000000 0.000000 -0.278997
    23 6.127056 4.060575 0.000002 3.141593 0.000000 -3.141593
  time 44
    0 0.000616 0.675802 0.077711 1.570800 0.000000 1.570774
    1 -5.676169 -10.205956 -0.036927 3.141592 0.837730 3.141592
    2 -12.201421 1.904737 0.015999 3.141593 0.000000 -3.141593
    3 -5.287980 8.712280 -8.712730 0.000000 1.570451 0.000000
    4 -5.287980 8.700730 8.764190 0.000000 1.570451 0.000000
    5 -5.287980 -8.776230 8.752700 0.000000 1.570451 0.000000
    6 -5.287990 -8.727910 -8.712730 0.000000 1.570451 0.000000
    7 -1.762286 5.911245 0.000001 -3.141593 0.000000 -3.054327
    8 -2.841770 -0.132410 -7.037760 -3.141593 0.969353 -3.141593
    9 -6.216227 0.000000 -0.009537 -3.141593 -0.000003 -3.141593
    10 -6.044680 0.000000 -0.123807 -3.141593 0.000003 -3.141593
    11 -2.841770 -7.400337 0.154318 3.141593 -0.000003 -2.232928
    12 -6.216228 0.011103 0.009509 0.000000 0.000000 -3.141590
    13 -6.044682 0.123416 0.123833 0.000000 0.000000 3.141590
    14 -2.841769 -0.132410 6.858286 -3.141593 -0.963583 -3.141593
    15 -6.216226 0.000000 0.009509 -3.141593 0.000003 -3.141593
    16 -6.044680 0.000000 0.123834 -3.141593 0.000003 -3.141593
    17 -5.297194 1.858320 6.623392 0.000000 -1.570793 -1.588247
    18 -5.320000 1.887550 3.621393 0.000000 0.000000 0.157072
    19 -5.271080 1.859040 3.621393 0.000000 0.000000 -0.209031
    20 -5.316726 1.858320 -6.618055 0.000000 -1.570793 -1.588247
    21 -5.271080 1.887550 -3.616177 0.000000 0.000000 0.157072
    22 -5.271080 1.859040 -3.616177 0.000000 0.000000 -0.209242
    23 6.127056 4.060575 0.000002 3.141593 0.000000 -3.141593
  time 45
    0 0.000616 0.675802 -0.055105 1.570800 0.000000 1.570774
    1 -5.676169 -10.205956 -0.036927 3.141592 0.785393 -3.141592
    2 -12.201421 1.904737 0.015999 3.141593 0.000000 -3.141593
    3 -5.287980 8.712280 -8.712730 0.000000 1.570451 0.000000
    4 -5.287980 8.700730 8.764190 0.000000 1.570451 0.000000
    5 -5.287980 -8.776230 8.752700 0.000000 1.570451 0.000000
    6 -5.287990 -8.727910 -8.712730 0.000000 1.570451 0.000000
    7 -1.762286 5.911245 0.000001 -3.141593 0.000000 -3.054327
    8 -2.841770 -0.132410 -7.037760 -3.141593 0.969353 -3.141593
    9 -6.216227 0.000000 -0.009537 -3.141593 -0.000003 -3.141593
    10 -6.044680 0.000000 -0.123807 -3.141593 0.000003 -3.141593
    11 -2.841770 -7.400337 0.154318 3.141593 -0.000003 -2.232928
    12 -6.216228 0.011103 0.009509 0.000000 0.000000 -3.141590
    13 -6.044682 0.123416 0.123833 0.000000 0.000000 3.141590
    14 -2.841769 -0.132410 6.858286 -3.141593 -0.963583 -3.141593
    15 -6.216226 0.000000 0.009509 -3.141593 0.000003 -3.141593
    16 -6.044680 0.000000 0.123834 -3.141593 0.000003 -3.141593
    17 -5.293288 1.858320 6.467137 0.000000 -1.570793 -1.623154
    18 -5.320000 1.887550 3.539359 0.000000 0.000000 0.104709
    19 -5.271080 1.859040 3.539359 0.000000 0.000000 -0.139347
    20 -5.316726 1.858320 -6.461800 0.000000 -1.570793 -1.623154
    21 -5.271080 1.887550 -3.534143 0.000000 0.000000 0.104709
    22 -5.271080 1.859040 -3.534143 0.000000 0.000000 -0.139487
    23 6.127056 4.060575 0.000002 3.141593 0.000000 -3.141593
  time 46
    0 0.000616 0.675802 -0.191828 1.570800 0.000000 1.570774
    1 -5.676169 -10.205956 -0.036927 3.141592 0.733008 -3.141592
    2 -12.201421 1.904737 0.015999 3.141593 0.000000 -3.141593
    3 -5.287980 8.712280 -8.712730 0.000000 1.570451 0.000000
    4 -5.287980 8.700730 8.764190 0.000000 1.570451 0.000000
    5 -5.287980 -8.776230 8.752700 0.000000 1.570451 0.000000
    6 -5.287990 -8.727910 -8.712730 0.000000 1.570451 0.000000
    7 -1.762286 5.911245 0.000001 -3.141593 0.000000 -3.054327
    8 -2.841770 -0.132410 -7.037760 -3.141593 0.969353 -3.141593
    9 -6.216227 0.000000 -0.009537 -3.141593 -0.000003 -3.141593
    10 -6.044680 0.000000 -0.123807 -3.141593 0.000003 -3.141593
    11 -2.841770 -7.400337 0.154318 3.141593 -0.000003 -2.232928
    12 -6.216228 0.011103 0.009509 0.000000 0.000000 -3.141590
    13 -6.044682 0.123416 0.123833 0.000000 0.000000 3.141590
    14 -2.841769 -0.132410 6.858286 -3.141593 -0.963583 -3.141593
    15 -6.216226 0.000000 0.009509 -3.141593 0.000003 -3.141593
    16 -6.044680 0.000000 0.123834 -3.141593 0.000003 -3.141593
    17 -5.293288 1.858320 6.306976 0.000000 -1.570793 -1.658062
    18 -5.320000 1.887550 3.453419 0.000000 0.000000 0.052346
    19 -5.271080 1.859040 3.453419 0.000000 0.000000 -0.069662
    20 -5.316726 1.858320 -6.305546 0.000000 -1.570793 -1.658062
    21 -5.271080 1.887550 -3.448203 0.000000 0.000000 0.052346
    22 -5.271080 1.859040 -3.448203 0.000000 0.000000 -0.069732
    23 6.127056 4.060575 0.000002 3.141593 0.000000 -3.141593
  time 47
    0 0.000616 0.675802 -0.324645 1.570800 0.000000 1.570774
    1 -5.676169 -10.205956 -0.036927 3.141592 0.680671 3.141592
    2 -12.201421 1.904737 0.015999 3.141593 0.000000 -3.141593
    3 -5.287980 8.712280 -8.712730 0.000000 1.570451 0.000000
    4 -5.287980 8.700730 8.764190 0.000000 1.570451 0.000000
    5 -5.287980 -8.776230 8.752700 0.000000 1.570451 0.000000
    6 -5.287990 -8.727910 -8.712730 0.000000 1.570451 0.000000
    7 -1.762286 5.911245 0.000001 -3.141593 0.000000 -3.054327
    8 -2.841770 -0.132410 -7.037760 -3.141593 0.969353 -3.141593
    9 -6.216227 0.000000 -0.009537 -3.141593 -0.000003 -3.141593
    10 -6.044680 0.000000 -0.123807 -3.141593 0.000003 -3.141593
    11 -2.841770 -7.400337 0.154318 3.141593 -0.000003 -2.232928
    12 -6.216228 0.011103 0.009509 0.000000 0.000000 -3.141590
    13 -6.044682 0.123416 0.123833 0.000000 0.000000 3.141590
    14 -2.841769 -0.132410 6.858286 -3.141593 -0.963583 -3.141593
    15 -6.216226 0.000000 0.009509 -3.141593 0.000003 -3.141593
    16 -6.044680 0.000000 0.123834 -3.141593 0.000003 -3.141593
    17 -5.289382 1.858320 6.150721 0.000000 -1.570793 -1.623154
    18 -5.320000 1.887550 3.363573 0.000000 0.000000 0.000000
    19 -5.271080 1.859040 3.363573 0.000000 0.000000 0.000000
    20 -5.316726 1.858320 -6.145384 0.000000 -1.570793 -1.623154
    21 -5.271080 1.887550 -3.358356 0.000000 0.000000 0.000000
    22 -5.271080 1.859040 -3.358356 0.000000 0.000000 0.000000
    23 6.127056 4.060575 0.000002 3.141593 0.000000 -3.141593
  time 48
    0 0.000616 0.675802 -0.453555 1.570800 0.000000 1.570774
    1 -5.676169 -10.205956 -0.036927 3.141592 0.628286 3.141592
    2 -12.201421 1.904737 0.015999 3.141593 0.000000 -3.141593
    3 -5.287980 8.712280 -8.712730 0.000000 1.570451 0.000000
    4 -5.287980 8.700730 8.764190 0.000000 1.570451 0.000000
    5 -5.287980 -8.776230 8.752700 0.000000 1.570451 0.000000
    6 -5.287990 -8.727910 -8.712730 0.000000 1.570451 0.000000
    7 -1.762286 5.911245 0.000001 -3.141593 0.000000 -3.054327
    8 -2.841770 -0.132410 -7.037760 -3.141593 0.969353 -3.141593
    9 -6.216227 0.000000 -0.009537 -3.141593 -0.000003 -3.141593
    10 -6.044680 0.000000 -0.123807 -3.141593 0.000003 -3.141593
    11 -2.841770 -7.400337 0.154318 3.141593 -0.000003 -2.232928
    12 -6.216228 0.011103 0.009509 0.000000 0.000000 -3.141590
    13 -6.044682 0.123416 0.123833 0.000000 0.000000 3.141590
    14 -2.841769 -0.132410 6.858286 -3.141593 -0.963583 -3.141593
    15 -6.216226 0.000000 0.009509 -3.141593 0.000003 -3.141593
    16 -6.044680 0.000000 0.123834 -3.141593 0.000003 -3.141593
    17 -5.285475 1.858320 5.994466 0.000000 -1.570793 -1.588247
    18 -5.320000 1.887550 3.262007 0.000000 0.000000 0.000000
    19 -5.271080 1.859040 3.262007 0.000000 0.000000 0.000000
    20 -5.316726 1.858320 -5.989130 0.000000 -1.570793 -1.588247
    21 -5.271080 1.887550 -3.256791 0.000000 0.000000 0.000000
    22 -5.271080 1.859040 -3.256791 0.000000 0.000000 0.000000
    23 6.127056 4.060575 0.000002 3.141593 0.000000 -3.141593
  time 49
    0 0.000616 0.675802 -0.578559 1.570800 0.000000 1.570774
    1 -5.676169 -10.205956 -0.036927 3.141592 0.575949 3.141592
    2 -12.201421 1.904737 0.015999 3.141593 0.000000 -3.141593
    3 -5.287980 8.712280 -8.712730 0.000000 1.570451 0.000000
    4 -5.287980 8.700730 8.764190 0.000000 1.570451 0.000000
    5 -5.287980 -8.776230 8.752700 0.000000 1.570451 0.000000
    6 -5.287990 -8.727910 -8.712730 0.000000 1.570451 0.000000
    7 -1.762286 5.911245 0.000001 -3.141593 0.000000 -3.054327
    8 -2.841770 -0.132410 -7.037760 -3.141593 0.969353 -3.141593
    9 -6.216227 0.000000 -0.009537 -3.141593 -0.000003 -3.141593
    10 -6.044680 0.000000 -0.123807 -3.141593 0.000003 -3.141593
    11 -2.841770 -7.400337 0.154318 3.141593 -0.000003 -2.232928
    12 -6.216228 0.011103 0.009509 0.000000 0.000000 -3.141590
    13 -6.044682 0.123416 0.123833 0.000000 0.000000 3.141590
    14 -2.841769 -0.132410 6.858286 -3.141593 -0.963583 -3.141593
    15 -6.216226 0.000000 0.009509 -3.141593 0.000003 -3.141593
    16 -6.044680 0.000000 0.123834 -3.141593 0.000003 -3.141593
    17 -5.285475 1.858320 5.834305 0.000000 -1.570793 -1.553353
    18 -5.320000 1.887550 3.140910 0.000000 0.000000 0.000000
    19 -5.271080 1.859040 3.140910 0.000000 0.000000 0.000000
    20 -5.316726 1.858320 -5.832875 0.000000 -1.570793 -1.553353
    21 -5.271080 1.887550 -3.135693 0.000000 0.000000 0.000000
    22 -5.271080 1.859040 -3.135693 0.000000 0.000000 0.000000
    23 6.127056 4.060575 0.000002 3.141593 0.000000 -3.141593
  time 50
    0 0.000616 0.675802 -0.703563 1.570800 0.000000 1.570774
    1 -5.676169 -10.205956 -0.036927 3.141592 0.523564 -3.141592
    2 -12.201421 1.904737 0.015999 3.141593 0.000000 -3.141593
    3 -5.287980 8.712280 -8.712730 0.000000 1.570451 0.000000
    4 -5.287980 8.700730 8.764190 0.000000 1.570451 0.000000
    5 -5.287980 -8.776230 8.752700 0.000000 1.570451 0.000000
    6 -5.287990 -8.727910 -8.712730 0.000000 1.570451 0.000000
    7 -1.762286 5.911245 0.000001 -3.141593 0.000000 -3.054327
    8 -2.841770 -0.132410 -7.037760 -3.141593 0.969353 -3.141593
    9 -6.216227 0.000000 -0.009537 -3.141593 -0.000003 -3.141593
    10 -6.044680 0.000000 -0.123807 -3.141593 0.000003 -3.141593
    11 -2.841770 -7.400337 0.154318 3.141593 -0.000003 -2.232928
    12 -6.216228 0.011103 0.009509 0.000000 0.000000 -3.141590
    13 -6.044682 0.123416 0.123833 0.000000 0.000000 3.141590
    14 -2.841769 -0.132410 6.858286 -3.141593 -0.963583 -3.141593
    15 -6.216226 0.000000 0.009509 -3.141593 0.000003 -3.141593
    16 -6.044680 0.000000 0.123834 -3.141593 0.000003 -3.141593
    17 -5.281569 1.858320 5.678050 0.000000 -1.570793 -1.518446
    18 -5.320000 1.887550 2.992468 0.000000 0.000000 0.000000
    19 -5.271080 1.859040 2.992468 0.000000 0.000000 0.000000
    20 -5.316726 1.858320 -5.676620 0.000000 -1.570793 -1.518446
    21 -5.271080 1.887550 -2.991158 0.000000 0.000000 0.000000
    22 -5.271080 1.859040 -2.991158 0.000000 0.000000 0.000000
    23 6.127056 4.060575 0.000002 3.141593 0.000000 -3.141593
  time 51
    0 0.000616 0.675802 -0.816847 1.570800 0.000000 1.570774
    1 -5.676169 -10.205956 -0.036927 3.141592 0.471226 3.141592
    2 -12.201421 1.904737 0.015999 3.141593 0.000000 -3.141593
    3 -5.287980 8.712280 -8.712730 0.000000 1.570451 0.000000
    4 -5.287980 8.700730 8.764190 0.000000 1.570451 0.000000
    5 -5.287980 -8.776230 8.752700 0.000000 1.570451 0.000000
    6 -5.287990 -8.727910 -8.712730 0.000000 1.570451 0.000000
    7 -1.762286 5.911245 0.000001 -3.141593 0.000000 -3.054327
    8 -2.841770 -0.132410 -7.037760 -3.141593 0.969353 -3.141593
    9 -6.216227 0.000000 -0.009537 -3.141593 -0.000003 -3.141593
    10 -6.044680 0.000000 -0.123807 -3.141593 0.000003 -3.141593
    11 -2.841770 -7.400337 0.154318 3.141593 -0.000003 -2.232928
    12 -6.216228 0.011103 0.009509 0.000000 0.000000 -3.141590
    13 -6.044682 0.123416 0.123833 0.000000 0.000000 3.141590
    14 -2.841769 -0.132410 6.858286 -3.141593 -0.963583 -3.141593
    15 -6.216226 0.000000 0.009509 -3.141593 0.000003 -3.141593
    16 -6.044680 0.000000 0.123834 -3.141593 0.000003 -3.141593
    17 -5.277663 1.858320 5.521795 0.000000 -1.570793 -1.483538
    18 -5.320000 1.887550 2.816681 0.000000 0.000000 0.000000
    19 -5.271080 1.859040 2.816681 0.000000 0.000000 0.000000
    20 -5.316726 1.858320 -5.516459 0.000000 -1.570793 -1.483538
    21 -5.271080 1.887550 -2.815371 0.000000 0.000000 0.000000
    22 -5.271080 1.859040 -2.815371 0.000000 0.000000 0.000000
    23 6.127056 4.060575 0.000002 3.141593 0.000000 -3.141593
  time 52
    0 0.000616 0.675802 -0.926226 1.570800 0.000000 1.570774
    1 -5.676169 -10.205956 -0.036927 3.141592 0.418841 -3.141592
    2 -12.201421 1.904737 0.015999 3.141593 0.000000 -3.141593
    3 -5.287980 8.712280 -8.712730 0.000000 1.570451 0.000000
    4 -5.287980 8.700730 8.764190 0.000000 1.570451 0.000000
    5 -5.287980 -8.776230 8.752700 0.000000 1.570451 0.000000
    6 -5.287990 -8.727910 -8.712730 0.000000 1.570451 0.000000
    7 -1.762286 5.911245 0.000001 -3.141593 0.000000 -3.054327
    8 -2.841770 -0.132410 -7.037760 -3.141593 0.969353 -3.141593
    9 -6.216227 0.000000 -0.009537 -3.141593 -0.000003 -3.141593
    10 -6.044680 0.000000 -0.123807 -3.141593 0.000003 -3.141593
    11 -2.841770 -7.400337 0.154318 3.141593 -0.000003 -2.232928
    12 -6.216228 0.011103 0.009509 0.000000 0.000000 -3.141590
    13 -6.044682 0.123416 0.123833 0.000000 0.000000 3.141590
    14 -2.841769 -0.132410 6.858286 -3.141593 -0.963583 -3.141593
    15 -6.216226 0.000000 0.009509 -3.141593 0.000003 -3.141593
    16 -6.044680 0.000000 0.123834 -3.141593 0.000003 -3.141593
    17 -5.277663 1.858320 5.361634 0.000000 -1.570793 -1.483538
    18 -5.320000 1.887550 2.601831 0.000000 0.000000 0.000000
    19 -5.271080 1.859040 2.601831 0.000000 0.000000 0.000000
    20 -5.316726 1.858320 -5.360204 0.000000 -1.570793 -1.483538
    21 -5.271080 1.887550 -2.600521 0.000000 0.000000 0.000000
    22 -5.271080 1.859040 -2.600521 0.000000 0.000000 0.000000
    23 6.127056 4.060575 0.000002 3.141593 0.000000 -3.141593
  time 53
    0 0.000616 0.675802 -1.027791 1.570800 0.000000 1.570774
    1 -5.676169 -10.205956 -0.036927 3.141592 0.366504 -3.141592
    2 -12.201421 1.904737 0.015999 3.141593 0.000000 -3.141593
    3 -5.287980 8.712280 -8.712730 0.000000 1.570451 0.000000
    4 -5.287980 8.700730 8.764190 0.000000 1.570451 0.000000
    5 -5.287980 -8.776230 8.752700 0.000000 1.570451 0.000000
    6 -5.287990 -8.727910 -8.712730 0.000000 1.570451 0.000000
    7 -1.762286 5.911245 0.000001 -3.141593 0.000000 -3.054327
    8 -2.841770 -0.132410 -7.037760 -3.141593 0.969353 -3.141593
    9 -6.216227 0.000000 -0.009537 -3.141593 -0.000003 -3.141593
    10 -6.044680 0.000000 -0.123807 -3.141593 0.000003 -3.141593
    11 -2.841770 -7.400337 0.154318 3.141593 -0.000003 -2.232928
    12 -6.216228 0.011103 0.009509 0.000000 0.000000 -3.141590
    13 -6.044682 0.123416 0.123833 0.000000 0.000000 3.141590
    14 -2.841769 -0.132410 6.858286 -3.141593 -0.963583 -3.141593
    15 -6.216226 0.000000 0.009509 -3.141593 0.000003 -3.141593
    16 -6.044680 0.000000 0.123834 -3.141593 0.000003 -3.141593
    17 -5.273756 1.858320 5.205379 0.000000 -1.570793 -1.483538
    18 -5.320000 1.887550 2.347917 0.000000 0.000000 0.000000
    19 -5.271080 1.859040 2.347917 0.000000 0.000000 0.000000
    20 -5.316726 1.858320 -5.203949 0.000000 -1.570793 -1.483538
    21 -5.271080 1.887550 -2.346607 0.000000 0.000000 0.000000
    22 -5.271080 1.859040 -2.346607 0.000000 0.000000 0.000000
    23 6.127056 4.060575 0.000002 3.141593 0.000000 -3.141593
  time 54
    0 0.000616 0.675802 -1.117638 1.570800 0.000000 1.570774
    1 -5.676169 -10.205956 -0.036927 3.141592 0.314119 3.141592
    2 -12.201421 1.904737 0.015999 3.141593 0.000000 -3.141593
    3 -5.287980 8.712280 -8.712730 0.000000 1.570451 0.000000
    4 -5.287980 8.700730 8.764190 0.000000 1.570451 0.000000
    5 -5.287980 -8.776230 8.752700 0.000000 1.570451 0.000000
    6 -5.287990 -8.727910 -8.712730 0.000000 1.570451 0.000000
    7 -1.762286 5.911245 0.000001 -3.141593 0.000000 -3.054327
    8 -2.841770 -0.132410 -7.037760 -3.141593 0.969353 -3.141593
    9 -6.216227 0.000000 -0.009537 -3.141593 -0.000003 -3.141593
    10 -6.044680 0.000000 -0.123807 -3.141593 0.000003 -3.141593
    11 -2.841770 -7.400337 0.154318 3.141593 -0.000003 -2.232928
    12 -6.216228 0.011103 0.009509 0.000000 0.000000 -3.141590
    13 -6.044682 0.123416 0.123833 0.000000 0.000000 3.141590
    14 -2.841769 -0.132410 6.858286 -3.141593 -0.963583 -3.141593
    15 -6.216226 0.000000 0.009509 -3.141593 0.000003 -3.141593
    16 -6.044680 0.000000 0.123834 -3.141593 0.000003 -3.141593
    17 -5.269850 1.858320 5.049125 0.000000 -1.570793 -1.483538
    18 -5.320000 1.887550 2.043220 0.000000 0.000000 0.000000
    19 -5.271080 1.859040 2.043220 0.000000 0.000000 0.000000
    20 -5.316726 1.858320 -5.047695 0.000000 -1.570793 -1.483538
    21 -5.271080 1.887550 -2.041910 0.000000 0.000000 0.000000
    22 -5.271080 1.859040 -2.041910 0.000000 0.000000 0.000000
    23 6.127056 4.060575 0.000002 3.141593 0.000000 -3.141593
  time 55
    0 0.000616 0.675802 -1.199672 1.570800 0.000000 1.570774
    1 -5.676169 -10.205956 -0.036927 3.141592 0.261782 -3.141592
    2 -12.201421 1.904737 0.015999 3.141593 0.000000 -3.141593
    3 -5.287980 8.712280 -8.712730 0.000000 1.570451 0.000000
    4 -5.287980 8.700730 8.764190 0.000000 1.570451 0.000000
    5 -5.287980 -8.776230 8.752700 0.000000 1.570451 0.000000
    6 -5.287990 -8.727910 -8.712730 0.000000 1.570451 0.000000
    7 -1.762286 5.911245 0.000001 -3.141593 0.000000 -3.054327
    8 -2.841770 -0.132410 -7.037760 -3.141593 0.969353 -3.141593
    9 -6.216227 0.000000 -0.009537 -3.141593 -0.000003 -3.141593
    10 -6.044680 0.000000 -0.123807 -3.141593 0.000003 -3.141593
    11 -2.841770 -7.400337 0.154318 3.141593 -0.000003 -2.232928
    12 -6.216228 0.011103 0.009509 0.000000 0.000000 -3.141590
    13 -6.044682 0.123416 0.123833 0.000000 0.000000 3.141590
    14 -2.841769 -0.132410 6.858286 -3.141593 -0.963583 -3.141593
    15 -6.216226 0.000000 0.009509 -3.141593 0.000003 -3.141593
    16 -6.044680 0.000000 0.123834 -3.141593 0.000003 -3.141593
    17 -5.269850 1.858320 4.892870 0.000000 -1.570793 -1.483538
    18 -5.320000 1.887550 2.043220 0.000000 0.000000 0.000000
    19 -5.271080 1.859040 2.043220 0.000000 0.000000 0.000000
    20 -5.316726 1.858320 -4.891440 0.000000 -1.570793 -1.483538
    21 -5.271080 1.887550 -2.041910 0.000000 0.000000 0.000000
    22 -5.271080 1.859040 -2.041910 0.000000 0.000000 0.000000
    23 6.127056 4.060575 0.000002 3.141593 0.000000 -3.141593
  time 56
    0 0.000616 0.675802 -1.266080 1.570800 0.000000 1.570774
    1 -5.676169 -10.205956 -0.036927 3.141592 0.209397 3.141592
    2 -12.201421 1.904737 0.015999 3.141593 0.000000 -3.141593
    3 -5.287980 8.712280 -8.712730 0.000000 1.570451 0.000000
    4 -5.287980 8.700730 8.764190 0.000000 1.570451 0.000000
    5 -5.287980 -8.776230 8.752700 0.000000 1.570451 0.000000
    6 -5.287990 -8.727910 -8.712730 0.000000 1.570451 0.000000
    7 -1.762286 5.911245 0.000001 -3.141593 0.000000 -3.054327
    8 -2.841770 -0.132410 -7.037760 -3.141593 0.969353 -3.141593
    9 -6.216227 0.000000 -0.009537 -3.141593 -0.000003 -3.141593
    10 -6.044680 0.000000 -0.123807 -3.141593 0.000003 -3.141593
    11 -2.841770 -7.400337 0.154318 3.141593 -0.000003 -2.232928
    12 -6.216228 0.011103 0.009509 0.000000 0.000000 -3.141590
    13 -6.044682 0.123416 0.123833 0.000000 0.000000 3.141590
    14 -2.841769 -0.132410 6.858286 -3.141593 -0.963583 -3.141593
    15 -6.216226 0.000000 0.009509 -3.141593 0.000003 -3.141593
    16 -6.044680 0.000000 0.123834 -3.141593 0.000003 -3.141593
    17 -5.269850 1.858320 4.892870 0.000000 -1.570793 -1.483538
    18 -5.320000 1.887550 2.043220 0.000000 0.000000 0.000000
    19 -5.271080 1.859040 2.043220 0.000000 0.000000 0.000000
    20 -5.316726 1.858320 -4.891440 0.000000 -1.570793 -1.483538
    21 -5.271080 1.887550 -2.041910 0.000000 0.000000 0.000000
    22 -5.271080 1.859040 -2.041910 0.000000 0.000000 0.000000
    23 6.127056 4.060575 0.000002 3.141593 0.000000 -3.141593
  time 57
    0 0.000616 0.675802 -1.320769 1.570800 0.000000 1.570774
    1 -5.676169 -10.205956 -0.036927 3.141592 0.157059 -3.141592
    2 -12.201421 1.904737 0.015999 3.141593 0.000000 -3.141593
    3 -5.287980 8.712280 -8.712730 0.000000 1.570451 0.000000
    4 -5.287980 8.700730 8.764190 0.000000 1.570451 0.000000
    5 -5.287980 -8.776230 8.752700 0.000000 1.570451 0.000000
    6 -5.287990 -8.727910 -8.712730 0.000000 1.570451 0.000000
    7 -1.762286 5.911245 0.000001 -3.141593 0.000000 -3.054327
    8 -2.841770 -0.132410 -7.037760 -3.141593 0.969353 -3.141593
    9 -6.216227 0.000000 -0.009537 -3.141593 -0.000003 -3.141593
    10 -6.044680 0.000000 -0.123807 -3.141593 0.000003 -3.141593
    11 -2.841770 -7.400337 0.154318 3.141593 -0.000003 -2.232928
    12 -6.216228 0.011103 0.009509 0.000000 0.000000 -3.141590
    13 -6.044682 0.123416 0.123833 0.000000 0.000000 3.141590
    14 -2.841769 -0.132410 6.858286 -3.141593 -0.963583 -3.141593
    15 -6.216226 0.000000 0.009509 -3.141593 0.000003 -3.141593
    16 -6.044680 0.000000 0.123834 -3.141593 0.000003 -3.141593
    17 -5.269850 1.858320 4.892870 0.000000 -1.570793 -1.527176
    18 -5.320000 1.887550 2.043220 0.000000 0.000000 0.000000
    19 -5.271080 1.859040 2.043220 0.000000 0.000000 0.000000
    20 -5.316726 1.858320 -4.891440 0.000000 -1.570793 -1.527176
    21 -5.271080 1.887550 -2.041910 0.000000 0.000000 0.000000
    22 -5.271080 1.859040 -2.041910 0.000000 0.000000 0.000000
    23 6.127056 4.060575 0.000002 3.141593 0.000000 -3.141593
  time 58
    0 0.000616 0.675802 -1.363739 1.570800 0.000000 1.570774
    1 -5.676169 -10.205956 -0.036927 3.141592 0.104674 3.141592
    2 -12.201421 1.904737 0.015999 3.141593 0.000000 -3.141593
    3 -5.287980 8.712280 -8.712730 0.000000 1.570451 0.000000
    4 -5.287980 8.700730 8.764190 0.000000 1.570451 0.000000
    5 -5.287980 -8.776230 8.752700 0.000000 1.570451 0.000000
    6 -5.287990 -8.727910 -8.712730 0.000000 1.570451 0.000000
    7 -1.762286 5.911245 0.000001 -3.141593 0.000000 -3.054327
    8 -2.841770 -0.132410 -7.037760 -3.141593 0.969353 -3.141593
    9 -6.216227 0.000000 -0.009537 -3.141593 -0.000003 -3.141593
    10 -6.044680 0.000000 -0.123807 -3.141593 0.000003 -3.141593
    11 -2.841770 -7.400337 0.154318 3.141593 -0.000003 -2.232928
    12 -6.216228 0.011103 0.009509 0.000000 0.000000 -3.141590
    13 -6.044682 0.123416 0.123833 0.000000 0.000000 3.141590
    14 -2.841769 -0.132410 6.858286 -3.141593 -0.963583 -3.141593
    15 -6.216226 0.000000 0.009509 -3.141593 0.000003 -3.141593
    16 -6.044680 0.000000 0.123834 -3.141593 0.000003 -3.141593
    17 -5.269850 1.858320 4.892870 0.000000 -1.570793 -1.570800
    18 -5.320000 1.887550 2.043220 0.000000 0.000000 0.000000
    19 -5.271080 1.859040 2.043220 0.000000 0.000000 0.000000
    20 -5.316726 1.858320 -4.891440 0.000000 -1.570793 -1.570800
    21 -5.271080 1.887550 -2.041910 0.000000 0.000000 0.000000
    22 -5.271080 1.859040 -2.041910 0.000000 0.000000 0.000000
    23 6.127056 4.060575 0.000002 3.141593 0.000000 -3.141593
  time 59
    0 0.000616 0.675802 -1.387177 1.570800 0.000000 1.570774
    1 -5.676169 -10.205956 -0.036927 3.141592 0.052337 3.141592
    2 -12.201421 1.904737 0.015999 3.141593 0.000000 -3.141593
    3 -5.287980 8.712280 -8.712730 0.000000 1.570451 0.000000
    4 -5.287980 8.700730 8.764190 0.000000 1.570451 0.000000
    5 -5.287980 -8.776230 8.752700 0.000000 1.570451 0.000000
    6 -5.287990 -8.727910 -8.712730 0.000000 1.570451 0.000000
    7 -1.762286 5.911245 0.000001 -3.141593 0.000000 -3.054327
    8 -2.841770 -0.132410 -7.037760 -3.141593 0.969353 -3.141593
    9 -6.216227 0.000000 -0.009537 -3.141593 -0.000003 -3.141593
    10 -6.044680 0.000000 -0.123807 -3.141593 0.000003 -3.141593
    11 -2.841770 -7.400337 0.154318 3.141593 -0.000003 -2.232928
    12 -6.216228 0.011103 0.009509 0.000000 0.000000 -3.141590
    13 -6.044682 0.123416 0.123833 0.000000 0.000000 3.141590
    14 -2.841769 -0.132410 6.858286 -3.141593 -0.963583 -3.141593
    15 -6.216226 0.000000 0.009509 -3.141593 0.000003 -3.141593
    16 -6.044680 0.000000 0.123834 -3.141593 0.000003 -3.141593
    17 -5.269850 1.858320 4.892870 0.000000 -1.570793 -1.614424
    18 -5.320000 1.887550 2.043220 0.000000 0.000000 0.000000
    19 -5.271080 1.859040 2.043220 0.000000 0.000000 0.000000
    20 -5.316726 1.858320 -4.891440 0.000000 -1.570793 -1.614424
    21 -5.271080 1.887550 -2.041910 0.000000 0.000000 0.000000
    22 -5.271080 1.859040 -2.041910 0.000000 0.000000 0.000000
    23 6.127056 4.060575 0.000002 3.141593 0.000000 -3.141593
  time 60
    0 0.000616 0.675802 -1.394990 1.570800 0.000000 1.570774
    1 -5.676169 -10.205956 -0.036927 3.141592 0.000000 -3.141592
    2 -12.201421 1.904737 0.015999 3.141593 0.000000 -3.141593
    3 -5.287980 8.712280 -8.712730 0.000000 1.570451 0.000000
    4 -5.287980 8.700730 8.764190 0.000000 1.570451 0.000000
    5 -5.287980 -8.776230 8.752700 0.000000 1.570451 0.000000
    6 -5.287990 -8.727910 -8.712730 0.000000 1.570451 0.000000
    7 -1.762286 5.911245 0.000001 -3.141593 0.000000 -3.054327
    8 -2.841770 -0.132410 -7.037760 -3.141593 0.969353 -3.141593
    9 -6.216227 0.000000 -0.009537 -3.141593 -0.000003 -3.141593
    10 -6.044680 0.000000 -0.123807 -3.141593 0.000003 -3.141593
    11 -2.841770 -7.400337 0.154318 3.141593 -0.000003 -2.232928
    12 -6.216228 0.011103 0.009509 0.000000 0.000000 -3.141590
    13 -6.044682 0.123416 0.123833 0.000000 0.000000 3.141590
    14 -2.841769 -0.132410 6.858286 -3.141593 -0.963583 -3.141593
    15 -6.216226 0.000000 0.009509 -3.141593 0.000003 -3.141593
    16 -6.044680 0.000000 0.123834 -3.141593 0.000003 -3.141593
    17 -5.269850 1.858320 4.892870 0.000000 -1.570793 -1.658062
    18 -5.320000 1.887550 2.043220 0.000000 0.000000 0.000000
    19 -5.271080 1.859040 2.043220 0.000000 0.000000 0.000000
    20 -5.316726 1.858320 -4.891440 0.000000 -1.570793 -1.658062
    21 -5.271080 1.887550 -2.041910 0.000000 0.000000 0.000000
    22 -5.271080 1.859040 -2.041910 0.000000 0.000000 0.000000
    23 6.127056 4.060575 0.000002 3.141593 0.000000 -3.141593
end
