// Created by Crowbar 0.62
version 1
nodes
  0 "Dummy (Root)" -1
  1 "Dummy (Antenna Pivot)" 0
  2 "Dummy (Pupil)" 0
  3 "Dummy (EyeShield1)" 2
  4 "Dummy (EyeShield2)" 2
  5 "Dummy (EyeShield3)" 2
  6 "Dummy (EyeShield4)" 2
  7 "Dummy (Inner Wheel Pivot)" 0
  8 "Dummy (L Arm1c)" 2
  9 "Dummy (L Arm1b)" 8
  10 "Dummy (L Arm1a)" 9
  11 "Dummy (L Arm2c)" 2
  12 "Dummy (L Arm2b)" 11
  13 "Dummy (L Arm2a)" 12
  14 "Dummy (L Arm3c)" 2
  15 "Dummy (L Arm3b)" 14
  16 "Dummy (L Arm3a)" 15
  17 "Dummy (L Prong1Pivot)" 0
  18 "Dummy (L Prong2 Pivot)" 0
  19 "Dummy (L Prong3Pivot)" 0
  20 "Dummy (L Prong4Pivot)" 0
  21 "Dummy (L Prong5Pivot)" 0
  22 "Dummy (L Prong6Pivot)" 0
  23 "Dummy (Tail Gun)" 0
end
skeleton
  time 0
    0 0.000616 9.703421 -0.531682 1.294650 0.319898 1.481860
    1 -5.676169 -10.205956 -0.036927 0.000000 0.000000 0.000000
    2 -12.201422 1.904738 0.015999 3.141593 0.000000 3.141593
    3 -6.284104 10.169356 -10.201057 0.000000 1.570451 0.000000
    4 -6.284104 10.157806 10.244704 0.000000 1.570451 0.000000
    5 -6.284104 -10.225493 10.233214 0.000000 1.570451 0.000000
    6 -6.284114 -10.177173 -10.201057 0.000000 1.570451 0.000000
    7 -1.762286 5.911245 0.000001 3.141593 0.000000 -3.054327
    8 -2.841769 -0.132411 -7.037759 -3.141593 0.969358 3.141593
    9 -6.216228 0.000001 -0.009537 3.141593 -0.000003 -3.141593
    10 -6.044681 0.000000 -0.123808 -3.141593 0.000000 3.141593
    11 -2.841770 -7.400338 0.154317 -3.141593 0.000000 -2.232928
    12 -6.216227 0.011103 0.009509 0.000000 0.000000 -3.141592
    13 -6.044682 0.123416 0.123834 0.000000 0.000000 -3.141592
    14 -2.841769 -0.132410 6.858287 -3.141593 -0.963582 -3.141593
    15 -6.216228 0.000000 0.009509 -3.141593 0.000000 3.141593
    16 -6.044683 0.000000 0.123834 3.141593 0.000000 -3.141593
    17 -5.316726 1.858320 7.885149 0.000000 -1.570793 -1.483538
    18 -5.320000 1.887550 5.035499 0.000000 0.000000 0.575942
    19 -5.271080 1.859040 5.035499 0.000000 0.000000 -0.766488
    20 -5.269850 1.858320 -7.875906 0.000000 -1.570793 -1.483538
    21 -5.271080 1.887550 -5.026376 0.000000 0.000000 0.575942
    22 -5.271080 1.859040 -5.026376 0.000000 0.000000 -0.767261
    23 6.127058 4.060575 0.000001 3.141593 0.000000 3.141593
  time 1
    0 0.000616 9.676077 -0.523870 1.612793 0.363987 1.646588
    1 -5.676169 -10.205956 -0.036927 0.000000 0.052337 0.000000
    2 -12.201422 1.904738 0.015999 3.141593 0.000000 3.141593
    3 -6.284104 10.169356 -10.201057 0.000000 1.570451 0.000000
    4 -6.284104 10.157806 10.244704 0.000000 1.570451 0.000000
    5 -6.284104 -10.225493 10.233214 0.000000 1.570451 0.000000
    6 -6.284114 -10.177173 -10.201057 0.000000 1.570451 0.000000
    7 -1.762286 5.911245 0.000001 3.141593 0.000000 -3.054327
    8 -2.841769 -0.132411 -7.037759 -3.141593 0.969358 3.141593
    9 -6.216228 0.000001 -0.009537 3.141593 -0.000003 -3.141593
    10 -6.044681 0.000000 -0.123808 -3.141593 0.000000 3.141593
    11 -2.841770 -7.400338 0.154317 -3.141593 0.000000 -2.232928
    12 -6.216227 0.011103 0.009509 0.000000 0.000000 -3.141592
    13 -6.044682 0.123416 0.123834 0.000000 0.000000 -3.141592
    14 -2.841769 -0.132410 6.858287 -3.141593 -0.963582 -3.141593
    15 -6.216228 0.000000 0.009509 -3.141593 0.000000 3.141593
    16 -6.044683 0.000000 0.123834 3.141593 0.000000 -3.141593
    17 -5.316726 1.858320 7.885149 0.000000 -1.570793 -1.502567
    18 -5.320000 1.887550 5.035499 0.000000 0.000000 0.575942
    19 -5.271080 1.859040 5.035499 0.000000 0.000000 -0.766488
    20 -5.269850 1.858320 -7.875906 0.000000 -1.570793 -1.502567
    21 -5.271080 1.887550 -5.026376 0.000000 0.000000 0.575942
    22 -5.271080 1.859040 -5.026376 0.000000 0.000000 -0.767261
    23 6.127058 4.060575 0.000001 3.141593 0.000000 3.141593
  time 2
    0 0.000616 9.590136 -0.496525 1.936496 0.356655 1.818784
    1 -5.676169 -10.205956 -0.036927 0.000000 0.104674 0.000000
    2 -12.201422 1.904738 0.015999 3.141593 0.000000 3.141593
    3 -6.284104 10.169356 -10.201057 0.000000 1.570451 0.000000
    4 -6.284104 10.157806 10.244704 0.000000 1.570451 0.000000
    5 -6.284104 -10.225493 10.233214 0.000000 1.570451 0.000000
    6 -6.284114 -10.177173 -10.201057 0.000000 1.570451 0.000000
    7 -1.762286 5.911245 0.000001 3.141593 0.000000 -3.054327
    8 -2.841769 -0.132411 -7.037759 -3.141593 0.969358 3.141593
    9 -6.216228 0.000001 -0.009537 3.141593 -0.000003 -3.141593
    10 -6.044681 0.000000 -0.123808 -3.141593 0.000000 3.141593
    11 -2.841770 -7.400338 0.154317 -3.141593 0.000000 -2.232928
    12 -6.216227 0.011103 0.009509 0.000000 0.000000 -3.141592
    13 -6.044682 0.123416 0.123834 0.000000 0.000000 -3.141592
    14 -2.841769 -0.132410 6.858287 -3.141593 -0.963582 -3.141593
    15 -6.216228 0.000000 0.009509 -3.141593 0.000000 3.141593
    16 -6.044683 0.000000 0.123834 3.141593 0.000000 -3.141593
    17 -5.316726 1.858320 7.885149 0.000000 -1.570793 -1.524025
    18 -5.320000 1.887550 5.035499 0.000000 0.000000 0.575942
    19 -5.271080 1.859040 5.035499 0.000000 0.000000 -0.766511
    20 -5.269850 1.858320 -7.875906 0.000000 -1.570793 -1.524025
    21 -5.271080 1.887550 -5.026376 0.000000 0.000000 0.575942
    22 -5.271080 1.859040 -5.026376 0.000000 0.000000 -0.767284
    23 6.127058 4.060575 0.000001 3.141593 0.000000 3.141593
  time 3
    0 0.000616 9.449507 -0.453555 2.068391 0.312132 1.868209
    1 -5.676169 -10.205956 -0.036927 0.000000 0.157059 0.000000
    2 -12.201422 1.904738 0.015999 3.141593 0.000000 3.141593
    3 -6.284104 10.169356 -10.201057 0.000000 1.570451 0.000000
    4 -6.284104 10.157806 10.244704 0.000000 1.570451 0.000000
    5 -6.284104 -10.225493 10.233214 0.000000 1.570451 0.000000
    6 -6.284114 -10.177173 -10.201057 0.000000 1.570451 0.000000
    7 -1.762286 5.911245 0.000001 3.141593 0.000000 -3.054327
    8 -2.841769 -0.132411 -7.037759 -3.141593 0.969358 3.141593
    9 -6.216228 0.000001 -0.009537 3.141593 -0.000003 -3.141593
    10 -6.044681 0.000000 -0.123808 -3.141593 0.000000 3.141593
    11 -2.841770 -7.400338 0.154317 -3.141593 0.000000 -2.232928
    12 -6.216227 0.011103 0.009509 0.000000 0.000000 -3.141592
    13 -6.044682 0.123416 0.123834 0.000000 0.000000 -3.141592
    14 -2.841769 -0.132410 6.858287 -3.141593 -0.963582 -3.141593
    15 -6.216228 0.000000 0.009509 -3.141593 0.000000 3.141593
    16 -6.044683 0.000000 0.123834 3.141593 0.000000 -3.141593
    17 -5.316726 1.858320 7.885149 0.000000 -1.570793 -1.546885
    18 -5.320000 1.887550 5.035499 0.000000 0.000000 0.575942
    19 -5.271080 1.859040 5.035499 0.000000 0.000000 -0.766488
    20 -5.269850 1.858320 -7.875906 0.000000 -1.570793 -1.546885
    21 -5.271080 1.887550 -5.026376 0.000000 0.000000 0.575942
    22 -5.271080 1.859040 -5.026376 0.000000 0.000000 -0.767261
    23 6.127058 4.060575 0.000001 3.141593 0.000000 3.141593
  time 4
    0 0.000616 9.265908 -0.394959 2.025984 0.261562 1.806507
    1 -5.676169 -10.205956 -0.036927 0.000000 0.209397 0.000000
    2 -12.201422 1.904738 0.015999 3.141593 0.000000 3.141593
    3 -6.284104 10.169356 -10.201057 0.000000 1.570451 0.000000
    4 -6.284104 10.157806 10.244704 0.000000 1.570451 0.000000
    5 -6.284104 -10.225493 10.233214 0.000000 1.570451 0.000000
    6 -6.284114 -10.177173 -10.201057 0.000000 1.570451 0.000000
    7 -1.762286 5.911245 0.000001 3.141593 0.000000 -3.054327
    8 -2.841769 -0.132411 -7.037759 -3.141593 0.969358 3.141593
    9 -6.216228 0.000001 -0.009537 3.141593 -0.000003 -3.141593
    10 -6.044681 0.000000 -0.123808 -3.141593 0.000000 3.141593
    11 -2.841770 -7.400338 0.154317 -3.141593 0.000000 -2.232928
    12 -6.216227 0.011103 0.009509 0.000000 0.000000 -3.141592
    13 -6.044682 0.123416 0.123834 0.000000 0.000000 -3.141592
    14 -2.841769 -0.132410 6.858287 -3.141593 -0.963582 -3.141593
    15 -6.216228 0.000000 0.009509 -3.141593 0.000000 3.141593
    16 -6.044683 0.000000 0.123834 3.141593 0.000000 -3.141593
    17 -5.316726 1.858320 7.885149 0.000000 -1.570793 -1.570106
    18 -5.320000 1.887550 5.035499 0.000000 0.000000 0.575942
    19 -5.271080 1.859040 5.035499 0.000000 0.000000 -0.766488
    20 -5.269850 1.858320 -7.875906 0.000000 -1.570793 -1.570106
    21 -5.271080 1.887550 -5.026376 0.000000 0.000000 0.575942
    22 -5.271080 1.859040 -5.026376 0.000000 0.000000 -0.767261
    23 6.127058 4.060575 0.000001 3.141593 0.000000 3.141593
  time 5
    0 0.000616 9.035432 -0.320738 1.953057 0.197004 1.721769
    1 -5.676169 -10.205956 -0.036927 0.000000 0.261782 0.000000
    2 -12.201422 1.904738 0.015999 3.141593 0.000000 3.141593
    3 -6.284104 10.169356 -10.201057 0.000000 1.570451 0.000000
    4 -6.284104 10.157806 10.244704 0.000000 1.570451 0.000000
    5 -6.284104 -10.225493 10.233214 0.000000 1.570451 0.000000
    6 -6.284114 -10.177173 -10.201057 0.000000 1.570451 0.000000
    7 -1.762286 5.911245 0.000001 3.141593 0.000000 -3.054327
    8 -2.841769 -0.132411 -7.037759 -3.141593 0.969358 3.141593
    9 -6.216228 0.000001 -0.009537 3.141593 -0.000003 -3.141593
    10 -6.044681 0.000000 -0.123808 -3.141593 0.000000 3.141593
    11 -2.841770 -7.400338 0.154317 -3.141593 0.000000 -2.232928
    12 -6.216227 0.011103 0.009509 0.000000 0.000000 -3.141592
    13 -6.044682 0.123416 0.123834 0.000000 0.000000 -3.141592
    14 -2.841769 -0.132410 6.858287 -3.141593 -0.963582 -3.141593
    15 -6.216228 0.000000 0.009509 -3.141593 0.000000 3.141593
    16 -6.044683 0.000000 0.123834 3.141593 0.000000 -3.141593
    17 -5.316726 1.858320 7.885149 0.000000 -1.570793 -1.592605
    18 -5.320000 1.887550 5.035499 0.000000 0.000000 0.575942
    19 -5.271080 1.859040 5.035499 0.000000 0.000000 -0.766488
    20 -5.269850 1.858320 -7.875906 0.000000 -1.570793 -1.592605
    21 -5.271080 1.887550 -5.026376 0.000000 0.000000 0.575942
    22 -5.271080 1.859040 -5.026376 0.000000 0.000000 -0.767261
    23 6.127058 4.060575 0.000001 3.141593 0.000000 3.141593
  time 6
    0 0.000616 8.765893 -0.238705 1.861342 0.118037 1.625894
    1 -5.676169 -10.205956 -0.036927 0.000000 0.314119 0.000000
    2 -12.201422 1.904738 0.015999 3.141593 0.000000 3.141593
    3 -6.284104 10.169356 -10.201057 0.000000 1.570451 0.000000
    4 -6.284104 10.157806 10.244704 0.000000 1.570451 0.000000
    5 -6.284104 -10.225493 10.233214 0.000000 1.570451 0.000000
    6 -6.284114 -10.177173 -10.201057 0.000000 1.570451 0.000000
    7 -1.762286 5.911245 0.000001 3.141593 0.000000 -3.054327
    8 -2.841769 -0.132411 -7.037759 -3.141593 0.969358 3.141593
    9 -6.216228 0.000001 -0.009537 3.141593 -0.000003 -3.141593
    10 -6.044681 0.000000 -0.123808 -3.141593 0.000000 3.141593
    11 -2.841770 -7.400338 0.154317 -3.141593 0.000000 -2.232928
    12 -6.216227 0.011103 0.009509 0.000000 0.000000 -3.141592
    13 -6.044682 0.123416 0.123834 0.000000 0.000000 -3.141592
    14 -2.841769 -0.132410 6.858287 -3.141593 -0.963582 -3.141593
    15 -6.216228 0.000000 0.009509 -3.141593 0.000000 3.141593
    16 -6.044683 0.000000 0.123834 3.141593 0.000000 -3.141593
    17 -5.316726 1.858320 7.885149 0.000000 -1.570793 -1.613369
    18 -5.320000 1.887550 5.035499 0.000000 0.000000 0.575942
    19 -5.271080 1.859040 5.035499 0.000000 0.000000 -0.766488
    20 -5.269850 1.858320 -7.875906 0.000000 -1.570793 -1.613369
    21 -5.271080 1.887550 -5.026376 0.000000 0.000000 0.575942
    22 -5.271080 1.859040 -5.026376 0.000000 0.000000 -0.767261
    23 6.127058 4.060575 0.000001 3.141593 0.000000 3.141593
  time 7
    0 0.000616 8.457289 -0.141045 1.760854 0.026164 1.529133
    1 -5.676169 -10.205956 -0.036927 0.000000 0.366504 0.000000
    2 -12.201422 1.904738 0.015999 3.141593 0.000000 3.141593
    3 -6.284104 10.169356 -10.201057 0.000000 1.570451 0.000000
    4 -6.284104 10.157806 10.244704 0.000000 1.570451 0.000000
    5 -6.284104 -10.225493 10.233214 0.000000 1.570451 0.000000
    6 -6.284114 -10.177173 -10.201057 0.000000 1.570451 0.000000
    7 -1.762286 5.911245 0.000001 3.141593 0.000000 -3.054327
    8 -2.841769 -0.132411 -7.037759 -3.141593 0.969358 3.141593
    9 -6.216228 0.000001 -0.009537 3.141593 -0.000003 -3.141593
    10 -6.044681 0.000000 -0.123808 -3.141593 0.000000 3.141593
    11 -2.841770 -7.400338 0.154317 -3.141593 0.000000 -2.232928
    12 -6.216227 0.011103 0.009509 0.000000 0.000000 -3.141592
    13 -6.044682 0.123416 0.123834 0.000000 0.000000 -3.141592
    14 -2.841769 -0.132410 6.858287 -3.141593 -0.963582 -3.141593
    15 -6.216228 0.000000 0.009509 -3.141593 0.000000 3.141593
    16 -6.044683 0.000000 0.123834 3.141593 0.000000 -3.141593
    17 -5.316726 1.858320 7.885149 0.000000 -1.570793 -1.631357
    18 -5.320000 1.887550 5.035499 0.000000 0.000000 0.575942
    19 -5.271080 1.859040 5.035499 0.000000 0.000000 -0.766488
    20 -5.269850 1.858320 -7.875906 0.000000 -1.570793 -1.631357
    21 -5.271080 1.887550 -5.026376 0.000000 0.000000 0.575942
    22 -5.271080 1.859040 -5.026376 0.000000 0.000000 -0.767261
    23 6.127058 4.060575 0.000001 3.141593 0.000000 3.141593
  time 8
    0 0.000616 8.121342 -0.035573 1.659163 -0.074353 1.439207
    1 -5.676169 -10.205956 -0.036927 0.000000 0.418841 0.000000
    2 -12.201422 1.904738 0.015999 3.141593 0.000000 3.141593
    3 -6.284104 10.169356 -10.201057 0.000000 1.570451 0.000000
    4 -6.284104 10.157806 10.244704 0.000000 1.570451 0.000000
    5 -6.284104 -10.225493 10.233214 0.000000 1.570451 0.000000
    6 -6.284114 -10.177173 -10.201057 0.000000 1.570451 0.000000
    7 -1.762286 5.911245 0.000001 3.141593 0.000000 -3.054327
    8 -2.841769 -0.132411 -7.037759 -3.141593 0.969358 3.141593
    9 -6.216228 0.000001 -0.009537 3.141593 -0.000003 -3.141593
    10 -6.044681 0.000000 -0.123808 -3.141593 0.000000 3.141593
    11 -2.841770 -7.400338 0.154317 -3.141593 0.000000 -2.232928
    12 -6.216227 0.011103 0.009509 0.000000 0.000000 -3.141592
    13 -6.044682 0.123416 0.123834 0.000000 0.000000 -3.141592
    14 -2.841769 -0.132410 6.858287 -3.141593 -0.963582 -3.141593
    15 -6.216228 0.000000 0.009509 -3.141593 0.000000 3.141593
    16 -6.044683 0.000000 0.123834 3.141593 0.000000 -3.141593
    17 -5.316726 1.858320 7.885149 0.000000 -1.570793 -1.645487
    18 -5.320000 1.887550 5.035499 0.000000 0.000000 0.575942
    19 -5.271080 1.859040 5.035499 0.000000 0.000000 -0.766488
    20 -5.269850 1.858320 -7.875906 0.000000 -1.570793 -1.645487
    21 -5.271080 1.887550 -5.026376 0.000000 0.000000 0.575942
    22 -5.271080 1.859040 -5.026376 0.000000 0.000000 -0.767261
    23 6.127058 4.060575 0.000001 3.141593 0.000000 3.141593
  time 9
    0 0.000616 7.754143 0.081618 1.561494 -0.176914 1.361621
    1 -5.676169 -10.205956 -0.036927 0.000000 0.471226 0.000000
    2 -12.201422 1.904738 0.015999 3.141593 0.000000 3.141593
    3 -6.284104 10.169356 -10.201057 0.000000 1.570451 0.000000
    4 -6.284104 10.157806 10.244704 0.000000 1.570451 0.000000
    5 -6.284104 -10.225493 10.233214 0.000000 1.570451 0.000000
    6 -6.284114 -10.177173 -10.201057 0.000000 1.570451 0.000000
    7 -1.762286 5.911245 0.000001 3.141593 0.000000 -3.054327
    8 -2.841769 -0.132411 -7.037759 -3.141593 0.969358 3.141593
    9 -6.216228 0.000001 -0.009537 3.141593 -0.000003 -3.141593
    10 -6.044681 0.000000 -0.123808 -3.141593 0.000000 3.141593
    11 -2.841770 -7.400338 0.154317 -3.141593 0.000000 -2.232928
    12 -6.216227 0.011103 0.009509 0.000000 0.000000 -3.141592
    13 -6.044682 0.123416 0.123834 0.000000 0.000000 -3.141592
    14 -2.841769 -0.132410 6.858287 -3.141593 -0.963582 -3.141593
    15 -6.216228 0.000000 0.009509 -3.141593 0.000000 3.141593
    16 -6.044683 0.000000 0.123834 3.141593 0.000000 -3.141593
    17 -5.316726 1.858320 7.885149 0.000000 -1.570793 -1.654745
    18 -5.320000 1.887550 5.035499 0.000000 0.000000 0.575942
    19 -5.271080 1.859040 5.035499 0.000000 0.000000 -0.766488
    20 -5.269850 1.858320 -7.875906 0.000000 -1.570793 -1.654745
    21 -5.271080 1.887550 -5.026376 0.000000 0.000000 0.575942
    22 -5.271080 1.859040 -5.026376 0.000000 0.000000 -0.767261
    23 6.127058 4.060575 0.000001 3.141593 0.000000 3.141593
  time 10
    0 0.000616 7.363506 0.202715 1.471455 -0.273197 1.299602
    1 -5.676169 -10.205956 -0.036927 0.000000 0.523564 0.000000
    2 -12.201422 1.904738 0.015999 3.141593 0.000000 3.141593
    3 -6.284104 10.169356 -10.201057 0.000000 1.570451 0.000000
    4 -6.284104 10.157806 10.244704 0.000000 1.570451 0.000000
    5 -6.284104 -10.225493 10.233214 0.000000 1.570451 0.000000
    6 -6.284114 -10.177173 -10.201057 0.000000 1.570451 0.000000
    7 -1.762286 5.911245 0.000001 3.141593 0.000000 -3.054327
    8 -2.841769 -0.132411 -7.037759 -3.141593 0.969358 3.141593
    9 -6.216228 0.000001 -0.009537 3.141593 -0.000003 -3.141593
    10 -6.044681 0.000000 -0.123808 -3.141593 0.000000 3.141593
    11 -2.841770 -7.400338 0.154317 -3.141593 0.000000 -2.232928
    12 -6.216227 0.011103 0.009509 0.000000 0.000000 -3.141592
    13 -6.044682 0.123416 0.123834 0.000000 0.000000 -3.141592
    14 -2.841769 -0.132410 6.858287 -3.141593 -0.963582 -3.141593
    15 -6.216228 0.000000 0.009509 -3.141593 0.000000 3.141593
    16 -6.044683 0.000000 0.123834 3.141593 0.000000 -3.141593
    17 -5.316726 1.858320 7.885149 0.000000 -1.570793 -1.658062
    18 -5.320000 1.887550 5.035499 0.000000 0.000000 0.575942
    19 -5.271080 1.859040 5.035499 0.000000 0.000000 -0.766488
    20 -5.269850 1.858320 -7.875906 0.000000 -1.570793 -1.658062
    21 -5.271080 1.887550 -5.026376 0.000000 0.000000 0.575942
    22 -5.271080 1.859040 -5.026376 0.000000 0.000000 -0.767261
    23 6.127058 4.060575 0.000001 3.141593 0.000000 3.141593
  time 11
    0 0.000616 6.953337 0.335532 1.392200 -0.354084 1.255051
    1 -5.676169 -10.205956 -0.036927 0.000000 0.575949 0.000000
    2 -12.201422 1.904738 0.015999 3.141593 0.000000 3.141593
    3 -6.284104 10.169356 -10.201057 0.000000 1.570451 0.000000
    4 -6.284104 10.157806 10.244704 0.000000 1.570451 0.000000
    5 -6.284104 -10.225493 10.233214 0.000000 1.570451 0.000000
    6 -6.284114 -10.177173 -10.201057 0.000000 1.570451 0.000000
    7 -1.762286 5.911245 0.000001 3.141593 0.000000 -3.054327
    8 -2.841769 -0.132411 -7.037759 -3.141593 0.969358 3.141593
    9 -6.216228 0.000001 -0.009537 3.141593 -0.000003 -3.141593
    10 -6.044681 0.000000 -0.123808 -3.141593 0.000000 3.141593
    11 -2.841770 -7.400338 0.154317 -3.141593 0.000000 -2.232928
    12 -6.216227 0.011103 0.009509 0.000000 0.000000 -3.141592
    13 -6.044682 0.123416 0.123834 0.000000 0.000000 -3.141592
    14 -2.841769 -0.132410 6.858287 -3.141593 -0.963582 -3.141593
    15 -6.216228 0.000000 0.009509 -3.141593 0.000000 3.141593
    16 -6.044683 0.000000 0.123834 3.141593 0.000000 -3.141593
    17 -5.316726 1.858320 7.885149 0.000000 -1.570793 -1.642697
    18 -5.320000 1.887550 5.035499 0.000000 0.000000 0.575942
    19 -5.271080 1.859040 5.035499 0.000000 0.000000 -0.766488
    20 -5.269850 1.858320 -7.875906 0.000000 -1.570793 -1.642697
    21 -5.271080 1.887550 -5.026376 0.000000 0.000000 0.575942
    22 -5.271080 1.859040 -5.026376 0.000000 0.000000 -0.767261
    23 6.127058 4.060575 0.000001 3.141593 0.000000 3.141593
  time 12
    0 0.000616 6.527543 0.468348 1.327574 -0.410323 1.228535
    1 -5.676169 -10.205956 -0.036927 0.000000 0.628286 0.000000
    2 -12.201422 1.904738 0.015999 3.141593 0.000000 3.141593
    3 -6.284104 10.169356 -10.201057 0.000000 1.570451 0.000000
    4 -6.284104 10.157806 10.244704 0.000000 1.570451 0.000000
    5 -6.284104 -10.225493 10.233214 0.000000 1.570451 0.000000
    6 -6.284114 -10.177173 -10.201057 0.000000 1.570451 0.000000
    7 -1.762286 5.911245 0.000001 3.141593 0.000000 -3.054327
    8 -2.841769 -0.132411 -7.037759 -3.141593 0.969358 3.141593
    9 -6.216228 0.000001 -0.009537 3.141593 -0.000003 -3.141593
    10 -6.044681 0.000000 -0.123808 -3.141593 0.000000 3.141593
    11 -2.841770 -7.400338 0.154317 -3.141593 0.000000 -2.232928
    12 -6.216227 0.011103 0.009509 0.000000 0.000000 -3.141592
    13 -6.044682 0.123416 0.123834 0.000000 0.000000 -3.141592
    14 -2.841769 -0.132410 6.858287 -3.141593 -0.963582 -3.141593
    15 -6.216228 0.000000 0.009509 -3.141593 0.000000 3.141593
    16 -6.044683 0.000000 0.123834 3.141593 0.000000 -3.141593
    17 -5.316726 1.858320 7.885149 0.000000 -1.570793 -1.605000
    18 -5.320000 1.887550 5.035499 0.000000 0.000000 0.575942
    19 -5.271080 1.859040 5.035499 0.000000 0.000000 -0.766488
    20 -5.269850 1.858320 -7.875906 0.000000 -1.570793 -1.605000
    21 -5.271080 1.887550 -5.026376 0.000000 0.000000 0.575942
    22 -5.271080 1.859040 -5.026376 0.000000 0.000000 -0.767261
    23 6.127058 4.060575 0.000001 3.141593 0.000000 3.141593
  time 13
    0 0.000616 6.086123 0.605071 1.283116 -0.433173 1.219738
    1 -5.676169 -10.205956 -0.036927 0.000000 0.680671 0.000000
    2 -12.201422 1.904738 0.015999 3.141593 0.000000 3.141593
    3 -6.284104 10.169356 -10.201057 0.000000 1.570451 0.000000
    4 -6.284104 10.157806 10.244704 0.000000 1.570451 0.000000
    5 -6.284104 -10.225493 10.233214 0.000000 1.570451 0.000000
    6 -6.284114 -10.177173 -10.201057 0.000000 1.570451 0.000000
    7 -1.762286 5.911245 0.000001 3.141593 0.000000 -3.054327
    8 -2.841769 -0.132411 -7.037759 -3.141593 0.969358 3.141593
    9 -6.216228 0.000001 -0.009537 3.141593 -0.000003 -3.141593
    10 -6.044681 0.000000 -0.123808 -3.141593 0.000000 3.141593
    11 -2.841770 -7.400338 0.154317 -3.141593 0.000000 -2.232928
    12 -6.216227 0.011103 0.009509 0.000000 0.000000 -3.141592
    13 -6.044682 0.123416 0.123834 0.000000 0.000000 -3.141592
    14 -2.841769 -0.132410 6.858287 -3.141593 -0.963582 -3.141593
    15 -6.216228 0.000000 0.009509 -3.141593 0.000000 3.141593
    16 -6.044683 0.000000 0.123834 3.141593 0.000000 -3.141593
    17 -5.316726 1.858320 7.885149 0.000000 -1.570793 -1.557545
    18 -5.320000 1.887550 5.035499 0.000000 0.000000 0.575942
    19 -5.271080 1.859040 5.035499 0.000000 0.000000 -0.766488
    20 -5.269850 1.858320 -7.875906 0.000000 -1.570793 -1.557545
    21 -5.271080 1.887550 -5.026376 0.000000 0.000000 0.575942
    22 -5.271080 1.859040 -5.026376 0.000000 0.000000 -0.767261
    23 6.127058 4.060575 0.000001 3.141593 0.000000 3.141593
  time 14
    0 0.000616 5.640797 0.745700 1.254549 -0.413015 1.226256
    1 -5.676169 -10.205956 -0.036927 0.000000 0.733008 0.000000
    2 -12.201422 1.904738 0.015999 3.141593 0.000000 3.141593
    3 -6.284104 10.169356 -10.201057 0.000000 1.570451 0.000000
    4 -6.284104 10.157806 10.244704 0.000000 1.570451 0.000000
    5 -6.284104 -10.225493 10.233214 0.000000 1.570451 0.000000
    6 -6.284114 -10.177173 -10.201057 0.000000 1.570451 0.000000
    7 -1.762286 5.911245 0.000001 3.141593 0.000000 -3.054327
    8 -2.841769 -0.132411 -7.037759 -3.141593 0.969358 3.141593
    9 -6.216228 0.000001 -0.009537 3.141593 -0.000003 -3.141593
    10 -6.044681 0.000000 -0.123808 -3.141593 0.000000 3.141593
    11 -2.841770 -7.400338 0.154317 -3.141593 0.000000 -2.232928
    12 -6.216227 0.011103 0.009509 0.000000 0.000000 -3.141592
    13 -6.044682 0.123416 0.123834 0.000000 0.000000 -3.141592
    14 -2.841769 -0.132410 6.858287 -3.141593 -0.963582 -3.141593
    15 -6.216228 0.000000 0.009509 -3.141593 0.000000 3.141593
    16 -6.044683 0.000000 0.123834 3.141593 0.000000 -3.141593
    17 -5.316726 1.858320 7.885149 0.000000 -1.570793 -1.512852
    18 -5.320000 1.887550 5.035499 0.000000 0.000000 0.575942
    19 -5.271080 1.859040 5.035499 0.000000 0.000000 -0.766488
    20 -5.269850 1.858320 -7.875906 0.000000 -1.570793 -1.512852
    21 -5.271080 1.887550 -5.026376 0.000000 0.000000 0.575942
    22 -5.271080 1.859040 -5.026376 0.000000 0.000000 -0.767261
    23 6.127058 4.060575 0.000001 3.141593 0.000000 3.141593
  time 15
    0 0.000616 5.187658 0.890236 1.234183 -0.351933 1.243153
    1 -5.676169 -10.205956 -0.036927 0.000000 0.785393 0.000000
    2 -12.201422 1.904738 0.015999 3.141593 0.000000 3.141593
    3 -6.284104 10.169356 -10.201057 0.000000 1.570451 0.000000
    4 -6.284104 10.157806 10.244704 0.000000 1.570451 0.000000
    5 -6.284104 -10.225493 10.233214 0.000000 1.570451 0.000000
    6 -6.284114 -10.177173 -10.201057 0.000000 1.570451 0.000000
    7 -1.762286 5.911245 0.000001 3.141593 0.000000 -3.054327
    8 -2.841769 -0.132411 -7.037759 -3.141593 0.969358 3.141593
    9 -6.216228 0.000001 -0.009537 3.141593 -0.000003 -3.141593
    10 -6.044681 0.000000 -0.123808 -3.141593 0.000000 3.141593
    11 -2.841770 -7.400338 0.154317 -3.141593 0.000000 -2.232928
    12 -6.216227 0.011103 0.009509 0.000000 0.000000 -3.141592
    13 -6.044682 0.123416 0.123834 0.000000 0.000000 -3.141592
    14 -2.841769 -0.132410 6.858287 -3.141593 -0.963582 -3.141593
    15 -6.216228 0.000000 0.009509 -3.141593 0.000000 3.141593
    16 -6.044683 0.000000 0.123834 3.141593 0.000000 -3.141593
    17 -5.316726 1.858320 7.885149 0.000000 -1.570793 -1.483538
    18 -5.320000 1.887550 5.035499 0.000000 0.000000 0.575942
    19 -5.271080 1.859040 5.035499 0.000000 0.000000 -0.766488
    20 -5.269850 1.858320 -7.875906 0.000000 -1.570793 -1.483538
    21 -5.271080 1.887550 -5.026376 0.000000 0.000000 0.575942
    22 -5.271080 1.859040 -5.026376 0.000000 0.000000 -0.767261
    23 6.127058 4.060575 0.000001 3.141593 0.000000 3.141593
  time 16
    0 0.000616 4.738426 1.030865 1.223596 -0.259560 1.267771
    1 -5.676169 -10.205956 -0.036927 0.000000 0.837730 0.000000
    2 -12.201422 1.904738 0.015999 3.141593 0.000000 3.141593
    3 -6.284104 10.169356 -10.201057 0.000000 1.570451 0.000000
    4 -6.284104 10.157806 10.244704 0.000000 1.570451 0.000000
    5 -6.284104 -10.225493 10.233214 0.000000 1.570451 0.000000
    6 -6.284114 -10.177173 -10.201057 0.000000 1.570451 0.000000
    7 -1.762286 5.911245 0.000001 3.141593 0.000000 -3.054327
    8 -2.841769 -0.132411 -7.037759 -3.141593 0.969358 3.141593
    9 -6.216228 0.000001 -0.009537 3.141593 -0.000003 -3.141593
    10 -6.044681 0.000000 -0.123808 -3.141593 0.000000 3.141593
    11 -2.841770 -7.400338 0.154317 -3.141593 0.000000 -2.232928
    12 -6.216227 0.011103 0.009509 0.000000 0.000000 -3.141592
    13 -6.044682 0.123416 0.123834 0.000000 0.000000 -3.141592
    14 -2.841769 -0.132410 6.858287 -3.141593 -0.963582 -3.141593
    15 -6.216228 0.000000 0.009509 -3.141593 0.000000 3.141593
    16 -6.044683 0.000000 0.123834 3.141593 0.000000 -3.141593
    17 -5.316726 1.858320 7.885149 0.000000 -1.570793 -1.469575
    18 -5.320000 1.887550 5.035499 0.000000 0.000000 0.575942
    19 -5.271080 1.859040 5.035499 0.000000 0.000000 -0.766488
    20 -5.269850 1.858320 -7.875906 0.000000 -1.570793 -1.469575
    21 -5.271080 1.887550 -5.026376 0.000000 0.000000 0.575942
    22 -5.271080 1.859040 -5.026376 0.000000 0.000000 -0.767261
    23 6.127058 4.060575 0.000001 3.141593 0.000000 3.141593
  time 17
    0 0.000616 4.293100 1.171495 1.223655 -0.145757 1.299096
    1 -5.676169 -10.205956 -0.036927 0.000000 0.890116 0.000000
    2 -12.201422 1.904738 0.015999 3.141593 0.000000 3.141593
    3 -6.284104 10.169356 -10.201057 0.000000 1.570451 0.000000
    4 -6.284104 10.157806 10.244704 0.000000 1.570451 0.000000
    5 -6.284104 -10.225493 10.233214 0.000000 1.570451 0.000000
    6 -6.284114 -10.177173 -10.201057 0.000000 1.570451 0.000000
    7 -1.762286 5.911245 0.000001 3.141593 0.000000 -3.054327
    8 -2.841769 -0.132411 -7.037759 -3.141593 0.969358 3.141593
    9 -6.216228 0.000001 -0.009537 3.141593 -0.000003 -3.141593
    10 -6.044681 0.000000 -0.123808 -3.141593 0.000000 3.141593
    11 -2.841770 -7.400338 0.154317 -3.141593 0.000000 -2.232928
    12 -6.216227 0.011103 0.009509 0.000000 0.000000 -3.141592
    13 -6.044682 0.123416 0.123834 0.000000 0.000000 -3.141592
    14 -2.841769 -0.132410 6.858287 -3.141593 -0.963582 -3.141593
    15 -6.216228 0.000000 0.009509 -3.141593 0.000000 3.141593
    16 -6.044683 0.000000 0.123834 3.141593 0.000000 -3.141593
    17 -5.316726 1.858320 7.885149 0.000000 -1.570793 -1.462594
    18 -5.320000 1.887550 5.035499 0.000000 0.000000 0.575942
    19 -5.271080 1.859040 5.035499 0.000000 0.000000 -0.766488
    20 -5.269850 1.858320 -7.875906 0.000000 -1.570793 -1.462594
    21 -5.271080 1.887550 -5.026376 0.000000 0.000000 0.575942
    22 -5.271080 1.859040 -5.026376 0.000000 0.000000 -0.767261
    23 6.127058 4.060575 0.000001 3.141593 0.000000 3.141593
  time 18
    0 0.000616 3.851680 1.308218 1.234676 -0.020536 1.337066
    1 -5.676169 -10.205956 -0.036927 0.000000 0.942453 0.000000
    2 -12.201422 1.904738 0.015999 3.141593 0.000000 3.141593
    3 -6.284104 10.169356 -10.201057 0.000000 1.570451 0.000000
    4 -6.284104 10.157806 10.244704 0.000000 1.570451 0.000000
    5 -6.284104 -10.225493 10.233214 0.000000 1.570451 0.000000
    6 -6.284114 -10.177173 -10.201057 0.000000 1.570451 0.000000
    7 -1.762286 5.911245 0.000001 3.141593 0.000000 -3.054327
    8 -2.841769 -0.132411 -7.037759 -3.141593 0.969358 3.141593
    9 -6.216228 0.000001 -0.009537 3.141593 -0.000003 -3.141593
    10 -6.044681 0.000000 -0.123808 -3.141593 0.000000 3.141593
    11 -2.841770 -7.400338 0.154317 -3.141593 0.000000 -2.232928
    12 -6.216227 0.011103 0.009509 0.000000 0.000000 -3.141592
    13 -6.044682 0.123416 0.123834 0.000000 0.000000 -3.141592
    14 -2.841769 -0.132410 6.858287 -3.141593 -0.963582 -3.141593
    15 -6.216228 0.000000 0.009509 -3.141593 0.000000 3.141593
    16 -6.044683 0.000000 0.123834 3.141593 0.000000 -3.141593
    17 -5.316726 1.858320 7.885149 0.000000 -1.570793 -1.462594
    18 -5.320000 1.887550 5.035499 0.000000 0.000000 0.575942
    19 -5.271080 1.859040 5.035499 0.000000 0.000000 -0.766488
    20 -5.269850 1.858320 -7.875906 0.000000 -1.570793 -1.462594
    21 -5.271080 1.887550 -5.026376 0.000000 0.000000 0.575942
    22 -5.271080 1.859040 -5.026376 0.000000 0.000000 -0.767261
    23 6.127058 4.060575 0.000001 3.141593 0.000000 3.141593
  time 19
    0 0.000616 3.425886 1.444940 1.256580 0.105943 1.382125
    1 -5.676169 -10.205956 -0.036927 0.000000 0.994838 0.000000
    2 -12.201422 1.904738 0.015999 3.141593 0.000000 3.141593
    3 -6.284104 10.169356 -10.201057 0.000000 1.570451 0.000000
    4 -6.284104 10.157806 10.244704 0.000000 1.570451 0.000000
    5 -6.284104 -10.225493 10.233214 0.000000 1.570451 0.000000
    6 -6.284114 -10.177173 -10.201057 0.000000 1.570451 0.000000
    7 -1.762286 5.911245 0.000001 3.141593 0.000000 -3.054327
    8 -2.841769 -0.132411 -7.037759 -3.141593 0.969358 3.141593
    9 -6.216228 0.000001 -0.009537 3.141593 -0.000003 -3.141593
    10 -6.044681 0.000000 -0.123808 -3.141593 0.000000 3.141593
    11 -2.841770 -7.400338 0.154317 -3.141593 0.000000 -2.232928
    12 -6.216227 0.011103 0.009509 0.000000 0.000000 -3.141592
    13 -6.044682 0.123416 0.123834 0.000000 0.000000 -3.141592
    14 -2.841769 -0.132410 6.858287 -3.141593 -0.963582 -3.141593
    15 -6.216228 0.000000 0.009509 -3.141593 0.000000 3.141593
    16 -6.044683 0.000000 0.123834 3.141593 0.000000 -3.141593
    17 -5.316726 1.858320 7.885149 0.000000 -1.570793 -1.469575
    18 -5.320000 1.887550 5.035499 0.000000 0.000000 0.575942
    19 -5.271080 1.859040 5.035499 0.000000 0.000000 -0.766488
    20 -5.269850 1.858320 -7.875906 0.000000 -1.570793 -1.469575
    21 -5.271080 1.887550 -5.026376 0.000000 0.000000 0.575942
    22 -5.271080 1.859040 -5.026376 0.000000 0.000000 -0.767261
    23 6.127058 4.060575 0.000001 3.141593 0.000000 3.141593
  time 20
    0 0.000616 3.015717 1.573851 1.288597 0.223587 1.434397
    1 -5.676169 -10.205956 -0.036927 0.000000 1.047175 0.000000
    2 -12.201422 1.904738 0.015999 3.141593 0.000000 3.141593
    3 -6.284104 10.169356 -10.201057 0.000000 1.570451 0.000000
    4 -6.284104 10.157806 10.244704 0.000000 1.570451 0.000000
    5 -6.284104 -10.225493 10.233214 0.000000 1.570451 0.000000
    6 -6.284114 -10.177173 -10.201057 0.000000 1.570451 0.000000
    7 -1.762286 5.911245 0.000001 3.141593 0.000000 -3.054327
    8 -2.841769 -0.132411 -7.037759 -3.141593 0.969358 3.141593
    9 -6.216228 0.000001 -0.009537 3.141593 -0.000003 -3.141593
    10 -6.044681 0.000000 -0.123808 -3.141593 0.000000 3.141593
    11 -2.841770 -7.400338 0.154317 -3.141593 0.000000 -2.232928
    12 -6.216227 0.011103 0.009509 0.000000 0.000000 -3.141592
    13 -6.044682 0.123416 0.123834 0.000000 0.000000 -3.141592
    14 -2.841769 -0.132410 6.858287 -3.141593 -0.963582 -3.141593
    15 -6.216228 0.000000 0.009509 -3.141593 0.000000 3.141593
    16 -6.044683 0.000000 0.123834 3.141593 0.000000 -3.141593
    17 -5.316726 1.858320 7.885149 0.000000 -1.570793 -1.483538
    18 -5.320000 1.887550 5.035499 0.000000 0.000000 0.575942
    19 -5.271080 1.859040 5.035499 0.000000 0.000000 -0.766488
    20 -5.269850 1.858320 -7.875906 0.000000 -1.570793 -1.483538
    21 -5.271080 1.887550 -5.026376 0.000000 0.000000 0.575942
    22 -5.271080 1.859040 -5.026376 0.000000 0.000000 -0.767284
    23 6.127058 4.060575 0.000001 3.141593 0.000000 3.141593
  time 21
    0 0.000616 2.625080 1.694948 1.328560 0.322360 1.492555
    1 -5.676169 -10.205956 -0.036927 0.000000 1.099512 0.000000
    2 -12.201422 1.904738 0.015999 3.141593 0.000000 3.141593
    3 -6.284104 10.169356 -10.201057 0.000000 1.570451 0.000000
    4 -6.284104 10.157806 10.244704 0.000000 1.570451 0.000000
    5 -6.284104 -10.225493 10.233214 0.000000 1.570451 0.000000
    6 -6.284114 -10.177173 -10.201057 0.000000 1.570451 0.000000
    7 -1.762286 5.911245 0.000001 3.141593 0.000000 -3.054327
    8 -2.841769 -0.132411 -7.037759 -3.141593 0.969358 3.141593
    9 -6.216228 0.000001 -0.009537 3.141593 -0.000003 -3.141593
    10 -6.044681 0.000000 -0.123808 -3.141593 0.000000 3.141593
    11 -2.841770 -7.400338 0.154317 -3.141593 0.000000 -2.232928
    12 -6.216227 0.011103 0.009509 0.000000 0.000000 -3.141592
    13 -6.044682 0.123416 0.123834 0.000000 0.000000 -3.141592
    14 -2.841769 -0.132410 6.858287 -3.141593 -0.963582 -3.141593
    15 -6.216228 0.000000 0.009509 -3.141593 0.000000 3.141593
    16 -6.044683 0.000000 0.123834 3.141593 0.000000 -3.141593
    17 -5.316726 1.858320 7.885149 0.000000 -1.570793 -1.514254
    18 -5.320000 1.887550 5.035499 0.000000 0.000000 0.575942
    19 -5.271080 1.859040 5.035499 0.000000 0.000000 -0.766511
    20 -5.269850 1.858320 -7.875906 0.000000 -1.570793 -1.514254
    21 -5.271080 1.887550 -5.026376 0.000000 0.000000 0.575942
    22 -5.271080 1.859040 -5.026376 0.000000 0.000000 -0.767261
    23 6.127058 4.060575 0.000001 3.141593 0.000000 3.141593
  time 22
    0 0.000616 2.257881 1.812139 1.371815 0.392884 1.552928
    1 -5.676169 -10.205956 -0.036927 0.000000 1.151897 0.000000
    2 -12.201422 1.904738 0.015999 3.141593 0.000000 3.141593
    3 -6.284104 10.169356 -10.201057 0.000000 1.570451 0.000000
    4 -6.284104 10.157806 10.244704 0.000000 1.570451 0.000000
    5 -6.284104 -10.225493 10.233214 0.000000 1.570451 0.000000
    6 -6.284114 -10.177173 -10.201057 0.000000 1.570451 0.000000
    7 -1.762286 5.911245 0.000001 3.141593 0.000000 -3.054327
    8 -2.841769 -0.132411 -7.037759 -3.141593 0.969358 3.141593
    9 -6.216228 0.000001 -0.009537 3.141593 -0.000003 -3.141593
    10 -6.044681 0.000000 -0.123808 -3.141593 0.000000 3.141593
    11 -2.841770 -7.400338 0.154317 -3.141593 0.000000 -2.232928
    12 -6.216227 0.011103 0.009509 0.000000 0.000000 -3.141592
    13 -6.044682 0.123416 0.123834 0.000000 0.000000 -3.141592
    14 -2.841769 -0.132410 6.858287 -3.141593 -0.963582 -3.141593
    15 -6.216228 0.000000 0.009509 -3.141593 0.000000 3.141593
    16 -6.044683 0.000000 0.123834 3.141593 0.000000 -3.141593
    17 -5.316726 1.858320 7.885149 0.000000 -1.570793 -1.561723
    18 -5.320000 1.887550 5.035499 0.000000 0.000000 0.575942
    19 -5.271080 1.859040 5.035499 0.000000 0.000000 -0.766488
    20 -5.269850 1.858320 -7.875906 0.000000 -1.570793 -1.561723
    21 -5.271080 1.887550 -5.026376 0.000000 0.000000 0.575942
    22 -5.271080 1.859040 -5.026376 0.000000 0.000000 -0.767261
    23 6.127058 4.060575 0.000001 3.141593 0.000000 3.141593
  time 23
    0 0.000616 1.918027 1.917611 1.410595 0.426747 1.608428
    1 -5.676169 -10.205956 -0.036927 0.000000 1.204235 0.000000
    2 -12.201422 1.904738 0.015999 3.141593 0.000000 3.141593
    3 -6.284104 10.169356 -10.201057 0.000000 1.570451 0.000000
    4 -6.284104 10.157806 10.244704 0.000000 1.570451 0.000000
    5 -6.284104 -10.225493 10.233214 0.000000 1.570451 0.000000
    6 -6.284114 -10.177173 -10.201057 0.000000 1.570451 0.000000
    7 -1.762286 5.911245 0.000001 3.141593 0.000000 -3.054327
    8 -2.841769 -0.132411 -7.037759 -3.141593 0.969358 3.141593
    9 -6.216228 0.000001 -0.009537 3.141593 -0.000003 -3.141593
    10 -6.044681 0.000000 -0.123808 -3.141593 0.000000 3.141593
    11 -2.841770 -7.400338 0.154317 -3.141593 0.000000 -2.232928
    12 -6.216227 0.011103 0.009509 0.000000 0.000000 -3.141592
    13 -6.044682 0.123416 0.123834 0.000000 0.000000 -3.141592
    14 -2.841769 -0.132410 6.858287 -3.141593 -0.963582 -3.141593
    15 -6.216228 0.000000 0.009509 -3.141593 0.000000 3.141593
    16 -6.044683 0.000000 0.123834 3.141593 0.000000 -3.141593
    17 -5.316726 1.858320 7.885149 0.000000 -1.570793 -1.611287
    18 -5.320000 1.887550 5.035499 0.000000 0.000000 0.575942
    19 -5.271080 1.859040 5.035499 0.000000 0.000000 -0.766488
    20 -5.269850 1.858320 -7.875906 0.000000 -1.570793 -1.611287
    21 -5.271080 1.887550 -5.026376 0.000000 0.000000 0.575942
    22 -5.271080 1.859040 -5.026376 0.000000 0.000000 -0.767261
    23 6.127058 4.060575 0.000001 3.141593 0.000000 3.141593
  time 24
    0 0.000616 1.613331 2.015270 1.445352 0.411946 1.663042
    1 -5.676169 -10.205956 -0.036927 0.000000 1.256620 0.000000
    2 -12.201422 1.904738 0.015999 3.141593 0.000000 3.141593
    3 -6.284104 10.169356 -10.201057 0.000000 1.570451 0.000000
    4 -6.284104 10.157806 10.244704 0.000000 1.570451 0.000000
    5 -6.284104 -10.225493 10.233214 0.000000 1.570451 0.000000
    6 -6.284114 -10.177173 -10.201057 0.000000 1.570451 0.000000
    7 -1.762286 5.911245 0.000001 3.141593 0.000000 -3.054327
    8 -2.841769 -0.132411 -7.037759 -3.141593 0.969358 3.141593
    9 -6.216228 0.000001 -0.009537 3.141593 -0.000003 -3.141593
    10 -6.044681 0.000000 -0.123808 -3.141593 0.000000 3.141593
    11 -2.841770 -7.400338 0.154317 -3.141593 0.000000 -2.232928
    12 -6.216227 0.011103 0.009509 0.000000 0.000000 -3.141592
    13 -6.044682 0.123416 0.123834 0.000000 0.000000 -3.141592
    14 -2.841769 -0.132410 6.858287 -3.141593 -0.963582 -3.141593
    15 -6.216228 0.000000 0.009509 -3.141593 0.000000 3.141593
    16 -6.044683 0.000000 0.123834 3.141593 0.000000 -3.141593
    17 -5.316726 1.858320 7.885149 0.000000 -1.570793 -1.648277
    18 -5.320000 1.887550 5.035499 0.000000 0.000000 0.575942
    19 -5.271080 1.859040 5.035499 0.000000 0.000000 -0.766488
    20 -5.269850 1.858320 -7.875906 0.000000 -1.570793 -1.648277
    21 -5.271080 1.887550 -5.026376 0.000000 0.000000 0.575942
    22 -5.271080 1.859040 -5.026376 0.000000 0.000000 -0.767284
    23 6.127058 4.060575 0.000001 3.141593 0.000000 3.141593
  time 25
    0 0.000616 1.343791 2.101210 1.477961 0.349769 1.719998
    1 -5.676169 -10.205956 -0.036927 0.000000 1.308957 0.000000
    2 -12.201422 1.904738 0.015999 3.141593 0.000000 3.141593
    3 -6.284104 10.169356 -10.201057 0.000000 1.570451 0.000000
    4 -6.284104 10.157806 10.244704 0.000000 1.570451 0.000000
    5 -6.284104 -10.225493 10.233214 0.000000 1.570451 0.000000
    6 -6.284114 -10.177173 -10.201057 0.000000 1.570451 0.000000
    7 -1.762286 5.911245 0.000001 3.141593 0.000000 -3.054327
    8 -2.841769 -0.132411 -7.037759 -3.141593 0.969358 3.141593
    9 -6.216228 0.000001 -0.009537 3.141593 -0.000003 -3.141593
    10 -6.044681 0.000000 -0.123808 -3.141593 0.000000 3.141593
    11 -2.841770 -7.400338 0.154317 -3.141593 0.000000 -2.232928
    12 -6.216227 0.011103 0.009509 0.000000 0.000000 -3.141592
    13 -6.044682 0.123416 0.123834 0.000000 0.000000 -3.141592
    14 -2.841769 -0.132410 6.858287 -3.141593 -0.963582 -3.141593
    15 -6.216228 0.000000 0.009509 -3.141593 0.000000 3.141593
    16 -6.044683 0.000000 0.123834 3.141593 0.000000 -3.141593
    17 -5.316726 1.858320 7.885149 0.000000 -1.570793 -1.658062
    18 -5.320000 1.887550 5.035499 0.000000 0.000000 0.575942
    19 -5.271080 1.859040 5.035499 0.000000 0.000000 -0.766488
    20 -5.269850 1.858320 -7.875906 0.000000 -1.570793 -1.658062
    21 -5.271080 1.887550 -5.026376 0.000000 0.000000 0.575942
    22 -5.271080 1.859040 -5.026376 0.000000 0.000000 -0.767261
    23 6.127058 4.060575 0.000001 3.141593 0.000000 3.141593
  time 26
    0 0.000616 1.113315 2.171525 1.503453 0.253486 1.772460
    1 -5.676169 -10.205956 -0.036927 0.000000 1.361342 0.000000
    2 -12.201422 1.904738 0.015999 3.141593 0.000000 3.141593
    3 -6.284104 10.169356 -10.201057 0.000000 1.570451 0.000000
    4 -6.284104 10.157806 10.244704 0.000000 1.570451 0.000000
    5 -6.284104 -10.225493 10.233214 0.000000 1.570451 0.000000
    6 -6.284114 -10.177173 -10.201057 0.000000 1.570451 0.000000
    7 -1.762286 5.911245 0.000001 3.141593 0.000000 -3.054327
    8 -2.841769 -0.132411 -7.037759 -3.141593 0.969358 3.141593
    9 -6.216228 0.000001 -0.009537 3.141593 -0.000003 -3.141593
    10 -6.044681 0.000000 -0.123808 -3.141593 0.000000 3.141593
    11 -2.841770 -7.400338 0.154317 -3.141593 0.000000 -2.232928
    12 -6.216227 0.011103 0.009509 0.000000 0.000000 -3.141592
    13 -6.044682 0.123416 0.123834 0.000000 0.000000 -3.141592
    14 -2.841769 -0.132410 6.858287 -3.141593 -0.963582 -3.141593
    15 -6.216228 0.000000 0.009509 -3.141593 0.000000 3.141593
    16 -6.044683 0.000000 0.123834 3.141593 0.000000 -3.141593
    17 -5.316726 1.858320 7.885149 0.000000 -1.570793 -1.626638
    18 -5.320000 1.887550 5.035499 0.000000 0.000000 0.575942
    19 -5.271080 1.859040 5.035499 0.000000 0.000000 -0.766488
    20 -5.269850 1.858320 -7.875906 0.000000 -1.570793 -1.626638
    21 -5.271080 1.887550 -5.026376 0.000000 0.000000 0.575942
    22 -5.271080 1.859040 -5.026376 0.000000 0.000000 -0.767261
    23 6.127058 4.060575 0.000001 3.141593 0.000000 3.141593
  time 27
    0 0.000616 0.925810 2.230121 1.520526 0.136855 1.816949
    1 -5.676169 -10.205956 -0.036927 0.000000 1.413679 0.000000
    2 -12.201422 1.904738 0.015999 3.141593 0.000000 3.141593
    3 -6.284104 10.169356 -10.201057 0.000000 1.570451 0.000000
    4 -6.284104 10.157806 10.244704 0.000000 1.570451 0.000000
    5 -6.284104 -10.225493 10.233214 0.000000 1.570451 0.000000
    6 -6.284114 -10.177173 -10.201057 0.000000 1.570451 0.000000
    7 -1.762286 5.911245 0.000001 3.141593 0.000000 -3.054327
    8 -2.841769 -0.132411 -7.037759 -3.141593 0.969358 3.141593
    9 -6.216228 0.000001 -0.009537 3.141593 -0.000003 -3.141593
    10 -6.044681 0.000000 -0.123808 -3.141593 0.000000 3.141593
    11 -2.841770 -7.400338 0.154317 -3.141593 0.000000 -2.232928
    12 -6.216227 0.011103 0.009509 0.000000 0.000000 -3.141592
    13 -6.044682 0.123416 0.123834 0.000000 0.000000 -3.141592
    14 -2.841769 -0.132410 6.858287 -3.141593 -0.963582 -3.141593
    15 -6.216228 0.000000 0.009509 -3.141593 0.000000 3.141593
    16 -6.044683 0.000000 0.123834 3.141593 0.000000 -3.141593
    17 -5.316726 1.858320 7.885149 0.000000 -1.570793 -1.563818
    18 -5.320000 1.887550 5.035499 0.000000 0.000000 0.575942
    19 -5.271080 1.859040 5.035499 0.000000 0.000000 -0.766488
    20 -5.269850 1.858320 -7.875906 0.000000 -1.570793 -1.563818
    21 -5.271080 1.887550 -5.026376 0.000000 0.000000 0.575942
    22 -5.271080 1.859040 -5.026376 0.000000 0.000000 -0.767261
    23 6.127058 4.060575 0.000001 3.141593 0.000000 3.141593
  time 28
    0 0.000616 0.789087 2.273091 1.530601 0.013745 1.851818
    1 -5.676169 -10.205956 -0.036927 0.000000 1.466064 0.000000
    2 -12.201422 1.904738 0.015999 3.141593 0.000000 3.141593
    3 -6.284104 10.169356 -10.201057 0.000000 1.570451 0.000000
    4 -6.284104 10.157806 10.244704 0.000000 1.570451 0.000000
    5 -6.284104 -10.225493 10.233214 0.000000 1.570451 0.000000
    6 -6.284114 -10.177173 -10.201057 0.000000 1.570451 0.000000
    7 -1.762286 5.911245 0.000001 3.141593 0.000000 -3.054327
    8 -2.841769 -0.132411 -7.037759 -3.141593 0.969358 3.141593
    9 -6.216228 0.000001 -0.009537 3.141593 -0.000003 -3.141593
    10 -6.044681 0.000000 -0.123808 -3.141593 0.000000 3.141593
    11 -2.841770 -7.400338 0.154317 -3.141593 0.000000 -2.232928
    12 -6.216227 0.011103 0.009509 0.000000 0.000000 -3.141592
    13 -6.044682 0.123416 0.123834 0.000000 0.000000 -3.141592
    14 -2.841769 -0.132410 6.858287 -3.141593 -0.963582 -3.141593
    15 -6.216228 0.000000 0.009509 -3.141593 0.000000 3.141593
    16 -6.044683 0.000000 0.123834 3.141593 0.000000 -3.141593
    17 -5.316726 1.858320 7.885149 0.000000 -1.570457 -1.490520
    18 -5.320000 1.887550 5.035499 0.000000 0.000000 0.575942
    19 -5.271080 1.859040 5.035499 0.000000 0.000000 -0.766488
    20 -5.269850 1.858320 -7.875906 0.000000 -1.570457 -1.490520
    21 -5.271080 1.887550 -5.026376 0.000000 0.000000 0.575942
    22 -5.271080 1.859040 -5.026376 0.000000 0.000000 -0.767261
    23 6.127058 4.060575 0.000001 3.141593 0.000000 3.141593
  time 29
    0 0.000616 0.703146 2.300435 1.536653 -0.102100 1.875866
    1 -5.676169 -10.205956 -0.036927 0.000000 1.518401 0.000000
    2 -12.201422 1.904738 0.015999 3.141593 0.000000 3.141593
    3 -6.284104 10.169356 -10.201057 0.000000 1.570451 0.000000
    4 -6.284104 10.157806 10.244704 0.000000 1.570451 0.000000
    5 -6.284104 -10.225493 10.233214 0.000000 1.570451 0.000000
    6 -6.284114 -10.177173 -10.201057 0.000000 1.570451 0.000000
    7 -1.762286 5.911245 0.000001 3.141593 0.000000 -3.054327
    8 -2.841769 -0.132411 -7.037759 -3.141593 0.969358 3.141593
    9 -6.216228 0.000001 -0.009537 3.141593 -0.000003 -3.141593
    10 -6.044681 0.000000 -0.123808 -3.141593 0.000000 3.141593
    11 -2.841770 -7.400338 0.154317 -3.141593 0.000000 -2.232928
    12 -6.216227 0.011103 0.009509 0.000000 0.000000 -3.141592
    13 -6.044682 0.123416 0.123834 0.000000 0.000000 -3.141592
    14 -2.841769 -0.132410 6.858287 -3.141593 -0.963582 -3.141593
    15 -6.216228 0.000000 0.009509 -3.141593 0.000000 3.141593
    16 -6.044683 0.000000 0.123834 3.141593 0.000000 -3.141593
    17 -5.316726 1.858320 7.885149 0.000000 -1.570793 -1.427686
    18 -5.320000 1.887550 5.035499 0.000000 0.000000 0.575942
    19 -5.271080 1.859040 5.035499 0.000000 0.000000 -0.766488
    20 -5.269850 1.858320 -7.875906 0.000000 -1.570793 -1.427686
    21 -5.271080 1.887550 -5.026376 0.000000 0.000000 0.575942
    22 -5.271080 1.859040 -5.026376 0.000000 0.000000 -0.767261
    23 6.127058 4.060575 0.000001 3.141593 0.000000 3.141593
  time 30
    0 0.000616 0.675802 2.312154 1.542509 -0.197112 1.887257
    1 -5.676169 -10.205956 -0.036927 0.000000 1.570451 0.000000
    2 -12.201422 1.904738 0.015999 3.141593 0.000000 3.141593
    3 -6.284104 10.169356 -10.201057 0.000000 1.570451 0.000000
    4 -6.284104 10.157806 10.244704 0.000000 1.570451 0.000000
    5 -6.284104 -10.225493 10.233214 0.000000 1.570451 0.000000
    6 -6.284114 -10.177173 -10.201057 0.000000 1.570451 0.000000
    7 -1.762286 5.911245 0.000001 3.141593 0.000000 -3.054327
    8 -2.841769 -0.132411 -7.037759 -3.141593 0.969358 3.141593
    9 -6.216228 0.000001 -0.009537 3.141593 -0.000003 -3.141593
    10 -6.044681 0.000000 -0.123808 -3.141593 0.000000 3.141593
    11 -2.841770 -7.400338 0.154317 -3.141593 0.000000 -2.232928
    12 -6.216227 0.011103 0.009509 0.000000 0.000000 -3.141592
    13 -6.044682 0.123416 0.123834 0.000000 0.000000 -3.141592
    14 -2.841769 -0.132410 6.858287 -3.141593 -0.963582 -3.141593
    15 -6.216228 0.000000 0.009509 -3.141593 0.000000 3.141593
    16 -6.044683 0.000000 0.123834 3.141593 0.000000 -3.141593
    17 -5.316726 1.858320 7.885149 0.000000 -1.570793 -1.396276
    18 -5.320000 1.887550 5.035499 0.000000 0.000000 0.575942
    19 -5.271080 1.859040 5.035499 0.000000 0.000000 -0.766488
    20 -5.269850 1.858320 -7.875906 0.000000 -1.570793 -1.396276
    21 -5.271080 1.887550 -5.026376 0.000000 0.000000 0.575942
    22 -5.271080 1.859040 -5.026376 0.000000 0.000000 -0.767261
    23 6.127058 4.060575 0.000001 3.141593 0.000000 3.141593
  time 31
    0 0.000616 0.675802 2.300435 1.551992 -0.279082 1.864348
    1 -5.676169 -10.205956 -0.036927 -3.141497 1.518401 -3.141497
    2 -12.201422 1.904738 0.015999 3.141593 0.000000 3.141593
    3 -6.284104 10.169356 -10.201057 0.000000 1.570451 0.000000
    4 -6.284104 10.157806 10.244704 0.000000 1.570451 0.000000
    5 -6.284104 -10.225493 10.233214 0.000000 1.570451 0.000000
    6 -6.284114 -10.177173 -10.201057 0.000000 1.570451 0.000000
    7 -1.762286 5.911245 0.000001 3.141593 0.000000 -3.054327
    8 -2.841769 -0.132411 -7.037759 -3.141593 0.969358 3.141593
    9 -6.216228 0.000001 -0.009537 3.141593 -0.000003 -3.141593
    10 -6.044681 0.000000 -0.123808 -3.141593 0.000000 3.141593
    11 -2.841770 -7.400338 0.154317 -3.141593 0.000000 -2.232928
    12 -6.216227 0.011103 0.009509 0.000000 0.000000 -3.141592
    13 -6.044682 0.123416 0.123834 0.000000 0.000000 -3.141592
    14 -2.841769 -0.132410 6.858287 -3.141593 -0.963582 -3.141593
    15 -6.216228 0.000000 0.009509 -3.141593 0.000000 3.141593
    16 -6.044683 0.000000 0.123834 3.141593 0.000000 -3.141593
    17 -5.316726 1.858320 7.885149 0.000000 -1.570793 -1.410239
    18 -5.320000 1.887550 5.035499 0.000000 0.000000 0.575942
    19 -5.271080 1.859040 5.035499 0.000000 0.000000 -0.766488
    20 -5.269850 1.858320 -7.875906 0.000000 -1.570793 -1.410239
    21 -5.271080 1.887550 -5.026376 0.000000 0.000000 0.575942
    22 -5.271080 1.859040 -5.026376 0.000000 0.000000 -0.767261
    23 6.127058 4.060575 0.000001 3.141593 0.000000 3.141593
  time 32
    0 0.000616 0.675802 2.265278 1.567764 -0.355207 1.803406
    1 -5.676169 -10.205956 -0.036927 -3.141592 1.466064 3.141592
    2 -12.201422 1.904738 0.015999 3.141593 0.000000 3.141593
    3 -6.284104 10.169356 -10.201057 0.000000 1.570451 0.000000
    4 -6.284104 10.157806 10.244704 0.000000 1.570451 0.000000
    5 -6.284104 -10.225493 10.233214 0.000000 1.570451 0.000000
    6 -6.284114 -10.177173 -10.201057 0.000000 1.570451 0.000000
    7 -1.762286 5.911245 0.000001 3.141593 0.000000 -3.054327
    8 -2.841769 -0.132411 -7.037759 -3.141593 0.969358 3.141593
    9 -6.216228 0.000001 -0.009537 3.141593 -0.000003 -3.141593
    10 -6.044681 0.000000 -0.123808 -3.141593 0.000000 3.141593
    11 -2.841770 -7.400338 0.154317 -3.141593 0.000000 -2.232928
    12 -6.216227 0.011103 0.009509 0.000000 0.000000 -3.141592
    13 -6.044682 0.123416 0.123834 0.000000 0.000000 -3.141592
    14 -2.841769 -0.132410 6.858287 -3.141593 -0.963582 -3.141593
    15 -6.216228 0.000000 0.009509 -3.141593 0.000000 3.141593
    16 -6.044683 0.000000 0.123834 3.141593 0.000000 -3.141593
    17 -5.316726 1.858320 7.885149 0.000000 -1.570793 -1.455612
    18 -5.320000 1.887550 5.035499 0.000000 0.000000 0.575942
    19 -5.271080 1.859040 5.035499 0.000000 0.000000 -0.766488
    20 -5.269850 1.858320 -7.875906 0.000000 -1.570793 -1.455612
    21 -5.271080 1.887550 -5.026376 0.000000 0.000000 0.575942
    22 -5.271080 1.859040 -5.026376 0.000000 0.000000 -0.767261
    23 6.127058 4.060575 0.000001 3.141593 0.000000 3.141593
  time 33
    0 0.000616 0.675802 2.206682 1.587538 -0.411486 1.730503
    1 -5.676169 -10.205956 -0.036927 3.141592 1.413679 3.141592
    2 -12.201422 1.904738 0.015999 3.141593 0.000000 3.141593
    3 -6.284104 10.169356 -10.201057 0.000000 1.570451 0.000000
    4 -6.284104 10.157806 10.244704 0.000000 1.570451 0.000000
    5 -6.284104 -10.225493 10.233214 0.000000 1.570451 0.000000
    6 -6.284114 -10.177173 -10.201057 0.000000 1.570451 0.000000
    7 -1.762286 5.911245 0.000001 3.141593 0.000000 -3.054327
    8 -2.841769 -0.132411 -7.037759 -3.141593 0.969358 3.141593
    9 -6.216228 0.000001 -0.009537 3.141593 -0.000003 -3.141593
    10 -6.044681 0.000000 -0.123808 -3.141593 0.000000 3.141593
    11 -2.841770 -7.400338 0.154317 -3.141593 0.000000 -2.232928
    12 -6.216227 0.011103 0.009509 0.000000 0.000000 -3.141592
    13 -6.044682 0.123416 0.123834 0.000000 0.000000 -3.141592
    14 -2.841769 -0.132410 6.858287 -3.141593 -0.963582 -3.141593
    15 -6.216228 0.000000 0.009509 -3.141593 0.000000 3.141593
    16 -6.044683 0.000000 0.123834 3.141593 0.000000 -3.141593
    17 -5.316726 1.858320 7.885149 0.000000 -1.570793 -1.511464
    18 -5.320000 1.887550 5.035499 0.000000 0.000000 0.575942
    19 -5.271080 1.859040 5.035499 0.000000 0.000000 -0.766488
    20 -5.269850 1.858320 -7.875906 0.000000 -1.570793 -1.511464
    21 -5.271080 1.887550 -5.026376 0.000000 0.000000 0.575942
    22 -5.271080 1.859040 -5.026376 0.000000 0.000000 -0.767261
    23 6.127058 4.060575 0.000001 3.141593 0.000000 3.141593
  time 34
    0 0.000616 0.675802 2.132461 1.602541 -0.435554 1.675509
    1 -5.676169 -10.205956 -0.036927 3.141592 1.361342 -3.141592
    2 -12.201422 1.904738 0.015999 3.141593 0.000000 3.141593
    3 -6.284104 10.169356 -10.201057 0.000000 1.570451 0.000000
    4 -6.284104 10.157806 10.244704 0.000000 1.570451 0.000000
    5 -6.284104 -10.225493 10.233214 0.000000 1.570451 0.000000
    6 -6.284114 -10.177173 -10.201057 0.000000 1.570451 0.000000
    7 -1.762286 5.911245 0.000001 3.141593 0.000000 -3.054327
    8 -2.841769 -0.132411 -7.037759 -3.141593 0.969358 3.141593
    9 -6.216228 0.000001 -0.009537 3.141593 -0.000003 -3.141593
    10 -6.044681 0.000000 -0.123808 -3.141593 0.000000 3.141593
    11 -2.841770 -7.400338 0.154317 -3.141593 0.000000 -2.232928
    12 -6.216227 0.011103 0.009509 0.000000 0.000000 -3.141592
    13 -6.044682 0.123416 0.123834 0.000000 0.000000 -3.141592
    14 -2.841769 -0.132410 6.858287 -3.141593 -0.963582 -3.141593
    15 -6.216228 0.000000 0.009509 -3.141593 0.000000 3.141593
    16 -6.044683 0.000000 0.123834 3.141593 0.000000 -3.141593
    17 -5.316726 1.858320 7.885149 0.000000 -1.570793 -1.556837
    18 -5.320000 1.887550 5.035499 0.000000 0.000000 0.575942
    19 -5.271080 1.859040 5.035499 0.000000 0.000000 -0.766488
    20 -5.269850 1.858320 -7.875906 0.000000 -1.570793 -1.556837
    21 -5.271080 1.887550 -5.026376 0.000000 0.000000 0.575942
    22 -5.271080 1.859040 -5.026376 0.000000 0.000000 -0.767261
    23 6.127058 4.060575 0.000001 3.141593 0.000000 3.141593
  time 35
    0 0.000616 0.675802 2.034802 1.610250 -0.437569 1.640386
    1 -5.676169 -10.205956 -0.036927 3.141592 1.308957 -3.141592
    2 -12.201422 1.904738 0.015999 3.141593 0.000000 3.141593
    3 -6.284104 10.169356 -10.201057 0.000000 1.570451 0.000000
    4 -6.284104 10.157806 10.244704 0.000000 1.570451 0.000000
    5 -6.284104 -10.225493 10.233214 0.000000 1.570451 0.000000
    6 -6.284114 -10.177173 -10.201057 0.000000 1.570451 0.000000
    7 -1.762286 5.911245 0.000001 3.141593 0.000000 -3.054327
    8 -2.841769 -0.132411 -7.037759 -3.141593 0.969358 3.141593
    9 -6.216228 0.000001 -0.009537 3.141593 -0.000003 -3.141593
    10 -6.044681 0.000000 -0.123808 -3.141593 0.000000 3.141593
    11 -2.841770 -7.400338 0.154317 -3.141593 0.000000 -2.232928
    12 -6.216227 0.011103 0.009509 0.000000 0.000000 -3.141592
    13 -6.044682 0.123416 0.123834 0.000000 0.000000 -3.141592
    14 -2.841769 -0.132410 6.858287 -3.141593 -0.963582 -3.141593
    15 -6.216228 0.000000 0.009509 -3.141593 0.000000 3.141593
    16 -6.044683 0.000000 0.123834 3.141593 0.000000 -3.141593
    17 -5.316726 1.858320 7.885149 0.000000 -1.570793 -1.570800
    18 -5.320000 1.887550 5.035499 0.000000 0.000000 0.575942
    19 -5.271080 1.859040 5.035499 0.000000 0.000000 -0.766488
    20 -5.269850 1.858320 -7.875906 0.000000 -1.570793 -1.570800
    21 -5.271080 1.887550 -5.026376 0.000000 0.000000 0.575942
    22 -5.271080 1.859040 -5.026376 0.000000 0.000000 -0.767261
    23 6.127058 4.060575 0.000001 3.141593 0.000000 3.141593
  time 36
    0 0.000616 0.675802 1.925424 1.616105 -0.434999 1.606086
    1 -5.676169 -10.205956 -0.036927 3.141592 1.256620 -3.141592
    2 -12.201422 1.904738 0.015999 3.141593 0.000000 3.141593
    3 -6.284104 10.169356 -10.201057 0.000000 1.570451 0.000000
    4 -6.284104 10.157806 10.244704 0.000000 1.570451 0.000000
    5 -6.284104 -10.225493 10.233214 0.000000 1.570451 0.000000
    6 -6.284114 -10.177173 -10.201057 0.000000 1.570451 0.000000
    7 -1.762286 5.911245 0.000001 3.141593 0.000000 -3.054327
    8 -2.841769 -0.132411 -7.037759 -3.141593 0.969358 3.141593
    9 -6.216228 0.000001 -0.009537 3.141593 -0.000003 -3.141593
    10 -6.044681 0.000000 -0.123808 -3.141593 0.000000 3.141593
    11 -2.841770 -7.400338 0.154317 -3.141593 0.000000 -2.232928
    12 -6.216227 0.011103 0.009509 0.000000 0.000000 -3.141592
    13 -6.044682 0.123416 0.123834 0.000000 0.000000 -3.141592
    14 -2.841769 -0.132410 6.858287 -3.141593 -0.963582 -3.141593
    15 -6.216228 0.000000 0.009509 -3.141593 0.000000 3.141593
    16 -6.044683 0.000000 0.123834 3.141593 0.000000 -3.141593
    17 -5.316726 1.858320 7.885149 0.000000 -1.570793 -1.537988
    18 -5.320000 1.887550 5.035499 0.000000 0.000000 0.575942
    19 -5.271080 1.859040 5.035499 0.000000 0.000000 -0.766488
    20 -5.269850 1.858320 -7.875906 0.000000 -1.570793 -1.537988
    21 -5.271080 1.887550 -5.026376 0.000000 0.000000 0.575942
    22 -5.271080 1.859040 -5.026376 0.000000 0.000000 -0.767261
    23 6.127058 4.060575 0.000001 3.141593 0.000000 3.141593
  time 37
    0 0.000616 0.675802 1.800420 1.620088 -0.427991 1.573179
    1 -5.676169 -10.205956 -0.036927 -3.141592 1.204235 3.141592
    2 -12.201422 1.904738 0.015999 3.141593 0.000000 3.141593
    3 -6.284104 10.169356 -10.201057 0.000000 1.570451 0.000000
    4 -6.284104 10.157806 10.244704 0.000000 1.570451 0.000000
    5 -6.284104 -10.225493 10.233214 0.000000 1.570451 0.000000
    6 -6.284114 -10.177173 -10.201057 0.000000 1.570451 0.000000
    7 -1.762286 5.911245 0.000001 3.141593 0.000000 -3.054327
    8 -2.841769 -0.132411 -7.037759 -3.141593 0.969358 3.141593
    9 -6.216228 0.000001 -0.009537 3.141593 -0.000003 -3.141593
    10 -6.044681 0.000000 -0.123808 -3.141593 0.000000 3.141593
    11 -2.841770 -7.400338 0.154317 -3.141593 0.000000 -2.232928
    12 -6.216227 0.011103 0.009509 0.000000 0.000000 -3.141592
    13 -6.044682 0.123416 0.123834 0.000000 0.000000 -3.141592
    14 -2.841769 -0.132410 6.858287 -3.141593 -0.963582 -3.141593
    15 -6.216228 0.000000 0.009509 -3.141593 0.000000 3.141593
    16 -6.044683 0.000000 0.123834 3.141593 0.000000 -3.141593
    17 -5.316726 1.858320 7.885149 0.000000 -1.570793 -1.472365
    18 -5.320000 1.887550 5.035499 0.000000 0.000000 0.575942
    19 -5.271080 1.859040 5.035499 0.000000 0.000000 -0.766488
    20 -5.269850 1.858320 -7.875906 0.000000 -1.570793 -1.472365
    21 -5.271080 1.887550 -5.026376 0.000000 0.000000 0.575942
    22 -5.271080 1.859040 -5.026376 0.000000 0.000000 -0.767261
    23 6.127058 4.060575 0.000001 3.141593 0.000000 3.141593
  time 38
    0 0.000616 0.675802 1.659791 1.622296 -0.416654 1.542233
    1 -5.676169 -10.205956 -0.036927 -3.141592 1.151897 -3.141592
    2 -12.201422 1.904738 0.015999 3.141593 0.000000 3.141593
    3 -6.284104 10.169356 -10.201057 0.000000 1.570451 0.000000
    4 -6.284104 10.157806 10.244704 0.000000 1.570451 0.000000
    5 -6.284104 -10.225493 10.233214 0.000000 1.570451 0.000000
    6 -6.284114 -10.177173 -10.201057 0.000000 1.570451 0.000000
    7 -1.762286 5.911245 0.000001 3.141593 0.000000 -3.054327
    8 -2.841769 -0.132411 -7.037759 -3.141593 0.969358 3.141593
    9 -6.216228 0.000001 -0.009537 3.141593 -0.000003 -3.141593
    10 -6.044681 0.000000 -0.123808 -3.141593 0.000000 3.141593
    11 -2.841770 -7.400338 0.154317 -3.141593 0.000000 -2.232928
    12 -6.216227 0.011103 0.009509 0.000000 0.000000 -3.141592
    13 -6.044682 0.123416 0.123834 0.000000 0.000000 -3.141592
    14 -2.841769 -0.132410 6.858287 -3.141593 -0.963582 -3.141593
    15 -6.216228 0.000000 0.009509 -3.141593 0.000000 3.141593
    16 -6.044683 0.000000 0.123834 3.141593 0.000000 -3.141593
    17 -5.316726 1.858320 7.885149 0.000000 -1.570793 -1.396970
    18 -5.320000 1.887550 5.035499 0.000000 0.000000 0.575942
    19 -5.271080 1.859040 5.035499 0.000000 0.000000 -0.766488
    20 -5.269850 1.858320 -7.875906 0.000000 -1.570793 -1.396970
    21 -5.271080 1.887550 -5.026376 0.000000 0.000000 0.575942
    22 -5.271080 1.859040 -5.026376 0.000000 0.000000 -0.767261
    23 6.127058 4.060575 0.000001 3.141593 0.000000 3.141593
  time 39
    0 0.000616 0.675802 1.511349 1.622809 -0.401123 1.513692
    1 -5.676169 -10.205956 -0.036927 3.141592 1.099512 3.141592
    2 -12.201422 1.904738 0.015999 3.141593 0.000000 3.141593
    3 -6.284104 10.169356 -10.201057 0.000000 1.570451 0.000000
    4 -6.284104 10.157806 10.244704 0.000000 1.570451 0.000000
    5 -6.284104 -10.225493 10.233214 0.000000 1.570451 0.000000
    6 -6.284114 -10.177173 -10.201057 0.000000 1.570451 0.000000
    7 -1.762286 5.911245 0.000001 3.141593 0.000000 -3.054327
    8 -2.841769 -0.132411 -7.037759 -3.141593 0.969358 3.141593
    9 -6.216228 0.000001 -0.009537 3.141593 -0.000003 -3.141593
    10 -6.044681 0.000000 -0.123808 -3.141593 0.000000 3.141593
    11 -2.841770 -7.400338 0.154317 -3.141593 0.000000 -2.232928
    12 -6.216227 0.011103 0.009509 0.000000 0.000000 -3.141592
    13 -6.044682 0.123416 0.123834 0.000000 0.000000 -3.141592
    14 -2.841769 -0.132410 6.858287 -3.141593 -0.963582 -3.141593
    15 -6.216228 0.000000 0.009509 -3.141593 0.000000 3.141593
    16 -6.044683 0.000000 0.123834 3.141593 0.000000 -3.141593
    17 -5.316726 1.858320 7.885149 0.000000 -1.570793 -1.334831
    18 -5.320000 1.887550 5.035499 0.000000 0.000000 0.575942
    19 -5.271080 1.859040 5.035499 0.000000 0.000000 -0.766488
    20 -5.269850 1.858320 -7.875906 0.000000 -1.570793 -1.334831
    21 -5.271080 1.887550 -5.026376 0.000000 0.000000 0.575942
    22 -5.271080 1.859040 -5.026376 0.000000 0.000000 -0.767261
    23 6.127058 4.060575 0.000001 3.141593 0.000000 3.141593
  time 40
    0 0.000616 0.675802 1.351188 1.621823 -0.381493 1.487935
    1 -5.676169 -10.205956 -0.036927 3.141592 1.047175 -3.141592
    2 -12.201422 1.904738 0.015999 3.141593 0.000000 3.141593
    3 -6.284104 10.169356 -10.201057 0.000000 1.570451 0.000000
    4 -6.284104 10.157806 10.244704 0.000000 1.570451 0.000000
    5 -6.284104 -10.225493 10.233214 0.000000 1.570451 0.000000
    6 -6.284114 -10.177173 -10.201057 0.000000 1.570451 0.000000
    7 -1.762286 5.911245 0.000001 3.141593 0.000000 -3.054327
    8 -2.841769 -0.132411 -7.037759 -3.141593 0.969358 3.141593
    9 -6.216228 0.000001 -0.009537 3.141593 -0.000003 -3.141593
    10 -6.044681 0.000000 -0.123808 -3.141593 0.000000 3.141593
    11 -2.841770 -7.400338 0.154317 -3.141593 0.000000 -2.232928
    12 -6.216227 0.011103 0.009509 0.000000 0.000000 -3.141592
    13 -6.044682 0.123416 0.123834 0.000000 0.000000 -3.141592
    14 -2.841769 -0.132410 6.858287 -3.141593 -0.963582 -3.141593
    15 -6.216228 0.000000 0.009509 -3.141593 0.000000 3.141593
    16 -6.044683 0.000000 0.123834 3.141593 0.000000 -3.141593
    17 -5.316726 1.858320 7.885149 0.000000 -1.570793 -1.309000
    18 -5.320000 1.887550 5.035499 0.000000 0.000000 0.575942
    19 -5.271080 1.859040 5.035499 0.000000 0.000000 -0.766488
    20 -5.269850 1.858320 -7.875906 0.000000 -1.570793 -1.309000
    21 -5.271080 1.887550 -5.026376 0.000000 0.000000 0.575942
    22 -5.271080 1.859040 -5.026376 0.000000 0.000000 -0.767261
    23 6.127058 4.060575 0.000001 3.141593 0.000000 3.141593
  time 41
    0 0.000616 0.675802 1.179307 1.619575 -0.357845 1.465470
    1 -5.676169 -10.205956 -0.036927 -3.141592 0.994790 -3.141592
    2 -12.201422 1.904738 0.015999 3.141593 0.000000 3.141593
    3 -6.284104 10.169356 -10.201057 0.000000 1.570451 0.000000
    4 -6.284104 10.157806 10.244704 0.000000 1.570451 0.000000
    5 -6.284104 -10.225493 10.233214 0.000000 1.570451 0.000000
    6 -6.284114 -10.177173 -10.201057 0.000000 1.570451 0.000000
    7 -1.762286 5.911245 0.000001 3.141593 0.000000 -3.054327
    8 -2.841769 -0.132411 -7.037759 -3.141593 0.969358 3.141593
    9 -6.216228 0.000001 -0.009537 3.141593 -0.000003 -3.141593
    10 -6.044681 0.000000 -0.123808 -3.141593 0.000000 3.141593
    11 -2.841770 -7.400338 0.154317 -3.141593 0.000000 -2.232928
    12 -6.216227 0.011103 0.009509 0.000000 0.000000 -3.141592
    13 -6.044682 0.123416 0.123834 0.000000 0.000000 -3.141592
    14 -2.841769 -0.132410 6.858287 -3.141593 -0.963582 -3.141593
    15 -6.216228 0.000000 0.009509 -3.141593 0.000000 3.141593
    16 -6.044683 0.000000 0.123834 3.141593 0.000000 -3.141593
    17 -5.316726 1.858320 7.885149 0.000000 -1.570793 -1.333443
    18 -5.320000 1.887550 5.035499 0.000000 0.000000 0.575942
    19 -5.271080 1.859040 5.035499 0.000000 0.000000 -0.766488
    20 -5.269850 1.858320 -7.875906 0.000000 -1.570793 -1.333443
    21 -5.271080 1.887550 -5.026376 0.000000 0.000000 0.575942
    22 -5.271080 1.859040 -5.026376 0.000000 0.000000 -0.767261
    23 6.127058 4.060575 0.000001 3.141593 0.000000 3.141593
  time 42
    0 0.000616 0.675802 1.007427 1.616362 -0.330247 1.446484
    1 -5.676169 -10.205956 -0.036927 3.141592 0.942453 -3.141592
    2 -12.201422 1.904738 0.015999 3.141593 0.000000 3.141593
    3 -6.284104 10.169356 -10.201057 0.000000 1.570451 0.000000
    4 -6.284104 10.157806 10.244704 0.000000 1.570451 0.000000
    5 -6.284104 -10.225493 10.233214 0.000000 1.570451 0.000000
    6 -6.284114 -10.177173 -10.201057 0.000000 1.570451 0.000000
    7 -1.762286 5.911245 0.000001 3.141593 0.000000 -3.054327
    8 -2.841769 -0.132411 -7.037759 -3.141593 0.969358 3.141593
    9 -6.216228 0.000001 -0.009537 3.141593 -0.000003 -3.141593
    10 -6.044681 0.000000 -0.123808 -3.141593 0.000000 3.141593
    11 -2.841770 -7.400338 0.154317 -3.141593 0.000000 -2.232928
    12 -6.216227 0.011103 0.009509 0.000000 0.000000 -3.141592
    13 -6.044682 0.123416 0.123834 0.000000 0.000000 -3.141592
    14 -2.841769 -0.132410 6.858287 -3.141593 -0.963582 -3.141593
    15 -6.216228 0.000000 0.009509 -3.141593 0.000000 3.141593
    16 -6.044683 0.000000 0.123834 3.141593 0.000000 -3.141593
    17 -5.316726 1.858320 7.885149 0.000000 -1.570793 -1.392779
    18 -5.320000 1.887550 5.035499 0.000000 0.000000 0.575942
    19 -5.271080 1.859040 5.035499 0.000000 0.000000 -0.766488
    20 -5.269850 1.858320 -7.875906 0.000000 -1.570793 -1.392779
    21 -5.271080 1.887550 -5.026376 0.000000 0.000000 0.575942
    22 -5.271080 1.859040 -5.026376 0.000000 0.000000 -0.767261
    23 6.127058 4.060575 0.000001 3.141593 0.000000 3.141593
  time 43
    0 0.000616 0.675802 0.823828 1.612557 -0.298766 1.431360
    1 -5.676169 -10.205956 -0.036927 -3.141592 0.890116 -3.141592
    2 -12.201422 1.904738 0.015999 3.141593 0.000000 3.141593
    3 -6.284104 10.169356 -10.201057 0.000000 1.570451 0.000000
    4 -6.284104 10.157806 10.244704 0.000000 1.570451 0.000000
    5 -6.284104 -10.225493 10.233214 0.000000 1.570451 0.000000
    6 -6.284114 -10.177173 -10.201057 0.000000 1.570451 0.000000
    7 -1.762286 5.911245 0.000001 3.141593 0.000000 -3.054327
    8 -2.841769 -0.132411 -7.037759 -3.141593 0.969358 3.141593
    9 -6.216228 0.000001 -0.009537 3.141593 -0.000003 -3.141593
    10 -6.044681 0.000000 -0.123808 -3.141593 0.000000 3.141593
    11 -2.841770 -7.400338 0.154317 -3.141593 0.000000 -2.232928
    12 -6.216227 0.011103 0.009509 0.000000 0.000000 -3.141592
    13 -6.044682 0.123416 0.123834 0.000000 0.000000 -3.141592
    14 -2.841769 -0.132410 6.858287 -3.141593 -0.963582 -3.141593
    15 -6.216228 0.000000 0.009509 -3.141593 0.000000 3.141593
    16 -6.044683 0.000000 0.123834 3.141593 0.000000 -3.141593
    17 -5.316726 1.858320 7.885149 0.000000 -1.570793 -1.466077
    18 -5.320000 1.887550 5.035499 0.000000 0.000000 0.575942
    19 -5.271080 1.859040 5.035499 0.000000 0.000000 -0.766488
    20 -5.269850 1.858320 -7.875906 0.000000 -1.570793 -1.466077
    21 -5.271080 1.887550 -5.026376 0.000000 0.000000 0.575942
    22 -5.271080 1.859040 -5.026376 0.000000 0.000000 -0.767261
    23 6.127058 4.060575 0.000001 3.141593 0.000000 3.141593
  time 44
    0 0.000616 0.675802 0.644135 1.608574 -0.263443 1.420475
    1 -5.676169 -10.205956 -0.036927 -3.141592 0.837730 -3.141592
    2 -12.201422 1.904738 0.015999 3.141593 0.000000 3.141593
    3 -6.284104 10.169356 -10.201057 0.000000 1.570451 0.000000
    4 -6.284104 10.157806 10.244704 0.000000 1.570451 0.000000
    5 -6.284104 -10.225493 10.233214 0.000000 1.570451 0.000000
    6 -6.284114 -10.177173 -10.201057 0.000000 1.570451 0.000000
    7 -1.762286 5.911245 0.000001 3.141593 0.000000 -3.054327
    8 -2.841769 -0.132411 -7.037759 -3.141593 0.969358 3.141593
    9 -6.216228 0.000001 -0.009537 3.141593 -0.000003 -3.141593
    10 -6.044681 0.000000 -0.123808 -3.141593 0.000000 3.141593
    11 -2.841770 -7.400338 0.154317 -3.141593 0.000000 -2.232928
    12 -6.216227 0.011103 0.009509 0.000000 0.000000 -3.141592
    13 -6.044682 0.123416 0.123834 0.000000 0.000000 -3.141592
    14 -2.841769 -0.132410 6.858287 -3.141593 -0.963582 -3.141593
    15 -6.216228 0.000000 0.009509 -3.141593 0.000000 3.141593
    16 -6.044683 0.000000 0.123834 3.141593 0.000000 -3.141593
    17 -5.316726 1.858320 7.885149 0.000000 -1.570793 -1.532409
    18 -5.320000 1.887550 5.035499 0.000000 0.000000 0.575942
    19 -5.271080 1.859040 5.035499 0.000000 0.000000 -0.766488
    20 -5.269850 1.858320 -7.875906 0.000000 -1.570793 -1.532409
    21 -5.271080 1.887550 -5.026376 0.000000 0.000000 0.575942
    22 -5.271080 1.859040 -5.026376 0.000000 0.000000 -0.767261
    23 6.127058 4.060575 0.000001 3.141593 0.000000 3.141593
  time 45
    0 0.000616 0.675802 0.456629 1.603941 -0.218704 1.414399
    1 -5.676169 -10.205956 -0.036927 3.141592 0.785393 3.141592
    2 -12.201422 1.904738 0.015999 3.141593 0.000000 3.141593
    3 -6.284104 10.169356 -10.201057 0.000000 1.570451 0.000000
    4 -6.284104 10.157806 10.244704 0.000000 1.570451 0.000000
    5 -6.284104 -10.225493 10.233214 0.000000 1.570451 0.000000
    6 -6.284114 -10.177173 -10.201057 0.000000 1.570451 0.000000
    7 -1.762286 5.911245 0.000001 3.141593 0.000000 -3.054327
    8 -2.841769 -0.132411 -7.037759 -3.141593 0.969358 3.141593
    9 -6.216228 0.000001 -0.009537 3.141593 -0.000003 -3.141593
    10 -6.044681 0.000000 -0.123808 -3.141593 0.000000 3.141593
    11 -2.841770 -7.400338 0.154317 -3.141593 0.000000 -2.232928
    12 -6.216227 0.011103 0.009509 0.000000 0.000000 -3.141592
    13 -6.044682 0.123416 0.123834 0.000000 0.000000 -3.141592
    14 -2.841769 -0.132410 6.858287 -3.141593 -0.963582 -3.141593
    15 -6.216228 0.000000 0.009509 -3.141593 0.000000 3.141593
    16 -6.044683 0.000000 0.123834 3.141593 0.000000 -3.141593
    17 -5.316726 1.858320 7.885149 0.000000 -1.570793 -1.570800
    18 -5.320000 1.887550 5.035499 0.000000 0.000000 0.575942
    19 -5.271080 1.859040 5.035499 0.000000 0.000000 -0.766488
    20 -5.269850 1.858320 -7.875906 0.000000 -1.570793 -1.570800
    21 -5.271080 1.887550 -5.026376 0.000000 0.000000 0.575942
    22 -5.271080 1.859040 -5.026376 0.000000 0.000000 -0.767261
    23 6.127058 4.060575 0.000001 3.141593 0.000000 3.141593
  time 46
    0 0.000616 0.675802 0.273030 1.598184 -0.161396 1.413070
    1 -5.676169 -10.205956 -0.036927 -3.141592 0.733008 3.141592
    2 -12.201422 1.904738 0.015999 3.141593 0.000000 3.141593
    3 -6.284104 10.169356 -10.201057 0.000000 1.570451 0.000000
    4 -6.284104 10.157806 10.244704 0.000000 1.570451 0.000000
    5 -6.284104 -10.225493 10.233214 0.000000 1.570451 0.000000
    6 -6.284114 -10.177173 -10.201057 0.000000 1.570451 0.000000
    7 -1.762286 5.911245 0.000001 3.141593 0.000000 -3.054327
    8 -2.841769 -0.132411 -7.037759 -3.141593 0.969358 3.141593
    9 -6.216228 0.000001 -0.009537 3.141593 -0.000003 -3.141593
    10 -6.044681 0.000000 -0.123808 -3.141593 0.000000 3.141593
    11 -2.841770 -7.400338 0.154317 -3.141593 0.000000 -2.232928
    12 -6.216227 0.011103 0.009509 0.000000 0.000000 -3.141592
    13 -6.044682 0.123416 0.123834 0.000000 0.000000 -3.141592
    14 -2.841769 -0.132410 6.858287 -3.141593 -0.963582 -3.141593
    15 -6.216228 0.000000 0.009509 -3.141593 0.000000 3.141593
    16 -6.044683 0.000000 0.123834 3.141593 0.000000 -3.141593
    17 -5.316726 1.858320 7.885149 0.000000 -1.570793 -1.586748
    18 -5.320000 1.887550 5.035499 0.000000 0.000000 0.575942
    19 -5.271080 1.859040 5.035499 0.000000 0.000000 -0.766511
    20 -5.269850 1.858320 -7.875906 0.000000 -1.570793 -1.586748
    21 -5.271080 1.887550 -5.026376 0.000000 0.000000 0.575942
    22 -5.271080 1.859040 -5.026376 0.000000 0.000000 -0.767261
    23 6.127058 4.060575 0.000001 3.141593 0.000000 3.141593
  time 47
    0 0.000616 0.675802 0.089430 1.591954 -0.095174 1.415475
    1 -5.676169 -10.205956 -0.036927 -3.141592 0.680671 -3.141592
    2 -12.201422 1.904738 0.015999 3.141593 0.000000 3.141593
    3 -6.284104 10.169356 -10.201057 0.000000 1.570451 0.000000
    4 -6.284104 10.157806 10.244704 0.000000 1.570451 0.000000
    5 -6.284104 -10.225493 10.233214 0.000000 1.570451 0.000000
    6 -6.284114 -10.177173 -10.201057 0.000000 1.570451 0.000000
    7 -1.762286 5.911245 0.000001 3.141593 0.000000 -3.054327
    8 -2.841769 -0.132411 -7.037759 -3.141593 0.969358 3.141593
    9 -6.216228 0.000001 -0.009537 3.141593 -0.000003 -3.141593
    10 -6.044681 0.000000 -0.123808 -3.141593 0.000000 3.141593
    11 -2.841770 -7.400338 0.154317 -3.141593 0.000000 -2.232928
    12 -6.216227 0.011103 0.009509 0.000000 0.000000 -3.141592
    13 -6.044682 0.123416 0.123834 0.000000 0.000000 -3.141592
    14 -2.841769 -0.132410 6.858287 -3.141593 -0.963582 -3.141593
    15 -6.216228 0.000000 0.009509 -3.141593 0.000000 3.141593
    16 -6.044683 0.000000 0.123834 3.141593 0.000000 -3.141593
    17 -5.316726 1.858320 7.885149 0.000000 -1.570793 -1.599906
    18 -5.320000 1.887550 5.035499 0.000000 0.000000 0.575942
    19 -5.271080 1.859040 5.035499 0.000000 0.000000 -0.766488
    20 -5.269850 1.858320 -7.875906 0.000000 -1.570793 -1.599906
    21 -5.271080 1.887550 -5.026376 0.000000 0.000000 0.575942
    22 -5.271080 1.859040 -5.026376 0.000000 0.000000 -0.767261
    23 6.127058 4.060575 0.000001 3.141593 0.000000 3.141593
  time 48
    0 0.000616 0.675802 -0.090263 1.585783 -0.023675 1.420791
    1 -5.676169 -10.205956 -0.036927 3.141592 0.628286 3.141592
    2 -12.201422 1.904738 0.015999 3.141593 0.000000 3.141593
    3 -6.284104 10.169356 -10.201057 0.000000 1.570451 0.000000
    4 -6.284104 10.157806 10.244704 0.000000 1.570451 0.000000
    5 -6.284104 -10.225493 10.233214 0.000000 1.570451 0.000000
    6 -6.284114 -10.177173 -10.201057 0.000000 1.570451 0.000000
    7 -1.762286 5.911245 0.000001 3.141593 0.000000 -3.054327
    8 -2.841769 -0.132411 -7.037759 -3.141593 0.969358 3.141593
    9 -6.216228 0.000001 -0.009537 3.141593 -0.000003 -3.141593
    10 -6.044681 0.000000 -0.123808 -3.141593 0.000000 3.141593
    11 -2.841770 -7.400338 0.154317 -3.141593 0.000000 -2.232928
    12 -6.216227 0.011103 0.009509 0.000000 0.000000 -3.141592
    13 -6.044682 0.123416 0.123834 0.000000 0.000000 -3.141592
    14 -2.841769 -0.132410 6.858287 -3.141593 -0.963582 -3.141593
    15 -6.216228 0.000000 0.009509 -3.141593 0.000000 3.141593
    16 -6.044683 0.000000 0.123834 3.141593 0.000000 -3.141593
    17 -5.316726 1.858320 7.885149 0.000000 -1.570793 -1.610579
    18 -5.320000 1.887550 5.035499 0.000000 0.000000 0.575942
    19 -5.271080 1.859040 5.035499 0.000000 0.000000 -0.766488
    20 -5.269850 1.858320 -7.875906 0.000000 -1.570793 -1.610579
    21 -5.271080 1.887550 -5.026376 0.000000 0.000000 0.575942
    22 -5.271080 1.859040 -5.026376 0.000000 0.000000 -0.767284
    23 6.127058 4.060575 0.000001 3.141593 0.000000 3.141593
  time 49
    0 0.000616 0.675802 -0.266049 1.580165 0.049447 1.428322
    1 -5.676169 -10.205956 -0.036927 -3.141592 0.575949 3.141592
    2 -12.201422 1.904738 0.015999 3.141593 0.000000 3.141593
    3 -6.284104 10.169356 -10.201057 0.000000 1.570451 0.000000
    4 -6.284104 10.157806 10.244704 0.000000 1.570451 0.000000
    5 -6.284104 -10.225493 10.233214 0.000000 1.570451 0.000000
    6 -6.284114 -10.177173 -10.201057 0.000000 1.570451 0.000000
    7 -1.762286 5.911245 0.000001 3.141593 0.000000 -3.054327
    8 -2.841769 -0.132411 -7.037759 -3.141593 0.969358 3.141593
    9 -6.216228 0.000001 -0.009537 3.141593 -0.000003 -3.141593
    10 -6.044681 0.000000 -0.123808 -3.141593 0.000000 3.141593
    11 -2.841770 -7.400338 0.154317 -3.141593 0.000000 -2.232928
    12 -6.216227 0.011103 0.009509 0.000000 0.000000 -3.141592
    13 -6.044682 0.123416 0.123834 0.000000 0.000000 -3.141592
    14 -2.841769 -0.132410 6.858287 -3.141593 -0.963582 -3.141593
    15 -6.216228 0.000000 0.009509 -3.141593 0.000000 3.141593
    16 -6.044683 0.000000 0.123834 3.141593 0.000000 -3.141593
    17 -5.316726 1.858320 7.885149 0.000000 -1.570793 -1.619088
    18 -5.320000 1.887550 5.035499 0.000000 0.000000 0.575942
    19 -5.271080 1.859040 5.035499 0.000000 0.000000 -0.766488
    20 -5.269850 1.858320 -7.875906 0.000000 -1.570793 -1.619088
    21 -5.271080 1.887550 -5.026376 0.000000 0.000000 0.575942
    22 -5.271080 1.859040 -5.026376 0.000000 0.000000 -0.767261
    23 6.127058 4.060575 0.000001 3.141593 0.000000 3.141593
  time 50
    0 0.000616 0.675802 -0.434023 1.575433 0.120540 1.437498
    1 -5.676169 -10.205956 -0.036927 3.141592 0.523564 3.141592
    2 -12.201422 1.904738 0.015999 3.141593 0.000000 3.141593
    3 -6.284104 10.169356 -10.201057 0.000000 1.570451 0.000000
    4 -6.284104 10.157806 10.244704 0.000000 1.570451 0.000000
    5 -6.284104 -10.225493 10.233214 0.000000 1.570451 0.000000
    6 -6.284114 -10.177173 -10.201057 0.000000 1.570451 0.000000
    7 -1.762286 5.911245 0.000001 3.141593 0.000000 -3.054327
    8 -2.841769 -0.132411 -7.037759 -3.141593 0.969358 3.141593
    9 -6.216228 0.000001 -0.009537 3.141593 -0.000003 -3.141593
    10 -6.044681 0.000000 -0.123808 -3.141593 0.000000 3.141593
    11 -2.841770 -7.400338 0.154317 -3.141593 0.000000 -2.232928
    12 -6.216227 0.011103 0.009509 0.000000 0.000000 -3.141592
    13 -6.044682 0.123416 0.123834 0.000000 0.000000 -3.141592
    14 -2.841769 -0.132410 6.858287 -3.141593 -0.963582 -3.141593
    15 -6.216228 0.000000 0.009509 -3.141593 0.000000 3.141593
    16 -6.044683 0.000000 0.123834 3.141593 0.000000 -3.141593
    17 -5.316726 1.858320 7.885149 0.000000 -1.570793 -1.625736
    18 -5.320000 1.887550 5.035499 0.000000 0.000000 0.575942
    19 -5.271080 1.859040 5.035499 0.000000 0.000000 -0.766488
    20 -5.269850 1.858320 -7.875906 0.000000 -1.570793 -1.625736
    21 -5.271080 1.887550 -5.026376 0.000000 0.000000 0.575942
    22 -5.271080 1.859040 -5.026376 0.000000 0.000000 -0.767261
    23 6.127058 4.060575 0.000001 3.141593 0.000000 3.141593
  time 51
    0 0.000616 0.675802 -0.594184 1.571786 0.185910 1.447813
    1 -5.676169 -10.205956 -0.036927 -3.141592 0.471226 -3.141592
    2 -12.201422 1.904738 0.015999 3.141593 0.000000 3.141593
    3 -6.284104 10.169356 -10.201057 0.000000 1.570451 0.000000
    4 -6.284104 10.157806 10.244704 0.000000 1.570451 0.000000
    5 -6.284104 -10.225493 10.233214 0.000000 1.570451 0.000000
    6 -6.284114 -10.177173 -10.201057 0.000000 1.570451 0.000000
    7 -1.762286 5.911245 0.000001 3.141593 0.000000 -3.054327
    8 -2.841769 -0.132411 -7.037759 -3.141593 0.969358 3.141593
    9 -6.216228 0.000001 -0.009537 3.141593 -0.000003 -3.141593
    10 -6.044681 0.000000 -0.123808 -3.141593 0.000000 3.141593
    11 -2.841770 -7.400338 0.154317 -3.141593 0.000000 -2.232928
    12 -6.216227 0.011103 0.009509 0.000000 0.000000 -3.141592
    13 -6.044682 0.123416 0.123834 0.000000 0.000000 -3.141592
    14 -2.841769 -0.132410 6.858287 -3.141593 -0.963582 -3.141593
    15 -6.216228 0.000000 0.009509 -3.141593 0.000000 3.141593
    16 -6.044683 0.000000 0.123834 3.141593 0.000000 -3.141593
    17 -5.316726 1.858320 7.885149 0.000000 -1.570793 -1.630830
    18 -5.320000 1.887550 5.035499 0.000000 0.000000 0.575942
    19 -5.271080 1.859040 5.035499 0.000000 0.000000 -0.766511
    20 -5.269850 1.858320 -7.875906 0.000000 -1.570793 -1.630830
    21 -5.271080 1.887550 -5.026376 0.000000 0.000000 0.575942
    22 -5.271080 1.859040 -5.026376 0.000000 0.000000 -0.767261
    23 6.127058 4.060575 0.000001 3.141593 0.000000 3.141593
  time 52
    0 0.000616 0.675802 -0.746533 1.569302 0.241905 1.458635
    1 -5.676169 -10.205956 -0.036927 3.141592 0.418841 -3.141592
    2 -12.201422 1.904738 0.015999 3.141593 0.000000 3.141593
    3 -6.284104 10.169356 -10.201057 0.000000 1.570451 0.000000
    4 -6.284104 10.157806 10.244704 0.000000 1.570451 0.000000
    5 -6.284104 -10.225493 10.233214 0.000000 1.570451 0.000000
    6 -6.284114 -10.177173 -10.201057 0.000000 1.570451 0.000000
    7 -1.762286 5.911245 0.000001 3.141593 0.000000 -3.054327
    8 -2.841769 -0.132411 -7.037759 -3.141593 0.969358 3.141593
    9 -6.216228 0.000001 -0.009537 3.141593 -0.000003 -3.141593
    10 -6.044681 0.000000 -0.123808 -3.141593 0.000000 3.141593
    11 -2.841770 -7.400338 0.154317 -3.141593 0.000000 -2.232928
    12 -6.216227 0.011103 0.009509 0.000000 0.000000 -3.141592
    13 -6.044682 0.123416 0.123834 0.000000 0.000000 -3.141592
    14 -2.841769 -0.132410 6.858287 -3.141593 -0.963582 -3.141593
    15 -6.216228 0.000000 0.009509 -3.141593 0.000000 3.141593
    16 -6.044683 0.000000 0.123834 3.141593 0.000000 -3.141593
    17 -5.316726 1.858320 7.885149 0.000000 -1.570793 -1.634674
    18 -5.320000 1.887550 5.035499 0.000000 0.000000 0.575942
    19 -5.271080 1.859040 5.035499 0.000000 0.000000 -0.766511
    20 -5.269850 1.858320 -7.875906 0.000000 -1.570793 -1.634674
    21 -5.271080 1.887550 -5.026376 0.000000 0.000000 0.575942
    22 -5.271080 1.859040 -5.026376 0.000000 0.000000 -0.767261
    23 6.127058 4.060575 0.000001 3.141593 0.000000 3.141593
  time 53
    0 0.000616 0.675802 -0.887162 1.567823 0.284818 1.469393
    1 -5.676169 -10.205956 -0.036927 -3.141592 0.366504 3.141592
    2 -12.201422 1.904738 0.015999 3.141593 0.000000 3.141593
    3 -6.284104 10.169356 -10.201057 0.000000 1.570451 0.000000
    4 -6.284104 10.157806 10.244704 0.000000 1.570451 0.000000
    5 -6.284104 -10.225493 10.233214 0.000000 1.570451 0.000000
    6 -6.284114 -10.177173 -10.201057 0.000000 1.570451 0.000000
    7 -1.762286 5.911245 0.000001 3.141593 0.000000 -3.054327
    8 -2.841769 -0.132411 -7.037759 -3.141593 0.969358 3.141593
    9 -6.216228 0.000001 -0.009537 3.141593 -0.000003 -3.141593
    10 -6.044681 0.000000 -0.123808 -3.141593 0.000000 3.141593
    11 -2.841770 -7.400338 0.154317 -3.141593 0.000000 -2.232928
    12 -6.216227 0.011103 0.009509 0.000000 0.000000 -3.141592
    13 -6.044682 0.123416 0.123834 0.000000 0.000000 -3.141592
    14 -2.841769 -0.132410 6.858287 -3.141593 -0.963582 -3.141593
    15 -6.216228 0.000000 0.009509 -3.141593 0.000000 3.141593
    16 -6.044683 0.000000 0.123834 3.141593 0.000000 -3.141593
    17 -5.316726 1.858320 7.885149 0.000000 -1.570793 -1.637603
    18 -5.320000 1.887550 5.035499 0.000000 0.000000 0.575942
    19 -5.271080 1.859040 5.035499 0.000000 0.000000 -0.766488
    20 -5.269850 1.858320 -7.875906 0.000000 -1.570793 -1.637603
    21 -5.271080 1.887550 -5.026376 0.000000 0.000000 0.575942
    22 -5.271080 1.859040 -5.026376 0.000000 0.000000 -0.767261
    23 6.127058 4.060575 0.000001 3.141593 0.000000 3.141593
  time 54
    0 0.000616 0.675802 -1.012166 1.567093 0.310955 1.479329
    1 -5.676169 -10.205956 -0.036927 3.141592 0.314119 -3.141592
    2 -12.201422 1.904738 0.015999 3.141593 0.000000 3.141593
    3 -6.284104 10.169356 -10.201057 0.000000 1.570451 0.000000
    4 -6.284104 10.157806 10.244704 0.000000 1.570451 0.000000
    5 -6.284104 -10.225493 10.233214 0.000000 1.570451 0.000000
    6 -6.284114 -10.177173 -10.201057 0.000000 1.570451 0.000000
    7 -1.762286 5.911245 0.000001 3.141593 0.000000 -3.054327
    8 -2.841769 -0.132411 -7.037759 -3.141593 0.969358 3.141593
    9 -6.216228 0.000001 -0.009537 3.141593 -0.000003 -3.141593
    10 -6.044681 0.000000 -0.123808 -3.141593 0.000000 3.141593
    11 -2.841770 -7.400338 0.154317 -3.141593 0.000000 -2.232928
    12 -6.216227 0.011103 0.009509 0.000000 0.000000 -3.141592
    13 -6.044682 0.123416 0.123834 0.000000 0.000000 -3.141592
    14 -2.841769 -0.132410 6.858287 -3.141593 -0.963582 -3.141593
    15 -6.216228 0.000000 0.009509 -3.141593 0.000000 3.141593
    16 -6.044683 0.000000 0.123834 3.141593 0.000000 -3.141593
    17 -5.316726 1.858320 7.885149 0.000000 -1.570793 -1.639907
    18 -5.320000 1.887550 5.035499 0.000000 0.000000 0.575942
    19 -5.271080 1.859040 5.035499 0.000000 0.000000 -0.766488
    20 -5.269850 1.858320 -7.875906 0.000000 -1.570793 -1.639907
    21 -5.271080 1.887550 -5.026376 0.000000 0.000000 0.575942
    22 -5.271080 1.859040 -5.026376 0.000000 0.000000 -0.767261
    23 6.127058 4.060575 0.000001 3.141593 0.000000 3.141593
  time 55
    0 0.000616 0.675802 -1.121544 1.567705 0.306626 1.490783
    1 -5.676169 -10.205956 -0.036927 3.141592 0.261782 -3.141592
    2 -12.201422 1.904738 0.015999 3.141593 0.000000 3.141593
    3 -6.284104 10.169356 -10.201057 0.000000 1.570451 0.000000
    4 -6.284104 10.157806 10.244704 0.000000 1.570451 0.000000
    5 -6.284104 -10.225493 10.233214 0.000000 1.570451 0.000000
    6 -6.284114 -10.177173 -10.201057 0.000000 1.570451 0.000000
    7 -1.762286 5.911245 0.000001 3.141593 0.000000 -3.054327
    8 -2.841769 -0.132411 -7.037759 -3.141593 0.969358 3.141593
    9 -6.216228 0.000001 -0.009537 3.141593 -0.000003 -3.141593
    10 -6.044681 0.000000 -0.123808 -3.141593 0.000000 3.141593
    11 -2.841770 -7.400338 0.154317 -3.141593 0.000000 -2.232928
    12 -6.216227 0.011103 0.009509 0.000000 0.000000 -3.141592
    13 -6.044682 0.123416 0.123834 0.000000 0.000000 -3.141592
    14 -2.841769 -0.132410 6.858287 -3.141593 -0.963582 -3.141593
    15 -6.216228 0.000000 0.009509 -3.141593 0.000000 3.141593
    16 -6.044683 0.000000 0.123834 3.141593 0.000000 -3.141593
    17 -5.316726 1.858320 7.885149 0.000000 -1.570793 -1.641892
    18 -5.320000 1.887550 5.035499 0.000000 0.000000 0.575942
    19 -5.271080 1.859040 5.035499 0.000000 0.000000 -0.766511
    20 -5.269850 1.858320 -7.875906 0.000000 -1.570793 -1.641892
    21 -5.271080 1.887550 -5.026376 0.000000 0.000000 0.575942
    22 -5.271080 1.859040 -5.026376 0.000000 0.000000 -0.767261
    23 6.127058 4.060575 0.000001 3.141593 0.000000 3.141593
  time 56
    0 0.000616 0.675802 -1.215297 1.569558 0.268083 1.505655
    1 -5.676169 -10.205956 -0.036927 -3.141592 0.209397 3.141592
    2 -12.201422 1.904738 0.015999 3.141593 0.000000 3.141593
    3 -6.284104 10.169356 -10.201057 0.000000 1.570451 0.000000
    4 -6.284104 10.157806 10.244704 0.000000 1.570451 0.000000
    5 -6.284104 -10.225493 10.233214 0.000000 1.570451 0.000000
    6 -6.284114 -10.177173 -10.201057 0.000000 1.570451 0.000000
    7 -1.762286 5.911245 0.000001 3.141593 0.000000 -3.054327
    8 -2.841769 -0.132411 -7.037759 -3.141593 0.969358 3.141593
    9 -6.216228 0.000001 -0.009537 3.141593 -0.000003 -3.141593
    10 -6.044681 0.000000 -0.123808 -3.141593 0.000000 3.141593
    11 -2.841770 -7.400338 0.154317 -3.141593 0.000000 -2.232928
    12 -6.216227 0.011103 0.009509 0.000000 0.000000 -3.141592
    13 -6.044682 0.123416 0.123834 0.000000 0.000000 -3.141592
    14 -2.841769 -0.132410 6.858287 -3.141593 -0.963582 -3.141593
    15 -6.216228 0.000000 0.009509 -3.141593 0.000000 3.141593
    16 -6.044683 0.000000 0.123834 3.141593 0.000000 -3.141593
    17 -5.316726 1.858320 7.885149 0.000000 -1.570793 -1.643891
    18 -5.320000 1.887550 5.035499 0.000000 0.000000 0.575942
    19 -5.271080 1.859040 5.035499 0.000000 0.000000 -0.766488
    20 -5.269850 1.858320 -7.875906 0.000000 -1.570793 -1.643891
    21 -5.271080 1.887550 -5.026376 0.000000 0.000000 0.575942
    22 -5.271080 1.859040 -5.026376 0.000000 0.000000 -0.767261
    23 6.127058 4.060575 0.000001 3.141593 0.000000 3.141593
  time 57
    0 0.000616 0.675802 -1.293424 1.571391 0.206731 1.522362
    1 -5.676169 -10.205956 -0.036927 -3.141592 0.157059 -3.141592
    2 -12.201422 1.904738 0.015999 3.141593 0.000000 3.141593
    3 -6.284104 10.169356 -10.201057 0.000000 1.570451 0.000000
    4 -6.284104 10.157806 10.244704 0.000000 1.570451 0.000000
    5 -6.284104 -10.225493 10.233214 0.000000 1.570451 0.000000
    6 -6.284114 -10.177173 -10.201057 0.000000 1.570451 0.000000
    7 -1.762286 5.911245 0.000001 3.141593 0.000000 -3.054327
    8 -2.841769 -0.132411 -7.037759 -3.141593 0.969358 3.141593
    9 -6.216228 0.000001 -0.009537 3.141593 -0.000003 -3.141593
    10 -6.044681 0.000000 -0.123808 -3.141593 0.000000 3.141593
    11 -2.841770 -7.400338 0.154317 -3.141593 0.000000 -2.232928
    12 -6.216227 0.011103 0.009509 0.000000 0.000000 -3.141592
    13 -6.044682 0.123416 0.123834 0.000000 0.000000 -3.141592
    14 -2.841769 -0.132410 6.858287 -3.141593 -0.963582 -3.141593
    15 -6.216228 0.000000 0.009509 -3.141593 0.000000 3.141593
    16 -6.044683 0.000000 0.123834 3.141593 0.000000 -3.141593
    17 -5.316726 1.858320 7.885149 0.000000 -1.570793 -1.646195
    18 -5.320000 1.887550 5.035499 0.000000 0.000000 0.575942
    19 -5.271080 1.859040 5.035499 0.000000 0.000000 -0.766488
    20 -5.269850 1.858320 -7.875906 0.000000 -1.570793 -1.646195
    21 -5.271080 1.887550 -5.026376 0.000000 0.000000 0.575942
    22 -5.271080 1.859040 -5.026376 0.000000 0.000000 -0.767261
    23 6.127058 4.060575 0.000001 3.141593 0.000000 3.141593
  time 58
    0 0.000616 0.675802 -1.348114 1.572318 0.133947 1.539765
    1 -5.676169 -10.205956 -0.036927 -3.141592 0.104674 -3.141592
    2 -12.201422 1.904738 0.015999 3.141593 0.000000 3.141593
    3 -6.284104 10.169356 -10.201057 0.000000 1.570451 0.000000
    4 -6.284104 10.157806 10.244704 0.000000 1.570451 0.000000
    5 -6.284104 -10.225493 10.233214 0.000000 1.570451 0.000000
    6 -6.284114 -10.177173 -10.201057 0.000000 1.570451 0.000000
    7 -1.762286 5.911245 0.000001 3.141593 0.000000 -3.054327
    8 -2.841769 -0.132411 -7.037759 -3.141593 0.969358 3.141593
    9 -6.216228 0.000001 -0.009537 3.141593 -0.000003 -3.141593
    10 -6.044681 0.000000 -0.123808 -3.141593 0.000000 3.141593
    11 -2.841770 -7.400338 0.154317 -3.141593 0.000000 -2.232928
    12 -6.216227 0.011103 0.009509 0.000000 0.000000 -3.141592
    13 -6.044682 0.123416 0.123834 0.000000 0.000000 -3.141592
    14 -2.841769 -0.132410 6.858287 -3.141593 -0.963582 -3.141593
    15 -6.216228 0.000000 0.009509 -3.141593 0.000000 3.141593
    16 -6.044683 0.000000 0.123834 3.141593 0.000000 -3.141593
    17 -5.316726 1.858320 7.885149 0.000000 -1.570793 -1.649109
    18 -5.320000 1.887550 5.035499 0.000000 0.000000 0.575942
    19 -5.271080 1.859040 5.035499 0.000000 0.000000 -0.766488
    20 -5.269850 1.858320 -7.875906 0.000000 -1.570793 -1.649109
    21 -5.271080 1.887550 -5.026376 0.000000 0.000000 0.575942
    22 -5.271080 1.859040 -5.026376 0.000000 0.000000 -0.767284
    23 6.127058 4.060575 0.000001 3.141593 0.000000 3.141593
  time 59
    0 0.000616 0.675802 -1.383271 1.571963 0.061149 1.556978
    1 -5.676169 -10.205956 -0.036927 3.141592 0.052337 -3.141592
    2 -12.201422 1.904738 0.015999 3.141593 0.000000 3.141593
    3 -6.284104 10.169356 -10.201057 0.000000 1.570451 0.000000
    4 -6.284104 10.157806 10.244704 0.000000 1.570451 0.000000
    5 -6.284104 -10.225493 10.233214 0.000000 1.570451 0.000000
    6 -6.284114 -10.177173 -10.201057 0.000000 1.570451 0.000000
    7 -1.762286 5.911245 0.000001 3.141593 0.000000 -3.054327
    8 -2.841769 -0.132411 -7.037759 -3.141593 0.969358 3.141593
    9 -6.216228 0.000001 -0.009537 3.141593 -0.000003 -3.141593
    10 -6.044681 0.000000 -0.123808 -3.141593 0.000000 3.141593
    11 -2.841770 -7.400338 0.154317 -3.141593 0.000000 -2.232928
    12 -6.216227 0.011103 0.009509 0.000000 0.000000 -3.141592
    13 -6.044682 0.123416 0.123834 0.000000 0.000000 -3.141592
    14 -2.841769 -0.132410 6.858287 -3.141593 -0.963582 -3.141593
    15 -6.216228 0.000000 0.009509 -3.141593 0.000000 3.141593
    16 -6.044683 0.000000 0.123834 3.141593 0.000000 -3.141593
    17 -5.316726 1.858320 7.885149 0.000000 -1.570793 -1.652968
    18 -5.320000 1.887550 5.035499 0.000000 0.000000 0.575942
    19 -5.271080 1.859040 5.035499 0.000000 0.000000 -0.766488
    20 -5.269850 1.858320 -7.875906 0.000000 -1.570793 -1.652968
    21 -5.271080 1.887550 -5.026376 0.000000 0.000000 0.575942
    22 -5.271080 1.859040 -5.026376 0.000000 0.000000 -0.767261
    23 6.127058 4.060575 0.000001 3.141593 0.000000 3.141593
  time 60
    0 0.000616 0.675802 -1.394990 1.570504 -0.000203 1.573179
    1 -5.676169 -10.205956 -0.036927 -3.141592 0.000000 3.141592
    2 -12.201422 1.904738 0.015999 3.141593 0.000000 3.141593
    3 -6.284104 10.169356 -10.201057 0.000000 1.570451 0.000000
    4 -6.284104 10.157806 10.244704 0.000000 1.570451 0.000000
    5 -6.284104 -10.225493 10.233214 0.000000 1.570451 0.000000
    6 -6.284114 -10.177173 -10.201057 0.000000 1.570451 0.000000
    7 -1.762286 5.911245 0.000001 3.141593 0.000000 -3.054327
    8 -2.841769 -0.132411 -7.037759 -3.141593 0.969358 3.141593
    9 -6.216228 0.000001 -0.009537 3.141593 -0.000003 -3.141593
    10 -6.044681 0.000000 -0.123808 -3.141593 0.000000 3.141593
    11 -2.841770 -7.400338 0.154317 -3.141593 0.000000 -2.232928
    12 -6.216227 0.011103 0.009509 0.000000 0.000000 -3.141592
    13 -6.044682 0.123416 0.123834 0.000000 0.000000 -3.141592
    14 -2.841769 -0.132410 6.858287 -3.141593 -0.963582 -3.141593
    15 -6.216228 0.000000 0.009509 -3.141593 0.000000 3.141593
    16 -6.044683 0.000000 0.123834 3.141593 0.000000 -3.141593
    17 -5.316726 1.858320 7.885149 0.000000 -1.570793 -1.658062
    18 -5.320000 1.887550 5.035499 0.000000 0.000000 0.575942
    19 -5.271080 1.859040 5.035499 0.000000 0.000000 -0.766488
    20 -5.269850 1.858320 -7.875906 0.000000 -1.570793 -1.658062
    21 -5.271080 1.887550 -5.026376 0.000000 0.000000 0.575942
    22 -5.271080 1.859040 -5.026376 0.000000 0.000000 -0.767261
    23 6.127058 4.060575 0.000001 3.141593 0.000000 3.141593
end
