// Created by Crowbar 0.62
version 1
nodes
  0 "Dummy (Root)" -1
  1 "Dummy (Antenna Pivot)" 0
  2 "Dummy (Pupil)" 0
  3 "Dummy (EyeShield1)" 2
  4 "Dummy (EyeShield2)" 2
  5 "Dummy (EyeShield3)" 2
  6 "Dummy (EyeShield4)" 2
  7 "Dummy (Inner Wheel Pivot)" 0
  8 "Dummy (L Arm1c)" 2
  9 "Dummy (L Arm1b)" 8
  10 "Dummy (L Arm1a)" 9
  11 "Dummy (L Arm2c)" 2
  12 "Dummy (L Arm2b)" 11
  13 "Dummy (L Arm2a)" 12
  14 "Dummy (L Arm3c)" 2
  15 "Dummy (L Arm3b)" 14
  16 "Dummy (L Arm3a)" 15
  17 "Dummy (L Prong1Pivot)" 0
  18 "Dummy (L Prong2 Pivot)" 0
  19 "Dummy (L Prong3Pivot)" 0
  20 "Dummy (L Prong4Pivot)" 0
  21 "Dummy (L Prong5Pivot)" 0
  22 "Dummy (L Prong6Pivot)" 0
  23 "Dummy (Tail Gun)" 0
end
skeleton
  time 0
    0 0.000616 0.675802 -1.394990 1.570800 0.000000 1.570774
    1 -5.676169 -10.205956 -0.036927 0.000000 0.000000 0.000000
    2 -12.201421 1.904737 0.015999 3.141593 0.000000 -3.141593
    3 -6.284104 10.169356 -10.201057 0.000000 1.570451 0.000000
    4 -6.284104 10.157806 10.244704 0.000000 1.570451 0.000000
    5 -6.284104 -10.225493 10.233214 0.000000 1.570451 0.000000
    6 -6.284114 -10.177173 -10.201057 0.000000 1.570451 0.000000
    7 -1.762286 5.911245 0.000001 -3.141593 0.000003 -3.577925
    8 -2.841770 -0.132410 -7.037760 -3.141593 -0.339600 -3.141593
    9 -6.216227 0.000000 -0.009537 -6.283185 -0.436329 -6.283090
    10 -6.044680 0.000000 -0.123808 -6.283185 -0.261771 -6.283090
    11 -2.841770 -7.400337 0.154318 3.141593 -0.000003 -3.454622
    12 -6.216227 0.011104 0.009509 0.000000 0.000000 -0.436332
    13 -6.044683 0.123417 0.123833 0.000000 0.000000 6.021298
    14 -2.841769 -0.132410 6.858286 -3.141593 0.345376 -3.141593
    15 -6.216226 0.000000 0.009509 -6.283185 0.436293 -6.283090
    16 -6.044682 0.000000 0.123834 -6.283185 0.261783 -6.283185
    17 -5.316726 1.858320 7.885149 0.000000 -1.570793 -1.720174
    18 -5.320000 1.887550 5.035499 0.000000 0.000000 0.575942
    19 -5.271080 1.859040 5.035499 0.000000 0.000000 -0.766488
    20 -5.269850 1.858320 -7.875906 0.000000 -1.570793 -1.720174
    21 -5.271080 1.887550 -5.026376 0.000000 0.000000 0.575942
    22 -5.271080 1.859040 -5.026376 0.000000 0.000000 -0.767261
    23 6.127056 4.060575 0.000002 3.141593 0.000000 -3.141593
  time 1
    0 0.000616 0.675802 -1.394990 1.570800 0.000000 1.570774
    1 -5.676169 -10.205956 -0.036927 0.000000 0.052337 0.000000
    2 -12.201421 1.904737 0.015999 3.141593 0.000000 -3.141593
    3 -6.284104 10.169356 -10.201057 0.000000 1.570451 0.000000
    4 -6.284104 10.157806 10.244704 0.000000 1.570451 0.000000
    5 -6.284104 -10.225493 10.233214 0.000000 1.570451 0.000000
    6 -6.284114 -10.177173 -10.201057 0.000000 1.570451 0.000000
    7 -1.762286 5.911245 0.000001 -3.141593 0.000003 -3.577925
    8 -2.841770 -0.132410 -7.037760 -3.141593 -0.339600 -3.141593
    9 -6.216227 0.000000 -0.009537 -6.283185 -0.436329 -6.283090
    10 -6.044680 0.000000 -0.123808 -6.283185 -0.261771 -6.283090
    11 -2.841770 -7.400337 0.154318 3.141593 -0.000003 -3.454622
    12 -6.216227 0.011104 0.009509 0.000000 0.000000 -0.436332
    13 -6.044683 0.123417 0.123833 0.000000 0.000000 6.021298
    14 -2.841769 -0.132410 6.858286 -3.141593 0.345376 -3.141593
    15 -6.216226 0.000000 0.009509 -6.283185 0.436293 -6.283090
    16 -6.044682 0.000000 0.123834 -6.283185 0.261783 -6.283185
    17 -5.316726 1.858320 7.885149 0.000000 -1.570793 -1.774277
    18 -5.320000 1.887550 5.035499 0.000000 0.000000 0.575942
    19 -5.271080 1.859040 5.035499 0.000000 0.000000 -0.766488
    20 -5.269850 1.858320 -7.875906 0.000000 -1.570793 -1.774277
    21 -5.271080 1.887550 -5.026376 0.000000 0.000000 0.575942
    22 -5.271080 1.859040 -5.026376 0.000000 0.000000 -0.767261
    23 6.127056 4.060575 0.000002 3.141593 0.000000 -3.141593
  time 2
    0 0.000616 0.675802 -1.394990 1.570800 0.000000 1.570774
    1 -5.676169 -10.205956 -0.036927 0.000000 0.104674 0.000000
    2 -12.201421 1.904737 0.015999 3.141593 0.000000 -3.141593
    3 -6.284104 10.169356 -10.201057 0.000000 1.570451 0.000000
    4 -6.284104 10.157806 10.244704 0.000000 1.570451 0.000000
    5 -6.284104 -10.225493 10.233214 0.000000 1.570451 0.000000
    6 -6.284114 -10.177173 -10.201057 0.000000 1.570451 0.000000
    7 -1.762286 5.911245 0.000001 -3.141593 0.000003 -3.577925
    8 -2.841770 -0.132410 -7.037760 -3.141593 -0.339600 -3.141593
    9 -6.216227 0.000000 -0.009537 -6.283185 -0.436329 -6.283090
    10 -6.044680 0.000000 -0.123808 -6.283185 -0.261771 -6.283090
    11 -2.841770 -7.400337 0.154318 3.141593 -0.000003 -3.454622
    12 -6.216227 0.011104 0.009509 0.000000 0.000000 -0.436332
    13 -6.044683 0.123417 0.123833 0.000000 0.000000 6.021298
    14 -2.841769 -0.132410 6.858286 -3.141593 0.345376 -3.141593
    15 -6.216226 0.000000 0.009509 -6.283185 0.436293 -6.283090
    16 -6.044682 0.000000 0.123834 -6.283185 0.261783 -6.283185
    17 -5.316726 1.858320 7.885149 0.000000 -1.570793 -1.828380
    18 -5.320000 1.887550 5.035499 0.000000 0.000000 0.575942
    19 -5.271080 1.859040 5.035499 0.000000 0.000000 -0.766488
    20 -5.269850 1.858320 -7.875906 0.000000 -1.570793 -1.828380
    21 -5.271080 1.887550 -5.026376 0.000000 0.000000 0.575942
    22 -5.271080 1.859040 -5.026376 0.000000 0.000000 -0.767261
    23 6.127056 4.060575 0.000002 3.141593 0.000000 -3.141593
  time 3
    0 0.000616 0.675802 -1.394990 1.570800 0.000000 1.570774
    1 -5.676169 -10.205956 -0.036927 0.000000 0.157059 0.000000
    2 -12.201421 1.904737 0.015999 3.141593 0.000000 -3.141593
    3 -6.284104 10.169356 -10.201057 0.000000 1.570451 0.000000
    4 -6.284104 10.157806 10.244704 0.000000 1.570451 0.000000
    5 -6.284104 -10.225493 10.233214 0.000000 1.570451 0.000000
    6 -6.284114 -10.177173 -10.201057 0.000000 1.570451 0.000000
    7 -1.762286 5.911245 0.000001 -3.141593 0.000003 -3.577925
    8 -2.841770 -0.132410 -7.037760 -3.141593 -0.339600 -3.141593
    9 -6.216227 0.000000 -0.009537 -6.283185 -0.436329 -6.283090
    10 -6.044680 0.000000 -0.123808 -6.283185 -0.261771 -6.283090
    11 -2.841770 -7.400337 0.154318 3.141593 -0.000003 -3.454622
    12 -6.216227 0.011104 0.009509 0.000000 0.000000 -0.436332
    13 -6.044683 0.123417 0.123833 0.000000 0.000000 6.021298
    14 -2.841769 -0.132410 6.858286 -3.141593 0.345376 -3.141593
    15 -6.216226 0.000000 0.009509 -6.283185 0.436293 -6.283090
    16 -6.044682 0.000000 0.123834 -6.283185 0.261783 -6.283185
    17 -5.316726 1.858320 7.885149 0.000000 -1.570793 -1.882483
    18 -5.320000 1.887550 5.035499 0.000000 0.000000 0.575942
    19 -5.271080 1.859040 5.035499 0.000000 0.000000 -0.766488
    20 -5.269850 1.858320 -7.875906 0.000000 -1.570793 -1.882483
    21 -5.271080 1.887550 -5.026376 0.000000 0.000000 0.575942
    22 -5.271080 1.859040 -5.026376 0.000000 0.000000 -0.767261
    23 6.127056 4.060575 0.000002 3.141593 0.000000 -3.141593
  time 4
    0 0.000616 0.675802 -1.394990 1.570800 0.000000 1.570774
    1 -5.676169 -10.205956 -0.036927 0.000000 0.209397 0.000000
    2 -12.201421 1.904737 0.015999 3.141593 0.000000 -3.141593
    3 -6.284104 10.169356 -10.201057 0.000000 1.570451 0.000000
    4 -6.284104 10.157806 10.244704 0.000000 1.570451 0.000000
    5 -6.284104 -10.225493 10.233214 0.000000 1.570451 0.000000
    6 -6.284114 -10.177173 -10.201057 0.000000 1.570451 0.000000
    7 -1.762286 5.911245 0.000001 -3.141593 0.000003 -3.577925
    8 -2.841770 -0.132410 -7.037760 -3.141593 -0.339600 -3.141593
    9 -6.216227 0.000000 -0.009537 -6.283185 -0.436329 -6.283090
    10 -6.044680 0.000000 -0.123808 -6.283185 -0.261771 -6.283090
    11 -2.841770 -7.400337 0.154318 3.141593 -0.000003 -3.454622
    12 -6.216227 0.011104 0.009509 0.000000 0.000000 -0.436332
    13 -6.044683 0.123417 0.123833 0.000000 0.000000 6.021298
    14 -2.841769 -0.132410 6.858286 -3.141593 0.345376 -3.141593
    15 -6.216226 0.000000 0.009509 -6.283185 0.436293 -6.283090
    16 -6.044682 0.000000 0.123834 -6.283185 0.261783 -6.283185
    17 -5.316726 1.858320 7.885149 0.000000 -1.570793 -1.936586
    18 -5.320000 1.887550 5.035499 0.000000 0.000000 0.575942
    19 -5.271080 1.859040 5.035499 0.000000 0.000000 -0.766488
    20 -5.269850 1.858320 -7.875906 0.000000 -1.570793 -1.936586
    21 -5.271080 1.887550 -5.026376 0.000000 0.000000 0.575942
    22 -5.271080 1.859040 -5.026376 0.000000 0.000000 -0.767261
    23 6.127056 4.060575 0.000002 3.141593 0.000000 -3.141593
  time 5
    0 0.000616 0.675802 -1.394990 1.570800 0.000000 1.570774
    1 -5.676169 -10.205956 -0.036927 0.000000 0.261782 0.000000
    2 -12.201421 1.904737 0.015999 3.141593 0.000000 -3.141593
    3 -6.284104 10.169356 -10.201057 0.000000 1.570451 0.000000
    4 -6.284104 10.157806 10.244704 0.000000 1.570451 0.000000
    5 -6.284104 -10.225493 10.233214 0.000000 1.570451 0.000000
    6 -6.284114 -10.177173 -10.201057 0.000000 1.570451 0.000000
    7 -1.762286 5.911245 0.000001 -3.141593 0.000003 -3.577925
    8 -2.841770 -0.132410 -7.037760 -3.141593 -0.339600 -3.141593
    9 -6.216227 0.000000 -0.009537 -6.283185 -0.436329 -6.283090
    10 -6.044680 0.000000 -0.123808 -6.283185 -0.261771 -6.283090
    11 -2.841770 -7.400337 0.154318 3.141593 -0.000003 -3.454622
    12 -6.216227 0.011104 0.009509 0.000000 0.000000 -0.436332
    13 -6.044683 0.123417 0.123833 0.000000 0.000000 6.021298
    14 -2.841769 -0.132410 6.858286 -3.141593 0.345376 -3.141593
    15 -6.216226 0.000000 0.009509 -6.283185 0.436293 -6.283090
    16 -6.044682 0.000000 0.123834 -6.283185 0.261783 -6.283185
    17 -5.316726 1.858320 7.885149 0.000000 -1.570793 -1.990703
    18 -5.320000 1.887550 5.035499 0.000000 0.000000 0.575942
    19 -5.271080 1.859040 5.035499 0.000000 0.000000 -0.766488
    20 -5.269850 1.858320 -7.875906 0.000000 -1.570793 -1.990703
    21 -5.271080 1.887550 -5.026376 0.000000 0.000000 0.575942
    22 -5.271080 1.859040 -5.026376 0.000000 0.000000 -0.767261
    23 6.127056 4.060575 0.000002 3.141593 0.000000 -3.141593
  time 6
    0 0.000616 0.675802 -1.394990 1.570800 0.000000 1.570774
    1 -5.676169 -10.205956 -0.036927 0.000000 0.314119 0.000000
    2 -12.201421 1.904737 0.015999 3.141593 0.000000 -3.141593
    3 -6.284104 10.169356 -10.201057 0.000000 1.570451 0.000000
    4 -6.284104 10.157806 10.244704 0.000000 1.570451 0.000000
    5 -6.284104 -10.225493 10.233214 0.000000 1.570451 0.000000
    6 -6.284114 -10.177173 -10.201057 0.000000 1.570451 0.000000
    7 -1.762286 5.911245 0.000001 -3.141593 0.000003 -3.577925
    8 -2.841770 -0.132410 -7.037760 -3.141593 -0.339600 -3.141593
    9 -6.216227 0.000000 -0.009537 -6.283185 -0.436329 -6.283090
    10 -6.044680 0.000000 -0.123808 -6.283185 -0.261771 -6.283090
    11 -2.841770 -7.400337 0.154318 3.141593 -0.000003 -3.454622
    12 -6.216227 0.011104 0.009509 0.000000 0.000000 -0.436332
    13 -6.044683 0.123417 0.123833 0.000000 0.000000 6.021298
    14 -2.841769 -0.132410 6.858286 -3.141593 0.345376 -3.141593
    15 -6.216226 0.000000 0.009509 -6.283185 0.436293 -6.283090
    16 -6.044682 0.000000 0.123834 -6.283185 0.261783 -6.283185
    17 -5.316726 1.858320 7.885149 0.000000 -1.570793 -1.922623
    18 -5.320000 1.887550 5.035499 0.000000 0.000000 0.575942
    19 -5.271080 1.859040 5.035499 0.000000 0.000000 -0.766488
    20 -5.269850 1.858320 -7.875906 0.000000 -1.570793 -1.922623
    21 -5.271080 1.887550 -5.026376 0.000000 0.000000 0.575942
    22 -5.271080 1.859040 -5.026376 0.000000 0.000000 -0.767261
    23 6.127056 4.060575 0.000002 3.141593 0.000000 -3.141593
  time 7
    0 0.000616 0.675802 -1.394990 1.570800 0.000000 1.570774
    1 -5.676169 -10.205956 -0.036927 0.000000 0.366504 0.000000
    2 -12.201421 1.904737 0.015999 3.141593 0.000000 -3.141593
    3 -6.284104 10.169356 -10.201057 0.000000 1.570451 0.000000
    4 -6.284104 10.157806 10.244704 0.000000 1.570451 0.000000
    5 -6.284104 -10.225493 10.233214 0.000000 1.570451 0.000000
    6 -6.284114 -10.177173 -10.201057 0.000000 1.570451 0.000000
    7 -1.762286 5.911245 0.000001 -3.141593 0.000003 -3.577925
    8 -2.841770 -0.132410 -7.037760 -3.141593 -0.339600 -3.141593
    9 -6.216227 0.000000 -0.009537 -6.283185 -0.436329 -6.283090
    10 -6.044680 0.000000 -0.123808 -6.283185 -0.261771 -6.283090
    11 -2.841770 -7.400337 0.154318 3.141593 -0.000003 -3.454622
    12 -6.216227 0.011104 0.009509 0.000000 0.000000 -0.436332
    13 -6.044683 0.123417 0.123833 0.000000 0.000000 6.021298
    14 -2.841769 -0.132410 6.858286 -3.141593 0.345376 -3.141593
    15 -6.216226 0.000000 0.009509 -6.283185 0.436293 -6.283090
    16 -6.044682 0.000000 0.123834 -6.283185 0.261783 -6.283185
    17 -5.316726 1.858320 7.885149 0.000000 -1.570793 -1.854557
    18 -5.320000 1.887550 5.035499 0.000000 0.000000 0.575942
    19 -5.271080 1.859040 5.035499 0.000000 0.000000 -0.766488
    20 -5.269850 1.858320 -7.875906 0.000000 -1.570793 -1.854557
    21 -5.271080 1.887550 -5.026376 0.000000 0.000000 0.575942
    22 -5.271080 1.859040 -5.026376 0.000000 0.000000 -0.767261
    23 6.127056 4.060575 0.000002 3.141593 0.000000 -3.141593
  time 8
    0 0.000616 0.675802 -1.394990 1.570800 0.000000 1.570774
    1 -5.676169 -10.205956 -0.036927 0.000000 0.418841 0.000000
    2 -12.201421 1.904737 0.015999 3.141593 0.000000 -3.141593
    3 -6.284104 10.169356 -10.201057 0.000000 1.570451 0.000000
    4 -6.284104 10.157806 10.244704 0.000000 1.570451 0.000000
    5 -6.284104 -10.225493 10.233214 0.000000 1.570451 0.000000
    6 -6.284114 -10.177173 -10.201057 0.000000 1.570451 0.000000
    7 -1.762286 5.911245 0.000001 -3.141593 0.000003 -3.577925
    8 -2.841770 -0.132410 -7.037760 -3.141593 -0.339600 -3.141593
    9 -6.216227 0.000000 -0.009537 -6.283185 -0.436329 -6.283090
    10 -6.044680 0.000000 -0.123808 -6.283185 -0.261771 -6.283090
    11 -2.841770 -7.400337 0.154318 3.141593 -0.000003 -3.454622
    12 -6.216227 0.011104 0.009509 0.000000 0.000000 -0.436332
    13 -6.044683 0.123417 0.123833 0.000000 0.000000 6.021298
    14 -2.841769 -0.132410 6.858286 -3.141593 0.345376 -3.141593
    15 -6.216226 0.000000 0.009509 -6.283185 0.436293 -6.283090
    16 -6.044682 0.000000 0.123834 -6.283185 0.261783 -6.283185
    17 -5.316726 1.858320 7.885149 0.000000 -1.570793 -1.786491
    18 -5.320000 1.887550 5.035499 0.000000 0.000000 0.575942
    19 -5.271080 1.859040 5.035499 0.000000 0.000000 -0.766488
    20 -5.269850 1.858320 -7.875906 0.000000 -1.570793 -1.786491
    21 -5.271080 1.887550 -5.026376 0.000000 0.000000 0.575942
    22 -5.271080 1.859040 -5.026376 0.000000 0.000000 -0.767261
    23 6.127056 4.060575 0.000002 3.141593 0.000000 -3.141593
  time 9
    0 0.000616 0.675802 -1.394990 1.570800 0.000000 1.570774
    1 -5.676169 -10.205956 -0.036927 0.000000 0.471226 0.000000
    2 -12.201421 1.904737 0.015999 3.141593 0.000000 -3.141593
    3 -6.284104 10.169356 -10.201057 0.000000 1.570451 0.000000
    4 -6.284104 10.157806 10.244704 0.000000 1.570451 0.000000
    5 -6.284104 -10.225493 10.233214 0.000000 1.570451 0.000000
    6 -6.284114 -10.177173 -10.201057 0.000000 1.570451 0.000000
    7 -1.762286 5.911245 0.000001 -3.141593 0.000003 -3.577925
    8 -2.841770 -0.132410 -7.037760 -3.141593 -0.339600 -3.141593
    9 -6.216227 0.000000 -0.009537 -6.283185 -0.436329 -6.283090
    10 -6.044680 0.000000 -0.123808 -6.283185 -0.261771 -6.283090
    11 -2.841770 -7.400337 0.154318 3.141593 -0.000003 -3.454622
    12 -6.216227 0.011104 0.009509 0.000000 0.000000 -0.436332
    13 -6.044683 0.123417 0.123833 0.000000 0.000000 6.021298
    14 -2.841769 -0.132410 6.858286 -3.141593 0.345376 -3.141593
    15 -6.216226 0.000000 0.009509 -6.283185 0.436293 -6.283090
    16 -6.044682 0.000000 0.123834 -6.283185 0.261783 -6.283185
    17 -5.316726 1.858320 7.885149 0.000000 -1.570793 -1.718425
    18 -5.320000 1.887550 5.035499 0.000000 0.000000 0.575942
    19 -5.271080 1.859040 5.035499 0.000000 0.000000 -0.766488
    20 -5.269850 1.858320 -7.875906 0.000000 -1.570793 -1.718425
    21 -5.271080 1.887550 -5.026376 0.000000 0.000000 0.575942
    22 -5.271080 1.859040 -5.026376 0.000000 0.000000 -0.767261
    23 6.127056 4.060575 0.000002 3.141593 0.000000 -3.141593
  time 10
    0 0.000616 0.675802 -1.394990 1.570800 0.000000 1.570774
    1 -5.676169 -10.205956 -0.036927 0.000000 0.523564 0.000000
    2 -12.201421 1.904737 0.015999 3.141593 0.000000 -3.141593
    3 -6.284104 10.169356 -10.201057 0.000000 1.570451 0.000000
    4 -6.284104 10.157806 10.244704 0.000000 1.570451 0.000000
    5 -6.284104 -10.225493 10.233214 0.000000 1.570451 0.000000
    6 -6.284114 -10.177173 -10.201057 0.000000 1.570451 0.000000
    7 -1.762286 5.911245 0.000001 -3.141593 0.000003 -3.577925
    8 -2.841770 -0.132410 -7.037760 -3.141593 -0.339600 -3.141593
    9 -6.216227 0.000000 -0.009537 -6.283185 -0.436329 -6.283090
    10 -6.044680 0.000000 -0.123808 -6.283185 -0.261771 -6.283090
    11 -2.841770 -7.400337 0.154318 3.141593 -0.000003 -3.454622
    12 -6.216227 0.011104 0.009509 0.000000 0.000000 -0.436332
    13 -6.044683 0.123417 0.123833 0.000000 0.000000 6.021298
    14 -2.841769 -0.132410 6.858286 -3.141593 0.345376 -3.141593
    15 -6.216226 0.000000 0.009509 -6.283185 0.436293 -6.283090
    16 -6.044682 0.000000 0.123834 -6.283185 0.261783 -6.283185
    17 -5.316726 1.858320 7.885149 0.000000 -1.570793 -1.650359
    18 -5.320000 1.887550 5.035499 0.000000 0.000000 0.575942
    19 -5.271080 1.859040 5.035499 0.000000 0.000000 -0.766488
    20 -5.269850 1.858320 -7.875906 0.000000 -1.570793 -1.650359
    21 -5.271080 1.887550 -5.026376 0.000000 0.000000 0.575942
    22 -5.271080 1.859040 -5.026376 0.000000 0.000000 -0.767261
    23 6.127056 4.060575 0.000002 3.141593 0.000000 -3.141593
  time 11
    0 0.000616 0.675802 -1.394990 1.570800 0.000000 1.570774
    1 -5.676169 -10.205956 -0.036927 0.000000 0.575949 0.000000
    2 -12.201421 1.904737 0.015999 3.141593 0.000000 -3.141593
    3 -6.284104 10.169356 -10.201057 0.000000 1.570451 0.000000
    4 -6.284104 10.157806 10.244704 0.000000 1.570451 0.000000
    5 -6.284104 -10.225493 10.233214 0.000000 1.570451 0.000000
    6 -6.284114 -10.177173 -10.201057 0.000000 1.570451 0.000000
    7 -1.762286 5.911245 0.000001 -3.141593 0.000003 -3.577925
    8 -2.841770 -0.132410 -7.037760 -3.141593 -0.339600 -3.141593
    9 -6.216227 0.000000 -0.009537 -6.283185 -0.436329 -6.283090
    10 -6.044680 0.000000 -0.123808 -6.283185 -0.261771 -6.283090
    11 -2.841770 -7.400337 0.154318 3.141593 -0.000003 -3.454622
    12 -6.216227 0.011104 0.009509 0.000000 0.000000 -0.436332
    13 -6.044683 0.123417 0.123833 0.000000 0.000000 6.021298
    14 -2.841769 -0.132410 6.858286 -3.141593 0.345376 -3.141593
    15 -6.216226 0.000000 0.009509 -6.283185 0.436293 -6.283090
    16 -6.044682 0.000000 0.123834 -6.283185 0.261783 -6.283185
    17 -5.316726 1.858320 7.885149 0.000000 -1.570793 -1.744172
    18 -5.320000 1.887550 5.035499 0.000000 0.000000 0.575942
    19 -5.271080 1.859040 5.035499 0.000000 0.000000 -0.766488
    20 -5.269850 1.858320 -7.875906 0.000000 -1.570793 -1.744172
    21 -5.271080 1.887550 -5.026376 0.000000 0.000000 0.575942
    22 -5.271080 1.859040 -5.026376 0.000000 0.000000 -0.767261
    23 6.127056 4.060575 0.000002 3.141593 0.000000 -3.141593
  time 12
    0 0.000616 0.675802 -1.394990 1.570800 0.000000 1.570774
    1 -5.676169 -10.205956 -0.036927 0.000000 0.628286 0.000000
    2 -12.201421 1.904737 0.015999 3.141593 0.000000 -3.141593
    3 -6.284104 10.169356 -10.201057 0.000000 1.570451 0.000000
    4 -6.284104 10.157806 10.244704 0.000000 1.570451 0.000000
    5 -6.284104 -10.225493 10.233214 0.000000 1.570451 0.000000
    6 -6.284114 -10.177173 -10.201057 0.000000 1.570451 0.000000
    7 -1.762286 5.911245 0.000001 -3.141593 0.000003 -3.577925
    8 -2.841770 -0.132410 -7.037760 -3.141593 -0.339600 -3.141593
    9 -6.216227 0.000000 -0.009537 -6.283185 -0.436329 -6.283090
    10 -6.044680 0.000000 -0.123808 -6.283185 -0.261771 -6.283090
    11 -2.841770 -7.400337 0.154318 3.141593 -0.000003 -3.454622
    12 -6.216227 0.011104 0.009509 0.000000 0.000000 -0.436332
    13 -6.044683 0.123417 0.123833 0.000000 0.000000 6.021298
    14 -2.841769 -0.132410 6.858286 -3.141593 0.345376 -3.141593
    15 -6.216226 0.000000 0.009509 -6.283185 0.436293 -6.283090
    16 -6.044682 0.000000 0.123834 -6.283185 0.261783 -6.283185
    17 -5.316726 1.858320 7.885149 0.000000 -1.570793 -1.837985
    18 -5.320000 1.887550 5.035499 0.000000 0.000000 0.575942
    19 -5.271080 1.859040 5.035499 0.000000 0.000000 -0.766488
    20 -5.269850 1.858320 -7.875906 0.000000 -1.570793 -1.837985
    21 -5.271080 1.887550 -5.026376 0.000000 0.000000 0.575942
    22 -5.271080 1.859040 -5.026376 0.000000 0.000000 -0.767261
    23 6.127056 4.060575 0.000002 3.141593 0.000000 -3.141593
  time 13
    0 0.000616 0.675802 -1.394990 1.570800 0.000000 1.570774
    1 -5.676169 -10.205956 -0.036927 0.000000 0.680671 0.000000
    2 -12.201421 1.904737 0.015999 3.141593 0.000000 -3.141593
    3 -6.284104 10.169356 -10.201057 0.000000 1.570451 0.000000
    4 -6.284104 10.157806 10.244704 0.000000 1.570451 0.000000
    5 -6.284104 -10.225493 10.233214 0.000000 1.570451 0.000000
    6 -6.284114 -10.177173 -10.201057 0.000000 1.570451 0.000000
    7 -1.762286 5.911245 0.000001 -3.141593 0.000003 -3.577925
    8 -2.841770 -0.132410 -7.037760 -3.141593 -0.339600 -3.141593
    9 -6.216227 0.000000 -0.009537 -6.283185 -0.436329 -6.283090
    10 -6.044680 0.000000 -0.123808 -6.283185 -0.261771 -6.283090
    11 -2.841770 -7.400337 0.154318 3.141593 -0.000003 -3.454622
    12 -6.216227 0.011104 0.009509 0.000000 0.000000 -0.436332
    13 -6.044683 0.123417 0.123833 0.000000 0.000000 6.021298
    14 -2.841769 -0.132410 6.858286 -3.141593 0.345376 -3.141593
    15 -6.216226 0.000000 0.009509 -6.283185 0.436293 -6.283090
    16 -6.044682 0.000000 0.123834 -6.283185 0.261783 -6.283185
    17 -5.316726 1.858320 7.885149 0.000000 -1.570793 -1.931798
    18 -5.320000 1.887550 5.035499 0.000000 0.000000 0.575942
    19 -5.271080 1.859040 5.035499 0.000000 0.000000 -0.766488
    20 -5.269850 1.858320 -7.875906 0.000000 -1.570793 -1.931798
    21 -5.271080 1.887550 -5.026376 0.000000 0.000000 0.575942
    22 -5.271080 1.859040 -5.026376 0.000000 0.000000 -0.767261
    23 6.127056 4.060575 0.000002 3.141593 0.000000 -3.141593
  time 14
    0 0.000616 0.675802 -1.394990 1.570800 0.000000 1.570774
    1 -5.676169 -10.205956 -0.036927 0.000000 0.733008 0.000000
    2 -12.201421 1.904737 0.015999 3.141593 0.000000 -3.141593
    3 -6.284104 10.169356 -10.201057 0.000000 1.570451 0.000000
    4 -6.284104 10.157806 10.244704 0.000000 1.570451 0.000000
    5 -6.284104 -10.225493 10.233214 0.000000 1.570451 0.000000
    6 -6.284114 -10.177173 -10.201057 0.000000 1.570451 0.000000
    7 -1.762286 5.911245 0.000001 -3.141593 0.000003 -3.577925
    8 -2.841770 -0.132410 -7.037760 -3.141593 -0.339600 -3.141593
    9 -6.216227 0.000000 -0.009537 -6.283185 -0.436329 -6.283090
    10 -6.044680 0.000000 -0.123808 -6.283185 -0.261771 -6.283090
    11 -2.841770 -7.400337 0.154318 3.141593 -0.000003 -3.454622
    12 -6.216227 0.011104 0.009509 0.000000 0.000000 -0.436332
    13 -6.044683 0.123417 0.123833 0.000000 0.000000 6.021298
    14 -2.841769 -0.132410 6.858286 -3.141593 0.345376 -3.141593
    15 -6.216226 0.000000 0.009509 -6.283185 0.436293 -6.283090
    16 -6.044682 0.000000 0.123834 -6.283185 0.261783 -6.283185
    17 -5.316726 1.858320 7.885149 0.000000 -1.570793 -2.025611
    18 -5.320000 1.887550 5.035499 0.000000 0.000000 0.575942
    19 -5.271080 1.859040 5.035499 0.000000 0.000000 -0.766488
    20 -5.269850 1.858320 -7.875906 0.000000 -1.570793 -2.025611
    21 -5.271080 1.887550 -5.026376 0.000000 0.000000 0.575942
    22 -5.271080 1.859040 -5.026376 0.000000 0.000000 -0.767261
    23 6.127056 4.060575 0.000002 3.141593 0.000000 -3.141593
  time 15
    0 0.000616 0.675802 -1.394990 1.570800 0.000000 1.570774
    1 -5.676169 -10.205956 -0.036927 0.000000 0.785393 0.000000
    2 -12.201421 1.904737 0.015999 3.141593 0.000000 -3.141593
    3 -6.284104 10.169356 -10.201057 0.000000 1.570451 0.000000
    4 -6.284104 10.157806 10.244704 0.000000 1.570451 0.000000
    5 -6.284104 -10.225493 10.233214 0.000000 1.570451 0.000000
    6 -6.284114 -10.177173 -10.201057 0.000000 1.570451 0.000000
    7 -1.762286 5.911245 0.000001 -3.141593 0.000003 -3.577925
    8 -2.841770 -0.132410 -7.037760 -3.141593 -0.339600 -3.141593
    9 -6.216227 0.000000 -0.009537 -6.283185 -0.436329 -6.283090
    10 -6.044680 0.000000 -0.123808 -6.283185 -0.261771 -6.283090
    11 -2.841770 -7.400337 0.154318 3.141593 -0.000003 -3.454622
    12 -6.216227 0.011104 0.009509 0.000000 0.000000 -0.436332
    13 -6.044683 0.123417 0.123833 0.000000 0.000000 6.021298
    14 -2.841769 -0.132410 6.858286 -3.141593 0.345376 -3.141593
    15 -6.216226 0.000000 0.009509 -6.283185 0.436293 -6.283090
    16 -6.044682 0.000000 0.123834 -6.283185 0.261783 -6.283185
    17 -5.316726 1.858320 7.885149 0.000000 -1.570793 -1.927426
    18 -5.320000 1.887550 5.035499 0.000000 0.000000 0.575942
    19 -5.271080 1.859040 5.035499 0.000000 0.000000 -0.766488
    20 -5.269850 1.858320 -7.875906 0.000000 -1.570793 -1.927426
    21 -5.271080 1.887550 -5.026376 0.000000 0.000000 0.575942
    22 -5.271080 1.859040 -5.026376 0.000000 0.000000 -0.767261
    23 6.127056 4.060575 0.000002 3.141593 0.000000 -3.141593
  time 16
    0 0.000616 0.675802 -1.394990 1.570800 0.000000 1.570774
    1 -5.676169 -10.205956 -0.036927 0.000000 0.837730 0.000000
    2 -12.201421 1.904737 0.015999 3.141593 0.000000 -3.141593
    3 -6.284104 10.169356 -10.201057 0.000000 1.570451 0.000000
    4 -6.284104 10.157806 10.244704 0.000000 1.570451 0.000000
    5 -6.284104 -10.225493 10.233214 0.000000 1.570451 0.000000
    6 -6.284114 -10.177173 -10.201057 0.000000 1.570451 0.000000
    7 -1.762286 5.911245 0.000001 -3.141593 0.000003 -3.577925
    8 -2.841770 -0.132410 -7.037760 -3.141593 -0.339600 -3.141593
    9 -6.216227 0.000000 -0.009537 -6.283185 -0.436329 -6.283090
    10 -6.044680 0.000000 -0.123808 -6.283185 -0.261771 -6.283090
    11 -2.841770 -7.400337 0.154318 3.141593 -0.000003 -3.454622
    12 -6.216227 0.011104 0.009509 0.000000 0.000000 -0.436332
    13 -6.044683 0.123417 0.123833 0.000000 0.000000 6.021298
    14 -2.841769 -0.132410 6.858286 -3.141593 0.345376 -3.141593
    15 -6.216226 0.000000 0.009509 -6.283185 0.436293 -6.283090
    16 -6.044682 0.000000 0.123834 -6.283185 0.261783 -6.283185
    17 -5.316726 1.858320 7.885149 0.000000 -1.570793 -1.829254
    18 -5.320000 1.887550 5.035499 0.000000 0.000000 0.575942
    19 -5.271080 1.859040 5.035499 0.000000 0.000000 -0.766488
    20 -5.269850 1.858320 -7.875906 0.000000 -1.570793 -1.829254
    21 -5.271080 1.887550 -5.026376 0.000000 0.000000 0.575942
    22 -5.271080 1.859040 -5.026376 0.000000 0.000000 -0.767261
    23 6.127056 4.060575 0.000002 3.141593 0.000000 -3.141593
  time 17
    0 0.000616 0.675802 -1.394990 1.570800 0.000000 1.570774
    1 -5.676169 -10.205956 -0.036927 0.000000 0.890116 0.000000
    2 -12.201421 1.904737 0.015999 3.141593 0.000000 -3.141593
    3 -6.284104 10.169356 -10.201057 0.000000 1.570451 0.000000
    4 -6.284104 10.157806 10.244704 0.000000 1.570451 0.000000
    5 -6.284104 -10.225493 10.233214 0.000000 1.570451 0.000000
    6 -6.284114 -10.177173 -10.201057 0.000000 1.570451 0.000000
    7 -1.762286 5.911245 0.000001 -3.141593 0.000003 -3.577925
    8 -2.841770 -0.132410 -7.037760 -3.141593 -0.339600 -3.141593
    9 -6.216227 0.000000 -0.009537 -6.283185 -0.436329 -6.283090
    10 -6.044680 0.000000 -0.123808 -6.283185 -0.261771 -6.283090
    11 -2.841770 -7.400337 0.154318 3.141593 -0.000003 -3.454622
    12 -6.216227 0.011104 0.009509 0.000000 0.000000 -0.436332
    13 -6.044683 0.123417 0.123833 0.000000 0.000000 6.021298
    14 -2.841769 -0.132410 6.858286 -3.141593 0.345376 -3.141593
    15 -6.216226 0.000000 0.009509 -6.283185 0.436293 -6.283090
    16 -6.044682 0.000000 0.123834 -6.283185 0.261783 -6.283185
    17 -5.316726 1.858320 7.885149 0.000000 -1.570793 -1.731083
    18 -5.320000 1.887550 5.035499 0.000000 0.000000 0.575942
    19 -5.271080 1.859040 5.035499 0.000000 0.000000 -0.766488
    20 -5.269850 1.858320 -7.875906 0.000000 -1.570793 -1.731083
    21 -5.271080 1.887550 -5.026376 0.000000 0.000000 0.575942
    22 -5.271080 1.859040 -5.026376 0.000000 0.000000 -0.767261
    23 6.127056 4.060575 0.000002 3.141593 0.000000 -3.141593
  time 18
    0 0.000616 0.675802 -1.394990 1.570800 0.000000 1.570774
    1 -5.676169 -10.205956 -0.036927 0.000000 0.942453 0.000000
    2 -12.201421 1.904737 0.015999 3.141593 0.000000 -3.141593
    3 -6.284104 10.169356 -10.201057 0.000000 1.570451 0.000000
    4 -6.284104 10.157806 10.244704 0.000000 1.570451 0.000000
    5 -6.284104 -10.225493 10.233214 0.000000 1.570451 0.000000
    6 -6.284114 -10.177173 -10.201057 0.000000 1.570451 0.000000
    7 -1.762286 5.911245 0.000001 -3.141593 0.000003 -3.577925
    8 -2.841770 -0.132410 -7.037760 -3.141593 -0.339600 -3.141593
    9 -6.216227 0.000000 -0.009537 -6.283185 -0.436329 -6.283090
    10 -6.044680 0.000000 -0.123808 -6.283185 -0.261771 -6.283090
    11 -2.841770 -7.400337 0.154318 3.141593 -0.000003 -3.454622
    12 -6.216227 0.011104 0.009509 0.000000 0.000000 -0.436332
    13 -6.044683 0.123417 0.123833 0.000000 0.000000 6.021298
    14 -2.841769 -0.132410 6.858286 -3.141593 0.345376 -3.141593
    15 -6.216226 0.000000 0.009509 -6.283185 0.436293 -6.283090
    16 -6.044682 0.000000 0.123834 -6.283185 0.261783 -6.283185
    17 -5.316726 1.858320 7.885149 0.000000 -1.570793 -1.632912
    18 -5.320000 1.887550 5.035499 0.000000 0.000000 0.575942
    19 -5.271080 1.859040 5.035499 0.000000 0.000000 -0.766488
    20 -5.269850 1.858320 -7.875906 0.000000 -1.570793 -1.632912
    21 -5.271080 1.887550 -5.026376 0.000000 0.000000 0.575942
    22 -5.271080 1.859040 -5.026376 0.000000 0.000000 -0.767261
    23 6.127056 4.060575 0.000002 3.141593 0.000000 -3.141593
  time 19
    0 0.000616 0.675802 -1.394990 1.570800 0.000000 1.570774
    1 -5.676169 -10.205956 -0.036927 0.000000 0.994838 0.000000
    2 -12.201421 1.904737 0.015999 3.141593 0.000000 -3.141593
    3 -6.284104 10.169356 -10.201057 0.000000 1.570451 0.000000
    4 -6.284104 10.157806 10.244704 0.000000 1.570451 0.000000
    5 -6.284104 -10.225493 10.233214 0.000000 1.570451 0.000000
    6 -6.284114 -10.177173 -10.201057 0.000000 1.570451 0.000000
    7 -1.762286 5.911245 0.000001 -3.141593 0.000003 -3.577925
    8 -2.841770 -0.132410 -7.037760 -3.141593 -0.339600 -3.141593
    9 -6.216227 0.000000 -0.009537 -6.283185 -0.436329 -6.283090
    10 -6.044680 0.000000 -0.123808 -6.283185 -0.261771 -6.283090
    11 -2.841770 -7.400337 0.154318 3.141593 -0.000003 -3.454622
    12 -6.216227 0.011104 0.009509 0.000000 0.000000 -0.436332
    13 -6.044683 0.123417 0.123833 0.000000 0.000000 6.021298
    14 -2.841769 -0.132410 6.858286 -3.141593 0.345376 -3.141593
    15 -6.216226 0.000000 0.009509 -6.283185 0.436293 -6.283090
    16 -6.044682 0.000000 0.123834 -6.283185 0.261783 -6.283185
    17 -5.316726 1.858320 7.885149 0.000000 -1.570793 -1.647819
    18 -5.320000 1.887550 5.035499 0.000000 0.000000 0.575942
    19 -5.271080 1.859040 5.035499 0.000000 0.000000 -0.766488
    20 -5.269850 1.858320 -7.875906 0.000000 -1.570793 -1.647819
    21 -5.271080 1.887550 -5.026376 0.000000 0.000000 0.575942
    22 -5.271080 1.859040 -5.026376 0.000000 0.000000 -0.767261
    23 6.127056 4.060575 0.000002 3.141593 0.000000 -3.141593
  time 20
    0 0.000616 0.675802 -1.394990 1.570800 0.000000 1.570774
    1 -5.676169 -10.205956 -0.036927 0.000000 1.047175 0.000000
    2 -12.201421 1.904737 0.015999 3.141593 0.000000 -3.141593
    3 -6.284104 10.169356 -10.201057 0.000000 1.570451 0.000000
    4 -6.284104 10.157806 10.244704 0.000000 1.570451 0.000000
    5 -6.284104 -10.225493 10.233214 0.000000 1.570451 0.000000
    6 -6.284114 -10.177173 -10.201057 0.000000 1.570451 0.000000
    7 -1.762286 5.911245 0.000001 -3.141593 0.000003 -3.577925
    8 -2.841770 -0.132410 -7.037760 -3.141593 -0.339600 -3.141593
    9 -6.216227 0.000000 -0.009537 -6.283185 -0.436329 -6.283090
    10 -6.044680 0.000000 -0.123808 -6.283185 -0.261771 -6.283090
    11 -2.841770 -7.400337 0.154318 3.141593 -0.000003 -3.454622
    12 -6.216227 0.011104 0.009509 0.000000 0.000000 -0.436332
    13 -6.044683 0.123417 0.123833 0.000000 0.000000 6.021298
    14 -2.841769 -0.132410 6.858286 -3.141593 0.345376 -3.141593
    15 -6.216226 0.000000 0.009509 -6.283185 0.436293 -6.283090
    16 -6.044682 0.000000 0.123834 -6.283185 0.261783 -6.283185
    17 -5.316726 1.858320 7.885149 0.000000 -1.570793 -1.662725
    18 -5.320000 1.887550 5.035499 0.000000 0.000000 0.575942
    19 -5.271080 1.859040 5.035499 0.000000 0.000000 -0.766488
    20 -5.269850 1.858320 -7.875906 0.000000 -1.570793 -1.662725
    21 -5.271080 1.887550 -5.026376 0.000000 0.000000 0.575942
    22 -5.271080 1.859040 -5.026376 0.000000 0.000000 -0.767261
    23 6.127056 4.060575 0.000002 3.141593 0.000000 -3.141593
  time 21
    0 0.000616 0.675802 -1.394990 1.570800 0.000000 1.570774
    1 -5.676169 -10.205956 -0.036927 0.000000 1.099512 0.000000
    2 -12.201421 1.904737 0.015999 3.141593 0.000000 -3.141593
    3 -6.284104 10.169356 -10.201057 0.000000 1.570451 0.000000
    4 -6.284104 10.157806 10.244704 0.000000 1.570451 0.000000
    5 -6.284104 -10.225493 10.233214 0.000000 1.570451 0.000000
    6 -6.284114 -10.177173 -10.201057 0.000000 1.570451 0.000000
    7 -1.762286 5.911245 0.000001 -3.141593 0.000003 -3.577925
    8 -2.841770 -0.132410 -7.037760 -3.141593 -0.339600 -3.141593
    9 -6.216227 0.000000 -0.009537 -6.283185 -0.436329 -6.283090
    10 -6.044680 0.000000 -0.123808 -6.283185 -0.261771 -6.283090
    11 -2.841770 -7.400337 0.154318 3.141593 -0.000003 -3.454622
    12 -6.216227 0.011104 0.009509 0.000000 0.000000 -0.436332
    13 -6.044683 0.123417 0.123833 0.000000 0.000000 6.021298
    14 -2.841769 -0.132410 6.858286 -3.141593 0.345376 -3.141593
    15 -6.216226 0.000000 0.009509 -6.283185 0.436293 -6.283090
    16 -6.044682 0.000000 0.123834 -6.283185 0.261783 -6.283185
    17 -5.316726 1.858320 7.885149 0.000000 -1.570793 -1.677632
    18 -5.320000 1.887550 5.035499 0.000000 0.000000 0.575942
    19 -5.271080 1.859040 5.035499 0.000000 0.000000 -0.766488
    20 -5.269850 1.858320 -7.875906 0.000000 -1.570793 -1.677632
    21 -5.271080 1.887550 -5.026376 0.000000 0.000000 0.575942
    22 -5.271080 1.859040 -5.026376 0.000000 0.000000 -0.767261
    23 6.127056 4.060575 0.000002 3.141593 0.000000 -3.141593
  time 22
    0 0.000616 0.675802 -1.394990 1.570800 0.000000 1.570774
    1 -5.676169 -10.205956 -0.036927 0.000000 1.151897 0.000000
    2 -12.201421 1.904737 0.015999 3.141593 0.000000 -3.141593
    3 -6.284104 10.169356 -10.201057 0.000000 1.570451 0.000000
    4 -6.284104 10.157806 10.244704 0.000000 1.570451 0.000000
    5 -6.284104 -10.225493 10.233214 0.000000 1.570451 0.000000
    6 -6.284114 -10.177173 -10.201057 0.000000 1.570451 0.000000
    7 -1.762286 5.911245 0.000001 -3.141593 0.000003 -3.577925
    8 -2.841770 -0.132410 -7.037760 -3.141593 -0.339600 -3.141593
    9 -6.216227 0.000000 -0.009537 -6.283185 -0.436329 -6.283090
    10 -6.044680 0.000000 -0.123808 -6.283185 -0.261771 -6.283090
    11 -2.841770 -7.400337 0.154318 3.141593 -0.000003 -3.454622
    12 -6.216227 0.011104 0.009509 0.000000 0.000000 -0.436332
    13 -6.044683 0.123417 0.123833 0.000000 0.000000 6.021298
    14 -2.841769 -0.132410 6.858286 -3.141593 0.345376 -3.141593
    15 -6.216226 0.000000 0.009509 -6.283185 0.436293 -6.283090
    16 -6.044682 0.000000 0.123834 -6.283185 0.261783 -6.283185
    17 -5.316726 1.858320 7.885149 0.000000 -1.570793 -1.692539
    18 -5.320000 1.887550 5.035499 0.000000 0.000000 0.575942
    19 -5.271080 1.859040 5.035499 0.000000 0.000000 -0.766488
    20 -5.269850 1.858320 -7.875906 0.000000 -1.570793 -1.692539
    21 -5.271080 1.887550 -5.026376 0.000000 0.000000 0.575942
    22 -5.271080 1.859040 -5.026376 0.000000 0.000000 -0.767261
    23 6.127056 4.060575 0.000002 3.141593 0.000000 -3.141593
  time 23
    0 0.000616 0.675802 -1.394990 1.570800 0.000000 1.570774
    1 -5.676169 -10.205956 -0.036927 0.000000 1.204235 0.000000
    2 -12.201421 1.904737 0.015999 3.141593 0.000000 -3.141593
    3 -6.284104 10.169356 -10.201057 0.000000 1.570451 0.000000
    4 -6.284104 10.157806 10.244704 0.000000 1.570451 0.000000
    5 -6.284104 -10.225493 10.233214 0.000000 1.570451 0.000000
    6 -6.284114 -10.177173 -10.201057 0.000000 1.570451 0.000000
    7 -1.762286 5.911245 0.000001 -3.141593 0.000003 -3.577925
    8 -2.841770 -0.132410 -7.037760 -3.141593 -0.339600 -3.141593
    9 -6.216227 0.000000 -0.009537 -6.283185 -0.436329 -6.283090
    10 -6.044680 0.000000 -0.123808 -6.283185 -0.261771 -6.283090
    11 -2.841770 -7.400337 0.154318 3.141593 -0.000003 -3.454622
    12 -6.216227 0.011104 0.009509 0.000000 0.000000 -0.436332
    13 -6.044683 0.123417 0.123833 0.000000 0.000000 6.021298
    14 -2.841769 -0.132410 6.858286 -3.141593 0.345376 -3.141593
    15 -6.216226 0.000000 0.009509 -6.283185 0.436293 -6.283090
    16 -6.044682 0.000000 0.123834 -6.283185 0.261783 -6.283185
    17 -5.316726 1.858320 7.885149 0.000000 -1.570793 -1.707446
    18 -5.320000 1.887550 5.035499 0.000000 0.000000 0.575942
    19 -5.271080 1.859040 5.035499 0.000000 0.000000 -0.766488
    20 -5.269850 1.858320 -7.875906 0.000000 -1.570793 -1.707446
    21 -5.271080 1.887550 -5.026376 0.000000 0.000000 0.575942
    22 -5.271080 1.859040 -5.026376 0.000000 0.000000 -0.767261
    23 6.127056 4.060575 0.000002 3.141593 0.000000 -3.141593
  time 24
    0 0.000616 0.675802 -1.394990 1.570800 0.000000 1.570774
    1 -5.676169 -10.205956 -0.036927 0.000000 1.256620 0.000000
    2 -12.201421 1.904737 0.015999 3.141593 0.000000 -3.141593
    3 -6.284104 10.169356 -10.201057 0.000000 1.570451 0.000000
    4 -6.284104 10.157806 10.244704 0.000000 1.570451 0.000000
    5 -6.284104 -10.225493 10.233214 0.000000 1.570451 0.000000
    6 -6.284114 -10.177173 -10.201057 0.000000 1.570451 0.000000
    7 -1.762286 5.911245 0.000001 -3.141593 0.000003 -3.577925
    8 -2.841770 -0.132410 -7.037760 -3.141593 -0.339600 -3.141593
    9 -6.216227 0.000000 -0.009537 -6.283185 -0.436329 -6.283090
    10 -6.044680 0.000000 -0.123808 -6.283185 -0.261771 -6.283090
    11 -2.841770 -7.400337 0.154318 3.141593 -0.000003 -3.454622
    12 -6.216227 0.011104 0.009509 0.000000 0.000000 -0.436332
    13 -6.044683 0.123417 0.123833 0.000000 0.000000 6.021298
    14 -2.841769 -0.132410 6.858286 -3.141593 0.345376 -3.141593
    15 -6.216226 0.000000 0.009509 -6.283185 0.436293 -6.283090
    16 -6.044682 0.000000 0.123834 -6.283185 0.261783 -6.283185
    17 -5.316726 1.858320 7.885149 0.000000 -1.570793 -1.722353
    18 -5.320000 1.887550 5.035499 0.000000 0.000000 0.575942
    19 -5.271080 1.859040 5.035499 0.000000 0.000000 -0.766488
    20 -5.269850 1.858320 -7.875906 0.000000 -1.570793 -1.722353
    21 -5.271080 1.887550 -5.026376 0.000000 0.000000 0.575942
    22 -5.271080 1.859040 -5.026376 0.000000 0.000000 -0.767261
    23 6.127056 4.060575 0.000002 3.141593 0.000000 -3.141593
  time 25
    0 0.000616 0.675802 -1.394990 1.570800 0.000000 1.570774
    1 -5.676169 -10.205956 -0.036927 0.000000 1.308957 0.000000
    2 -12.201421 1.904737 0.015999 3.141593 0.000000 -3.141593
    3 -6.284104 10.169356 -10.201057 0.000000 1.570451 0.000000
    4 -6.284104 10.157806 10.244704 0.000000 1.570451 0.000000
    5 -6.284104 -10.225493 10.233214 0.000000 1.570451 0.000000
    6 -6.284114 -10.177173 -10.201057 0.000000 1.570451 0.000000
    7 -1.762286 5.911245 0.000001 -3.141593 0.000003 -3.577925
    8 -2.841770 -0.132410 -7.037760 -3.141593 -0.339600 -3.141593
    9 -6.216227 0.000000 -0.009537 -6.283185 -0.436329 -6.283090
    10 -6.044680 0.000000 -0.123808 -6.283185 -0.261771 -6.283090
    11 -2.841770 -7.400337 0.154318 3.141593 -0.000003 -3.454622
    12 -6.216227 0.011104 0.009509 0.000000 0.000000 -0.436332
    13 -6.044683 0.123417 0.123833 0.000000 0.000000 6.021298
    14 -2.841769 -0.132410 6.858286 -3.141593 0.345376 -3.141593
    15 -6.216226 0.000000 0.009509 -6.283185 0.436293 -6.283090
    16 -6.044682 0.000000 0.123834 -6.283185 0.261783 -6.283185
    17 -5.316726 1.858320 7.885149 0.000000 -1.570793 -1.737260
    18 -5.320000 1.887550 5.035499 0.000000 0.000000 0.575942
    19 -5.271080 1.859040 5.035499 0.000000 0.000000 -0.766488
    20 -5.269850 1.858320 -7.875906 0.000000 -1.570793 -1.737260
    21 -5.271080 1.887550 -5.026376 0.000000 0.000000 0.575942
    22 -5.271080 1.859040 -5.026376 0.000000 0.000000 -0.767261
    23 6.127056 4.060575 0.000002 3.141593 0.000000 -3.141593
  time 26
    0 0.000616 0.675802 -1.394990 1.570800 0.000000 1.570774
    1 -5.676169 -10.205956 -0.036927 0.000000 1.361342 0.000000
    2 -12.201421 1.904737 0.015999 3.141593 0.000000 -3.141593
    3 -6.284104 10.169356 -10.201057 0.000000 1.570451 0.000000
    4 -6.284104 10.157806 10.244704 0.000000 1.570451 0.000000
    5 -6.284104 -10.225493 10.233214 0.000000 1.570451 0.000000
    6 -6.284114 -10.177173 -10.201057 0.000000 1.570451 0.000000
    7 -1.762286 5.911245 0.000001 -3.141593 0.000003 -3.577925
    8 -2.841770 -0.132410 -7.037760 -3.141593 -0.339600 -3.141593
    9 -6.216227 0.000000 -0.009537 -6.283185 -0.436329 -6.283090
    10 -6.044680 0.000000 -0.123808 -6.283185 -0.261771 -6.283090
    11 -2.841770 -7.400337 0.154318 3.141593 -0.000003 -3.454622
    12 -6.216227 0.011104 0.009509 0.000000 0.000000 -0.436332
    13 -6.044683 0.123417 0.123833 0.000000 0.000000 6.021298
    14 -2.841769 -0.132410 6.858286 -3.141593 0.345376 -3.141593
    15 -6.216226 0.000000 0.009509 -6.283185 0.436293 -6.283090
    16 -6.044682 0.000000 0.123834 -6.283185 0.261783 -6.283185
    17 -5.316726 1.858320 7.885149 0.000000 -1.570793 -1.752166
    18 -5.320000 1.887550 5.035499 0.000000 0.000000 0.575942
    19 -5.271080 1.859040 5.035499 0.000000 0.000000 -0.766488
    20 -5.269850 1.858320 -7.875906 0.000000 -1.570793 -1.752166
    21 -5.271080 1.887550 -5.026376 0.000000 0.000000 0.575942
    22 -5.271080 1.859040 -5.026376 0.000000 0.000000 -0.767261
    23 6.127056 4.060575 0.000002 3.141593 0.000000 -3.141593
  time 27
    0 0.000616 0.675802 -1.394990 1.570800 0.000000 1.570774
    1 -5.676169 -10.205956 -0.036927 0.000000 1.413679 0.000000
    2 -12.201421 1.904737 0.015999 3.141593 0.000000 -3.141593
    3 -6.284104 10.169356 -10.201057 0.000000 1.570451 0.000000
    4 -6.284104 10.157806 10.244704 0.000000 1.570451 0.000000
    5 -6.284104 -10.225493 10.233214 0.000000 1.570451 0.000000
    6 -6.284114 -10.177173 -10.201057 0.000000 1.570451 0.000000
    7 -1.762286 5.911245 0.000001 -3.141593 0.000003 -3.577925
    8 -2.841770 -0.132410 -7.037760 -3.141593 -0.339600 -3.141593
    9 -6.216227 0.000000 -0.009537 -6.283185 -0.436329 -6.283090
    10 -6.044680 0.000000 -0.123808 -6.283185 -0.261771 -6.283090
    11 -2.841770 -7.400337 0.154318 3.141593 -0.000003 -3.454622
    12 -6.216227 0.011104 0.009509 0.000000 0.000000 -0.436332
    13 -6.044683 0.123417 0.123833 0.000000 0.000000 6.021298
    14 -2.841769 -0.132410 6.858286 -3.141593 0.345376 -3.141593
    15 -6.216226 0.000000 0.009509 -6.283185 0.436293 -6.283090
    16 -6.044682 0.000000 0.123834 -6.283185 0.261783 -6.283185
    17 -5.316726 1.858320 7.885149 0.000000 -1.570793 -1.767073
    18 -5.320000 1.887550 5.035499 0.000000 0.000000 0.575942
    19 -5.271080 1.859040 5.035499 0.000000 0.000000 -0.766488
    20 -5.269850 1.858320 -7.875906 0.000000 -1.570793 -1.767073
    21 -5.271080 1.887550 -5.026376 0.000000 0.000000 0.575942
    22 -5.271080 1.859040 -5.026376 0.000000 0.000000 -0.767261
    23 6.127056 4.060575 0.000002 3.141593 0.000000 -3.141593
  time 28
    0 0.000616 0.675802 -1.394990 1.570800 0.000000 1.570774
    1 -5.676169 -10.205956 -0.036927 0.000000 1.466064 0.000000
    2 -12.201421 1.904737 0.015999 3.141593 0.000000 -3.141593
    3 -6.284104 10.169356 -10.201057 0.000000 1.570451 0.000000
    4 -6.284104 10.157806 10.244704 0.000000 1.570451 0.000000
    5 -6.284104 -10.225493 10.233214 0.000000 1.570451 0.000000
    6 -6.284114 -10.177173 -10.201057 0.000000 1.570451 0.000000
    7 -1.762286 5.911245 0.000001 -3.141593 0.000003 -3.577925
    8 -2.841770 -0.132410 -7.037760 -3.141593 -0.339600 -3.141593
    9 -6.216227 0.000000 -0.009537 -6.283185 -0.436329 -6.283090
    10 -6.044680 0.000000 -0.123808 -6.283185 -0.261771 -6.283090
    11 -2.841770 -7.400337 0.154318 3.141593 -0.000003 -3.454622
    12 -6.216227 0.011104 0.009509 0.000000 0.000000 -0.436332
    13 -6.044683 0.123417 0.123833 0.000000 0.000000 6.021298
    14 -2.841769 -0.132410 6.858286 -3.141593 0.345376 -3.141593
    15 -6.216226 0.000000 0.009509 -6.283185 0.436293 -6.283090
    16 -6.044682 0.000000 0.123834 -6.283185 0.261783 -6.283185
    17 -5.316726 1.858320 7.885149 0.000000 -1.570793 -1.781980
    18 -5.320000 1.887550 5.035499 0.000000 0.000000 0.575942
    19 -5.271080 1.859040 5.035499 0.000000 0.000000 -0.766488
    20 -5.269850 1.858320 -7.875906 0.000000 -1.570793 -1.781980
    21 -5.271080 1.887550 -5.026376 0.000000 0.000000 0.575942
    22 -5.271080 1.859040 -5.026376 0.000000 0.000000 -0.767261
    23 6.127056 4.060575 0.000002 3.141593 0.000000 -3.141593
  time 29
    0 0.000616 0.675802 -1.394990 1.570800 0.000000 1.570774
    1 -5.676169 -10.205956 -0.036927 0.000000 1.518401 0.000000
    2 -12.201421 1.904737 0.015999 3.141593 0.000000 -3.141593
    3 -6.284104 10.169356 -10.201057 0.000000 1.570451 0.000000
    4 -6.284104 10.157806 10.244704 0.000000 1.570451 0.000000
    5 -6.284104 -10.225493 10.233214 0.000000 1.570451 0.000000
    6 -6.284114 -10.177173 -10.201057 0.000000 1.570451 0.000000
    7 -1.762286 5.911245 0.000001 -3.141593 0.000003 -3.577925
    8 -2.841770 -0.132410 -7.037760 -3.141593 -0.339600 -3.141593
    9 -6.216227 0.000000 -0.009537 -6.283185 -0.436329 -6.283090
    10 -6.044680 0.000000 -0.123808 -6.283185 -0.261771 -6.283090
    11 -2.841770 -7.400337 0.154318 3.141593 -0.000003 -3.454622
    12 -6.216227 0.011104 0.009509 0.000000 0.000000 -0.436332
    13 -6.044683 0.123417 0.123833 0.000000 0.000000 6.021298
    14 -2.841769 -0.132410 6.858286 -3.141593 0.345376 -3.141593
    15 -6.216226 0.000000 0.009509 -6.283185 0.436293 -6.283090
    16 -6.044682 0.000000 0.123834 -6.283185 0.261783 -6.283185
    17 -5.316726 1.858320 7.885149 0.000000 -1.570793 -1.796887
    18 -5.320000 1.887550 5.035499 0.000000 0.000000 0.575942
    19 -5.271080 1.859040 5.035499 0.000000 0.000000 -0.766488
    20 -5.269850 1.858320 -7.875906 0.000000 -1.570793 -1.796887
    21 -5.271080 1.887550 -5.026376 0.000000 0.000000 0.575942
    22 -5.271080 1.859040 -5.026376 0.000000 0.000000 -0.767261
    23 6.127056 4.060575 0.000002 3.141593 0.000000 -3.141593
  time 30
    0 0.000616 0.675802 -1.394990 1.570800 0.000000 1.570774
    1 -5.676169 -10.205956 -0.036927 0.000000 1.570451 0.000000
    2 -12.201421 1.904737 0.015999 3.141593 0.000000 -3.141593
    3 -6.284104 10.169356 -10.201057 0.000000 1.570451 0.000000
    4 -6.284104 10.157806 10.244704 0.000000 1.570451 0.000000
    5 -6.284104 -10.225493 10.233214 0.000000 1.570451 0.000000
    6 -6.284114 -10.177173 -10.201057 0.000000 1.570451 0.000000
    7 -1.762286 5.911245 0.000001 -3.141593 0.000003 -3.577925
    8 -2.841770 -0.132410 -7.037760 -3.141593 -0.339600 -3.141593
    9 -6.216227 0.000000 -0.009537 -6.283185 -0.436329 -6.283090
    10 -6.044680 0.000000 -0.123808 -6.283185 -0.261771 -6.283090
    11 -2.841770 -7.400337 0.154318 3.141593 -0.000003 -3.454622
    12 -6.216227 0.011104 0.009509 0.000000 0.000000 -0.436332
    13 -6.044683 0.123417 0.123833 0.000000 0.000000 6.021298
    14 -2.841769 -0.132410 6.858286 -3.141593 0.345376 -3.141593
    15 -6.216226 0.000000 0.009509 -6.283185 0.436293 -6.283090
    16 -6.044682 0.000000 0.123834 -6.283185 0.261783 -6.283185
    17 -5.316726 1.858320 7.885149 0.000000 -1.570793 -1.811808
    18 -5.320000 1.887550 5.035499 0.000000 0.000000 0.575942
    19 -5.271080 1.859040 5.035499 0.000000 0.000000 -0.766488
    20 -5.269850 1.858320 -7.875906 0.000000 -1.570793 -1.811808
    21 -5.271080 1.887550 -5.026376 0.000000 0.000000 0.575942
    22 -5.271080 1.859040 -5.026376 0.000000 0.000000 -0.767261
    23 6.127056 4.060575 0.000002 3.141593 0.000000 -3.141593
  time 31
    0 0.000616 0.675802 -1.394990 1.570800 0.000000 1.570774
    1 -5.676169 -10.205956 -0.036927 -3.141497 1.518401 -3.141497
    2 -12.201421 1.904737 0.015999 3.141593 0.000000 -3.141593
    3 -6.284104 10.169356 -10.201057 0.000000 1.570451 0.000000
    4 -6.284104 10.157806 10.244704 0.000000 1.570451 0.000000
    5 -6.284104 -10.225493 10.233214 0.000000 1.570451 0.000000
    6 -6.284114 -10.177173 -10.201057 0.000000 1.570451 0.000000
    7 -1.762286 5.911245 0.000001 -3.141593 0.000003 -3.577925
    8 -2.841770 -0.132410 -7.037760 -3.141593 -0.339600 -3.141593
    9 -6.216227 0.000000 -0.009537 -6.283185 -0.436329 -6.283090
    10 -6.044680 0.000000 -0.123808 -6.283185 -0.261771 -6.283090
    11 -2.841770 -7.400337 0.154318 3.141593 -0.000003 -3.454622
    12 -6.216227 0.011104 0.009509 0.000000 0.000000 -0.436332
    13 -6.044683 0.123417 0.123833 0.000000 0.000000 6.021298
    14 -2.841769 -0.132410 6.858286 -3.141593 0.345376 -3.141593
    15 -6.216226 0.000000 0.009509 -6.283185 0.436293 -6.283090
    16 -6.044682 0.000000 0.123834 -6.283185 0.261783 -6.283185
    17 -5.316726 1.858320 7.885149 0.000000 -1.570793 -1.826714
    18 -5.320000 1.887550 5.035499 0.000000 0.000000 0.575942
    19 -5.271080 1.859040 5.035499 0.000000 0.000000 -0.766488
    20 -5.269850 1.858320 -7.875906 0.000000 -1.570793 -1.826714
    21 -5.271080 1.887550 -5.026376 0.000000 0.000000 0.575942
    22 -5.271080 1.859040 -5.026376 0.000000 0.000000 -0.767261
    23 6.127056 4.060575 0.000002 3.141593 0.000000 -3.141593
  time 32
    0 0.000616 0.675802 -1.394990 1.570800 0.000000 1.570774
    1 -5.676169 -10.205956 -0.036927 3.141592 1.466064 -3.141592
    2 -12.201421 1.904737 0.015999 3.141593 0.000000 -3.141593
    3 -6.284104 10.169356 -10.201057 0.000000 1.570451 0.000000
    4 -6.284104 10.157806 10.244704 0.000000 1.570451 0.000000
    5 -6.284104 -10.225493 10.233214 0.000000 1.570451 0.000000
    6 -6.284114 -10.177173 -10.201057 0.000000 1.570451 0.000000
    7 -1.762286 5.911245 0.000001 -3.141593 0.000003 -3.577925
    8 -2.841770 -0.132410 -7.037760 -3.141593 -0.339600 -3.141593
    9 -6.216227 0.000000 -0.009537 -6.283185 -0.436329 -6.283090
    10 -6.044680 0.000000 -0.123808 -6.283185 -0.261771 -6.283090
    11 -2.841770 -7.400337 0.154318 3.141593 -0.000003 -3.454622
    12 -6.216227 0.011104 0.009509 0.000000 0.000000 -0.436332
    13 -6.044683 0.123417 0.123833 0.000000 0.000000 6.021298
    14 -2.841769 -0.132410 6.858286 -3.141593 0.345376 -3.141593
    15 -6.216226 0.000000 0.009509 -6.283185 0.436293 -6.283090
    16 -6.044682 0.000000 0.123834 -6.283185 0.261783 -6.283185
    17 -5.316726 1.858320 7.885149 0.000000 -1.570793 -1.841621
    18 -5.320000 1.887550 5.035499 0.000000 0.000000 0.575942
    19 -5.271080 1.859040 5.035499 0.000000 0.000000 -0.766488
    20 -5.269850 1.858320 -7.875906 0.000000 -1.570793 -1.841621
    21 -5.271080 1.887550 -5.026376 0.000000 0.000000 0.575942
    22 -5.271080 1.859040 -5.026376 0.000000 0.000000 -0.767261
    23 6.127056 4.060575 0.000002 3.141593 0.000000 -3.141593
  time 33
    0 0.000616 0.675802 -1.394990 1.570800 0.000000 1.570774
    1 -5.676169 -10.205956 -0.036927 3.141592 1.413679 3.141592
    2 -12.201421 1.904737 0.015999 3.141593 0.000000 -3.141593
    3 -6.284104 10.169356 -10.201057 0.000000 1.570451 0.000000
    4 -6.284104 10.157806 10.244704 0.000000 1.570451 0.000000
    5 -6.284104 -10.225493 10.233214 0.000000 1.570451 0.000000
    6 -6.284114 -10.177173 -10.201057 0.000000 1.570451 0.000000
    7 -1.762286 5.911245 0.000001 -3.141593 0.000003 -3.577925
    8 -2.841770 -0.132410 -7.037760 -3.141593 -0.339600 -3.141593
    9 -6.216227 0.000000 -0.009537 -6.283185 -0.436329 -6.283090
    10 -6.044680 0.000000 -0.123808 -6.283185 -0.261771 -6.283090
    11 -2.841770 -7.400337 0.154318 3.141593 -0.000003 -3.454622
    12 -6.216227 0.011104 0.009509 0.000000 0.000000 -0.436332
    13 -6.044683 0.123417 0.123833 0.000000 0.000000 6.021298
    14 -2.841769 -0.132410 6.858286 -3.141593 0.345376 -3.141593
    15 -6.216226 0.000000 0.009509 -6.283185 0.436293 -6.283090
    16 -6.044682 0.000000 0.123834 -6.283185 0.261783 -6.283185
    17 -5.316726 1.858320 7.885149 0.000000 -1.570793 -1.856528
    18 -5.320000 1.887550 5.035499 0.000000 0.000000 0.575942
    19 -5.271080 1.859040 5.035499 0.000000 0.000000 -0.766488
    20 -5.269850 1.858320 -7.875906 0.000000 -1.570793 -1.856528
    21 -5.271080 1.887550 -5.026376 0.000000 0.000000 0.575942
    22 -5.271080 1.859040 -5.026376 0.000000 0.000000 -0.767261
    23 6.127056 4.060575 0.000002 3.141593 0.000000 -3.141593
  time 34
    0 0.000616 0.675802 -1.394990 1.570800 0.000000 1.570774
    1 -5.676169 -10.205956 -0.036927 3.141592 1.361342 3.141592
    2 -12.201421 1.904737 0.015999 3.141593 0.000000 -3.141593
    3 -6.284104 10.169356 -10.201057 0.000000 1.570451 0.000000
    4 -6.284104 10.157806 10.244704 0.000000 1.570451 0.000000
    5 -6.284104 -10.225493 10.233214 0.000000 1.570451 0.000000
    6 -6.284114 -10.177173 -10.201057 0.000000 1.570451 0.000000
    7 -1.762286 5.911245 0.000001 -3.141593 0.000003 -3.577925
    8 -2.841770 -0.132410 -7.037760 -3.141593 -0.339600 -3.141593
    9 -6.216227 0.000000 -0.009537 -6.283185 -0.436329 -6.283090
    10 -6.044680 0.000000 -0.123808 -6.283185 -0.261771 -6.283090
    11 -2.841770 -7.400337 0.154318 3.141593 -0.000003 -3.454622
    12 -6.216227 0.011104 0.009509 0.000000 0.000000 -0.436332
    13 -6.044683 0.123417 0.123833 0.000000 0.000000 6.021298
    14 -2.841769 -0.132410 6.858286 -3.141593 0.345376 -3.141593
    15 -6.216226 0.000000 0.009509 -6.283185 0.436293 -6.283090
    16 -6.044682 0.000000 0.123834 -6.283185 0.261783 -6.283185
    17 -5.316726 1.858320 7.885149 0.000000 -1.570793 -1.871435
    18 -5.320000 1.887550 5.035499 0.000000 0.000000 0.575942
    19 -5.271080 1.859040 5.035499 0.000000 0.000000 -0.766488
    20 -5.269850 1.858320 -7.875906 0.000000 -1.570793 -1.871435
    21 -5.271080 1.887550 -5.026376 0.000000 0.000000 0.575942
    22 -5.271080 1.859040 -5.026376 0.000000 0.000000 -0.767261
    23 6.127056 4.060575 0.000002 3.141593 0.000000 -3.141593
  time 35
    0 0.000616 0.675802 -1.394990 1.570800 0.000000 1.570774
    1 -5.676169 -10.205956 -0.036927 3.141592 1.308957 3.141592
    2 -12.201421 1.904737 0.015999 3.141593 0.000000 -3.141593
    3 -6.284104 10.169356 -10.201057 0.000000 1.570451 0.000000
    4 -6.284104 10.157806 10.244704 0.000000 1.570451 0.000000
    5 -6.284104 -10.225493 10.233214 0.000000 1.570451 0.000000
    6 -6.284114 -10.177173 -10.201057 0.000000 1.570451 0.000000
    7 -1.762286 5.911245 0.000001 -3.141593 0.000003 -3.577925
    8 -2.841770 -0.132410 -7.037760 -3.141593 -0.339600 -3.141593
    9 -6.216227 0.000000 -0.009537 -6.283185 -0.436329 -6.283090
    10 -6.044680 0.000000 -0.123808 -6.283185 -0.261771 -6.283090
    11 -2.841770 -7.400337 0.154318 3.141593 -0.000003 -3.454622
    12 -6.216227 0.011104 0.009509 0.000000 0.000000 -0.436332
    13 -6.044683 0.123417 0.123833 0.000000 0.000000 6.021298
    14 -2.841769 -0.132410 6.858286 -3.141593 0.345376 -3.141593
    15 -6.216226 0.000000 0.009509 -6.283185 0.436293 -6.283090
    16 -6.044682 0.000000 0.123834 -6.283185 0.261783 -6.283185
    17 -5.316726 1.858320 7.885149 0.000000 -1.570793 -1.886342
    18 -5.320000 1.887550 5.035499 0.000000 0.000000 0.575942
    19 -5.271080 1.859040 5.035499 0.000000 0.000000 -0.766488
    20 -5.269850 1.858320 -7.875906 0.000000 -1.570793 -1.886342
    21 -5.271080 1.887550 -5.026376 0.000000 0.000000 0.575942
    22 -5.271080 1.859040 -5.026376 0.000000 0.000000 -0.767261
    23 6.127056 4.060575 0.000002 3.141593 0.000000 -3.141593
  time 36
    0 0.000616 0.675802 -1.394990 1.570800 0.000000 1.570774
    1 -5.676169 -10.205956 -0.036927 3.141592 1.256620 3.141592
    2 -12.201421 1.904737 0.015999 3.141593 0.000000 -3.141593
    3 -6.284104 10.169356 -10.201057 0.000000 1.570451 0.000000
    4 -6.284104 10.157806 10.244704 0.000000 1.570451 0.000000
    5 -6.284104 -10.225493 10.233214 0.000000 1.570451 0.000000
    6 -6.284114 -10.177173 -10.201057 0.000000 1.570451 0.000000
    7 -1.762286 5.911245 0.000001 -3.141593 0.000003 -3.577925
    8 -2.841770 -0.132410 -7.037760 -3.141593 -0.339600 -3.141593
    9 -6.216227 0.000000 -0.009537 -6.283185 -0.436329 -6.283090
    10 -6.044680 0.000000 -0.123808 -6.283185 -0.261771 -6.283090
    11 -2.841770 -7.400337 0.154318 3.141593 -0.000003 -3.454622
    12 -6.216227 0.011104 0.009509 0.000000 0.000000 -0.436332
    13 -6.044683 0.123417 0.123833 0.000000 0.000000 6.021298
    14 -2.841769 -0.132410 6.858286 -3.141593 0.345376 -3.141593
    15 -6.216226 0.000000 0.009509 -6.283185 0.436293 -6.283090
    16 -6.044682 0.000000 0.123834 -6.283185 0.261783 -6.283185
    17 -5.316726 1.858320 7.885149 0.000000 -1.570793 -1.901249
    18 -5.320000 1.887550 5.035499 0.000000 0.000000 0.575942
    19 -5.271080 1.859040 5.035499 0.000000 0.000000 -0.766488
    20 -5.269850 1.858320 -7.875906 0.000000 -1.570793 -1.901249
    21 -5.271080 1.887550 -5.026376 0.000000 0.000000 0.575942
    22 -5.271080 1.859040 -5.026376 0.000000 0.000000 -0.767261
    23 6.127056 4.060575 0.000002 3.141593 0.000000 -3.141593
  time 37
    0 0.000616 0.675802 -1.394990 1.570800 0.000000 1.570774
    1 -5.676169 -10.205956 -0.036927 3.141592 1.204235 -3.141592
    2 -12.201421 1.904737 0.015999 3.141593 0.000000 -3.141593
    3 -6.284104 10.169356 -10.201057 0.000000 1.570451 0.000000
    4 -6.284104 10.157806 10.244704 0.000000 1.570451 0.000000
    5 -6.284104 -10.225493 10.233214 0.000000 1.570451 0.000000
    6 -6.284114 -10.177173 -10.201057 0.000000 1.570451 0.000000
    7 -1.762286 5.911245 0.000001 -3.141593 0.000003 -3.577925
    8 -2.841770 -0.132410 -7.037760 -3.141593 -0.339600 -3.141593
    9 -6.216227 0.000000 -0.009537 -6.283185 -0.436329 -6.283090
    10 -6.044680 0.000000 -0.123808 -6.283185 -0.261771 -6.283090
    11 -2.841770 -7.400337 0.154318 3.141593 -0.000003 -3.454622
    12 -6.216227 0.011104 0.009509 0.000000 0.000000 -0.436332
    13 -6.044683 0.123417 0.123833 0.000000 0.000000 6.021298
    14 -2.841769 -0.132410 6.858286 -3.141593 0.345376 -3.141593
    15 -6.216226 0.000000 0.009509 -6.283185 0.436293 -6.283090
    16 -6.044682 0.000000 0.123834 -6.283185 0.261783 -6.283185
    17 -5.316726 1.858320 7.885149 0.000000 -1.570793 -1.916155
    18 -5.320000 1.887550 5.035499 0.000000 0.000000 0.575942
    19 -5.271080 1.859040 5.035499 0.000000 0.000000 -0.766488
    20 -5.269850 1.858320 -7.875906 0.000000 -1.570793 -1.916155
    21 -5.271080 1.887550 -5.026376 0.000000 0.000000 0.575942
    22 -5.271080 1.859040 -5.026376 0.000000 0.000000 -0.767261
    23 6.127056 4.060575 0.000002 3.141593 0.000000 -3.141593
  time 38
    0 0.000616 0.675802 -1.394990 1.570800 0.000000 1.570774
    1 -5.676169 -10.205956 -0.036927 3.141592 1.151897 3.141592
    2 -12.201421 1.904737 0.015999 3.141593 0.000000 -3.141593
    3 -6.284104 10.169356 -10.201057 0.000000 1.570451 0.000000
    4 -6.284104 10.157806 10.244704 0.000000 1.570451 0.000000
    5 -6.284104 -10.225493 10.233214 0.000000 1.570451 0.000000
    6 -6.284114 -10.177173 -10.201057 0.000000 1.570451 0.000000
    7 -1.762286 5.911245 0.000001 -3.141593 0.000003 -3.577925
    8 -2.841770 -0.132410 -7.037760 -3.141593 -0.339600 -3.141593
    9 -6.216227 0.000000 -0.009537 -6.283185 -0.436329 -6.283090
    10 -6.044680 0.000000 -0.123808 -6.283185 -0.261771 -6.283090
    11 -2.841770 -7.400337 0.154318 3.141593 -0.000003 -3.454622
    12 -6.216227 0.011104 0.009509 0.000000 0.000000 -0.436332
    13 -6.044683 0.123417 0.123833 0.000000 0.000000 6.021298
    14 -2.841769 -0.132410 6.858286 -3.141593 0.345376 -3.141593
    15 -6.216226 0.000000 0.009509 -6.283185 0.436293 -6.283090
    16 -6.044682 0.000000 0.123834 -6.283185 0.261783 -6.283185
    17 -5.316726 1.858320 7.885149 0.000000 -1.570793 -1.931062
    18 -5.320000 1.887550 5.035499 0.000000 0.000000 0.575942
    19 -5.271080 1.859040 5.035499 0.000000 0.000000 -0.766488
    20 -5.269850 1.858320 -7.875906 0.000000 -1.570793 -1.931062
    21 -5.271080 1.887550 -5.026376 0.000000 0.000000 0.575942
    22 -5.271080 1.859040 -5.026376 0.000000 0.000000 -0.767261
    23 6.127056 4.060575 0.000002 3.141593 0.000000 -3.141593
  time 39
    0 0.000616 0.675802 -1.394990 1.570800 0.000000 1.570774
    1 -5.676169 -10.205956 -0.036927 3.141592 1.099512 3.141592
    2 -12.201421 1.904737 0.015999 3.141593 0.000000 -3.141593
    3 -6.284104 10.169356 -10.201057 0.000000 1.570451 0.000000
    4 -6.284104 10.157806 10.244704 0.000000 1.570451 0.000000
    5 -6.284104 -10.225493 10.233214 0.000000 1.570451 0.000000
    6 -6.284114 -10.177173 -10.201057 0.000000 1.570451 0.000000
    7 -1.762286 5.911245 0.000001 -3.141593 0.000003 -3.577925
    8 -2.841770 -0.132410 -7.037760 -3.141593 -0.339600 -3.141593
    9 -6.216227 0.000000 -0.009537 -6.283185 -0.436329 -6.283090
    10 -6.044680 0.000000 -0.123808 -6.283185 -0.261771 -6.283090
    11 -2.841770 -7.400337 0.154318 3.141593 -0.000003 -3.454622
    12 -6.216227 0.011104 0.009509 0.000000 0.000000 -0.436332
    13 -6.044683 0.123417 0.123833 0.000000 0.000000 6.021298
    14 -2.841769 -0.132410 6.858286 -3.141593 0.345376 -3.141593
    15 -6.216226 0.000000 0.009509 -6.283185 0.436293 -6.283090
    16 -6.044682 0.000000 0.123834 -6.283185 0.261783 -6.283185
    17 -5.316726 1.858320 7.885149 0.000000 -1.570793 -1.945969
    18 -5.320000 1.887550 5.035499 0.000000 0.000000 0.575942
    19 -5.271080 1.859040 5.035499 0.000000 0.000000 -0.766488
    20 -5.269850 1.858320 -7.875906 0.000000 -1.570793 -1.945969
    21 -5.271080 1.887550 -5.026376 0.000000 0.000000 0.575942
    22 -5.271080 1.859040 -5.026376 0.000000 0.000000 -0.767261
    23 6.127056 4.060575 0.000002 3.141593 0.000000 -3.141593
  time 40
    0 0.000616 0.675802 -1.394990 1.570800 0.000000 1.570774
    1 -5.676169 -10.205956 -0.036927 3.141592 1.047175 3.141592
    2 -12.201421 1.904737 0.015999 3.141593 0.000000 -3.141593
    3 -6.284104 10.169356 -10.201057 0.000000 1.570451 0.000000
    4 -6.284104 10.157806 10.244704 0.000000 1.570451 0.000000
    5 -6.284104 -10.225493 10.233214 0.000000 1.570451 0.000000
    6 -6.284114 -10.177173 -10.201057 0.000000 1.570451 0.000000
    7 -1.762286 5.911245 0.000001 -3.141593 0.000003 -3.577925
    8 -2.841770 -0.132410 -7.037760 -3.141593 -0.339600 -3.141593
    9 -6.216227 0.000000 -0.009537 -6.283185 -0.436329 -6.283090
    10 -6.044680 0.000000 -0.123808 -6.283185 -0.261771 -6.283090
    11 -2.841770 -7.400337 0.154318 3.141593 -0.000003 -3.454622
    12 -6.216227 0.011104 0.009509 0.000000 0.000000 -0.436332
    13 -6.044683 0.123417 0.123833 0.000000 0.000000 6.021298
    14 -2.841769 -0.132410 6.858286 -3.141593 0.345376 -3.141593
    15 -6.216226 0.000000 0.009509 -6.283185 0.436293 -6.283090
    16 -6.044682 0.000000 0.123834 -6.283185 0.261783 -6.283185
    17 -5.316726 1.858320 7.885149 0.000000 -1.570793 -1.960876
    18 -5.320000 1.887550 5.035499 0.000000 0.000000 0.575942
    19 -5.271080 1.859040 5.035499 0.000000 0.000000 -0.766488
    20 -5.269850 1.858320 -7.875906 0.000000 -1.570793 -1.960876
    21 -5.271080 1.887550 -5.026376 0.000000 0.000000 0.575942
    22 -5.271080 1.859040 -5.026376 0.000000 0.000000 -0.767261
    23 6.127056 4.060575 0.000002 3.141593 0.000000 -3.141593
  time 41
    0 0.000616 0.675802 -1.394990 1.570800 0.000000 1.570774
    1 -5.676169 -10.205956 -0.036927 3.141592 0.994790 3.141592
    2 -12.201421 1.904737 0.015999 3.141593 0.000000 -3.141593
    3 -6.284104 10.169356 -10.201057 0.000000 1.570451 0.000000
    4 -6.284104 10.157806 10.244704 0.000000 1.570451 0.000000
    5 -6.284104 -10.225493 10.233214 0.000000 1.570451 0.000000
    6 -6.284114 -10.177173 -10.201057 0.000000 1.570451 0.000000
    7 -1.762286 5.911245 0.000001 -3.141593 0.000003 -3.577925
    8 -2.841770 -0.132410 -7.037760 -3.141593 -0.339600 -3.141593
    9 -6.216227 0.000000 -0.009537 -6.283185 -0.436329 -6.283090
    10 -6.044680 0.000000 -0.123808 -6.283185 -0.261771 -6.283090
    11 -2.841770 -7.400337 0.154318 3.141593 -0.000003 -3.454622
    12 -6.216227 0.011104 0.009509 0.000000 0.000000 -0.436332
    13 -6.044683 0.123417 0.123833 0.000000 0.000000 6.021298
    14 -2.841769 -0.132410 6.858286 -3.141593 0.345376 -3.141593
    15 -6.216226 0.000000 0.009509 -6.283185 0.436293 -6.283090
    16 -6.044682 0.000000 0.123834 -6.283185 0.261783 -6.283185
    17 -5.316726 1.858320 7.885149 0.000000 -1.570793 -1.975797
    18 -5.320000 1.887550 5.035499 0.000000 0.000000 0.575942
    19 -5.271080 1.859040 5.035499 0.000000 0.000000 -0.766488
    20 -5.269850 1.858320 -7.875906 0.000000 -1.570793 -1.975797
    21 -5.271080 1.887550 -5.026376 0.000000 0.000000 0.575942
    22 -5.271080 1.859040 -5.026376 0.000000 0.000000 -0.767261
    23 6.127056 4.060575 0.000002 3.141593 0.000000 -3.141593
  time 42
    0 0.000616 0.675802 -1.394990 1.570800 0.000000 1.570774
    1 -5.676169 -10.205956 -0.036927 3.141592 0.942453 -3.141592
    2 -12.201421 1.904737 0.015999 3.141593 0.000000 -3.141593
    3 -6.284104 10.169356 -10.201057 0.000000 1.570451 0.000000
    4 -6.284104 10.157806 10.244704 0.000000 1.570451 0.000000
    5 -6.284104 -10.225493 10.233214 0.000000 1.570451 0.000000
    6 -6.284114 -10.177173 -10.201057 0.000000 1.570451 0.000000
    7 -1.762286 5.911245 0.000001 -3.141593 0.000003 -3.577925
    8 -2.841770 -0.132410 -7.037760 -3.141593 -0.339600 -3.141593
    9 -6.216227 0.000000 -0.009537 -6.283185 -0.436329 -6.283090
    10 -6.044680 0.000000 -0.123808 -6.283185 -0.261771 -6.283090
    11 -2.841770 -7.400337 0.154318 3.141593 -0.000003 -3.454622
    12 -6.216227 0.011104 0.009509 0.000000 0.000000 -0.436332
    13 -6.044683 0.123417 0.123833 0.000000 0.000000 6.021298
    14 -2.841769 -0.132410 6.858286 -3.141593 0.345376 -3.141593
    15 -6.216226 0.000000 0.009509 -6.283185 0.436293 -6.283090
    16 -6.044682 0.000000 0.123834 -6.283185 0.261783 -6.283185
    17 -5.316726 1.858320 7.885149 0.000000 -1.570793 -1.990703
    18 -5.320000 1.887550 5.035499 0.000000 0.000000 0.575942
    19 -5.271080 1.859040 5.035499 0.000000 0.000000 -0.766488
    20 -5.269850 1.858320 -7.875906 0.000000 -1.570793 -1.990703
    21 -5.271080 1.887550 -5.026376 0.000000 0.000000 0.575942
    22 -5.271080 1.859040 -5.026376 0.000000 0.000000 -0.767261
    23 6.127056 4.060575 0.000002 3.141593 0.000000 -3.141593
  time 43
    0 0.000616 0.675802 -1.394990 1.570800 0.000000 1.570774
    1 -5.676169 -10.205956 -0.036927 3.141592 0.890116 3.141592
    2 -12.201421 1.904737 0.015999 3.141593 0.000000 -3.141593
    3 -6.284104 10.169356 -10.201057 0.000000 1.570451 0.000000
    4 -6.284104 10.157806 10.244704 0.000000 1.570451 0.000000
    5 -6.284104 -10.225493 10.233214 0.000000 1.570451 0.000000
    6 -6.284114 -10.177173 -10.201057 0.000000 1.570451 0.000000
    7 -1.762286 5.911245 0.000001 -3.141593 0.000003 -3.577925
    8 -2.841770 -0.132410 -7.037760 -3.141593 -0.339600 -3.141593
    9 -6.216227 0.000000 -0.009537 -6.283185 -0.436329 -6.283090
    10 -6.044680 0.000000 -0.123808 -6.283185 -0.261771 -6.283090
    11 -2.841770 -7.400337 0.154318 3.141593 -0.000003 -3.454622
    12 -6.216227 0.011104 0.009509 0.000000 0.000000 -0.436332
    13 -6.044683 0.123417 0.123833 0.000000 0.000000 6.021298
    14 -2.841769 -0.132410 6.858286 -3.141593 0.345376 -3.141593
    15 -6.216226 0.000000 0.009509 -6.283185 0.436293 -6.283090
    16 -6.044682 0.000000 0.123834 -6.283185 0.261783 -6.283185
    17 -5.316726 1.858320 7.885149 0.000000 -1.570793 -1.870699
    18 -5.320000 1.887550 5.035499 0.000000 0.000000 0.575942
    19 -5.271080 1.859040 5.035499 0.000000 0.000000 -0.766488
    20 -5.269850 1.858320 -7.875906 0.000000 -1.570793 -1.870699
    21 -5.271080 1.887550 -5.026376 0.000000 0.000000 0.575942
    22 -5.271080 1.859040 -5.026376 0.000000 0.000000 -0.767261
    23 6.127056 4.060575 0.000002 3.141593 0.000000 -3.141593
  time 44
    0 0.000616 0.675802 -1.394990 1.570800 0.000000 1.570774
    1 -5.676169 -10.205956 -0.036927 3.141592 0.837730 3.141592
    2 -12.201421 1.904737 0.015999 3.141593 0.000000 -3.141593
    3 -6.284104 10.169356 -10.201057 0.000000 1.570451 0.000000
    4 -6.284104 10.157806 10.244704 0.000000 1.570451 0.000000
    5 -6.284104 -10.225493 10.233214 0.000000 1.570451 0.000000
    6 -6.284114 -10.177173 -10.201057 0.000000 1.570451 0.000000
    7 -1.762286 5.911245 0.000001 -3.141593 0.000003 -3.577925
    8 -2.841770 -0.132410 -7.037760 -3.141593 -0.339600 -3.141593
    9 -6.216227 0.000000 -0.009537 -6.283185 -0.436329 -6.283090
    10 -6.044680 0.000000 -0.123808 -6.283185 -0.261771 -6.283090
    11 -2.841770 -7.400337 0.154318 3.141593 -0.000003 -3.454622
    12 -6.216227 0.011104 0.009509 0.000000 0.000000 -0.436332
    13 -6.044683 0.123417 0.123833 0.000000 0.000000 6.021298
    14 -2.841769 -0.132410 6.858286 -3.141593 0.345376 -3.141593
    15 -6.216226 0.000000 0.009509 -6.283185 0.436293 -6.283090
    16 -6.044682 0.000000 0.123834 -6.283185 0.261783 -6.283185
    17 -5.316726 1.858320 7.885149 0.000000 -1.570793 -1.750709
    18 -5.320000 1.887550 5.035499 0.000000 0.000000 0.575942
    19 -5.271080 1.859040 5.035499 0.000000 0.000000 -0.766488
    20 -5.269850 1.858320 -7.875906 0.000000 -1.570793 -1.750709
    21 -5.271080 1.887550 -5.026376 0.000000 0.000000 0.575942
    22 -5.271080 1.859040 -5.026376 0.000000 0.000000 -0.767261
    23 6.127056 4.060575 0.000002 3.141593 0.000000 -3.141593
  time 45
    0 0.000616 0.675802 -1.394990 1.570800 0.000000 1.570774
    1 -5.676169 -10.205956 -0.036927 3.141592 0.785393 -3.141592
    2 -12.201421 1.904737 0.015999 3.141593 0.000000 -3.141593
    3 -6.284104 10.169356 -10.201057 0.000000 1.570451 0.000000
    4 -6.284104 10.157806 10.244704 0.000000 1.570451 0.000000
    5 -6.284104 -10.225493 10.233214 0.000000 1.570451 0.000000
    6 -6.284114 -10.177173 -10.201057 0.000000 1.570451 0.000000
    7 -1.762286 5.911245 0.000001 -3.141593 0.000003 -3.577925
    8 -2.841770 -0.132410 -7.037760 -3.141593 -0.339600 -3.141593
    9 -6.216227 0.000000 -0.009537 -6.283185 -0.436329 -6.283090
    10 -6.044680 0.000000 -0.123808 -6.283185 -0.261771 -6.283090
    11 -2.841770 -7.400337 0.154318 3.141593 -0.000003 -3.454622
    12 -6.216227 0.011104 0.009509 0.000000 0.000000 -0.436332
    13 -6.044683 0.123417 0.123833 0.000000 0.000000 6.021298
    14 -2.841769 -0.132410 6.858286 -3.141593 0.345376 -3.141593
    15 -6.216226 0.000000 0.009509 -6.283185 0.436293 -6.283090
    16 -6.044682 0.000000 0.123834 -6.283185 0.261783 -6.283185
    17 -5.316726 1.858320 7.885149 0.000000 -1.570793 -1.630719
    18 -5.320000 1.887550 5.035499 0.000000 0.000000 0.575942
    19 -5.271080 1.859040 5.035499 0.000000 0.000000 -0.766488
    20 -5.269850 1.858320 -7.875906 0.000000 -1.570793 -1.630719
    21 -5.271080 1.887550 -5.026376 0.000000 0.000000 0.575942
    22 -5.271080 1.859040 -5.026376 0.000000 0.000000 -0.767261
    23 6.127056 4.060575 0.000002 3.141593 0.000000 -3.141593
  time 46
    0 0.000616 0.675802 -1.394990 1.570800 0.000000 1.570774
    1 -5.676169 -10.205956 -0.036927 3.141592 0.733008 -3.141592
    2 -12.201421 1.904737 0.015999 3.141593 0.000000 -3.141593
    3 -6.284104 10.169356 -10.201057 0.000000 1.570451 0.000000
    4 -6.284104 10.157806 10.244704 0.000000 1.570451 0.000000
    5 -6.284104 -10.225493 10.233214 0.000000 1.570451 0.000000
    6 -6.284114 -10.177173 -10.201057 0.000000 1.570451 0.000000
    7 -1.762286 5.911245 0.000001 -3.141593 0.000003 -3.577925
    8 -2.841770 -0.132410 -7.037760 -3.141593 -0.339600 -3.141593
    9 -6.216227 0.000000 -0.009537 -6.283185 -0.436329 -6.283090
    10 -6.044680 0.000000 -0.123808 -6.283185 -0.261771 -6.283090
    11 -2.841770 -7.400337 0.154318 3.141593 -0.000003 -3.454622
    12 -6.216227 0.011104 0.009509 0.000000 0.000000 -0.436332
    13 -6.044683 0.123417 0.123833 0.000000 0.000000 6.021298
    14 -2.841769 -0.132410 6.858286 -3.141593 0.345376 -3.141593
    15 -6.216226 0.000000 0.009509 -6.283185 0.436293 -6.283090
    16 -6.044682 0.000000 0.123834 -6.283185 0.261783 -6.283185
    17 -5.316726 1.858320 7.885149 0.000000 -1.570793 -1.510742
    18 -5.320000 1.887550 5.035499 0.000000 0.000000 0.575942
    19 -5.271080 1.859040 5.035499 0.000000 0.000000 -0.766488
    20 -5.269850 1.858320 -7.875906 0.000000 -1.570793 -1.510742
    21 -5.271080 1.887550 -5.026376 0.000000 0.000000 0.575942
    22 -5.271080 1.859040 -5.026376 0.000000 0.000000 -0.767261
    23 6.127056 4.060575 0.000002 3.141593 0.000000 -3.141593
  time 47
    0 0.000616 0.675802 -1.394990 1.570800 0.000000 1.570774
    1 -5.676169 -10.205956 -0.036927 3.141592 0.680671 3.141592
    2 -12.201421 1.904737 0.015999 3.141593 0.000000 -3.141593
    3 -6.284104 10.169356 -10.201057 0.000000 1.570451 0.000000
    4 -6.284104 10.157806 10.244704 0.000000 1.570451 0.000000
    5 -6.284104 -10.225493 10.233214 0.000000 1.570451 0.000000
    6 -6.284114 -10.177173 -10.201057 0.000000 1.570451 0.000000
    7 -1.762286 5.911245 0.000001 -3.141593 0.000003 -3.577925
    8 -2.841770 -0.132410 -7.037760 -3.141593 -0.339600 -3.141593
    9 -6.216227 0.000000 -0.009537 -6.283185 -0.436329 -6.283090
    10 -6.044680 0.000000 -0.123808 -6.283185 -0.261771 -6.283090
    11 -2.841770 -7.400337 0.154318 3.141593 -0.000003 -3.454622
    12 -6.216227 0.011104 0.009509 0.000000 0.000000 -0.436332
    13 -6.044683 0.123417 0.123833 0.000000 0.000000 6.021298
    14 -2.841769 -0.132410 6.858286 -3.141593 0.345376 -3.141593
    15 -6.216226 0.000000 0.009509 -6.283185 0.436293 -6.283090
    16 -6.044682 0.000000 0.123834 -6.283185 0.261783 -6.283185
    17 -5.316726 1.858320 7.885149 0.000000 -1.570793 -1.591453
    18 -5.320000 1.887550 5.035499 0.000000 0.000000 0.575942
    19 -5.271080 1.859040 5.035499 0.000000 0.000000 -0.766488
    20 -5.269850 1.858320 -7.875906 0.000000 -1.570793 -1.591453
    21 -5.271080 1.887550 -5.026376 0.000000 0.000000 0.575942
    22 -5.271080 1.859040 -5.026376 0.000000 0.000000 -0.767261
    23 6.127056 4.060575 0.000002 3.141593 0.000000 -3.141593
  time 48
    0 0.000616 0.675802 -1.394990 1.570800 0.000000 1.570774
    1 -5.676169 -10.205956 -0.036927 3.141592 0.628286 3.141592
    2 -12.201421 1.904737 0.015999 3.141593 0.000000 -3.141593
    3 -6.284104 10.169356 -10.201057 0.000000 1.570451 0.000000
    4 -6.284104 10.157806 10.244704 0.000000 1.570451 0.000000
    5 -6.284104 -10.225493 10.233214 0.000000 1.570451 0.000000
    6 -6.284114 -10.177173 -10.201057 0.000000 1.570451 0.000000
    7 -1.762286 5.911245 0.000001 -3.141593 0.000003 -3.577925
    8 -2.841770 -0.132410 -7.037760 -3.141593 -0.339600 -3.141593
    9 -6.216227 0.000000 -0.009537 -6.283185 -0.436329 -6.283090
    10 -6.044680 0.000000 -0.123808 -6.283185 -0.261771 -6.283090
    11 -2.841770 -7.400337 0.154318 3.141593 -0.000003 -3.454622
    12 -6.216227 0.011104 0.009509 0.000000 0.000000 -0.436332
    13 -6.044683 0.123417 0.123833 0.000000 0.000000 6.021298
    14 -2.841769 -0.132410 6.858286 -3.141593 0.345376 -3.141593
    15 -6.216226 0.000000 0.009509 -6.283185 0.436293 -6.283090
    16 -6.044682 0.000000 0.123834 -6.283185 0.261783 -6.283185
    17 -5.316726 1.858320 7.885149 0.000000 -1.570793 -1.672177
    18 -5.320000 1.887550 5.035499 0.000000 0.000000 0.575942
    19 -5.271080 1.859040 5.035499 0.000000 0.000000 -0.766488
    20 -5.269850 1.858320 -7.875906 0.000000 -1.570793 -1.672177
    21 -5.271080 1.887550 -5.026376 0.000000 0.000000 0.575942
    22 -5.271080 1.859040 -5.026376 0.000000 0.000000 -0.767261
    23 6.127056 4.060575 0.000002 3.141593 0.000000 -3.141593
  time 49
    0 0.000616 0.675802 -1.394990 1.570800 0.000000 1.570774
    1 -5.676169 -10.205956 -0.036927 3.141592 0.575949 3.141592
    2 -12.201421 1.904737 0.015999 3.141593 0.000000 -3.141593
    3 -6.284104 10.169356 -10.201057 0.000000 1.570451 0.000000
    4 -6.284104 10.157806 10.244704 0.000000 1.570451 0.000000
    5 -6.284104 -10.225493 10.233214 0.000000 1.570451 0.000000
    6 -6.284114 -10.177173 -10.201057 0.000000 1.570451 0.000000
    7 -1.762286 5.911245 0.000001 -3.141593 0.000003 -3.577925
    8 -2.841770 -0.132410 -7.037760 -3.141593 -0.339600 -3.141593
    9 -6.216227 0.000000 -0.009537 -6.283185 -0.436329 -6.283090
    10 -6.044680 0.000000 -0.123808 -6.283185 -0.261771 -6.283090
    11 -2.841770 -7.400337 0.154318 3.141593 -0.000003 -3.454622
    12 -6.216227 0.011104 0.009509 0.000000 0.000000 -0.436332
    13 -6.044683 0.123417 0.123833 0.000000 0.000000 6.021298
    14 -2.841769 -0.132410 6.858286 -3.141593 0.345376 -3.141593
    15 -6.216226 0.000000 0.009509 -6.283185 0.436293 -6.283090
    16 -6.044682 0.000000 0.123834 -6.283185 0.261783 -6.283185
    17 -5.316726 1.858320 7.885149 0.000000 -1.570793 -1.752902
    18 -5.320000 1.887550 5.035499 0.000000 0.000000 0.575942
    19 -5.271080 1.859040 5.035499 0.000000 0.000000 -0.766488
    20 -5.269850 1.858320 -7.875906 0.000000 -1.570793 -1.752902
    21 -5.271080 1.887550 -5.026376 0.000000 0.000000 0.575942
    22 -5.271080 1.859040 -5.026376 0.000000 0.000000 -0.767261
    23 6.127056 4.060575 0.000002 3.141593 0.000000 -3.141593
  time 50
    0 0.000616 0.675802 -1.394990 1.570800 0.000000 1.570774
    1 -5.676169 -10.205956 -0.036927 3.141592 0.523564 -3.141592
    2 -12.201421 1.904737 0.015999 3.141593 0.000000 -3.141593
    3 -6.284104 10.169356 -10.201057 0.000000 1.570451 0.000000
    4 -6.284104 10.157806 10.244704 0.000000 1.570451 0.000000
    5 -6.284104 -10.225493 10.233214 0.000000 1.570451 0.000000
    6 -6.284114 -10.177173 -10.201057 0.000000 1.570451 0.000000
    7 -1.762286 5.911245 0.000001 -3.141593 0.000003 -3.577925
    8 -2.841770 -0.132410 -7.037760 -3.141593 -0.339600 -3.141593
    9 -6.216227 0.000000 -0.009537 -6.283185 -0.436329 -6.283090
    10 -6.044680 0.000000 -0.123808 -6.283185 -0.261771 -6.283090
    11 -2.841770 -7.400337 0.154318 3.141593 -0.000003 -3.454622
    12 -6.216227 0.011104 0.009509 0.000000 0.000000 -0.436332
    13 -6.044683 0.123417 0.123833 0.000000 0.000000 6.021298
    14 -2.841769 -0.132410 6.858286 -3.141593 0.345376 -3.141593
    15 -6.216226 0.000000 0.009509 -6.283185 0.436293 -6.283090
    16 -6.044682 0.000000 0.123834 -6.283185 0.261783 -6.283185
    17 -5.316726 1.858320 7.885149 0.000000 -1.570793 -1.833613
    18 -5.320000 1.887550 5.035499 0.000000 0.000000 0.575942
    19 -5.271080 1.859040 5.035499 0.000000 0.000000 -0.766488
    20 -5.269850 1.858320 -7.875906 0.000000 -1.570793 -1.833613
    21 -5.271080 1.887550 -5.026376 0.000000 0.000000 0.575942
    22 -5.271080 1.859040 -5.026376 0.000000 0.000000 -0.767261
    23 6.127056 4.060575 0.000002 3.141593 0.000000 -3.141593
  time 51
    0 0.000616 0.675802 -1.394990 1.570800 0.000000 1.570774
    1 -5.676169 -10.205956 -0.036927 3.141592 0.471226 3.141592
    2 -12.201421 1.904737 0.015999 3.141593 0.000000 -3.141593
    3 -6.284104 10.169356 -10.201057 0.000000 1.570451 0.000000
    4 -6.284104 10.157806 10.244704 0.000000 1.570451 0.000000
    5 -6.284104 -10.225493 10.233214 0.000000 1.570451 0.000000
    6 -6.284114 -10.177173 -10.201057 0.000000 1.570451 0.000000
    7 -1.762286 5.911245 0.000001 -3.141593 0.000003 -3.577925
    8 -2.841770 -0.132410 -7.037760 -3.141593 -0.339600 -3.141593
    9 -6.216227 0.000000 -0.009537 -6.283185 -0.436329 -6.283090
    10 -6.044680 0.000000 -0.123808 -6.283185 -0.261771 -6.283090
    11 -2.841770 -7.400337 0.154318 3.141593 -0.000003 -3.454622
    12 -6.216227 0.011104 0.009509 0.000000 0.000000 -0.436332
    13 -6.044683 0.123417 0.123833 0.000000 0.000000 6.021298
    14 -2.841769 -0.132410 6.858286 -3.141593 0.345376 -3.141593
    15 -6.216226 0.000000 0.009509 -6.283185 0.436293 -6.283090
    16 -6.044682 0.000000 0.123834 -6.283185 0.261783 -6.283185
    17 -5.316726 1.858320 7.885149 0.000000 -1.570793 -1.772528
    18 -5.320000 1.887550 5.035499 0.000000 0.000000 0.575942
    19 -5.271080 1.859040 5.035499 0.000000 0.000000 -0.766488
    20 -5.269850 1.858320 -7.875906 0.000000 -1.570793 -1.772528
    21 -5.271080 1.887550 -5.026376 0.000000 0.000000 0.575942
    22 -5.271080 1.859040 -5.026376 0.000000 0.000000 -0.767261
    23 6.127056 4.060575 0.000002 3.141593 0.000000 -3.141593
  time 52
    0 0.000616 0.675802 -1.394990 1.570800 0.000000 1.570774
    1 -5.676169 -10.205956 -0.036927 3.141592 0.418841 -3.141592
    2 -12.201421 1.904737 0.015999 3.141593 0.000000 -3.141593
    3 -6.284104 10.169356 -10.201057 0.000000 1.570451 0.000000
    4 -6.284104 10.157806 10.244704 0.000000 1.570451 0.000000
    5 -6.284104 -10.225493 10.233214 0.000000 1.570451 0.000000
    6 -6.284114 -10.177173 -10.201057 0.000000 1.570451 0.000000
    7 -1.762286 5.911245 0.000001 -3.141593 0.000003 -3.577925
    8 -2.841770 -0.132410 -7.037760 -3.141593 -0.339600 -3.141593
    9 -6.216227 0.000000 -0.009537 -6.283185 -0.436329 -6.283090
    10 -6.044680 0.000000 -0.123808 -6.283185 -0.261771 -6.283090
    11 -2.841770 -7.400337 0.154318 3.141593 -0.000003 -3.454622
    12 -6.216227 0.011104 0.009509 0.000000 0.000000 -0.436332
    13 -6.044683 0.123417 0.123833 0.000000 0.000000 6.021298
    14 -2.841769 -0.132410 6.858286 -3.141593 0.345376 -3.141593
    15 -6.216226 0.000000 0.009509 -6.283185 0.436293 -6.283090
    16 -6.044682 0.000000 0.123834 -6.283185 0.261783 -6.283185
    17 -5.316726 1.858320 7.885149 0.000000 -1.570793 -1.711443
    18 -5.320000 1.887550 5.035499 0.000000 0.000000 0.575942
    19 -5.271080 1.859040 5.035499 0.000000 0.000000 -0.766488
    20 -5.269850 1.858320 -7.875906 0.000000 -1.570793 -1.711443
    21 -5.271080 1.887550 -5.026376 0.000000 0.000000 0.575942
    22 -5.271080 1.859040 -5.026376 0.000000 0.000000 -0.767261
    23 6.127056 4.060575 0.000002 3.141593 0.000000 -3.141593
  time 53
    0 0.000616 0.675802 -1.394990 1.570800 0.000000 1.570774
    1 -5.676169 -10.205956 -0.036927 3.141592 0.366504 -3.141592
    2 -12.201421 1.904737 0.015999 3.141593 0.000000 -3.141593
    3 -6.284104 10.169356 -10.201057 0.000000 1.570451 0.000000
    4 -6.284104 10.157806 10.244704 0.000000 1.570451 0.000000
    5 -6.284104 -10.225493 10.233214 0.000000 1.570451 0.000000
    6 -6.284114 -10.177173 -10.201057 0.000000 1.570451 0.000000
    7 -1.762286 5.911245 0.000001 -3.141593 0.000003 -3.577925
    8 -2.841770 -0.132410 -7.037760 -3.141593 -0.339600 -3.141593
    9 -6.216227 0.000000 -0.009537 -6.283185 -0.436329 -6.283090
    10 -6.044680 0.000000 -0.123808 -6.283185 -0.261771 -6.283090
    11 -2.841770 -7.400337 0.154318 3.141593 -0.000003 -3.454622
    12 -6.216227 0.011104 0.009509 0.000000 0.000000 -0.436332
    13 -6.044683 0.123417 0.123833 0.000000 0.000000 6.021298
    14 -2.841769 -0.132410 6.858286 -3.141593 0.345376 -3.141593
    15 -6.216226 0.000000 0.009509 -6.283185 0.436293 -6.283090
    16 -6.044682 0.000000 0.123834 -6.283185 0.261783 -6.283185
    17 -5.316726 1.858320 7.885149 0.000000 -1.570793 -1.650359
    18 -5.320000 1.887550 5.035499 0.000000 0.000000 0.575942
    19 -5.271080 1.859040 5.035499 0.000000 0.000000 -0.766488
    20 -5.269850 1.858320 -7.875906 0.000000 -1.570793 -1.650359
    21 -5.271080 1.887550 -5.026376 0.000000 0.000000 0.575942
    22 -5.271080 1.859040 -5.026376 0.000000 0.000000 -0.767261
    23 6.127056 4.060575 0.000002 3.141593 0.000000 -3.141593
  time 54
    0 0.000616 0.675802 -1.394990 1.570800 0.000000 1.570774
    1 -5.676169 -10.205956 -0.036927 3.141592 0.314119 3.141592
    2 -12.201421 1.904737 0.015999 3.141593 0.000000 -3.141593
    3 -6.284104 10.169356 -10.201057 0.000000 1.570451 0.000000
    4 -6.284104 10.157806 10.244704 0.000000 1.570451 0.000000
    5 -6.284104 -10.225493 10.233214 0.000000 1.570451 0.000000
    6 -6.284114 -10.177173 -10.201057 0.000000 1.570451 0.000000
    7 -1.762286 5.911245 0.000001 -3.141593 0.000003 -3.577925
    8 -2.841770 -0.132410 -7.037760 -3.141593 -0.339600 -3.141593
    9 -6.216227 0.000000 -0.009537 -6.283185 -0.436329 -6.283090
    10 -6.044680 0.000000 -0.123808 -6.283185 -0.261771 -6.283090
    11 -2.841770 -7.400337 0.154318 3.141593 -0.000003 -3.454622
    12 -6.216227 0.011104 0.009509 0.000000 0.000000 -0.436332
    13 -6.044683 0.123417 0.123833 0.000000 0.000000 6.021298
    14 -2.841769 -0.132410 6.858286 -3.141593 0.345376 -3.141593
    15 -6.216226 0.000000 0.009509 -6.283185 0.436293 -6.283090
    16 -6.044682 0.000000 0.123834 -6.283185 0.261783 -6.283185
    17 -5.316726 1.858320 7.885149 0.000000 -1.570793 -1.589274
    18 -5.320000 1.887550 5.035499 0.000000 0.000000 0.575942
    19 -5.271080 1.859040 5.035499 0.000000 0.000000 -0.766488
    20 -5.269850 1.858320 -7.875906 0.000000 -1.570793 -1.589274
    21 -5.271080 1.887550 -5.026376 0.000000 0.000000 0.575942
    22 -5.271080 1.859040 -5.026376 0.000000 0.000000 -0.767261
    23 6.127056 4.060575 0.000002 3.141593 0.000000 -3.141593
  time 55
    0 0.000616 0.675802 -1.394990 1.570800 0.000000 1.570774
    1 -5.676169 -10.205956 -0.036927 3.141592 0.261782 -3.141592
    2 -12.201421 1.904737 0.015999 3.141593 0.000000 -3.141593
    3 -6.284104 10.169356 -10.201057 0.000000 1.570451 0.000000
    4 -6.284104 10.157806 10.244704 0.000000 1.570451 0.000000
    5 -6.284104 -10.225493 10.233214 0.000000 1.570451 0.000000
    6 -6.284114 -10.177173 -10.201057 0.000000 1.570451 0.000000
    7 -1.762286 5.911245 0.000001 -3.141593 0.000003 -3.577925
    8 -2.841770 -0.132410 -7.037760 -3.141593 -0.339600 -3.141593
    9 -6.216227 0.000000 -0.009537 -6.283185 -0.436329 -6.283090
    10 -6.044680 0.000000 -0.123808 -6.283185 -0.261771 -6.283090
    11 -2.841770 -7.400337 0.154318 3.141593 -0.000003 -3.454622
    12 -6.216227 0.011104 0.009509 0.000000 0.000000 -0.436332
    13 -6.044683 0.123417 0.123833 0.000000 0.000000 6.021298
    14 -2.841769 -0.132410 6.858286 -3.141593 0.345376 -3.141593
    15 -6.216226 0.000000 0.009509 -6.283185 0.436293 -6.283090
    16 -6.044682 0.000000 0.123834 -6.283185 0.261783 -6.283185
    17 -5.316726 1.858320 7.885149 0.000000 -1.570793 -1.528203
    18 -5.320000 1.887550 5.035499 0.000000 0.000000 0.575942
    19 -5.271080 1.859040 5.035499 0.000000 0.000000 -0.766488
    20 -5.269850 1.858320 -7.875906 0.000000 -1.570793 -1.528203
    21 -5.271080 1.887550 -5.026376 0.000000 0.000000 0.575942
    22 -5.271080 1.859040 -5.026376 0.000000 0.000000 -0.767261
    23 6.127056 4.060575 0.000002 3.141593 0.000000 -3.141593
  time 56
    0 0.000616 0.675802 -1.394990 1.570800 0.000000 1.570774
    1 -5.676169 -10.205956 -0.036927 3.141592 0.209397 3.141592
    2 -12.201421 1.904737 0.015999 3.141593 0.000000 -3.141593
    3 -6.284104 10.169356 -10.201057 0.000000 1.570451 0.000000
    4 -6.284104 10.157806 10.244704 0.000000 1.570451 0.000000
    5 -6.284104 -10.225493 10.233214 0.000000 1.570451 0.000000
    6 -6.284114 -10.177173 -10.201057 0.000000 1.570451 0.000000
    7 -1.762286 5.911245 0.000001 -3.141593 0.000003 -3.577925
    8 -2.841770 -0.132410 -7.037760 -3.141593 -0.339600 -3.141593
    9 -6.216227 0.000000 -0.009537 -6.283185 -0.436329 -6.283090
    10 -6.044680 0.000000 -0.123808 -6.283185 -0.261771 -6.283090
    11 -2.841770 -7.400337 0.154318 3.141593 -0.000003 -3.454622
    12 -6.216227 0.011104 0.009509 0.000000 0.000000 -0.436332
    13 -6.044683 0.123417 0.123833 0.000000 0.000000 6.021298
    14 -2.841769 -0.132410 6.858286 -3.141593 0.345376 -3.141593
    15 -6.216226 0.000000 0.009509 -6.283185 0.436293 -6.283090
    16 -6.044682 0.000000 0.123834 -6.283185 0.261783 -6.283185
    17 -5.316726 1.858320 7.885149 0.000000 -1.570793 -1.566594
    18 -5.320000 1.887550 5.035499 0.000000 0.000000 0.575942
    19 -5.271080 1.859040 5.035499 0.000000 0.000000 -0.766488
    20 -5.269850 1.858320 -7.875906 0.000000 -1.570793 -1.566594
    21 -5.271080 1.887550 -5.026376 0.000000 0.000000 0.575942
    22 -5.271080 1.859040 -5.026376 0.000000 0.000000 -0.767261
    23 6.127056 4.060575 0.000002 3.141593 0.000000 -3.141593
  time 57
    0 0.000616 0.675802 -1.394990 1.570800 0.000000 1.570774
    1 -5.676169 -10.205956 -0.036927 3.141592 0.157059 -3.141592
    2 -12.201421 1.904737 0.015999 3.141593 0.000000 -3.141593
    3 -6.284104 10.169356 -10.201057 0.000000 1.570451 0.000000
    4 -6.284104 10.157806 10.244704 0.000000 1.570451 0.000000
    5 -6.284104 -10.225493 10.233214 0.000000 1.570451 0.000000
    6 -6.284114 -10.177173 -10.201057 0.000000 1.570451 0.000000
    7 -1.762286 5.911245 0.000001 -3.141593 0.000003 -3.577925
    8 -2.841770 -0.132410 -7.037760 -3.141593 -0.339600 -3.141593
    9 -6.216227 0.000000 -0.009537 -6.283185 -0.436329 -6.283090
    10 -6.044680 0.000000 -0.123808 -6.283185 -0.261771 -6.283090
    11 -2.841770 -7.400337 0.154318 3.141593 -0.000003 -3.454622
    12 -6.216227 0.011104 0.009509 0.000000 0.000000 -0.436332
    13 -6.044683 0.123417 0.123833 0.000000 0.000000 6.021298
    14 -2.841769 -0.132410 6.858286 -3.141593 0.345376 -3.141593
    15 -6.216226 0.000000 0.009509 -6.283185 0.436293 -6.283090
    16 -6.044682 0.000000 0.123834 -6.283185 0.261783 -6.283185
    17 -5.316726 1.858320 7.885149 0.000000 -1.570793 -1.604986
    18 -5.320000 1.887550 5.035499 0.000000 0.000000 0.575942
    19 -5.271080 1.859040 5.035499 0.000000 0.000000 -0.766488
    20 -5.269850 1.858320 -7.875906 0.000000 -1.570793 -1.604986
    21 -5.271080 1.887550 -5.026376 0.000000 0.000000 0.575942
    22 -5.271080 1.859040 -5.026376 0.000000 0.000000 -0.767261
    23 6.127056 4.060575 0.000002 3.141593 0.000000 -3.141593
  time 58
    0 0.000616 0.675802 -1.394990 1.570800 0.000000 1.570774
    1 -5.676169 -10.205956 -0.036927 3.141592 0.104674 3.141592
    2 -12.201421 1.904737 0.015999 3.141593 0.000000 -3.141593
    3 -6.284104 10.169356 -10.201057 0.000000 1.570451 0.000000
    4 -6.284104 10.157806 10.244704 0.000000 1.570451 0.000000
    5 -6.284104 -10.225493 10.233214 0.000000 1.570451 0.000000
    6 -6.284114 -10.177173 -10.201057 0.000000 1.570451 0.000000
    7 -1.762286 5.911245 0.000001 -3.141593 0.000003 -3.577925
    8 -2.841770 -0.132410 -7.037760 -3.141593 -0.339600 -3.141593
    9 -6.216227 0.000000 -0.009537 -6.283185 -0.436329 -6.283090
    10 -6.044680 0.000000 -0.123808 -6.283185 -0.261771 -6.283090
    11 -2.841770 -7.400337 0.154318 3.141593 -0.000003 -3.454622
    12 -6.216227 0.011104 0.009509 0.000000 0.000000 -0.436332
    13 -6.044683 0.123417 0.123833 0.000000 0.000000 6.021298
    14 -2.841769 -0.132410 6.858286 -3.141593 0.345376 -3.141593
    15 -6.216226 0.000000 0.009509 -6.283185 0.436293 -6.283090
    16 -6.044682 0.000000 0.123834 -6.283185 0.261783 -6.283185
    17 -5.316726 1.858320 7.885149 0.000000 -1.570793 -1.643377
    18 -5.320000 1.887550 5.035499 0.000000 0.000000 0.575942
    19 -5.271080 1.859040 5.035499 0.000000 0.000000 -0.766488
    20 -5.269850 1.858320 -7.875906 0.000000 -1.570793 -1.643377
    21 -5.271080 1.887550 -5.026376 0.000000 0.000000 0.575942
    22 -5.271080 1.859040 -5.026376 0.000000 0.000000 -0.767261
    23 6.127056 4.060575 0.000002 3.141593 0.000000 -3.141593
  time 59
    0 0.000616 0.675802 -1.394990 1.570800 0.000000 1.570774
    1 -5.676169 -10.205956 -0.036927 3.141592 0.052337 3.141592
    2 -12.201421 1.904737 0.015999 3.141593 0.000000 -3.141593
    3 -6.284104 10.169356 -10.201057 0.000000 1.570451 0.000000
    4 -6.284104 10.157806 10.244704 0.000000 1.570451 0.000000
    5 -6.284104 -10.225493 10.233214 0.000000 1.570451 0.000000
    6 -6.284114 -10.177173 -10.201057 0.000000 1.570451 0.000000
    7 -1.762286 5.911245 0.000001 -3.141593 0.000003 -3.577925
    8 -2.841770 -0.132410 -7.037760 -3.141593 -0.339600 -3.141593
    9 -6.216227 0.000000 -0.009537 -6.283185 -0.436329 -6.283090
    10 -6.044680 0.000000 -0.123808 -6.283185 -0.261771 -6.283090
    11 -2.841770 -7.400337 0.154318 3.141593 -0.000003 -3.454622
    12 -6.216227 0.011104 0.009509 0.000000 0.000000 -0.436332
    13 -6.044683 0.123417 0.123833 0.000000 0.000000 6.021298
    14 -2.841769 -0.132410 6.858286 -3.141593 0.345376 -3.141593
    15 -6.216226 0.000000 0.009509 -6.283185 0.436293 -6.283090
    16 -6.044682 0.000000 0.123834 -6.283185 0.261783 -6.283185
    17 -5.316726 1.858320 7.885149 0.000000 -1.570793 -1.681768
    18 -5.320000 1.887550 5.035499 0.000000 0.000000 0.575942
    19 -5.271080 1.859040 5.035499 0.000000 0.000000 -0.766488
    20 -5.269850 1.858320 -7.875906 0.000000 -1.570793 -1.681768
    21 -5.271080 1.887550 -5.026376 0.000000 0.000000 0.575942
    22 -5.271080 1.859040 -5.026376 0.000000 0.000000 -0.767261
    23 6.127056 4.060575 0.000002 3.141593 0.000000 -3.141593
  time 60
    0 0.000616 0.675802 -1.394990 1.570800 0.000000 1.570774
    1 -5.676169 -10.205956 -0.036927 0.000000 0.000000 0.000000
    2 -12.201421 1.904737 0.015999 3.141593 0.000000 -3.141593
    3 -6.284104 10.169356 -10.201057 0.000000 1.570451 0.000000
    4 -6.284104 10.157806 10.244704 0.000000 1.570451 0.000000
    5 -6.284104 -10.225493 10.233214 0.000000 1.570451 0.000000
    6 -6.284114 -10.177173 -10.201057 0.000000 1.570451 0.000000
    7 -1.762286 5.911245 0.000001 -3.141593 0.000003 -3.577925
    8 -2.841770 -0.132410 -7.037760 -3.141593 -0.339600 -3.141593
    9 -6.216227 0.000000 -0.009537 -6.283185 -0.436329 -6.283090
    10 -6.044680 0.000000 -0.123808 -6.283185 -0.261771 -6.283090
    11 -2.841770 -7.400337 0.154318 3.141593 -0.000003 -3.454622
    12 -6.216227 0.011104 0.009509 0.000000 0.000000 -0.436332
    13 -6.044683 0.123417 0.123833 0.000000 0.000000 6.021298
    14 -2.841769 -0.132410 6.858286 -3.141593 0.345376 -3.141593
    15 -6.216226 0.000000 0.009509 -6.283185 0.436293 -6.283090
    16 -6.044682 0.000000 0.123834 -6.283185 0.261783 -6.283185
    17 -5.316726 1.858320 7.885149 0.000000 -1.570793 -1.720174
    18 -5.320000 1.887550 5.035499 0.000000 0.000000 0.575942
    19 -5.271080 1.859040 5.035499 0.000000 0.000000 -0.766488
    20 -5.269850 1.858320 -7.875906 0.000000 -1.570793 -1.720174
    21 -5.271080 1.887550 -5.026376 0.000000 0.000000 0.575942
    22 -5.271080 1.859040 -5.026376 0.000000 0.000000 -0.767261
    23 6.127056 4.060575 0.000002 3.141593 0.000000 -3.141593
end
