// Created by Crowbar 0.62

$modelname "props_borealis/light_decklight01_lamp_on.mdl"

$staticprop

$bodygroup "Body"
{
	studio "light_decklight01_lamp_on_reference.smd"
}

$surfaceprop "metalpanel"

$contents "solid"

$illumposition 0.017 -3.019 7.82

$cdmaterials "models\props_borealis\"

$cbox 0 0 0 0 0 0

$bbox -2.366 -10.035 -4.045 8.404 10.069 19.685

$animation "a_idle" "light_decklight01_lamp_on_anims\idle.smd" {
	fps 30
}

$sequence "idle" {
	"a_idle"
	fadein 0.2
	fadeout 0.2
}


$collisionmodel "light_decklight01_lamp_on_physics.smd"
{
	$mass 500
	$inertia 1
	$damping 0
	$rotdamping 0
	$rootbone " "
	$concave

}
