// Created by Crowbar 0.62
version 1
nodes
  0 "Antlion.Body_Bone" -1
  1 "Antlion.Chest_Bone" 0
  2 "Antlion.ArmR1_Bone" 1
  3 "Antlion.ArmR2_Bone" 2
  4 "Antlion.ArmR3_Bone" 3
  5 "Antlion.ArmL1_Bone" 1
  6 "Antlion.ArmL2_Bone" 5
  7 "Antlion.ArmL3_Bone" 6
  8 "Antlion.Head_Bone" 1
  9 "Antlion.FangBottomL1_Bone" 8
  10 "Antlion.FangBottomL2_Bone" 9
  11 "Antlion.FangBottomR1_Bone" 8
  12 "Antlion.FangBottomR2_Bone" 11
  13 "Antlion.FangTopL1_Bone" 8
  14 "Antlion.FangTopL2_Bone" 13
  15 "Antlion.FangTopR1_Bone" 8
  16 "Antlion.FangTopR2_Bone" 15
  17 "Antlion.LegMidL1_Bone" 0
  18 "Antlion.LegMidL2_Bone" 17
  19 "Antlion.LegMidL3_Bone" 18
  20 "Antlion.LegMidR1_Bone" 0
  21 "Antlion.LegMidR2_Bone" 20
  22 "Antlion.LegMidR3_Bone" 21
  23 "Antlion.Back_Bone" 0
  24 "Antlion.LegShoulder_R_Bone" 23
  25 "Antlion.LegL1_Bone" 24
  26 "Antlion.LegL2_Bone" 25
  27 "Antlion.LegL3_Bone" 26
  28 "Antlion.LegShoulder_L_Bone" 23
  29 "Antlion.LegR1_Bone" 28
  30 "Antlion.LegR2_Bone" 29
  31 "Antlion.LegR3_Bone" 30
  32 "Antlion.WingL_Bone" 0
  33 "Antlion.WingR_Bone" 0
  34 "Antlion.bone" 23
  35 "MAXSceneRoot.AntLionMesh" -1
end
skeleton
  time 0
    0 -0.059525 1.526386 16.503931 1.585543 -0.716387 1.692035
    1 -5.577779 -0.123183 0.054230 0.005801 0.067324 -0.203868
    2 -5.512519 -2.697434 -3.989363 0.406049 -0.135640 -0.988854
    3 10.569403 0.000000 -0.000001 0.000000 0.000000 -2.438846
    4 13.357941 0.000000 -0.000001 0.000000 0.000000 2.881863
    5 -5.435714 -2.622672 3.516681 2.747968 0.105413 -1.032852
    6 10.523520 0.000000 -0.000002 0.000000 0.000000 2.454510
    7 13.611951 0.000001 -0.000001 0.000000 0.000000 -2.922756
    8 -8.416650 1.073514 -0.018174 -0.021049 0.012142 -0.688898
    9 -9.984112 -4.710448 3.170794 -2.902516 -0.005451 -2.718086
    10 5.945620 0.000002 0.000000 0.000000 0.000000 0.734168
    11 -9.984112 -4.710445 -2.998742 -0.207130 0.046884 -2.710421
    12 5.945623 0.000001 0.000001 0.000000 0.000000 -0.747104
    13 -13.167568 0.616874 1.590354 3.140739 -0.157522 -3.136151
    14 1.939787 -0.000001 0.000002 3.040688 0.121169 2.449692
    15 -13.157713 0.632506 -1.795554 1.570796 0.016921 -3.058550
    16 2.215698 -0.000001 0.000000 1.570796 -0.608107 -3.124672
    17 -2.622041 -6.273479 8.263164 -2.391201 -0.458655 -1.465050
    18 11.485747 0.000000 -0.000001 0.000000 0.000000 -1.661348
    19 24.536903 0.000002 -0.000001 0.000000 0.000000 1.819971
    20 -2.622040 -6.273479 -8.136835 -0.541520 0.234650 -1.366765
    21 11.659967 0.000003 0.000000 0.000000 0.000000 1.588260
    22 25.724379 -0.000005 -0.000001 0.000000 0.000000 -1.604977
    23 3.880158 -0.980432 0.090609 0.143298 0.187537 -0.201527
    24 13.389691 0.268264 -6.517196 0.542283 1.306249 -0.395924
    25 9.913786 -0.000001 0.000001 2.405226 0.096125 -0.999505
    26 21.016012 0.000001 0.000002 0.000000 0.000000 -1.622922
    27 28.471622 -0.000001 0.000001 0.000000 0.000000 1.669109
    28 13.389685 0.268266 6.023556 -0.462585 -1.348926 -0.488759
    29 9.768895 0.000000 0.000001 -1.598863 -0.461477 -1.489300
    30 19.931137 0.000001 0.000003 0.000000 0.000000 -1.126632
    31 26.044121 0.000001 0.000003 0.000000 0.000000 0.969481
    32 -5.849912 4.319726 0.063162 0.354262 0.136093 0.069680
    33 -5.827133 4.411093 0.063163 -0.476765 0.132216 0.068501
    34 13.389689 0.268266 6.023558 -0.462585 -1.348926 -0.488759
    35 34.613522 0.077740 0.000001 1.570796 0.000000 -1.570796
  time 1
    0 -3.855314 1.526386 16.503931 1.518606 -0.714807 1.766475
    1 -5.577779 -0.123183 0.054230 0.034364 0.054661 -0.203902
    2 -5.512519 -2.697434 -3.989363 0.406049 -0.135640 -0.988854
    3 10.569403 0.000000 -0.000001 0.000000 0.000000 -2.438846
    4 13.357941 0.000000 -0.000001 0.000000 0.000000 2.881863
    5 -5.435714 -2.622672 3.516681 2.747968 0.105413 -1.032852
    6 10.523520 0.000000 -0.000002 0.000000 0.000000 2.454510
    7 13.611951 0.000001 -0.000001 0.000000 0.000000 -2.922756
    8 -8.416650 1.073514 -0.018174 0.001458 -0.005972 -0.679492
    9 -9.984112 -4.710448 3.170794 -2.902516 -0.005451 -2.718086
    10 5.945620 0.000002 0.000000 0.000000 0.000000 0.734168
    11 -9.984112 -4.710445 -2.998742 -0.207130 0.046884 -2.710421
    12 5.945623 0.000001 0.000001 0.000000 0.000000 -0.747104
    13 -13.167568 0.616874 1.590354 3.140739 -0.157522 -3.136151
    14 1.939787 -0.000001 0.000002 3.040688 0.121169 2.449692
    15 -13.157713 0.632506 -1.795554 1.570796 0.016921 -3.058550
    16 2.215698 -0.000001 0.000000 1.570796 -0.608107 -3.124672
    17 -2.622041 -6.273479 8.263164 -2.267827 -0.477929 -1.532078
    18 11.485747 0.000000 -0.000001 0.000000 0.000000 -1.613177
    19 24.536903 0.000002 -0.000001 0.000000 0.000000 1.718889
    20 -2.622040 -6.273479 -8.136835 -0.629183 0.413874 -1.397079
    21 11.659967 0.000003 0.000000 0.000000 0.000000 1.203310
    22 25.724379 -0.000005 -0.000001 0.000000 0.000000 -0.914903
    23 3.880158 -0.980432 0.090609 0.136146 0.171244 -0.202683
    24 13.389691 0.268264 -6.517196 0.542283 1.306249 -0.395924
    25 9.913786 -0.000001 0.000001 2.321996 0.170348 -0.990341
    26 21.016012 0.000001 0.000002 0.000000 0.000000 -1.768190
    27 28.471622 -0.000001 0.000001 0.000000 0.000000 1.930615
    28 13.389685 0.268266 6.023556 -0.462585 -1.348926 -0.488759
    29 9.768895 0.000000 0.000001 -1.650226 -0.449846 -1.492354
    30 19.931137 0.000001 0.000003 0.000000 0.000000 -0.975871
    31 26.044121 0.000001 0.000003 0.000000 0.000000 0.769528
    32 -5.849912 4.319726 0.063162 0.353141 0.137317 0.069022
    33 -5.827133 4.411093 0.063163 -0.477892 0.133449 0.067807
    34 13.389689 0.268266 6.023558 -0.462585 -1.348926 -0.488759
    35 34.612466 0.077740 0.000001 1.570796 0.000000 -1.570796
  time 2
    0 -7.651104 1.526386 16.503931 1.431367 -0.706749 1.863414
    1 -5.577779 -0.123183 0.054230 0.077428 0.019785 -0.203969
    2 -5.512519 -2.697434 -3.989363 0.406049 -0.135640 -0.988854
    3 10.569403 0.000000 -0.000001 0.000000 0.000000 -2.438846
    4 13.357941 0.000000 -0.000001 0.000000 0.000000 2.881863
    5 -5.435714 -2.622672 3.516681 2.747968 0.105413 -1.032852
    6 10.523520 0.000000 -0.000002 0.000000 0.000000 2.454510
    7 13.611951 0.000001 -0.000001 0.000000 0.000000 -2.922756
    8 -8.416650 1.073514 -0.018174 0.028569 -0.031474 -0.668341
    9 -9.984112 -4.710448 3.170794 -2.902516 -0.005451 -2.718086
    10 5.945620 0.000002 0.000000 0.000000 0.000000 0.734168
    11 -9.984112 -4.710445 -2.998742 -0.207130 0.046884 -2.710421
    12 5.945623 0.000001 0.000001 0.000000 0.000000 -0.747104
    13 -13.167568 0.616874 1.590354 3.140739 -0.157522 -3.136151
    14 1.939787 -0.000001 0.000002 3.040688 0.121169 2.449692
    15 -13.157713 0.632506 -1.795554 1.570796 0.016921 -3.058550
    16 2.215698 -0.000001 0.000000 1.570796 -0.608107 -3.124672
    17 -2.622041 -6.273479 8.263164 -2.125090 -0.477106 -1.611619
    18 11.485747 0.000000 -0.000001 0.000000 0.000000 -1.558849
    19 24.536903 0.000002 -0.000001 0.000000 0.000000 1.606252
    20 -2.622040 -6.273479 -8.136835 -0.442374 0.658234 -1.074032
    21 11.659967 0.000003 0.000000 0.000000 0.000000 0.403281
    22 25.724379 -0.000005 -0.000001 0.000000 0.000000 -0.145930
    23 3.880158 -0.980432 0.090609 0.123029 0.134478 -0.205603
    24 13.389691 0.268264 -6.517196 0.542283 1.306249 -0.395924
    25 9.913786 -0.000001 0.000001 2.260235 0.239835 -0.948593
    26 21.016012 0.000001 0.000002 0.000000 0.000000 -1.834283
    27 28.471622 -0.000001 0.000001 0.000000 0.000000 2.055450
    28 13.389685 0.268266 6.023556 -0.462585 -1.348926 -0.488759
    29 9.768895 0.000000 0.000001 -1.735352 -0.509838 -1.462101
    30 19.931137 0.000001 0.000003 0.000000 0.000000 -0.717994
    31 26.044121 0.000001 0.000003 0.000000 0.000000 0.487109
    32 -5.849912 4.319726 0.063162 0.368521 0.122233 0.073353
    33 -5.827133 4.411093 0.063163 -0.462498 0.118373 0.072131
    34 13.389689 0.268266 6.023558 -0.462585 -1.348926 -0.488759
    35 34.611409 0.077740 0.000001 1.570796 0.000000 -1.570796
  time 3
    0 -11.446893 1.526386 16.503931 1.372952 -0.697478 1.924634
    1 -5.577779 -0.123183 0.054230 0.113557 -0.010729 -0.205278
    2 -5.512519 -2.697434 -3.989363 0.406049 -0.135640 -0.988854
    3 10.569403 0.000000 -0.000001 0.000000 0.000000 -2.438846
    4 13.357941 0.000000 -0.000001 0.000000 0.000000 2.881863
    5 -5.435714 -2.622672 3.516681 2.747968 0.105413 -1.032852
    6 10.523520 0.000000 -0.000002 0.000000 0.000000 2.454510
    7 13.611951 0.000001 -0.000001 0.000000 0.000000 -2.922756
    8 -8.416650 1.073514 -0.018174 0.043271 -0.045456 -0.662016
    9 -9.984112 -4.710448 3.170794 -2.902516 -0.005451 -2.718086
    10 5.945620 0.000002 0.000000 0.000000 0.000000 0.734168
    11 -9.984112 -4.710445 -2.998742 -0.207130 0.046884 -2.710421
    12 5.945623 0.000001 0.000001 0.000000 0.000000 -0.747104
    13 -13.167568 0.616874 1.590354 3.140739 -0.157522 -3.136151
    14 1.939787 -0.000001 0.000002 3.040688 0.121169 2.449692
    15 -13.157713 0.632506 -1.795554 1.570796 0.016921 -3.058550
    16 2.215698 -0.000001 0.000000 1.570796 -0.608107 -3.124672
    17 -2.622041 -6.273479 8.263164 -2.020217 -0.472994 -1.670921
    18 11.485747 0.000000 -0.000001 0.000000 0.000000 -1.491695
    19 24.536903 0.000002 -0.000001 0.000000 0.000000 1.471406
    20 -2.622040 -6.273479 -8.136835 -0.362559 0.668924 -1.009506
    21 11.659967 0.000003 0.000000 0.000000 0.000000 0.296408
    22 25.724379 -0.000005 -0.000001 0.000000 0.000000 -0.099759
    23 3.880158 -0.980432 0.090609 0.106640 0.085448 -0.208706
    24 13.389691 0.268264 -6.517196 0.542283 1.306249 -0.395924
    25 9.913786 -0.000001 0.000001 2.178707 0.313669 -0.960812
    26 21.016012 0.000001 0.000002 0.000000 0.000000 -1.876022
    27 28.471622 -0.000001 0.000001 0.000000 0.000000 2.135687
    28 13.389685 0.268266 6.023556 -0.462585 -1.348926 -0.488759
    29 9.768895 0.000000 0.000001 -1.705032 -0.436113 -1.534441
    30 19.931137 0.000001 0.000003 0.000000 0.000000 -1.090127
    31 26.044121 0.000001 0.000003 0.000000 0.000000 0.918708
    32 -5.849912 4.319726 0.063162 0.392893 0.097815 0.080152
    33 -5.827133 4.411093 0.063163 -0.438100 0.093994 0.078804
    34 13.389689 0.268266 6.023558 -0.462585 -1.348926 -0.488759
    35 34.614325 0.077740 0.000001 1.570796 0.000000 -1.570796
  time 4
    0 -15.242682 1.526386 16.503931 1.357726 -0.694318 1.932697
    1 -5.577779 -0.123183 0.054230 0.120872 -0.013819 -0.206150
    2 -5.512519 -2.697434 -3.989363 0.406049 -0.135640 -0.988854
    3 10.569403 0.000000 -0.000001 0.000000 0.000000 -2.438846
    4 13.357941 0.000000 -0.000001 0.000000 0.000000 2.881863
    5 -5.435714 -2.622672 3.516681 2.747968 0.105413 -1.032852
    6 10.523520 0.000000 -0.000002 0.000000 0.000000 2.454510
    7 13.611951 0.000001 -0.000001 0.000000 0.000000 -2.922756
    8 -8.416650 1.073514 -0.018174 0.040214 -0.041494 -0.661976
    9 -9.984112 -4.710448 3.170794 -2.902516 -0.005451 -2.718086
    10 5.945620 0.000002 0.000000 0.000000 0.000000 0.734168
    11 -9.984112 -4.710445 -2.998742 -0.207130 0.046884 -2.710421
    12 5.945623 0.000001 0.000001 0.000000 0.000000 -0.747104
    13 -13.167568 0.616874 1.590354 3.140739 -0.157522 -3.136151
    14 1.939787 -0.000001 0.000002 3.040688 0.121169 2.449692
    15 -13.157713 0.632506 -1.795554 1.570796 0.016921 -3.058550
    16 2.215698 -0.000001 0.000000 1.570796 -0.608107 -3.124672
    17 -2.622041 -6.273479 8.263164 -1.970273 -0.479681 -1.699974
    18 11.485747 0.000000 -0.000001 0.000000 0.000000 -1.407896
    19 24.536903 0.000002 -0.000001 0.000000 0.000000 1.309784
    20 -2.622040 -6.273479 -8.136835 -0.447924 0.577744 -1.185831
    21 11.659967 0.000003 0.000000 0.000000 0.000000 0.565986
    22 25.724379 -0.000005 -0.000001 0.000000 0.000000 -0.235112
    23 3.880158 -0.980432 0.090609 0.089545 0.032413 -0.210653
    24 13.389691 0.268264 -6.517196 0.542283 1.306249 -0.395924
    25 9.913786 -0.000001 0.000001 2.078736 0.373489 -1.040604
    26 21.016012 0.000001 0.000002 0.000000 0.000000 -1.892050
    27 28.471622 -0.000001 0.000001 0.000000 0.000000 2.166783
    28 13.389685 0.268266 6.023556 -0.462585 -1.348926 -0.488759
    29 9.768895 0.000000 0.000001 -1.570935 -0.461477 -1.663566
    30 19.931137 0.000001 0.000003 0.000000 0.000000 -1.444941
    31 26.044121 0.000001 0.000003 0.000000 0.000000 1.484313
    32 -5.849912 4.319726 0.063162 0.418894 0.071234 0.087061
    33 -5.827133 4.411093 0.063163 -0.412077 0.067456 0.085637
    34 13.389689 0.268266 6.023558 -0.462585 -1.348926 -0.488759
    35 34.613268 0.077740 0.000001 1.570796 0.000000 -1.570796
  time 5
    0 -19.038472 1.526386 16.503931 1.361269 -0.694634 1.917134
    1 -5.577779 -0.123183 0.054230 0.119894 -0.009338 -0.206721
    2 -5.512519 -2.697434 -3.989363 0.406049 -0.135640 -0.988854
    3 10.569403 0.000000 -0.000001 0.000000 0.000000 -2.438846
    4 13.357941 0.000000 -0.000001 0.000000 0.000000 2.881863
    5 -5.435714 -2.622672 3.516681 2.747968 0.105413 -1.032852
    6 10.523520 0.000000 -0.000002 0.000000 0.000000 2.454510
    7 13.611951 0.000001 -0.000001 0.000000 0.000000 -2.922756
    8 -8.416650 1.073514 -0.018174 0.028569 -0.029266 -0.664976
    9 -9.984112 -4.710448 3.170794 -2.902516 -0.005451 -2.718086
    10 5.945620 0.000002 0.000000 0.000000 0.000000 0.734168
    11 -9.984112 -4.710445 -2.998742 -0.207130 0.046884 -2.710421
    12 5.945623 0.000001 0.000001 0.000000 0.000000 -0.747104
    13 -13.167568 0.616874 1.590354 3.140739 -0.157522 -3.136151
    14 1.939787 -0.000001 0.000002 3.040688 0.121169 2.449692
    15 -13.157713 0.632506 -1.795554 1.570796 0.016921 -3.058550
    16 2.215698 -0.000001 0.000000 1.570796 -0.608107 -3.124672
    17 -2.622041 -6.273479 8.263164 -1.947362 -0.494413 -1.712052
    18 11.485747 0.000000 -0.000001 0.000000 0.000000 -1.303402
    19 24.536903 0.000002 -0.000001 0.000000 0.000000 1.119727
    20 -2.622040 -6.273479 -8.136835 -0.536257 0.463572 -1.382956
    21 11.659967 0.000003 0.000000 0.000000 0.000000 1.049207
    22 25.724379 -0.000005 -0.000001 0.000000 0.000000 -0.695139
    23 3.880158 -0.980432 0.090609 0.074055 -0.016393 -0.210835
    24 13.389691 0.268264 -6.517196 0.542283 1.306249 -0.395924
    25 9.913786 -0.000001 0.000001 1.972807 0.416310 -1.147797
    26 21.016012 0.000001 0.000002 0.000000 0.000000 -1.897374
    27 28.471622 -0.000001 0.000001 0.000000 0.000000 2.177149
    28 13.389685 0.268266 6.023556 -0.462585 -1.348926 -0.488759
    29 9.768895 0.000000 0.000001 -1.430812 -0.484672 -1.792024
    30 19.931137 0.000001 0.000003 0.000000 0.000000 -1.583392
    31 26.044121 0.000001 0.000003 0.000000 0.000000 1.748228
    32 -5.849912 4.319726 0.063162 0.449392 0.039302 0.094792
    33 -5.827133 4.411093 0.063163 -0.381532 0.035539 0.093271
    34 13.389689 0.268266 6.023558 -0.462585 -1.348926 -0.488759
    35 34.612211 0.077740 0.000001 1.570796 0.000000 -1.570796
  time 6
    0 -22.834261 1.526386 16.503931 1.372378 -0.696162 1.892008
    1 -5.577779 -0.123183 0.054230 0.115607 -0.001816 -0.207157
    2 -5.512519 -2.697434 -3.989363 0.406049 -0.135640 -0.988854
    3 10.569403 0.000000 -0.000001 0.000000 0.000000 -2.438846
    4 13.357941 0.000000 -0.000001 0.000000 0.000000 2.881863
    5 -5.435714 -2.622672 3.516681 2.747968 0.105413 -1.032852
    6 10.523520 0.000000 -0.000002 0.000000 0.000000 2.454510
    7 13.611951 0.000001 -0.000001 0.000000 0.000000 -2.922756
    8 -8.416650 1.073514 -0.018174 0.013458 -0.013756 -0.669396
    9 -9.984112 -4.710448 3.170794 -2.902516 -0.005451 -2.718124
    10 5.945620 0.000002 0.000000 0.000000 0.000000 0.734118
    11 -9.984112 -4.710445 -2.998742 -0.207130 0.046884 -2.710462
    12 5.945623 0.000001 0.000001 0.000000 0.000000 -0.747104
    13 -13.167568 0.616874 1.590354 3.140739 -0.157522 -3.136151
    14 1.939787 -0.000001 0.000002 3.040688 0.121169 2.449692
    15 -13.157713 0.632506 -1.795554 1.570796 0.016921 -3.058550
    16 2.215698 -0.000001 0.000000 1.570796 -0.608107 -3.124672
    17 -2.622041 -6.273479 8.263164 -1.938447 -0.520731 -1.710964
    18 11.485747 0.000000 -0.000001 0.000000 0.000000 -1.164591
    19 24.536903 0.000002 -0.000001 0.000000 0.000000 0.892308
    20 -2.622040 -6.273479 -8.136835 -0.541616 0.425349 -1.413860
    21 11.659967 0.000003 0.000000 0.000000 0.000000 1.218659
    22 25.724379 -0.000005 -0.000001 0.000000 0.000000 -0.938627
    23 3.880158 -0.980432 0.090609 0.062476 -0.052662 -0.208888
    24 13.389691 0.268264 -6.517196 0.542283 1.306249 -0.395924
    25 9.913786 -0.000001 0.000001 1.875011 0.444403 -1.256933
    26 21.016012 0.000001 0.000002 0.000000 0.000000 -1.901451
    27 28.471622 -0.000001 0.000001 0.000000 0.000000 2.185083
    28 13.389685 0.268266 6.023556 -0.462585 -1.348926 -0.488759
    29 9.768895 0.000000 0.000001 -1.370458 -0.474553 -1.833252
    30 19.931137 0.000001 0.000003 0.000000 0.000000 -1.618085
    31 26.044121 0.000001 0.000003 0.000000 0.000000 1.819361
    32 -5.849912 4.319726 0.063162 0.486954 -0.000882 0.103290
    33 -5.827133 4.411093 0.063163 -0.343892 -0.004561 0.101599
    34 13.389689 0.268266 6.023558 -0.462585 -1.348926 -0.488759
    35 34.615128 0.077740 0.000001 1.570796 0.000000 -1.570796
  time 7
    0 -26.630050 1.526386 16.503931 1.379751 -0.696952 1.871570
    1 -5.577779 -0.123183 0.054230 0.112990 0.004174 -0.207694
    2 -5.512519 -2.697434 -3.989363 0.406049 -0.135640 -0.988854
    3 10.569403 0.000000 -0.000001 0.000000 0.000000 -2.438846
    4 13.357941 0.000000 -0.000001 0.000000 0.000000 2.881863
    5 -5.435714 -2.622672 3.516681 2.747968 0.105413 -1.032852
    6 10.523520 0.000000 -0.000002 0.000000 0.000000 2.454510
    7 13.611951 0.000001 -0.000001 0.000000 0.000000 -2.922756
    8 -8.416650 1.073514 -0.018174 0.000000 0.000000 -0.673369
    9 -9.984112 -4.710448 3.170794 -2.902516 -0.005451 -2.718124
    10 5.945620 0.000002 0.000000 0.000000 0.000000 0.734118
    11 -9.984112 -4.710445 -2.998742 -0.207130 0.046872 -2.710462
    12 5.945623 0.000001 0.000001 0.000000 0.000000 -0.747104
    13 -13.167568 0.616874 1.590354 3.140739 -0.157522 -3.136151
    14 1.939787 -0.000001 0.000002 3.040688 0.121169 2.449692
    15 -13.157713 0.632506 -1.795554 1.570796 0.016921 -3.058550
    16 2.215698 -0.000001 0.000000 1.570796 -0.608107 -3.124672
    17 -2.622041 -6.273479 8.263164 -1.932504 -0.571865 -1.695132
    18 11.485747 0.000000 -0.000001 0.000000 0.000000 -0.958511
    19 24.536903 0.000002 -0.000001 0.000000 0.000000 0.607602
    20 -2.622040 -6.273479 -8.136835 -0.530419 0.395630 -1.421838
    21 11.659967 0.000003 0.000000 0.000000 0.000000 1.338563
    22 25.724379 -0.000005 -0.000001 0.000000 0.000000 -1.135541
    23 3.880158 -0.980432 0.090609 0.057217 -0.068110 -0.204873
    24 13.389691 0.268264 -6.517196 0.542283 1.306249 -0.395924
    25 9.913786 -0.000001 0.000001 1.789794 0.465554 -1.344038
    26 21.016012 0.000001 0.000002 0.000000 0.000000 -1.912891
    27 28.471622 -0.000001 0.000001 0.000000 0.000000 2.207414
    28 13.389685 0.268266 6.023556 -0.462585 -1.348926 -0.488759
    29 9.768895 0.000000 0.000001 -1.425647 -0.445969 -1.767974
    30 19.931137 0.000001 0.000003 0.000000 0.000000 -1.601564
    31 26.044121 0.000001 0.000003 0.000000 0.000000 1.785299
    32 -5.849912 4.319726 0.063162 0.524216 -0.041351 0.110309
    33 -5.827133 4.411093 0.063163 -0.306572 -0.044970 0.108485
    34 13.389689 0.268266 6.023558 -0.462585 -1.348926 -0.488759
    35 34.614071 0.077740 0.000001 1.570796 0.000000 -1.570796
  time 8
    0 -30.425840 1.526386 16.508204 1.362706 -0.701376 1.853289
    1 -5.577779 -0.123183 0.054230 0.109491 0.024006 -0.205848
    2 -5.512519 -2.697434 -3.989363 0.406049 -0.135640 -0.988854
    3 10.569403 0.000000 -0.000001 0.000000 0.000000 -2.438846
    4 13.357941 0.000000 -0.000001 0.000000 0.000000 2.881863
    5 -5.435714 -2.622672 3.516681 2.747968 0.105413 -1.032852
    6 10.523520 0.000000 -0.000002 0.000000 0.000000 2.454510
    7 13.611951 0.000001 -0.000001 0.000000 0.000000 -2.922756
    8 -8.416650 1.073514 -0.018174 0.003076 0.018935 -0.679208
    9 -9.984112 -4.710448 3.170794 -2.902516 -0.005523 -2.717786
    10 5.945620 0.000002 0.000000 0.000000 0.000000 0.734813
    11 -9.984112 -4.710445 -2.998742 -0.207118 0.046932 -2.710179
    12 5.945623 0.000001 0.000001 0.000000 0.000000 -0.747662
    13 -13.167568 0.616874 1.590354 3.140739 -0.157522 -3.136151
    14 1.939787 -0.000001 0.000002 3.040688 0.121169 2.449692
    15 -13.157713 0.632506 -1.795554 1.570796 0.016921 -3.058550
    16 2.215698 -0.000001 0.000000 1.570796 -0.608107 -3.124672
    17 -2.622041 -6.273479 8.263164 -1.972574 -0.840048 -1.530936
    18 11.485747 0.000000 -0.000001 0.000000 0.000000 -0.322772
    19 24.536903 0.000002 -0.000001 0.000000 0.000000 0.113744
    20 -2.622040 -6.273479 -8.136835 -0.502570 0.386714 -1.419710
    21 11.659967 0.000003 0.000000 0.000000 0.000000 1.448217
    22 25.724379 -0.000005 -0.000001 0.000000 0.000000 -1.333329
    23 3.880158 -0.980432 0.090609 0.070655 -0.058930 -0.208523
    24 13.389691 0.268264 -6.517196 0.542283 1.306249 -0.395924
    25 9.913786 -0.000001 0.000001 1.667692 0.492350 -1.443269
    26 21.016012 0.000001 0.000002 0.000000 0.000000 -1.937641
    27 28.471622 -0.000001 0.000001 0.000000 0.000000 2.256426
    28 13.389685 0.268266 6.023556 -0.462585 -1.348926 -0.488759
    29 9.768895 0.000000 0.000001 -1.541188 -0.445247 -1.674637
    30 19.931137 0.000001 0.000003 0.000000 0.000000 -1.575505
    31 26.044121 0.000001 0.000003 0.000000 0.000000 1.732350
    32 -5.849912 4.319726 0.063162 0.523890 -0.040896 0.110254
    33 -5.827133 4.411093 0.063163 -0.306905 -0.044521 0.108432
    34 13.389689 0.268266 6.023558 -0.462585 -1.348926 -0.488759
    35 -22.323866 0.077740 0.000001 1.570796 0.000000 -1.570796
  time 9
    0 -34.221629 1.526386 16.508204 1.365004 -0.706064 1.831726
    1 -5.577779 -0.123183 0.054230 0.106117 0.041715 -0.204204
    2 -5.512519 -2.697434 -3.989363 0.406049 -0.135640 -0.988854
    3 10.569403 0.000000 -0.000001 0.000000 0.000000 -2.438846
    4 13.357941 0.000000 -0.000001 0.000000 0.000000 2.881863
    5 -5.435714 -2.622672 3.516681 2.747968 0.105413 -1.032852
    6 10.523520 0.000000 -0.000002 0.000000 0.000000 2.454510
    7 13.611951 0.000001 -0.000001 0.000000 0.000000 -2.922756
    8 -8.416650 1.073514 -0.018174 0.001440 0.030795 -0.684560
    9 -9.984112 -4.710448 3.170794 -2.902516 -0.005499 -2.717898
    10 5.945620 0.000002 0.000000 0.000000 0.000000 0.734615
    11 -9.984112 -4.710445 -2.998742 -0.207130 0.046920 -2.710259
    12 5.945623 0.000001 0.000001 0.000000 0.000000 -0.747510
    13 -13.167568 0.616874 1.590354 3.140739 -0.157522 -3.136151
    14 1.939787 -0.000001 0.000002 3.040688 0.121169 2.449692
    15 -13.157713 0.632506 -1.795554 1.570796 0.016921 -3.058550
    16 2.215698 -0.000001 0.000000 1.570796 -0.608107 -3.124672
    17 -2.622041 -6.273479 8.263164 -2.026160 -0.785803 -1.518694
    18 11.485747 0.000000 -0.000001 0.000000 0.000000 -0.469052
    19 24.536903 0.000002 -0.000001 0.000000 0.000000 0.185283
    20 -2.622040 -6.273479 -8.136835 -0.480845 0.363434 -1.418056
    21 11.659967 0.000003 0.000000 0.000000 0.000000 1.523209
    22 25.724379 -0.000005 -0.000001 0.000000 0.000000 -1.476411
    23 3.880158 -0.980432 0.090609 0.084061 -0.049726 -0.211991
    24 13.389691 0.268264 -6.517196 0.542283 1.306249 -0.395924
    25 9.913786 -0.000001 0.000001 1.591649 0.492999 -1.517971
    26 21.016012 0.000001 0.000002 0.000000 0.000000 -1.947552
    27 28.471622 -0.000001 0.000001 0.000000 0.000000 2.276454
    28 13.389685 0.268266 6.023556 -0.462585 -1.348926 -0.488759
    29 9.768895 0.000000 0.000001 -1.595325 -0.444130 -1.615944
    30 19.931137 0.000001 0.000003 0.000000 0.000000 -1.554508
    31 26.044121 0.000001 0.000003 0.000000 0.000000 1.691437
    32 -5.849912 4.319726 0.063162 0.525715 -0.042746 0.110528
    33 -5.827133 4.411093 0.063163 -0.305074 -0.046371 0.108699
    34 13.389689 0.268266 6.023558 -0.462585 -1.348926 -0.488759
    35 -22.324923 0.077740 0.000001 1.570796 0.000000 -1.570796
  time 10
    0 -38.017418 1.526386 16.508204 1.407714 -0.710330 1.802475
    1 -5.577779 -0.123183 0.054230 0.092403 0.055982 -0.202995
    2 -5.512519 -2.697434 -3.989363 0.406049 -0.135640 -0.988854
    3 10.569403 0.000000 -0.000001 0.000000 0.000000 -2.438846
    4 13.357941 0.000000 -0.000001 0.000000 0.000000 2.881863
    5 -5.435714 -2.622672 3.516681 2.747968 0.105413 -1.032852
    6 10.523520 0.000000 -0.000002 0.000000 0.000000 2.454510
    7 13.611951 0.000001 -0.000001 0.000000 0.000000 -2.922756
    8 -8.416650 1.073514 -0.018174 -0.012889 0.025445 -0.689588
    9 -9.984112 -4.710448 3.170794 -2.902516 -0.005487 -2.717936
    10 5.945620 0.000002 0.000000 0.000000 0.000000 0.734466
    11 -9.984112 -4.710445 -2.998742 -0.207130 0.046908 -2.710300
    12 5.945623 0.000001 0.000001 0.000000 0.000000 -0.747408
    13 -13.167568 0.616874 1.590354 3.140739 -0.157522 -3.136151
    14 1.939787 -0.000001 0.000002 3.040688 0.121169 2.449692
    15 -13.157713 0.632506 -1.795554 1.570796 0.016921 -3.058550
    16 2.215698 -0.000001 0.000000 1.570796 -0.608107 -3.124672
    17 -2.622041 -6.273479 8.263164 -2.104288 -0.546262 -1.588388
    18 11.485747 0.000000 -0.000001 0.000000 0.000000 -1.293654
    19 24.536903 0.000002 -0.000001 0.000000 0.000000 1.103122
    20 -2.622040 -6.273479 -8.136835 -0.464481 0.296730 -1.420951
    21 11.659967 0.000003 0.000000 0.000000 0.000000 1.585015
    22 25.724379 -0.000005 -0.000001 0.000000 0.000000 -1.598458
    23 3.880158 -0.980432 0.090609 0.095896 -0.028060 -0.213634
    24 13.389691 0.268264 -6.517196 0.542283 1.306249 -0.395924
    25 9.913786 -0.000001 0.000001 1.549561 0.474897 -1.585082
    26 21.016012 0.000001 0.000002 0.000000 0.000000 -1.959049
    27 28.471622 -0.000001 0.000001 0.000000 0.000000 2.299488
    28 13.389685 0.268266 6.023556 -0.462585 -1.348926 -0.488759
    29 9.768895 0.000000 0.000001 -1.606802 -0.447546 -1.565458
    30 19.931137 0.000001 0.000003 0.000000 0.000000 -1.521307
    31 26.044121 0.000001 0.000003 0.000000 0.000000 1.626579
    32 -5.849912 4.319726 0.063162 0.523212 -0.039957 0.110144
    33 -5.827133 4.411093 0.063163 -0.307571 -0.043597 0.108325
    34 13.389689 0.268266 6.023558 -0.462585 -1.348926 -0.488759
    35 -22.322006 0.077740 0.000001 1.570796 0.000000 -1.570796
  time 11
    0 -41.813208 1.526386 16.503931 1.464692 -0.713332 1.769943
    1 -5.577779 -0.123183 0.054230 0.055171 0.065886 -0.202660
    2 -5.512519 -2.697434 -3.989363 0.406049 -0.135640 -0.988854
    3 10.569403 0.000000 -0.000001 0.000000 0.000000 -2.438846
    4 13.357941 0.000000 -0.000001 0.000000 0.000000 2.881863
    5 -5.435714 -2.622672 3.516681 2.747968 0.105413 -1.032852
    6 10.523520 0.000000 -0.000002 0.000000 0.000000 2.454510
    7 13.611951 0.000001 -0.000001 0.000000 0.000000 -2.922756
    8 -8.416650 1.073514 -0.018174 -0.031289 0.013643 -0.694007
    9 -9.984112 -4.710448 3.170794 -2.902516 -0.005475 -2.718011
    10 5.945620 0.000002 0.000000 0.000000 0.000000 0.734366
    11 -9.984112 -4.710445 -2.998742 -0.207130 0.046896 -2.710340
    12 5.945623 0.000001 0.000001 0.000000 0.000000 -0.747307
    13 -13.167568 0.616874 1.590354 3.140739 -0.157522 -3.136151
    14 1.939787 -0.000001 0.000002 3.040688 0.121169 2.449692
    15 -13.157713 0.632506 -1.795554 1.570796 0.016921 -3.058550
    16 2.215698 -0.000001 0.000000 1.570796 -0.608107 -3.124672
    17 -2.622041 -6.273479 8.263164 -2.344900 -0.459085 -1.426205
    18 11.485747 0.000000 -0.000001 0.000000 0.000000 -1.658782
    19 24.536903 0.000002 -0.000001 0.000000 0.000000 1.814575
    20 -2.622040 -6.273479 -8.136835 -0.447063 0.211576 -1.424260
    21 11.659967 0.000003 0.000000 0.000000 0.000000 1.635335
    22 25.724379 -0.000005 -0.000001 0.000000 0.000000 -1.700813
    23 3.880158 -0.980432 0.090609 0.107987 0.015373 -0.212843
    24 13.389691 0.268264 -6.517196 0.542283 1.306249 -0.395924
    25 9.913786 -0.000001 0.000001 1.514945 0.529072 -1.646361
    26 21.016012 0.000001 0.000002 0.000000 0.000000 -1.997560
    27 28.471622 -0.000001 0.000001 0.000000 0.000000 2.378381
    28 13.389685 0.268266 6.023556 -0.462585 -1.348926 -0.488759
    29 9.768895 0.000000 0.000001 -1.593794 -0.451160 -1.536064
    30 19.931137 0.000001 0.000003 0.000000 0.000000 -1.469668
    31 26.044121 0.000001 0.000003 0.000000 0.000000 1.529836
    32 -5.849912 4.319726 0.063162 0.509932 -0.025557 0.108006
    33 -5.827133 4.411093 0.063163 -0.320878 -0.029221 0.106243
    34 13.389689 0.268266 6.023558 -0.462585 -1.348926 -0.488759
    35 -22.323063 0.077740 0.000001 1.570796 0.000000 -1.570796
  time 12
    0 -45.608997 1.526386 16.503931 1.523107 -0.714649 1.738161
    1 -5.577779 -0.123183 0.054230 0.007566 0.072323 -0.202995
    2 -5.512519 -2.697434 -3.989363 0.406049 -0.135640 -0.988854
    3 10.569403 0.000000 -0.000001 0.000000 0.000000 -2.438846
    4 13.357941 0.000000 -0.000001 0.000000 0.000000 2.881863
    5 -5.435714 -2.622672 3.516681 2.747968 0.105413 -1.032852
    6 10.523520 0.000000 -0.000002 0.000000 0.000000 2.454510
    7 13.611951 0.000001 -0.000001 0.000000 0.000000 -2.922756
    8 -8.416650 1.073514 -0.018174 -0.042382 0.005406 -0.696197
    9 -9.984112 -4.710448 3.170794 -2.902516 -0.005475 -2.718011
    10 5.945620 0.000002 0.000000 0.000000 0.000000 0.734317
    11 -9.984112 -4.710445 -2.998742 -0.207130 0.046896 -2.710381
    12 5.945623 0.000001 0.000001 0.000000 0.000000 -0.747256
    13 -13.167568 0.616874 1.590354 3.140739 -0.157522 -3.136151
    14 1.939787 -0.000001 0.000002 3.040688 0.121169 2.449692
    15 -13.157713 0.632506 -1.795554 1.570796 0.016921 -3.058550
    16 2.215698 -0.000001 0.000000 1.570796 -0.608107 -3.124672
    17 -2.622041 -6.273479 8.263164 -2.511220 -0.340261 -1.350962
    18 11.485747 0.000000 -0.000001 0.000000 0.000000 -1.772511
    19 24.536903 0.000002 -0.000001 0.000000 0.000000 2.059152
    20 -2.622040 -6.273479 -8.136835 -0.424860 0.118868 -1.426860
    21 11.659967 0.000003 0.000000 0.000000 0.000000 1.676127
    22 25.724379 -0.000005 -0.000001 0.000000 0.000000 -1.784350
    23 3.880158 -0.980432 0.090609 0.121425 0.072512 -0.210288
    24 13.389691 0.268264 -6.517196 0.542283 1.306249 -0.395924
    25 9.913786 -0.000001 0.000001 1.808237 0.557685 -1.394579
    26 21.016012 0.000001 0.000002 0.000000 0.000000 -2.015400
    27 28.471622 -0.000001 0.000001 0.000000 0.000000 2.415557
    28 13.389685 0.268266 6.023556 -0.462585 -1.348926 -0.488759
    29 9.768895 0.000000 0.000001 -1.569882 -0.455103 -1.524039
    30 19.931137 0.000001 0.000003 0.000000 0.000000 -1.400496
    31 26.044121 0.000001 0.000003 0.000000 0.000000 1.404409
    32 -5.849912 4.319726 0.063162 0.476384 0.010359 0.101810
    33 -5.827133 4.411093 0.063163 -0.354483 0.006648 0.100157
    34 13.389689 0.268266 6.023558 -0.462585 -1.348926 -0.488759
    35 -22.324120 0.077740 0.000001 1.570796 0.000000 -1.570796
  time 13
    0 -49.404786 1.526386 16.503931 1.569934 -0.714965 1.710973
    1 -5.577779 -0.123183 0.054230 -0.021186 0.074493 -0.203432
    2 -5.512519 -2.697434 -3.989363 0.406049 -0.135640 -0.988854
    3 10.569403 0.000000 -0.000001 0.000000 0.000000 -2.438846
    4 13.357941 0.000000 -0.000001 0.000000 0.000000 2.881863
    5 -5.435714 -2.622672 3.516681 2.747968 0.105413 -1.032852
    6 10.523520 0.000000 -0.000002 0.000000 0.000000 2.454510
    7 13.611951 0.000001 -0.000001 0.000000 0.000000 -2.922756
    8 -8.416650 1.073514 -0.018174 -0.041725 0.007614 -0.695953
    9 -9.984112 -4.710448 3.170794 -2.902516 -0.005463 -2.718048
    10 5.945620 0.000002 0.000000 0.000000 0.000000 0.734267
    11 -9.984112 -4.710445 -2.998742 -0.207130 0.046884 -2.710381
    12 5.945623 0.000001 0.000001 0.000000 0.000000 -0.747205
    13 -13.167568 0.616874 1.590354 3.140739 -0.157522 -3.136151
    14 1.939787 -0.000001 0.000002 3.040688 0.121169 2.449692
    15 -13.157713 0.632506 -1.795554 1.570796 0.016921 -3.058550
    16 2.215698 -0.000001 0.000000 1.570796 -0.608107 -3.124672
    17 -2.622041 -6.273479 8.263164 -2.488021 -0.358963 -1.415487
    18 11.485747 0.000000 -0.000001 0.000000 0.000000 -1.748511
    19 24.536903 0.000002 -0.000001 0.000000 0.000000 2.006985
    20 -2.622040 -6.273479 -8.136835 -0.394523 0.030411 -1.427747
    21 11.659967 0.000003 0.000000 0.000000 0.000000 1.708164
    22 25.724379 -0.000005 -0.000001 0.000000 0.000000 -1.851355
    23 3.880158 -0.980432 0.090609 0.133677 0.129453 -0.206698
    24 13.389691 0.268264 -6.517196 0.542283 1.306249 -0.395924
    25 9.913786 -0.000001 0.000001 2.201312 0.381988 -1.058933
    26 21.016012 0.000001 0.000002 0.000000 0.000000 -1.909267
    27 28.471622 -0.000001 0.000001 0.000000 0.000000 2.200376
    28 13.389685 0.268266 6.023556 -0.462585 -1.348926 -0.488759
    29 9.768895 0.000000 0.000001 -1.552953 -0.460162 -1.518981
    30 19.931137 0.000001 0.000003 0.000000 0.000000 -1.316242
    31 26.044121 0.000001 0.000003 0.000000 0.000000 1.261183
    32 -5.849912 4.319726 0.063162 0.428174 0.061074 0.090899
    33 -5.827133 4.411093 0.063163 -0.402791 0.057284 0.089427
    34 13.389689 0.268266 6.023558 -0.462585 -1.348926 -0.488759
    35 -22.325177 0.077740 0.000001 1.570796 0.000000 -1.570796
  time 14
    0 -53.200576 1.526386 16.503931 1.596939 -0.715545 1.684817
    1 -5.577779 -0.123183 0.054230 -0.017087 0.073031 -0.203700
    2 -5.512519 -2.697434 -3.989363 0.406049 -0.135640 -0.988854
    3 10.569403 0.000000 -0.000001 0.000000 0.000000 -2.438846
    4 13.357941 0.000000 -0.000001 0.000000 0.000000 2.881863
    5 -5.435714 -2.622672 3.516681 2.747968 0.105413 -1.032852
    6 10.523520 0.000000 -0.000002 0.000000 0.000000 2.454510
    7 13.611951 0.000001 -0.000001 0.000000 0.000000 -2.922756
    8 -8.416650 1.073514 -0.018174 -0.033831 0.013416 -0.693642
    9 -9.984112 -4.710448 3.170794 -2.902516 -0.005463 -2.718086
    10 5.945620 0.000002 0.000000 0.000000 0.000000 0.734217
    11 -9.984112 -4.710445 -2.998742 -0.207130 0.046884 -2.710421
    12 5.945623 0.000001 0.000001 0.000000 0.000000 -0.747155
    13 -13.167568 0.616874 1.590354 3.140739 -0.157522 -3.136151
    14 1.939787 -0.000001 0.000002 3.040688 0.121169 2.449692
    15 -13.157713 0.632506 -1.795554 1.570796 0.016921 -3.058550
    16 2.215698 -0.000001 0.000000 1.570796 -0.608107 -3.124672
    17 -2.622041 -6.273479 8.263164 -2.453895 -0.420931 -1.431645
    18 11.485747 0.000000 -0.000001 0.000000 0.000000 -1.707580
    19 24.536903 0.000002 -0.000001 0.000000 0.000000 1.918494
    20 -2.622040 -6.273479 -8.136835 -0.426296 0.064919 -1.358552
    21 11.659967 0.000003 0.000000 0.000000 0.000000 1.709812
    22 25.724379 -0.000005 -0.000001 0.000000 0.000000 -1.854849
    23 3.880158 -0.980432 0.090609 0.141983 0.172388 -0.203170
    24 13.389691 0.268264 -6.517196 0.542283 1.306249 -0.395924
    25 9.913786 -0.000001 0.000001 2.369664 0.195197 -0.972383
    26 21.016012 0.000001 0.000002 0.000000 0.000000 -1.730528
    27 28.471622 -0.000001 0.000001 0.000000 0.000000 1.861128
    28 13.389685 0.268266 6.023556 -0.462585 -1.348926 -0.488759
    29 9.768895 0.000000 0.000001 -1.562805 -0.464893 -1.504665
    30 19.931137 0.000001 0.000003 0.000000 0.000000 -1.228312
    31 26.044121 0.000001 0.000003 0.000000 0.000000 1.120518
    32 -5.849912 4.319726 0.063162 0.381671 0.108686 0.078233
    33 -5.827133 4.411093 0.063163 -0.449332 0.104866 0.076935
    34 13.389689 0.268266 6.023558 -0.462585 -1.348926 -0.488759
    35 -22.322261 0.077740 0.000001 1.570796 0.000000 -1.570796
  time 15
    0 -56.996365 1.526386 16.503931 1.585543 -0.716387 1.692035
    1 -5.577779 -0.123183 0.054230 0.005801 0.067324 -0.203868
    2 -5.512519 -2.697434 -3.989363 0.406049 -0.135640 -0.988854
    3 10.569403 0.000000 -0.000001 0.000000 0.000000 -2.438846
    4 13.357941 0.000000 -0.000001 0.000000 0.000000 2.881863
    5 -5.435714 -2.622672 3.516681 2.747968 0.105413 -1.032852
    6 10.523520 0.000000 -0.000002 0.000000 0.000000 2.454510
    7 13.611951 0.000001 -0.000001 0.000000 0.000000 -2.922756
    8 -8.416650 1.073514 -0.018174 -0.021049 0.012142 -0.688898
    9 -9.984112 -4.710448 3.170794 -2.902516 -0.005451 -2.718086
    10 5.945620 0.000002 0.000000 0.000000 0.000000 0.734168
    11 -9.984112 -4.710445 -2.998742 -0.207130 0.046884 -2.710421
    12 5.945623 0.000001 0.000001 0.000000 0.000000 -0.747104
    13 -13.167568 0.616874 1.590354 3.140739 -0.157522 -3.136151
    14 1.939787 -0.000001 0.000002 3.040688 0.121169 2.449692
    15 -13.157713 0.632506 -1.795554 1.570796 0.016921 -3.058550
    16 2.215698 -0.000001 0.000000 1.570796 -0.608107 -3.124672
    17 -2.622041 -6.273479 8.263164 -2.391201 -0.458655 -1.465050
    18 11.485747 0.000000 -0.000001 0.000000 0.000000 -1.661348
    19 24.536903 0.000002 -0.000001 0.000000 0.000000 1.819971
    20 -2.622040 -6.273479 -8.136835 -0.541520 0.234650 -1.366765
    21 11.659967 0.000003 0.000000 0.000000 0.000000 1.588260
    22 25.724379 -0.000005 -0.000001 0.000000 0.000000 -1.604977
    23 3.880158 -0.980432 0.090609 0.143298 0.187537 -0.201527
    24 13.389691 0.268264 -6.517196 0.542283 1.306249 -0.395924
    25 9.913786 -0.000001 0.000001 2.405226 0.096125 -0.999505
    26 21.016012 0.000001 0.000002 0.000000 0.000000 -1.622922
    27 28.471622 -0.000001 0.000001 0.000000 0.000000 1.669109
    28 13.389685 0.268266 6.023556 -0.462585 -1.348926 -0.488759
    29 9.768895 0.000000 0.000001 -1.598863 -0.461477 -1.489300
    30 19.931137 0.000001 0.000003 0.000000 0.000000 -1.126632
    31 26.044121 0.000001 0.000003 0.000000 0.000000 0.969481
    32 -5.849912 4.319726 0.063162 0.354262 0.136093 0.069680
    33 -5.827133 4.411093 0.063163 -0.476765 0.132216 0.068501
    34 13.389689 0.268266 6.023558 -0.462585 -1.348926 -0.488759
    35 -22.323318 0.077740 0.000001 1.570796 0.000000 -1.570796
end
