// Created by Crowbar 0.62
version 1
nodes
  0 "Antlion.Body_Bone" -1
  1 "Antlion.Chest_Bone" 0
  2 "Antlion.ArmR1_Bone" 1
  3 "Antlion.ArmR2_Bone" 2
  4 "Antlion.ArmR3_Bone" 3
  5 "Antlion.ArmL1_Bone" 1
  6 "Antlion.ArmL2_Bone" 5
  7 "Antlion.ArmL3_Bone" 6
  8 "Antlion.Head_Bone" 1
  9 "Antlion.FangBottomL1_Bone" 8
  10 "Antlion.FangBottomL2_Bone" 9
  11 "Antlion.FangBottomR1_Bone" 8
  12 "Antlion.FangBottomR2_Bone" 11
  13 "Antlion.FangTopL1_Bone" 8
  14 "Antlion.FangTopL2_Bone" 13
  15 "Antlion.FangTopR1_Bone" 8
  16 "Antlion.FangTopR2_Bone" 15
  17 "Antlion.LegMidL1_Bone" 0
  18 "Antlion.LegMidL2_Bone" 17
  19 "Antlion.LegMidL3_Bone" 18
  20 "Antlion.LegMidR1_Bone" 0
  21 "Antlion.LegMidR2_Bone" 20
  22 "Antlion.LegMidR3_Bone" 21
  23 "Antlion.Back_Bone" 0
  24 "Antlion.LegShoulder_R_Bone" 23
  25 "Antlion.LegL1_Bone" 24
  26 "Antlion.LegL2_Bone" 25
  27 "Antlion.LegL3_Bone" 26
  28 "Antlion.LegShoulder_L_Bone" 23
  29 "Antlion.LegR1_Bone" 28
  30 "Antlion.LegR2_Bone" 29
  31 "Antlion.LegR3_Bone" 30
  32 "Antlion.WingL_Bone" 0
  33 "Antlion.WingR_Bone" 0
  34 "Antlion.bone" 23
  35 "MAXSceneRoot.AntLionMesh" -1
end
skeleton
  time 0
    0 -0.204061 0.003991 27.580286 1.532491 -0.195256 1.480812
    1 -5.577778 -0.123184 0.054231 0.003405 0.069847 -0.205781
    2 -5.512519 -2.697435 -3.989359 0.393185 -0.134116 -0.907903
    3 10.569403 -0.000002 0.000000 0.000000 0.000000 -2.446638
    4 13.357939 -0.000001 -0.000001 0.000000 0.000000 2.905515
    5 -5.435714 -2.622671 3.516681 2.761736 0.125569 -0.929008
    6 10.523519 0.000000 0.000000 0.000000 0.000000 2.454404
    7 13.611947 0.000000 0.000000 0.000000 0.000000 -2.922465
    8 -8.416649 1.073514 -0.018171 -0.010560 -0.015086 -0.123929
    9 -9.984108 -4.710446 3.170795 -2.902516 -0.005546 -2.717710
    10 5.945618 0.000000 0.000000 0.000000 0.000000 0.735012
    11 -9.984108 -4.710444 -2.998739 -0.223381 0.004087 -2.697966
    12 5.945622 0.000001 0.000000 0.000000 0.000000 -0.753546
    13 -13.167564 0.616876 1.590356 3.140739 -0.157522 -3.136150
    14 1.939787 0.000000 0.000000 3.040688 0.121169 2.449692
    15 -13.157709 0.632507 -1.795553 1.570796 0.016921 -3.058549
    16 2.215697 0.000000 -0.000001 1.570796 -0.608107 -3.124672
    17 -2.622040 -6.273478 8.263164 -2.118571 -0.580554 -1.605091
    18 11.485749 0.000000 0.000000 0.000000 0.000000 -1.346841
    19 24.536901 0.000002 -0.000001 0.000000 0.000000 1.197147
    20 -2.622039 -6.273479 -8.136835 -0.514245 0.685641 -0.863612
    21 11.659969 0.000000 0.000001 0.000000 0.000000 0.403281
    22 25.724377 -0.000001 0.000002 0.000000 0.000000 -0.145930
    23 3.880158 -0.980431 0.090609 0.002502 0.184005 0.433256
    24 13.389689 0.268267 -6.517195 0.542283 1.306249 -0.395924
    25 9.913783 0.000000 0.000001 1.552777 0.459001 -1.767531
    26 21.016014 0.000001 0.000001 0.000000 0.000000 -1.505349
    27 28.471630 -0.000002 0.000002 0.000000 0.000000 1.469924
    28 13.389683 0.268266 6.023556 -0.462585 -1.348926 -0.488759
    29 9.768897 0.000004 -0.000003 -1.717274 -0.339981 -1.733044
    30 19.931139 0.000000 0.000001 0.000000 0.000000 -1.929093
    31 26.044130 0.000002 0.000000 0.000000 0.000000 2.578325
    32 -5.849912 4.319726 0.063164 0.504001 0.071120 0.390106
    33 -5.827132 4.411094 0.063164 -0.287413 0.076872 0.390350
    34 13.389688 0.268266 6.023556 -0.462585 -1.348926 -0.488759
    35 0.000000 0.077740 0.000001 1.570796 0.000000 -1.571863
  time 1
    0 4.551067 -4.751137 27.238423 1.541110 -0.184722 1.486812
    1 -5.577778 -0.123184 0.054231 0.002396 0.059849 -0.217394
    2 -5.512519 -2.697435 -3.989359 0.388066 -0.130183 -0.881608
    3 10.569403 -0.000002 0.000000 0.000000 0.000000 -2.449725
    4 13.357939 -0.000001 -0.000001 0.000000 0.000000 2.915241
    5 -5.435714 -2.622671 3.516681 2.766646 0.127396 -0.899142
    6 10.523519 0.000000 0.000000 0.000000 0.000000 2.454777
    7 13.611947 0.000000 0.000000 0.000000 0.000000 -2.923630
    8 -8.416649 1.073514 -0.018171 -0.044231 -0.021256 -0.130740
    9 -9.984108 -4.710446 3.170795 -2.902516 -0.005523 -2.717823
    10 5.945618 0.000000 0.000000 0.000000 0.000000 0.734813
    11 -9.984108 -4.710444 -2.998739 -0.223381 0.004075 -2.698047
    12 5.945622 0.000001 0.000000 0.000000 0.000000 -0.753343
    13 -13.167564 0.616876 1.590356 3.140739 -0.157522 -3.136150
    14 1.939787 0.000000 0.000000 3.040688 0.121169 2.449692
    15 -13.157709 0.632507 -1.795553 1.570796 0.016921 -3.058549
    16 2.215697 0.000000 -0.000001 1.570796 -0.608107 -3.124672
    17 -2.622040 -6.273478 8.263164 -2.052331 -0.479216 -1.354988
    18 11.485749 0.000000 0.000000 0.000000 0.000000 -1.442670
    19 24.536901 0.000002 -0.000001 0.000000 0.000000 1.375927
    20 -2.622039 -6.273479 -8.136835 -0.527261 0.659802 -0.771667
    21 11.659969 0.000000 0.000001 0.000000 0.000000 0.420690
    22 25.724377 -0.000001 0.000002 0.000000 0.000000 -0.154330
    23 3.880158 -0.980431 0.090609 0.001636 0.172040 0.455705
    24 13.389689 0.268267 -6.517195 0.542283 1.306249 -0.395924
    25 9.913783 0.000000 0.000001 1.447037 0.386725 -1.691996
    26 21.016014 0.000001 0.000001 0.000000 0.000000 -1.413657
    27 28.471630 -0.000002 0.000002 0.000000 0.000000 1.322759
    28 13.389683 0.268266 6.023556 -0.462585 -1.348926 -0.488759
    29 9.768897 0.000004 -0.000003 -1.661321 -0.349443 -1.804526
    30 19.931139 0.000000 0.000001 0.000000 0.000000 -1.965171
    31 26.044130 0.000002 0.000000 0.000000 0.000000 2.717005
    32 -5.849912 4.319726 0.063164 0.521401 0.088879 0.421634
    33 -5.827132 4.411094 0.063164 -0.269995 0.094638 0.422006
    34 13.389688 0.268266 6.023556 -0.462585 -1.348926 -0.488759
    35 0.002772 0.075965 0.000001 1.570796 0.000000 -1.571863
  time 2
    0 9.306195 -9.506265 26.541878 1.561890 -0.178717 1.500875
    1 -5.577778 -0.123184 0.054231 0.001072 0.043766 -0.235216
    2 -5.512519 -2.697435 -3.989359 0.381022 -0.119244 -0.856719
    3 10.569403 -0.000002 0.000000 0.000000 0.000000 -2.459745
    4 13.357939 -0.000001 -0.000001 0.000000 0.000000 2.952749
    5 -5.435714 -2.622671 3.516681 2.772933 0.123219 -0.869650
    6 10.523519 0.000000 0.000000 0.000000 0.000000 2.461752
    7 13.611947 0.000000 0.000000 0.000000 0.000000 -2.948369
    8 -8.416649 1.073514 -0.018171 -0.040000 -0.021992 -0.135606
    9 -9.984108 -4.710446 3.170795 -2.902516 -0.005499 -2.717898
    10 5.945618 0.000000 0.000000 0.000000 0.000000 0.734615
    11 -9.984108 -4.710444 -2.998739 -0.223381 0.004051 -2.698128
    12 5.945622 0.000001 0.000000 0.000000 0.000000 -0.753191
    13 -13.167564 0.616876 1.590356 3.140739 -0.157522 -3.136150
    14 1.939787 0.000000 0.000000 3.040688 0.121169 2.449692
    15 -13.157709 0.632507 -1.795553 1.570796 0.016921 -3.058549
    16 2.215697 0.000000 -0.000001 1.570796 -0.608107 -3.124672
    17 -2.622040 -6.273478 8.263164 -2.141769 -0.448250 -1.256786
    18 11.485749 0.000000 0.000000 0.000000 0.000000 -1.511021
    19 24.536901 0.000002 -0.000001 0.000000 0.000000 1.509390
    20 -2.622039 -6.273479 -8.136835 -0.695408 0.437361 -0.966547
    21 11.659969 0.000000 0.000001 0.000000 0.000000 1.076659
    22 25.724377 -0.000001 0.000002 0.000000 0.000000 -0.731833
    23 3.880158 -0.980431 0.090609 -0.007633 0.146194 0.474200
    24 13.389689 0.268267 -6.517195 0.542283 1.306249 -0.395924
    25 9.913783 0.000000 0.000001 1.419325 0.406708 -1.604521
    26 21.016014 0.000001 0.000001 0.000000 0.000000 -1.526020
    27 28.471630 -0.000002 0.000002 0.000000 0.000000 1.504284
    28 13.389683 0.268266 6.023556 -0.462585 -1.348926 -0.488759
    29 9.768897 0.000004 -0.000003 -1.558787 -0.501296 -1.938423
    30 19.931139 0.000000 0.000001 0.000000 0.000000 -1.928240
    31 26.044130 0.000002 0.000000 0.000000 0.000000 2.575187
    32 -5.849912 4.319726 0.063164 0.534890 0.099551 0.451242
    33 -5.827132 4.411094 0.063164 -0.256497 0.105315 0.451688
    34 13.389688 0.268266 6.023556 -0.462585 -1.348926 -0.488759
    35 0.001570 0.074190 0.000001 1.570796 0.000000 -1.571863
  time 3
    0 14.061323 -14.261393 26.016264 1.586692 -0.184406 1.520844
    1 -5.577778 -0.123184 0.054231 0.000883 0.023558 -0.252165
    2 -5.512519 -2.697435 -3.989359 0.374183 -0.110985 -0.836460
    3 10.569403 -0.000002 0.000000 0.000000 0.000000 -2.466475
    4 13.357939 -0.000001 -0.000001 0.000000 0.000000 2.983468
    5 -5.435714 -2.622671 3.516681 2.779102 0.119509 -0.843892
    6 10.523519 0.000000 0.000000 0.000000 0.000000 2.466065
    7 13.611947 0.000000 0.000000 0.000000 0.000000 -2.967724
    8 -8.416649 1.073514 -0.018171 -0.028853 -0.021539 -0.138931
    9 -9.984108 -4.710446 3.170795 -2.902516 -0.005487 -2.717936
    10 5.945618 0.000000 0.000000 0.000000 0.000000 0.734466
    11 -9.984108 -4.710444 -2.998739 -0.223381 0.004039 -2.698169
    12 5.945622 0.000001 0.000000 0.000000 0.000000 -0.753089
    13 -13.167564 0.616876 1.590356 3.140739 -0.157522 -3.136150
    14 1.939787 0.000000 0.000000 3.040688 0.121169 2.449692
    15 -13.157709 0.632507 -1.795553 1.570796 0.016921 -3.058549
    16 2.215697 0.000000 -0.000001 1.570796 -0.608107 -3.124672
    17 -2.622040 -6.273478 8.263164 -2.257762 -0.420466 -1.196232
    18 11.485749 0.000000 0.000000 0.000000 0.000000 -1.552636
    19 24.536901 0.000002 -0.000001 0.000000 0.000000 1.593452
    20 -2.622039 -6.273479 -8.136835 -0.725554 0.334994 -0.928434
    21 11.659969 0.000000 0.000001 0.000000 0.000000 1.517183
    22 25.724377 -0.000001 0.000002 0.000000 0.000000 -1.465053
    23 3.880158 -0.980431 0.090609 -0.018057 0.107662 0.480101
    24 13.389689 0.268267 -6.517195 0.542283 1.306249 -0.395924
    25 9.913783 0.000000 0.000001 1.415447 0.411768 -1.533707
    26 21.016014 0.000001 0.000001 0.000000 0.000000 -1.608027
    27 28.471630 -0.000002 0.000002 0.000000 0.000000 1.643067
    28 13.389683 0.268266 6.023556 -0.462585 -1.348926 -0.488759
    29 9.768897 0.000004 -0.000003 -1.565100 -0.596968 -1.961518
    30 19.931139 0.000000 0.000001 0.000000 0.000000 -1.861306
    31 26.044130 0.000002 0.000000 0.000000 0.000000 2.379332
    32 -5.849912 4.319726 0.063164 0.533248 0.093944 0.460837
    33 -5.827132 4.411094 0.063164 -0.258136 0.099710 0.461243
    34 13.389688 0.268266 6.023556 -0.462585 -1.348926 -0.488759
    35 0.000369 0.077025 0.000001 1.570796 0.000000 -1.571863
  time 4
    0 18.816451 -19.016521 25.785506 1.607473 -0.197468 1.544751
    1 -5.577778 -0.123184 0.054231 0.002428 0.001250 -0.261160
    2 -5.512519 -2.697435 -3.989359 0.373594 -0.111870 -0.833649
    3 10.569403 -0.000002 0.000000 0.000000 0.000000 -2.466576
    4 13.357939 -0.000001 -0.000001 0.000000 0.000000 2.983888
    5 -5.435714 -2.622671 3.516681 2.781025 0.120236 -0.832817
    6 10.523519 0.000000 0.000000 0.000000 0.000000 2.464734
    7 13.611947 0.000000 0.000000 0.000000 0.000000 -2.962121
    8 -8.416649 1.073514 -0.018171 -0.017351 -0.020888 -0.140674
    9 -9.984108 -4.710446 3.170795 -2.902516 -0.005475 -2.718011
    10 5.945618 0.000000 0.000000 0.000000 0.000000 0.734366
    11 -9.984108 -4.710444 -2.998739 -0.223381 0.004039 -2.698209
    12 5.945622 0.000001 0.000000 0.000000 0.000000 -0.753039
    13 -13.167564 0.616876 1.590356 3.140739 -0.157522 -3.136150
    14 1.939787 0.000000 0.000000 3.040688 0.121169 2.449692
    15 -13.157709 0.632507 -1.795553 1.570796 0.016921 -3.058549
    16 2.215697 0.000000 -0.000001 1.570796 -0.608107 -3.124672
    17 -2.622040 -6.273478 8.263164 -2.398007 -0.390394 -1.170825
    18 11.485749 0.000000 0.000000 0.000000 0.000000 -1.568997
    19 24.536901 0.000002 -0.000001 0.000000 0.000000 1.627077
    20 -2.622039 -6.273479 -8.136835 -0.737421 0.265277 -0.851262
    21 11.659969 0.000000 0.000001 0.000000 0.000000 1.839553
    22 25.724377 -0.000001 0.000002 0.000000 0.000000 -2.129051
    23 3.880158 -0.980431 0.090609 -0.026395 0.044179 0.460329
    24 13.389689 0.268267 -6.517195 0.542283 1.306249 -0.395924
    25 9.913783 0.000000 0.000001 1.421122 0.379653 -1.485295
    26 21.016014 0.000001 0.000001 0.000000 0.000000 -1.658205
    27 28.471630 -0.000002 0.000002 0.000000 0.000000 1.730599
    28 13.389683 0.268266 6.023556 -0.462585 -1.348926 -0.488759
    29 9.768897 0.000004 -0.000003 -1.634062 -0.674701 -1.876580
    30 19.931139 0.000000 0.000001 0.000000 0.000000 -1.779770
    31 26.044130 0.000002 0.000000 0.000000 0.000000 2.175793
    32 -5.849912 4.319726 0.063164 0.514167 0.070465 0.444936
    33 -5.827132 4.411094 0.063164 -0.277244 0.076255 0.445228
    34 13.389688 0.268266 6.023556 -0.462585 -1.348926 -0.488759
    35 0.003141 0.075250 0.000001 1.570796 0.000000 -1.571863
  time 5
    0 23.571579 -23.771649 25.674401 1.616091 -0.212532 1.570627
    1 -5.577778 -0.123184 0.054231 0.004445 -0.021530 -0.257233
    2 -5.512519 -2.697435 -3.989359 0.381090 -0.126176 -0.852006
    3 10.569403 -0.000002 0.000000 0.000000 0.000000 -2.456354
    4 13.357939 -0.000001 -0.000001 0.000000 0.000000 2.939663
    5 -5.435714 -2.622671 3.516681 2.776855 0.126575 -0.842647
    6 10.523519 0.000000 0.000000 0.000000 0.000000 2.454457
    7 13.611947 0.000000 0.000000 0.000000 0.000000 -2.922611
    8 -8.416649 1.073514 -0.018171 0.001031 -0.019077 -0.140836
    9 -9.984108 -4.710446 3.170795 -2.902516 -0.005475 -2.718011
    10 5.945618 0.000000 0.000000 0.000000 0.000000 0.734317
    11 -9.984108 -4.710444 -2.998739 -0.223381 0.004027 -2.698209
    12 5.945622 0.000001 0.000000 0.000000 0.000000 -0.752937
    13 -13.167564 0.616876 1.590356 3.140739 -0.157522 -3.136150
    14 1.939787 0.000000 0.000000 3.040688 0.121169 2.449692
    15 -13.157709 0.632507 -1.795553 1.570796 0.016921 -3.058549
    16 2.215697 0.000000 -0.000001 1.570796 -0.608107 -3.124672
    17 -2.622040 -6.273478 8.263164 -2.544579 -0.350738 -1.163480
    18 11.485749 0.000000 0.000000 0.000000 0.000000 -1.562042
    19 24.536901 0.000002 -0.000001 0.000000 0.000000 1.612755
    20 -2.622039 -6.273479 -8.136835 -0.824509 0.171001 -0.781949
    21 11.659969 0.000000 0.000001 0.000000 0.000000 2.119381
    22 25.724377 -0.000001 0.000002 0.000000 0.000000 -2.705949
    23 3.880158 -0.980431 0.090609 -0.029282 -0.040945 0.419568
    24 13.389689 0.268267 -6.517195 0.542283 1.306249 -0.395924
    25 9.913783 0.000000 0.000001 1.425094 0.319184 -1.450860
    26 21.016014 0.000001 0.000001 0.000000 0.000000 -1.683804
    27 28.471630 -0.000002 0.000002 0.000000 0.000000 1.776476
    28 13.389683 0.268266 6.023556 -0.462585 -1.348926 -0.488759
    29 9.768897 0.000004 -0.000003 -1.740517 -0.717478 -1.707944
    30 19.931139 0.000000 0.000001 0.000000 0.000000 -1.684166
    31 26.044130 0.000002 0.000000 0.000000 0.000000 1.959194
    32 -5.849912 4.319726 0.063164 0.486902 0.036883 0.416589
    33 -5.827132 4.411094 0.063164 -0.304536 0.042657 0.416775
    34 13.389688 0.268266 6.023556 -0.462585 -1.348926 -0.488759
    35 0.001939 0.073475 0.000001 1.570796 0.000000 -1.571863
  time 6
    0 28.326707 -28.526777 25.751320 1.607281 -0.224331 1.596315
    1 -5.577778 -0.123184 0.054231 0.005296 -0.043271 -0.243774
    2 -5.512519 -2.697435 -3.989359 0.387930 -0.142695 -0.874745
    3 10.569403 -0.000002 0.000000 0.000000 0.000000 -2.440465
    4 13.357939 -0.000001 -0.000001 0.000000 0.000000 2.886271
    5 -5.435714 -2.622671 3.516681 2.772595 0.134481 -0.856087
    6 10.523519 0.000000 0.000000 0.000000 0.000000 2.438323
    7 13.611947 0.000000 0.000000 0.000000 0.000000 -2.874588
    8 -8.416649 1.073514 -0.018171 0.014987 -0.018058 -0.139944
    9 -9.984108 -4.710446 3.170795 -2.902516 -0.005463 -2.718048
    10 5.945618 0.000000 0.000000 0.000000 0.000000 0.734267
    11 -9.984108 -4.710444 -2.998739 -0.223381 0.004027 -2.698249
    12 5.945622 0.000001 0.000000 0.000000 0.000000 -0.752937
    13 -13.167564 0.616876 1.590356 3.140739 -0.157522 -3.136150
    14 1.939787 0.000000 0.000000 3.040688 0.121169 2.449692
    15 -13.157709 0.632507 -1.795553 1.570796 0.016921 -3.058549
    16 2.215697 0.000000 -0.000001 1.570796 -0.608107 -3.124672
    17 -2.622040 -6.273478 8.263164 -2.675718 -0.290987 -1.163807
    18 11.485749 0.000000 0.000000 0.000000 0.000000 -1.528864
    19 24.536901 0.000002 -0.000001 0.000000 0.000000 1.545090
    20 -2.622039 -6.273479 -8.136835 -0.314995 -0.050367 -0.786913
    21 11.659969 0.000000 0.000001 0.000000 0.000000 2.284351
    22 25.724377 -0.000001 0.000002 0.000000 0.000000 -3.120208
    23 3.880158 -0.980431 0.090609 -0.023220 -0.122836 0.375886
    24 13.389689 0.268267 -6.517195 0.542283 1.306249 -0.395924
    25 9.913783 0.000000 0.000001 1.433039 0.251708 -1.407446
    26 21.016014 0.000001 0.000001 0.000000 0.000000 -1.697057
    27 28.471630 -0.000002 0.000002 0.000000 0.000000 1.800406
    28 13.389683 0.268266 6.023556 -0.462585 -1.348926 -0.488759
    29 9.768897 0.000004 -0.000003 -1.849937 -0.706504 -1.508960
    30 19.931139 0.000000 0.000001 0.000000 0.000000 -1.564154
    31 26.044130 0.000002 0.000000 0.000000 0.000000 1.709621
    32 -5.849912 4.319726 0.063164 0.457290 -0.001679 0.385391
    33 -5.827132 4.411094 0.063164 -0.334133 0.004098 0.385385
    34 13.389688 0.268266 6.023556 -0.462585 -1.348926 -0.488759
    35 0.000738 0.076310 0.000001 1.570796 0.000000 -1.571863
  time 7
    0 33.081835 -33.281905 26.093183 1.586405 -0.227544 1.619940
    1 -5.577778 -0.123184 0.054231 0.004981 -0.062042 -0.226691
    2 -5.512519 -2.697435 -3.989359 0.393706 -0.150734 -0.905422
    3 10.569403 -0.000002 0.000000 0.000000 0.000000 -2.429939
    4 13.357939 -0.000001 -0.000001 0.000000 0.000000 2.858421
    5 -5.435714 -2.622671 3.516681 2.770335 0.142554 -0.864424
    6 10.523519 0.000000 0.000000 0.000000 0.000000 2.421709
    7 13.611947 0.000000 0.000000 0.000000 0.000000 -2.832749
    8 -8.416649 1.073514 -0.018171 0.017636 -0.019247 -0.137106
    9 -9.984108 -4.710446 3.170795 -2.902516 -0.005463 -2.718048
    10 5.945618 0.000000 0.000000 0.000000 0.000000 0.734217
    11 -9.984108 -4.710444 -2.998739 -0.223381 0.004015 -2.698249
    12 5.945622 0.000001 0.000000 0.000000 0.000000 -0.752886
    13 -13.167564 0.616876 1.590356 3.140739 -0.157522 -3.136150
    14 1.939787 0.000000 0.000000 3.040688 0.121169 2.449692
    15 -13.157709 0.632507 -1.795553 1.570796 0.016921 -3.058549
    16 2.215697 0.000000 -0.000001 1.570796 -0.608107 -3.124672
    17 -2.622040 -6.273478 8.263164 -2.773017 -0.209817 -1.160977
    18 11.485749 0.000000 0.000000 0.000000 0.000000 -1.463933
    19 24.536901 0.000002 -0.000001 0.000000 0.000000 1.417094
    20 -2.622039 -6.273479 -8.136835 0.123030 -0.521420 -1.293966
    21 11.659969 0.000000 0.000001 0.000000 0.000000 2.284094
    22 25.724377 -0.000001 0.000002 0.000000 0.000000 -3.111337
    23 3.880158 -0.980431 0.090609 -0.014400 -0.176617 0.350577
    24 13.389689 0.268267 -6.517195 0.542283 1.306249 -0.395924
    25 9.913783 0.000000 0.000001 1.459899 0.193965 -1.342649
    26 21.016014 0.000001 0.000001 0.000000 0.000000 -1.706175
    27 28.471630 -0.000002 0.000002 0.000000 0.000000 1.816914
    28 13.389683 0.268266 6.023556 -0.462585 -1.348926 -0.488759
    29 9.768897 0.000004 -0.000003 -1.916220 -0.649601 -1.334980
    30 19.931139 0.000000 0.000001 0.000000 0.000000 -1.407530
    31 26.044130 0.000002 0.000000 0.000000 0.000000 1.416958
    32 -5.849912 4.319726 0.063164 0.430259 -0.039359 0.360169
    33 -5.827132 4.411094 0.063164 -0.361169 -0.033593 0.359975
    34 13.389688 0.268266 6.023556 -0.462585 -1.348926 -0.488759
    35 0.003510 0.074535 0.000001 1.570796 0.000000 -1.571863
  time 8
    0 37.836963 -38.037033 26.717083 1.561603 -0.220222 1.639253
    1 -5.577778 -0.123184 0.054231 0.004193 -0.075860 -0.212024
    2 -5.512519 -2.697435 -3.989359 0.398892 -0.154568 -0.938828
    3 10.569403 -0.000002 0.000000 0.000000 0.000000 -2.424474
    4 13.357939 -0.000001 -0.000001 0.000000 0.000000 2.844636
    5 -5.435714 -2.622671 3.516681 2.769010 0.149825 -0.871455
    6 10.523519 0.000000 0.000000 0.000000 0.000000 2.406267
    7 13.611947 0.000000 0.000000 0.000000 0.000000 -2.797459
    8 -8.416649 1.073514 -0.018171 0.011378 -0.022332 -0.131713
    9 -9.984108 -4.710446 3.170795 -2.902516 -0.005451 -2.718086
    10 5.945618 0.000000 0.000000 0.000000 0.000000 0.734168
    11 -9.984108 -4.710444 -2.998739 -0.223381 0.004015 -2.698290
    12 5.945622 0.000001 0.000000 0.000000 0.000000 -0.752836
    13 -13.167564 0.616876 1.590356 3.140739 -0.157522 -3.136150
    14 1.939787 0.000000 0.000000 3.040688 0.121169 2.449692
    15 -13.157709 0.632507 -1.795553 1.570796 0.016921 -3.058549
    16 2.215697 0.000000 -0.000001 1.570796 -0.608107 -3.124672
    17 -2.622040 -6.273478 8.263164 -2.842613 -0.119707 -1.151348
    18 11.485749 0.000000 0.000000 0.000000 0.000000 -1.359041
    19 24.536901 0.000002 -0.000001 0.000000 0.000000 1.219218
    20 -2.622039 -6.273479 -8.136835 0.158248 -0.420704 -1.709784
    21 11.659969 0.000000 0.000001 0.000000 0.000000 2.241345
    22 25.724377 -0.000001 0.000002 0.000000 0.000000 -2.956897
    23 3.880158 -0.980431 0.090609 -0.010039 -0.193010 0.359946
    24 13.389689 0.268267 -6.517195 0.542283 1.306249 -0.395924
    25 9.913783 0.000000 0.000001 1.523268 0.149781 -1.260080
    26 21.016014 0.000001 0.000001 0.000000 0.000000 -1.712461
    27 28.471630 -0.000002 0.000002 0.000000 0.000000 1.828368
    28 13.389683 0.268266 6.023556 -0.462585 -1.348926 -0.488759
    29 9.768897 0.000004 -0.000003 -1.901204 -0.573707 -1.197170
    30 19.931139 0.000000 0.000001 0.000000 0.000000 -1.204064
    31 26.044130 0.000002 0.000000 0.000000 0.000000 1.083447
    32 -5.849912 4.319726 0.063164 0.409810 -0.069583 0.349039
    33 -5.827132 4.411094 0.063164 -0.381609 -0.063829 0.348764
    34 13.389688 0.268266 6.023556 -0.462585 -1.348926 -0.488759
    35 0.002308 0.077370 0.000001 1.570796 0.000000 -1.571863
  time 9
    0 42.592091 -42.792161 27.358075 1.540631 -0.207845 1.652378
    1 -5.577778 -0.123184 0.054231 0.004098 -0.082864 -0.205748
    2 -5.512519 -2.697435 -3.989359 0.401633 -0.155281 -0.958094
    3 10.569403 -0.000002 0.000000 0.000000 0.000000 -2.423614
    4 13.357939 -0.000001 -0.000001 0.000000 0.000000 2.842466
    5 -5.435714 -2.622671 3.516681 2.768335 0.152175 -0.876246
    6 10.523519 0.000000 0.000000 0.000000 0.000000 2.401528
    7 13.611947 0.000000 0.000000 0.000000 0.000000 -2.786763
    8 -8.416649 1.073514 -0.018171 -0.001120 -0.026464 -0.124537
    9 -9.984108 -4.710446 3.170795 -2.902516 -0.005451 -2.718086
    10 5.945618 0.000000 0.000000 0.000000 0.000000 0.734168
    11 -9.984108 -4.710444 -2.998739 -0.223381 0.004015 -2.698290
    12 5.945622 0.000001 0.000000 0.000000 0.000000 -0.752836
    13 -13.167564 0.616876 1.590356 3.140739 -0.157522 -3.136150
    14 1.939787 0.000000 0.000000 3.040688 0.121169 2.449692
    15 -13.157709 0.632507 -1.795553 1.570796 0.016921 -3.058549
    16 2.215697 0.000000 -0.000001 1.570796 -0.608107 -3.124672
    17 -2.622040 -6.273478 8.263164 -2.905019 -0.041827 -1.126321
    18 11.485749 0.000000 0.000000 0.000000 0.000000 -1.195374
    19 24.536901 0.000002 -0.000001 0.000000 0.000000 0.940463
    20 -2.622039 -6.273479 -8.136835 -0.036696 -0.175271 -1.746952
    21 11.659969 0.000000 0.000001 0.000000 0.000000 2.176551
    22 25.724377 -0.000001 0.000002 0.000000 0.000000 -2.819595
    23 3.880158 -0.980431 0.090609 -0.008531 -0.184577 0.394076
    24 13.389689 0.268267 -6.517195 0.542283 1.306249 -0.395924
    25 9.913783 0.000000 0.000001 1.626928 0.108063 -1.178621
    26 21.016014 0.000001 0.000001 0.000000 0.000000 -1.711215
    27 28.471630 -0.000002 0.000002 0.000000 0.000000 1.826064
    28 13.389683 0.268266 6.023556 -0.462585 -1.348926 -0.488759
    29 9.768897 0.000004 -0.000003 -1.851754 -0.524031 -1.108128
    30 19.931139 0.000000 0.000001 0.000000 0.000000 -0.952423
    31 26.044130 0.000002 0.000000 0.000000 0.000000 0.740908
    32 -5.849912 4.319726 0.063164 0.395239 -0.091952 0.362746
    33 -5.827132 4.411094 0.063164 -0.396157 -0.086191 0.362377
    34 13.389688 0.268266 6.023556 -0.462585 -1.348926 -0.488759
    35 0.001106 0.075595 0.000001 1.570796 0.000000 -1.571863
  time 10
    0 47.347219 -47.547289 27.652932 1.531629 -0.196204 1.657253
    1 -5.577778 -0.123184 0.054231 0.005423 -0.081378 -0.211151
    2 -5.512519 -2.697435 -3.989359 0.401157 -0.150906 -0.953877
    3 10.569403 -0.000002 0.000000 0.000000 0.000000 -2.430698
    4 13.357939 -0.000001 -0.000001 0.000000 0.000000 2.860380
    5 -5.435714 -2.622671 3.516681 2.767750 0.143896 -0.880850
    6 10.523519 0.000000 0.000000 0.000000 0.000000 2.419366
    7 13.611947 0.000000 0.000000 0.000000 0.000000 -2.827292
    8 -8.416649 1.073514 -0.018171 -0.017280 -0.030880 -0.116509
    9 -9.984108 -4.710446 3.170795 -2.902516 -0.005451 -2.718086
    10 5.945618 0.000000 0.000000 0.000000 0.000000 0.734168
    11 -9.984108 -4.710444 -2.998739 -0.223381 0.004015 -2.698290
    12 5.945622 0.000001 0.000000 0.000000 0.000000 -0.752836
    13 -13.167564 0.616876 1.590356 3.140739 -0.157522 -3.136150
    14 1.939787 0.000000 0.000000 3.040688 0.121169 2.449692
    15 -13.157709 0.632507 -1.795553 1.570796 0.016921 -3.058549
    16 2.215697 0.000000 -0.000001 1.570796 -0.608107 -3.124672
    17 -2.622040 -6.273478 8.263164 -2.918535 -0.032459 -1.037041
    18 11.485749 0.000000 0.000000 0.000000 0.000000 -1.070017
    19 24.536901 0.000002 -0.000001 0.000000 0.000000 0.753726
    20 -2.622039 -6.273479 -8.136835 -0.297099 -0.005788 -1.541141
    21 11.659969 0.000000 0.000001 0.000000 0.000000 2.148687
    22 25.724377 -0.000001 0.000002 0.000000 0.000000 -2.763881
    23 3.880158 -0.980431 0.090609 -0.006735 -0.160025 0.437819
    24 13.389689 0.268267 -6.517195 0.542283 1.306249 -0.395924
    25 9.913783 0.000000 0.000001 1.764920 0.061219 -1.111325
    26 21.016014 0.000001 0.000001 0.000000 0.000000 -1.700058
    27 28.471630 -0.000002 0.000002 0.000000 0.000000 1.805845
    28 13.389683 0.268266 6.023556 -0.462585 -1.348926 -0.488759
    29 9.768897 0.000004 -0.000003 -1.809956 -0.552417 -1.048575
    30 19.931139 0.000000 0.000001 0.000000 0.000000 -0.596703
    31 26.044130 0.000002 0.000000 0.000000 0.000000 0.378201
    32 -5.849912 4.319726 0.063164 0.384017 -0.108658 0.394602
    33 -5.827132 4.411094 0.063164 -0.407364 -0.102920 0.394140
    34 13.389688 0.268266 6.023556 -0.462585 -1.348926 -0.488759
    35 0.003878 0.073820 0.000001 1.570796 0.000000 -1.571863
  time 11
    0 52.102347 -52.302417 27.486274 1.539961 -0.185828 1.652191
    1 -5.577778 -0.123184 0.054231 0.007440 -0.072182 -0.224173
    2 -5.512519 -2.697435 -3.989359 0.397692 -0.141761 -0.932627
    3 10.569403 -0.000002 0.000000 0.000000 0.000000 -2.443197
    4 13.357939 -0.000001 -0.000001 0.000000 0.000000 2.895368
    5 -5.435714 -2.622671 3.516681 2.768413 0.126501 -0.886325
    6 10.523519 0.000000 0.000000 0.000000 0.000000 2.449026
    7 13.611947 0.000000 0.000000 0.000000 0.000000 -2.905657
    8 -8.416649 1.073514 -0.018171 -0.034382 -0.034871 -0.108602
    9 -9.984108 -4.710446 3.170795 -2.902516 -0.005451 -2.718086
    10 5.945618 0.000000 0.000000 0.000000 0.000000 0.734168
    11 -9.984108 -4.710444 -2.998739 -0.223381 0.004015 -2.698290
    12 5.945622 0.000001 0.000000 0.000000 0.000000 -0.752836
    13 -13.167564 0.616876 1.590356 3.140739 -0.157522 -3.136150
    14 1.939787 0.000000 0.000000 3.040688 0.121169 2.449692
    15 -13.157709 0.632507 -1.795553 1.570796 0.016921 -3.058549
    16 2.215697 0.000000 -0.000001 1.570796 -0.608107 -3.124672
    17 -2.622040 -6.273478 8.263164 -2.912496 -0.069754 -0.976923
    18 11.485749 0.000000 0.000000 0.000000 0.000000 -1.171831
    19 24.536901 0.000002 -0.000001 0.000000 0.000000 0.903586
    20 -2.622039 -6.273479 -8.136835 -0.523145 0.088075 -1.389102
    21 11.659969 0.000000 0.000001 0.000000 0.000000 2.089302
    22 25.724377 -0.000001 0.000002 0.000000 0.000000 -2.646203
    23 3.880158 -0.980431 0.090609 -0.002790 -0.127861 0.475721
    24 13.389689 0.268267 -6.517195 0.542283 1.306249 -0.395924
    25 9.913783 0.000000 0.000001 1.917856 0.004254 -1.066060
    26 21.016014 0.000001 0.000001 0.000000 0.000000 -1.674799
    27 28.471630 -0.000002 0.000002 0.000000 0.000000 1.760288
    28 13.389683 0.268266 6.023556 -0.462585 -1.348926 -0.488759
    29 9.768897 0.000004 -0.000003 -1.731143 -0.549986 -1.085414
    30 19.931139 0.000000 0.000001 0.000000 0.000000 -0.468431
    31 26.044130 0.000002 0.000000 0.000000 0.000000 0.277488
    32 -5.849912 4.319726 0.063164 0.377735 -0.117338 0.426184
    33 -5.827132 4.411094 0.063164 -0.413639 -0.111579 0.425690
    34 13.389688 0.268266 6.023556 -0.462585 -1.348926 -0.488759
    35 0.002677 0.076656 0.000001 1.570796 0.000000 -1.571863
  time 12
    0 56.857475 -57.057545 27.063219 1.560262 -0.179086 1.638503
    1 -5.577778 -0.123184 0.054231 0.008953 -0.057066 -0.239948
    2 -5.512519 -2.697435 -3.989359 0.391418 -0.132568 -0.901701
    3 10.569403 -0.000002 0.000000 0.000000 0.000000 -2.453774
    4 13.357939 -0.000001 -0.000001 0.000000 0.000000 2.928957
    5 -5.435714 -2.622671 3.516681 2.771452 0.108061 -0.890494
    6 10.523519 0.000000 0.000000 0.000000 0.000000 2.468941
    7 13.611947 0.000000 0.000000 0.000000 0.000000 -2.981330
    8 -8.416649 1.073514 -0.018171 -0.049742 -0.037871 -0.101750
    9 -9.984108 -4.710446 3.170795 -2.902516 -0.005451 -2.718086
    10 5.945618 0.000000 0.000000 0.000000 0.000000 0.734168
    11 -9.984108 -4.710444 -2.998739 -0.223381 0.004015 -2.698290
    12 5.945622 0.000001 0.000000 0.000000 0.000000 -0.752836
    13 -13.167564 0.616876 1.590356 3.140739 -0.157522 -3.136150
    14 1.939787 0.000000 0.000000 3.040688 0.121169 2.449692
    15 -13.157709 0.632507 -1.795553 1.570796 0.016921 -3.058549
    16 2.215697 0.000000 -0.000001 1.570796 -0.608107 -3.124672
    17 -2.622040 -6.273478 8.263164 -2.904060 -0.131472 -0.927360
    18 11.485749 0.000000 0.000000 0.000000 0.000000 -1.316400
    19 24.536901 0.000002 -0.000001 0.000000 0.000000 1.142628
    20 -2.622039 -6.273479 -8.136835 -0.589179 0.150816 -1.296743
    21 11.659969 0.000000 0.000001 0.000000 0.000000 2.009366
    22 25.724377 -0.000001 0.000002 0.000000 0.000000 -2.484706
    23 3.880158 -0.980431 0.090609 0.002181 -0.096070 0.492634
    24 13.389689 0.268267 -6.517195 0.542283 1.306249 -0.395924
    25 9.913783 0.000000 0.000001 2.013192 0.035527 -1.004226
    26 21.016014 0.000001 0.000001 0.000000 0.000000 -1.666644
    27 28.471630 -0.000002 0.000002 0.000000 0.000000 1.745635
    28 13.389683 0.268266 6.023556 -0.462585 -1.348926 -0.488759
    29 9.768897 0.000004 -0.000003 -1.663043 -0.404310 -1.130937
    30 19.931139 0.000000 0.000001 0.000000 0.000000 -1.014667
    31 26.044130 0.000002 0.000000 0.000000 0.000000 0.818251
    32 -5.849912 4.319726 0.063164 0.378556 -0.116000 0.439179
    33 -5.827132 4.411094 0.063164 -0.412819 -0.110262 0.438715
    34 13.389688 0.268266 6.023556 -0.462585 -1.348926 -0.488759
    35 0.001475 0.074880 0.000001 1.570796 0.000000 -1.571863
  time 13
    0 61.612603 -61.812673 26.533331 1.584394 -0.183932 1.618346
    1 -5.577778 -0.123184 0.054231 0.009016 -0.037918 -0.253608
    2 -5.512519 -2.697435 -3.989359 0.385190 -0.126176 -0.875076
    3 10.569403 -0.000002 0.000000 0.000000 0.000000 -2.459289
    4 13.357939 -0.000001 -0.000001 0.000000 0.000000 2.950999
    5 -5.435714 -2.622671 3.516681 2.774660 0.098627 -0.889187
    6 10.523519 0.000000 0.000000 0.000000 0.000000 2.473680
    7 13.611947 0.000000 0.000000 0.000000 0.000000 -3.018730
    8 -8.416649 1.073514 -0.018171 -0.060605 -0.039456 -0.097006
    9 -9.984108 -4.710446 3.170795 -2.902516 -0.005451 -2.718086
    10 5.945618 0.000000 0.000000 0.000000 0.000000 0.734118
    11 -9.984108 -4.710444 -2.998739 -0.223381 0.004015 -2.698290
    12 5.945622 0.000001 0.000000 0.000000 0.000000 -0.752836
    13 -13.167564 0.616876 1.590356 3.140739 -0.157522 -3.136150
    14 1.939787 0.000000 0.000000 3.040688 0.121169 2.449692
    15 -13.157709 0.632507 -1.795553 1.570796 0.016921 -3.058549
    16 2.215697 0.000000 -0.000001 1.570796 -0.608107 -3.124672
    17 -2.622040 -6.273478 8.263164 -2.878944 -0.227017 -0.890037
    18 11.485749 0.000000 0.000000 0.000000 0.000000 -1.483144
    19 24.536901 0.000002 -0.000001 0.000000 0.000000 1.454801
    20 -2.622039 -6.273479 -8.136835 -0.621909 0.194529 -1.255380
    21 11.659969 0.000000 0.000001 0.000000 0.000000 1.917017
    22 25.724377 -0.000001 0.000002 0.000000 0.000000 -2.293303
    23 3.880158 -0.980431 0.090609 0.005933 -0.059876 0.478945
    24 13.389689 0.268267 -6.517195 0.542283 1.306249 -0.395924
    25 9.913783 0.000000 0.000001 2.067103 0.071665 -0.963774
    26 21.016014 0.000001 0.000001 0.000000 0.000000 -1.670778
    27 28.471630 -0.000002 0.000002 0.000000 0.000000 1.753121
    28 13.389683 0.268266 6.023556 -0.462585 -1.348926 -0.488759
    29 9.768897 0.000004 -0.000003 -1.606611 -0.392088 -1.156037
    30 19.931139 0.000000 0.000001 0.000000 0.000000 -1.275634
    31 26.044130 0.000002 0.000000 0.000000 0.000000 1.194980
    32 -5.849912 4.319726 0.063164 0.385933 -0.105755 0.430132
    33 -5.827132 4.411094 0.063164 -0.405455 -0.100006 0.429694
    34 13.389688 0.268266 6.023556 -0.462585 -1.348926 -0.488759
    35 0.000274 0.077716 0.000001 1.570796 0.000000 -1.571863
  time 14
    0 66.367731 -66.567801 26.058997 1.604791 -0.197732 1.593877
    1 -5.577778 -0.123184 0.054231 0.007188 -0.016601 -0.260354
    2 -5.512519 -2.697435 -3.989359 0.380320 -0.121063 -0.856554
    3 10.569403 -0.000002 0.000000 0.000000 0.000000 -2.462983
    4 13.357939 -0.000001 -0.000001 0.000000 0.000000 2.966534
    5 -5.435714 -2.622671 3.516681 2.775504 0.100212 -0.883028
    6 10.523519 0.000000 0.000000 0.000000 0.000000 2.473201
    7 13.611947 0.000000 0.000000 0.000000 0.000000 -3.014656
    8 -8.416649 1.073514 -0.018171 -0.064231 -0.039286 -0.095465
    9 -9.984108 -4.710446 3.170795 -2.902516 -0.005451 -2.718086
    10 5.945618 0.000000 0.000000 0.000000 0.000000 0.734118
    11 -9.984108 -4.710444 -2.998739 -0.223381 0.004015 -2.698290
    12 5.945622 0.000001 0.000000 0.000000 0.000000 -0.752836
    13 -13.167564 0.616876 1.590356 3.140739 -0.157522 -3.136150
    14 1.939787 0.000000 0.000000 3.040688 0.121169 2.449692
    15 -13.157709 0.632507 -1.795553 1.570796 0.016921 -3.058549
    16 2.215697 0.000000 -0.000001 1.570796 -0.608107 -3.124672
    17 -2.622040 -6.273478 8.263164 -2.824207 -0.359213 -0.876218
    18 11.485749 0.000000 0.000000 0.000000 0.000000 -1.626402
    19 24.536901 0.000002 -0.000001 0.000000 0.000000 1.746218
    20 -2.622039 -6.273479 -8.136835 -0.648323 0.230274 -1.250239
    21 11.659969 0.000000 0.000001 0.000000 0.000000 1.814213
    22 25.724377 -0.000001 0.000002 0.000000 0.000000 -2.075151
    23 3.880158 -0.980431 0.090609 0.006350 -0.013731 0.444207
    24 13.389689 0.268267 -6.517195 0.542283 1.306249 -0.395924
    25 9.913783 0.000000 0.000001 2.070129 0.141347 -0.947019
    26 21.016014 0.000001 0.000001 0.000000 0.000000 -1.707704
    27 28.471630 -0.000002 0.000002 0.000000 0.000000 1.819730
    28 13.389683 0.268266 6.023556 -0.462585 -1.348926 -0.488759
    29 9.768897 0.000004 -0.000003 -1.557353 -0.397674 -1.203755
    30 19.931139 0.000000 0.000001 0.000000 0.000000 -1.448831
    31 26.044130 0.000002 0.000000 0.000000 0.000000 1.491420
    32 -5.849912 4.319726 0.063164 0.397077 -0.089846 0.410997
    33 -5.827132 4.411094 0.063164 -0.394326 -0.084089 0.410636
    34 13.389688 0.268266 6.023556 -0.462585 -1.348926 -0.488759
    35 0.003046 0.075941 0.000001 1.570796 0.000000 -1.571863
  time 15
    0 71.122859 -71.322928 25.772687 1.613410 -0.213270 1.567439
    1 -5.577778 -0.123184 0.054231 0.004729 0.005329 -0.256897
    2 -5.512519 -2.697435 -3.989359 0.377467 -0.118015 -0.846466
    3 10.569403 -0.000002 0.000000 0.000000 0.000000 -2.464755
    4 13.357939 -0.000001 -0.000001 0.000000 0.000000 2.974861
    5 -5.435714 -2.622671 3.516681 2.775271 0.105544 -0.876059
    6 10.523519 0.000000 0.000000 0.000000 0.000000 2.471710
    7 13.611947 0.000000 0.000000 0.000000 0.000000 -2.996392
    8 -8.416649 1.073514 -0.018171 -0.057422 -0.036965 -0.095506
    9 -9.984108 -4.710446 3.170795 -2.902516 -0.005451 -2.718124
    10 5.945618 0.000000 0.000000 0.000000 0.000000 0.734118
    11 -9.984108 -4.710444 -2.998739 -0.223381 0.004015 -2.698290
    12 5.945622 0.000001 0.000000 0.000000 0.000000 -0.752785
    13 -13.167564 0.616876 1.590356 3.140739 -0.157522 -3.136150
    14 1.939787 0.000000 0.000000 3.040688 0.121169 2.449692
    15 -13.157709 0.632507 -1.795553 1.570796 0.016921 -3.058549
    16 2.215697 0.000000 -0.000001 1.570796 -0.608107 -3.124672
    17 -2.622040 -6.273478 8.263164 -2.714830 -0.517727 -0.917131
    18 11.485749 0.000000 0.000000 0.000000 0.000000 -1.723314
    19 24.536901 0.000002 -0.000001 0.000000 0.000000 1.952534
    20 -2.622039 -6.273479 -8.136835 -0.673109 0.267506 -1.263889
    21 11.659969 0.000000 0.000001 0.000000 0.000000 1.696008
    22 25.724377 -0.000001 0.000002 0.000000 0.000000 -1.825816
    23 3.880158 -0.980431 0.090609 0.001892 0.035547 0.402290
    24 13.389689 0.268267 -6.517195 0.542283 1.306249 -0.395924
    25 9.913783 0.000000 0.000001 2.011395 0.260078 -0.974789
    26 21.016014 0.000001 0.000001 0.000000 0.000000 -1.762866
    27 28.471630 -0.000002 0.000002 0.000000 0.000000 1.920634
    28 13.389683 0.268266 6.023556 -0.462585 -1.348926 -0.488759
    29 9.768897 0.000004 -0.000003 -1.526172 -0.396819 -1.276477
    30 19.931139 0.000000 0.000001 0.000000 0.000000 -1.579661
    31 26.044130 0.000002 0.000000 0.000000 0.000000 1.740801
    32 -5.849912 4.319726 0.063164 0.410631 -0.069498 0.386652
    33 -5.827132 4.411094 0.063164 -0.380776 -0.063745 0.386346
    34 13.389688 0.268266 6.023556 -0.462585 -1.348926 -0.488759
    35 0.001844 0.074166 0.000001 1.570796 0.000000 -1.571863
  time 16
    0 75.877987 -76.078056 25.742774 1.604887 -0.223488 1.541095
    1 -5.577778 -0.123184 0.054231 0.003247 0.026599 -0.245754
    2 -5.512519 -2.697435 -3.989359 0.380909 -0.120375 -0.859778
    3 10.569403 -0.000002 0.000000 0.000000 0.000000 -2.463186
    4 13.357939 -0.000001 -0.000001 0.000000 0.000000 2.967444
    5 -5.435714 -2.622671 3.516681 2.774387 0.112592 -0.869962
    6 10.523519 0.000000 0.000000 0.000000 0.000000 2.465959
    7 13.611947 0.000000 0.000000 0.000000 0.000000 -2.967287
    8 -8.416649 1.073514 -0.018171 -0.042400 -0.033003 -0.095790
    9 -9.984108 -4.710446 3.170795 -2.902516 -0.005451 -2.718124
    10 5.945618 0.000000 0.000000 0.000000 0.000000 0.734118
    11 -9.984108 -4.710444 -2.998739 -0.223381 0.004015 -2.698290
    12 5.945622 0.000001 0.000000 0.000000 0.000000 -0.752785
    13 -13.167564 0.616876 1.590356 3.140739 -0.157522 -3.136150
    14 1.939787 0.000000 0.000000 3.040688 0.121169 2.449692
    15 -13.157709 0.632507 -1.795553 1.570796 0.016921 -3.058549
    16 2.215697 0.000000 -0.000001 1.570796 -0.608107 -3.124672
    17 -2.622040 -6.273478 8.263164 -2.521764 -0.655502 -1.049337
    18 11.485749 0.000000 0.000000 0.000000 0.000000 -1.757518
    19 24.536901 0.000002 -0.000001 0.000000 0.000000 2.026565
    20 -2.622039 -6.273479 -8.136835 -0.695599 0.313489 -1.279666
    21 11.659969 0.000000 0.000001 0.000000 0.000000 1.552979
    22 25.724377 -0.000001 0.000002 0.000000 0.000000 -1.534410
    23 3.880158 -0.980431 0.090609 -0.005516 0.081318 0.367673
    24 13.389689 0.268267 -6.517195 0.542283 1.306249 -0.395924
    25 9.913783 0.000000 0.000001 1.894967 0.397754 -1.068837
    26 21.016014 0.000001 0.000001 0.000000 0.000000 -1.793222
    27 28.471630 -0.000002 0.000002 0.000000 0.000000 1.977324
    28 13.389683 0.268266 6.023556 -0.462585 -1.348926 -0.488759
    29 9.768897 0.000004 -0.000003 -1.523398 -0.384729 -1.367714
    30 19.931139 0.000000 0.000001 0.000000 0.000000 -1.683366
    31 26.044130 0.000002 0.000000 0.000000 0.000000 1.957529
    32 -5.849912 4.319726 0.063164 0.425424 -0.046104 0.361814
    33 -5.827132 4.411094 0.063164 -0.365997 -0.040318 0.361630
    34 13.389688 0.268266 6.023556 -0.462585 -1.348926 -0.488759
    35 0.000643 0.077001 0.000001 1.570796 0.000000 -1.571863
  time 17
    0 80.633114 -80.833184 25.960711 1.584586 -0.227070 1.517188
    1 -5.577778 -0.123184 0.054231 0.002900 0.045417 -0.230920
    2 -5.512519 -2.697435 -3.989359 0.387387 -0.126471 -0.885577
    3 10.569403 -0.000002 0.000000 0.000000 0.000000 -2.458581
    4 13.357939 -0.000001 -0.000001 0.000000 0.000000 2.948130
    5 -5.435714 -2.622671 3.516681 2.773011 0.121057 -0.866042
    6 10.523519 0.000000 0.000000 0.000000 0.000000 2.456907
    7 13.611947 0.000000 0.000000 0.000000 0.000000 -2.930542
    8 -8.416649 1.073514 -0.018171 -0.024676 -0.028106 -0.097452
    9 -9.984108 -4.710446 3.170795 -2.902516 -0.005451 -2.718124
    10 5.945618 0.000000 0.000000 0.000000 0.000000 0.734118
    11 -9.984108 -4.710444 -2.998739 -0.223381 0.004015 -2.698290
    12 5.945622 0.000001 0.000000 0.000000 0.000000 -0.752785
    13 -13.167564 0.616876 1.590356 3.140739 -0.157522 -3.136150
    14 1.939787 0.000000 0.000000 3.040688 0.121169 2.449692
    15 -13.157709 0.632507 -1.795553 1.570796 0.016921 -3.058549
    16 2.215697 0.000000 -0.000001 1.570796 -0.608107 -3.124672
    17 -2.622040 -6.273478 8.263164 -2.277509 -0.710783 -1.247700
    18 11.485749 0.000000 0.000000 0.000000 0.000000 -1.725366
    19 24.536901 0.000002 -0.000001 0.000000 0.000000 1.957031
    20 -2.622039 -6.273479 -8.136835 -0.713400 0.368428 -1.284984
    21 11.659969 0.000000 0.000001 0.000000 0.000000 1.362925
    22 25.724377 -0.000001 0.000002 0.000000 0.000000 -1.178217
    23 3.880158 -0.980431 0.090609 -0.010584 0.117662 0.355870
    24 13.389689 0.268267 -6.517195 0.542283 1.306249 -0.395924
    25 9.913783 0.000000 0.000001 1.742410 0.498254 -1.240456
    26 21.016014 0.000001 0.000001 0.000000 0.000000 -1.769039
    27 28.471630 -0.000002 0.000002 0.000000 0.000000 1.932151
    28 13.389683 0.268266 6.023556 -0.462585 -1.348926 -0.488759
    29 9.768897 0.000004 -0.000003 -1.552570 -0.373361 -1.464677
    30 19.931139 0.000000 0.000001 0.000000 0.000000 -1.769006
    31 26.044130 0.000002 0.000000 0.000000 0.000000 2.150567
    32 -5.849912 4.319726 0.063164 0.440542 -0.021145 0.341253
    33 -5.827132 4.411094 0.063164 -0.350885 -0.015378 0.341130
    34 13.389688 0.268266 6.023556 -0.462585 -1.348926 -0.488759
    35 0.003415 0.075226 0.000001 1.570796 0.000000 -1.571863
  time 18
    0 85.388242 -85.588312 26.516238 1.560454 -0.220907 1.497781
    1 -5.577778 -0.123184 0.054231 0.003279 0.060061 -0.216555
    2 -5.512519 -2.697435 -3.989359 0.391554 -0.131953 -0.902528
    3 10.569403 -0.000002 0.000000 0.000000 0.000000 -2.453521
    4 13.357939 -0.000001 -0.000001 0.000000 0.000000 2.928117
    5 -5.435714 -2.622671 3.516681 2.770660 0.126445 -0.873695
    6 10.523519 0.000000 0.000000 0.000000 0.000000 2.449771
    7 13.611947 0.000000 0.000000 0.000000 0.000000 -2.907913
    8 -8.416649 1.073514 -0.018171 -0.009778 -0.022983 -0.101709
    9 -9.984108 -4.710446 3.170795 -2.902516 -0.005451 -2.718124
    10 5.945618 0.000000 0.000000 0.000000 0.000000 0.734118
    11 -9.984108 -4.710444 -2.998739 -0.223381 0.004015 -2.698290
    12 5.945622 0.000001 0.000000 0.000000 0.000000 -0.752785
    13 -13.167564 0.616876 1.590356 3.140739 -0.157522 -3.136150
    14 1.939787 0.000000 0.000000 3.040688 0.121169 2.449692
    15 -13.157709 0.632507 -1.795553 1.570796 0.016921 -3.058549
    16 2.215697 0.000000 -0.000001 1.570796 -0.608107 -3.124672
    17 -2.622040 -6.273478 8.263164 -2.087608 -0.674025 -1.409176
    18 11.485749 0.000000 0.000000 0.000000 0.000000 -1.639172
    19 24.536901 0.000002 -0.000001 0.000000 0.000000 1.772855
    20 -2.622039 -6.273479 -8.136835 -0.711869 0.448671 -1.242794
    21 11.659969 0.000000 0.000001 0.000000 0.000000 1.044057
    22 25.724377 -0.000001 0.000002 0.000000 0.000000 -0.688553
    23 3.880158 -0.980431 0.090609 -0.008435 0.148607 0.373392
    24 13.389689 0.268267 -6.517195 0.542283 1.306249 -0.395924
    25 9.913783 0.000000 0.000001 1.608012 0.527645 -1.441511
    26 21.016014 0.000001 0.000001 0.000000 0.000000 -1.691563
    27 28.471630 -0.000002 0.000002 0.000000 0.000000 1.790489
    28 13.389683 0.268266 6.023556 -0.462585 -1.348926 -0.488759
    29 9.768897 0.000004 -0.000003 -1.601063 -0.363702 -1.564313
    30 19.931139 0.000000 0.000001 0.000000 0.000000 -1.835993
    31 26.044130 0.000002 0.000000 0.000000 0.000000 2.313257
    32 -5.849912 4.319726 0.063164 0.455387 0.003586 0.329574
    33 -5.827132 4.411094 0.063164 -0.336041 0.009366 0.329546
    34 13.389688 0.268266 6.023556 -0.462585 -1.348926 -0.488759
    35 0.002213 0.073451 0.000001 1.570796 0.000000 -1.571863
  time 19
    0 90.143370 -90.343440 27.234150 1.540440 -0.207634 1.485125
    1 -5.577778 -0.123184 0.054231 0.003720 0.068786 -0.206822
    2 -5.512519 -2.697435 -3.989359 0.392800 -0.134534 -0.906497
    3 10.569403 -0.000002 0.000000 0.000000 0.000000 -2.448612
    4 13.357939 -0.000001 -0.000001 0.000000 0.000000 2.911743
    5 -5.435714 -2.622671 3.516681 2.766088 0.127564 -0.900449
    6 10.523519 0.000000 0.000000 0.000000 0.000000 2.449984
    7 13.611947 0.000000 0.000000 0.000000 0.000000 -2.908495
    8 -8.416649 1.073514 -0.018171 -0.003218 -0.018313 -0.110062
    9 -9.984108 -4.710446 3.170795 -2.902516 -0.005451 -2.718124
    10 5.945618 0.000000 0.000000 0.000000 0.000000 0.734118
    11 -9.984108 -4.710444 -2.998739 -0.223381 0.004015 -2.698290
    12 5.945622 0.000001 0.000000 0.000000 0.000000 -0.752785
    13 -13.167564 0.616876 1.590356 3.140739 -0.157522 -3.136150
    14 1.939787 0.000000 0.000000 3.040688 0.121169 2.449692
    15 -13.157709 0.632507 -1.795553 1.570796 0.016921 -3.058549
    16 2.215697 0.000000 -0.000001 1.570796 -0.608107 -3.124672
    17 -2.622040 -6.273478 8.263164 -2.012165 -0.597002 -1.481318
    18 11.485749 0.000000 0.000000 0.000000 0.000000 -1.515296
    19 24.536901 0.000002 -0.000001 0.000000 0.000000 1.517761
    20 -2.622039 -6.273479 -8.136835 -0.474912 0.725597 -0.809958
    21 11.659969 0.000000 0.000001 0.000000 0.000000 0.219923
    22 25.724377 -0.000001 0.000002 0.000000 0.000000 -0.071465
    23 3.880158 -0.980431 0.090609 -0.001796 0.174403 0.404966
    24 13.389689 0.268267 -6.517195 0.542283 1.306249 -0.395924
    25 9.913783 0.000000 0.000001 1.540387 0.502471 -1.617758
    26 21.016014 0.000001 0.000001 0.000000 0.000000 -1.587979
    27 28.471630 -0.000002 0.000002 0.000000 0.000000 1.608388
    28 13.389683 0.268266 6.023556 -0.462585 -1.348926 -0.488759
    29 9.768897 0.000004 -0.000003 -1.656060 -0.348983 -1.660226
    30 19.931139 0.000000 0.000001 0.000000 0.000000 -1.886833
    31 26.044130 0.000002 0.000000 0.000000 0.000000 2.448608
    32 -5.849912 4.319726 0.063164 0.479108 0.039075 0.351616
    33 -5.827132 4.411094 0.063164 -0.312323 0.044842 0.351700
    34 13.389688 0.268266 6.023556 -0.462585 -1.348926 -0.488759
    35 0.001011 0.076286 0.000001 1.570796 0.000000 -1.571863
  time 20
    0 94.898498 -95.098568 27.580286 1.532491 -0.195256 1.480812
    1 -5.577778 -0.123184 0.054231 0.003405 0.069847 -0.205781
    2 -5.512519 -2.697435 -3.989359 0.393185 -0.134116 -0.907903
    3 10.569403 -0.000002 0.000000 0.000000 0.000000 -2.446638
    4 13.357939 -0.000001 -0.000001 0.000000 0.000000 2.905515
    5 -5.435714 -2.622671 3.516681 2.761736 0.125569 -0.929008
    6 10.523519 0.000000 0.000000 0.000000 0.000000 2.454404
    7 13.611947 0.000000 0.000000 0.000000 0.000000 -2.922465
    8 -8.416649 1.073514 -0.018171 -0.010560 -0.015086 -0.123929
    9 -9.984108 -4.710446 3.170795 -2.902516 -0.005546 -2.717710
    10 5.945618 0.000000 0.000000 0.000000 0.000000 0.735012
    11 -9.984108 -4.710444 -2.998739 -0.223381 0.004087 -2.697966
    12 5.945622 0.000001 0.000000 0.000000 0.000000 -0.753546
    13 -13.167564 0.616876 1.590356 3.140739 -0.157522 -3.136150
    14 1.939787 0.000000 0.000000 3.040688 0.121169 2.449692
    15 -13.157709 0.632507 -1.795553 1.570796 0.016921 -3.058549
    16 2.215697 0.000000 -0.000001 1.570796 -0.608107 -3.124672
    17 -2.622040 -6.273478 8.263164 -2.118571 -0.580554 -1.605091
    18 11.485749 0.000000 0.000000 0.000000 0.000000 -1.346841
    19 24.536901 0.000002 -0.000001 0.000000 0.000000 1.197147
    20 -2.622039 -6.273479 -8.136835 -0.514245 0.685641 -0.863612
    21 11.659969 0.000000 0.000001 0.000000 0.000000 0.403281
    22 25.724377 -0.000001 0.000002 0.000000 0.000000 -0.145930
    23 3.880158 -0.980431 0.090609 0.002502 0.184005 0.433256
    24 13.389689 0.268267 -6.517195 0.542283 1.306249 -0.395924
    25 9.913783 0.000000 0.000001 1.552777 0.459001 -1.767531
    26 21.016014 0.000001 0.000001 0.000000 0.000000 -1.505349
    27 28.471630 -0.000002 0.000002 0.000000 0.000000 1.469924
    28 13.389683 0.268266 6.023556 -0.462585 -1.348926 -0.488759
    29 9.768897 0.000004 -0.000003 -1.717274 -0.339981 -1.733044
    30 19.931139 0.000000 0.000001 0.000000 0.000000 -1.929093
    31 26.044130 0.000002 0.000000 0.000000 0.000000 2.578325
    32 -5.849912 4.319726 0.063164 0.504001 0.071120 0.390106
    33 -5.827132 4.411094 0.063164 -0.287413 0.076872 0.390350
    34 13.389688 0.268266 6.023556 -0.462585 -1.348926 -0.488759
    35 0.003783 0.074511 0.000001 1.570796 0.000000 -1.571863
end
