// Created by Crowbar 0.62
version 1
nodes
  0 "Antlion.Body_Bone" -1
  1 "Antlion.Chest_Bone" 0
  2 "Antlion.ArmR1_Bone" 1
  3 "Antlion.ArmR2_Bone" 2
  4 "Antlion.ArmR3_Bone" 3
  5 "Antlion.ArmL1_Bone" 1
  6 "Antlion.ArmL2_Bone" 5
  7 "Antlion.ArmL3_Bone" 6
  8 "Antlion.Head_Bone" 1
  9 "Antlion.FangBottomL1_Bone" 8
  10 "Antlion.FangBottomL2_Bone" 9
  11 "Antlion.FangBottomR1_Bone" 8
  12 "Antlion.FangBottomR2_Bone" 11
  13 "Antlion.FangTopL1_Bone" 8
  14 "Antlion.FangTopL2_Bone" 13
  15 "Antlion.FangTopR1_Bone" 8
  16 "Antlion.FangTopR2_Bone" 15
  17 "Antlion.LegMidL1_Bone" 0
  18 "Antlion.LegMidL2_Bone" 17
  19 "Antlion.LegMidL3_Bone" 18
  20 "Antlion.LegMidR1_Bone" 0
  21 "Antlion.LegMidR2_Bone" 20
  22 "Antlion.LegMidR3_Bone" 21
  23 "Antlion.Back_Bone" 0
  24 "Antlion.LegShoulder_R_Bone" 23
  25 "Antlion.LegL1_Bone" 24
  26 "Antlion.LegL2_Bone" 25
  27 "Antlion.LegL3_Bone" 26
  28 "Antlion.LegShoulder_L_Bone" 23
  29 "Antlion.LegR1_Bone" 28
  30 "Antlion.LegR2_Bone" 29
  31 "Antlion.LegR3_Bone" 30
  32 "Antlion.WingL_Bone" 0
  33 "Antlion.WingR_Bone" 0
  34 "Antlion.bone" 23
  35 "MAXSceneRoot.AntLionMesh" -1
end
skeleton
  time 0
    0 -0.059525 1.526386 -115.301276 0.162333 1.481486 0.217129
    1 -5.577781 -0.123185 0.054231 0.003405 0.069847 -0.048708
    2 -5.512516 -2.697432 -3.989360 0.393185 -0.134116 -0.907903
    3 10.569405 -0.000002 0.000000 0.000000 0.000000 -2.446638
    4 13.357939 0.000004 -0.000001 0.000000 0.000000 2.905515
    5 -5.435713 -2.622674 3.516682 2.761736 0.125569 -0.929008
    6 10.523518 -0.000001 0.000001 0.000000 0.000000 2.454404
    7 13.611947 -0.000005 0.000001 0.000000 0.000000 -2.922465
    8 -8.416648 1.073514 -0.018171 -0.010560 -0.015086 -0.006102
    9 -9.984109 -4.710447 3.170796 -2.902516 -0.005546 -2.717710
    10 5.945611 -0.000002 0.000001 0.000000 0.000000 0.735012
    11 -9.984109 -4.710444 -2.998739 -0.223381 0.004087 -2.697966
    12 5.945621 0.000001 0.000000 0.000000 0.000000 -0.753546
    13 -13.167570 0.616875 1.590356 3.140739 -0.157522 -3.136150
    14 1.939793 0.000001 0.000001 3.040688 0.121169 2.449692
    15 -13.157710 0.632509 -1.795553 1.570796 0.016921 -3.058549
    16 2.215700 0.000000 -0.000001 1.570796 -0.608107 -3.124672
    17 -2.622045 -6.273479 8.263164 -2.760843 0.013168 -0.566487
    18 11.485746 -0.000002 -0.000003 0.000000 0.000000 -2.079834
    19 24.536905 -0.000003 -0.000001 0.000000 0.000000 2.719959
    20 -2.622042 -6.273478 -8.136835 -2.228352 0.376519 -2.256960
    21 11.659971 -0.000001 0.000002 0.000000 0.000000 2.228829
    22 25.724377 0.000003 0.000005 0.000000 0.000000 -2.928670
    23 3.880156 -0.980430 0.090609 0.002502 0.184005 -0.077235
    24 13.389689 0.268264 -6.517196 0.542283 1.306249 -0.395924
    25 9.913786 0.000002 0.000002 1.408732 0.008472 -1.697272
    26 21.016012 0.000001 0.000000 0.000000 0.000000 -1.740439
    27 28.471630 -0.000003 0.000000 0.000000 0.000000 1.879363
    28 13.389681 0.268263 6.023555 -0.462585 -1.348926 -0.488759
    29 9.768897 0.000001 -0.000003 -1.971313 -0.542758 -1.804717
    30 19.931143 -0.000003 -0.000001 0.000000 0.000000 -1.988193
    31 26.044123 0.000007 -0.000002 0.000000 0.000000 2.871627
    32 -5.849916 4.319724 0.063164 0.504001 0.071120 0.390106
    33 -5.827132 4.411096 0.063164 -0.287413 0.076872 0.390350
    34 13.389696 0.268264 6.023556 -0.462585 -1.348926 -0.488759
    35 -2.157633 -59.014135 0.000001 1.570796 0.000000 -1.570796
  time 1
    0 -0.060081 1.594680 -107.972592 0.161950 1.481170 0.217223
    1 -5.577781 -0.123185 0.054231 0.003405 0.069847 -0.029309
    2 -5.512516 -2.697432 -3.989360 0.393185 -0.134116 -0.907903
    3 10.569405 -0.000002 0.000000 0.000000 0.000000 -2.446638
    4 13.357939 0.000004 -0.000001 0.000000 0.000000 2.905515
    5 -5.435713 -2.622674 3.516682 2.761736 0.125569 -0.929008
    6 10.523518 -0.000001 0.000001 0.000000 0.000000 2.454404
    7 13.611947 -0.000005 0.000001 0.000000 0.000000 -2.922465
    8 -8.416648 1.073514 -0.018171 -0.010560 -0.015086 -0.006102
    9 -9.984109 -4.710447 3.170796 -2.902516 -0.005546 -2.717710
    10 5.945611 -0.000002 0.000001 0.000000 0.000000 0.735012
    11 -9.984109 -4.710444 -2.998739 -0.223381 0.004087 -2.697966
    12 5.945621 0.000001 0.000000 0.000000 0.000000 -0.753546
    13 -13.167570 0.616875 1.590356 3.140739 -0.157522 -3.136150
    14 1.939793 0.000001 0.000001 3.040688 0.121169 2.449692
    15 -13.157710 0.632509 -1.795553 1.570796 0.016921 -3.058549
    16 2.215700 0.000000 -0.000001 1.570796 -0.608107 -3.124672
    17 -2.622045 -6.273479 8.263164 -2.793340 0.093373 -0.618281
    18 11.485746 -0.000002 -0.000003 0.000000 0.000000 -1.938913
    19 24.536905 -0.000003 -0.000001 0.000000 0.000000 2.420033
    20 -2.622042 -6.273478 -8.136835 -1.546671 0.660339 -1.869683
    21 11.659971 -0.000001 0.000002 0.000000 0.000000 2.279355
    22 25.724377 0.000003 0.000005 0.000000 0.000000 -3.073567
    23 3.880156 -0.980430 0.090609 0.002502 0.184005 -0.071273
    24 13.389689 0.268264 -6.517196 0.542283 1.306249 -0.395924
    25 9.913786 0.000002 0.000002 1.406935 0.065761 -1.712824
    26 21.016012 0.000001 0.000000 0.000000 0.000000 -1.887519
    27 28.471630 -0.000003 0.000000 0.000000 0.000000 2.157890
    28 13.389681 0.268263 6.023555 -0.462585 -1.348926 -0.488759
    29 9.768897 0.000001 -0.000003 -2.135348 -0.592894 -1.804812
    30 19.931143 -0.000003 -0.000001 0.000000 0.000000 -1.982864
    31 26.044123 0.000007 -0.000002 0.000000 0.000000 2.823480
    32 -5.849916 4.319724 0.063164 0.504001 0.071120 0.390106
    33 -5.827132 4.411096 0.063164 -0.287413 0.076872 0.390350
    34 13.389696 0.268264 6.023556 -0.462585 -1.348926 -0.488759
    35 -2.158122 -59.013487 0.000001 1.570796 0.000000 -1.570796
  time 2
    0 -0.061748 1.751147 -100.618269 0.160801 1.480275 0.217786
    1 -5.577781 -0.123185 0.054231 0.003405 0.069847 0.022143
    2 -5.512516 -2.697432 -3.989360 0.393185 -0.134116 -0.907903
    3 10.569405 -0.000002 0.000000 0.000000 0.000000 -2.446638
    4 13.357939 0.000004 -0.000001 0.000000 0.000000 2.905515
    5 -5.435713 -2.622674 3.516682 2.761736 0.125569 -0.929008
    6 10.523518 -0.000001 0.000001 0.000000 0.000000 2.454404
    7 13.611947 -0.000005 0.000001 0.000000 0.000000 -2.922465
    8 -8.416648 1.073514 -0.018171 -0.010560 -0.015086 -0.006102
    9 -9.984109 -4.710447 3.170796 -2.902516 -0.005546 -2.717710
    10 5.945611 -0.000002 0.000001 0.000000 0.000000 0.735012
    11 -9.984109 -4.710444 -2.998739 -0.223381 0.004087 -2.697966
    12 5.945621 0.000001 0.000000 0.000000 0.000000 -0.753546
    13 -13.167570 0.616875 1.590356 3.140739 -0.157522 -3.136150
    14 1.939793 0.000001 0.000001 3.040688 0.121169 2.449692
    15 -13.157710 0.632509 -1.795553 1.570796 0.016921 -3.058549
    16 2.215700 0.000000 -0.000001 1.570796 -0.608107 -3.124672
    17 -2.622045 -6.273479 8.263164 -2.818648 0.145258 -0.663166
    18 11.485746 -0.000002 -0.000003 0.000000 0.000000 -1.794515
    19 24.536905 -0.000003 -0.000001 0.000000 0.000000 2.106960
    20 -2.622042 -6.273478 -8.136835 -0.789578 0.645933 -1.258039
    21 11.659971 -0.000001 0.000002 0.000000 0.000000 2.276677
    22 25.724377 0.000003 0.000005 0.000000 0.000000 -3.060126
    23 3.880156 -0.980430 0.090609 0.002502 0.184005 -0.054847
    24 13.389689 0.268264 -6.517196 0.542283 1.306249 -0.395924
    25 9.913786 0.000002 0.000002 1.403057 0.149716 -1.734392
    26 21.016012 0.000001 0.000000 0.000000 0.000000 -2.021403
    27 28.471630 -0.000003 0.000000 0.000000 0.000000 2.428098
    28 13.389681 0.268263 6.023555 -0.462585 -1.348926 -0.488759
    29 9.768897 0.000001 -0.000003 -2.250794 -0.431382 -2.019734
    30 19.931143 -0.000003 -0.000001 0.000000 0.000000 -1.832156
    31 26.044123 0.000007 -0.000002 0.000000 0.000000 2.303589
    32 -5.849916 4.319724 0.063164 0.504001 0.071120 0.390106
    33 -5.827132 4.411096 0.063164 -0.287413 0.076872 0.390350
    34 13.389696 0.268264 6.023556 -0.462585 -1.348926 -0.488759
    35 -2.155614 -59.011541 0.000001 1.570796 0.000000 -1.570796
  time 3
    0 -0.060621 1.936613 -93.208392 0.159556 1.478853 0.219004
    1 -5.577781 -0.123185 0.054231 0.003405 0.069847 0.095578
    2 -5.512516 -2.697432 -3.989360 0.393185 -0.134116 -0.907903
    3 10.569405 -0.000002 0.000000 0.000000 0.000000 -2.446638
    4 13.357939 0.000004 -0.000001 0.000000 0.000000 2.905515
    5 -5.435713 -2.622674 3.516682 2.761736 0.125569 -0.929008
    6 10.523518 -0.000001 0.000001 0.000000 0.000000 2.454404
    7 13.611947 -0.000005 0.000001 0.000000 0.000000 -2.922465
    8 -8.416648 1.073514 -0.018171 -0.010560 -0.015086 -0.006102
    9 -9.984109 -4.710447 3.170796 -2.902516 -0.005546 -2.717710
    10 5.945611 -0.000002 0.000001 0.000000 0.000000 0.735012
    11 -9.984109 -4.710444 -2.998739 -0.223381 0.004087 -2.697966
    12 5.945621 0.000001 0.000000 0.000000 0.000000 -0.753546
    13 -13.167570 0.616875 1.590356 3.140739 -0.157522 -3.136150
    14 1.939793 0.000001 0.000001 3.040688 0.121169 2.449692
    15 -13.157710 0.632509 -1.795553 1.570796 0.016921 -3.058549
    16 2.215700 0.000000 -0.000001 1.570796 -0.608107 -3.124672
    17 -2.622045 -6.273479 8.263164 -2.839449 0.183054 -0.702937
    18 11.485746 -0.000002 -0.000003 0.000000 0.000000 -1.634896
    19 24.536905 -0.000003 -0.000001 0.000000 0.000000 1.763791
    20 -2.622042 -6.273478 -8.136835 -0.484386 0.473478 -1.003892
    21 11.659971 -0.000001 0.000002 0.000000 0.000000 2.215232
    22 25.724377 0.000003 0.000005 0.000000 0.000000 -2.899100
    23 3.880156 -0.980430 0.090609 0.002502 0.184005 -0.030147
    24 13.389689 0.268264 -6.517196 0.542283 1.306249 -0.395924
    25 9.913786 0.000002 0.000002 1.395490 0.274481 -1.765772
    26 21.016012 0.000001 0.000000 0.000000 0.000000 -2.138467
    27 28.471630 -0.000003 0.000000 0.000000 0.000000 2.704256
    28 13.389681 0.268263 6.023555 -0.462585 -1.348926 -0.488759
    29 9.768897 0.000001 -0.000003 -1.989773 -0.146075 -2.051038
    30 19.931143 -0.000003 -0.000001 0.000000 0.000000 -1.562075
    31 26.044123 0.000007 -0.000002 0.000000 0.000000 1.705843
    32 -5.849916 4.319724 0.063164 0.504001 0.071120 0.390106
    33 -5.827132 4.411096 0.063164 -0.287413 0.076872 0.390350
    34 13.389696 0.268264 6.023556 -0.462585 -1.348926 -0.488759
    35 -2.158058 -59.012909 0.000001 1.570796 0.000000 -1.570796
  time 4
    0 -0.060606 2.065006 -85.713050 0.158503 1.476957 0.221254
    1 -5.577781 -0.123185 0.054231 0.003405 0.069847 0.180894
    2 -5.512516 -2.697432 -3.989360 0.393185 -0.134116 -0.907903
    3 10.569405 -0.000002 0.000000 0.000000 0.000000 -2.446638
    4 13.357939 0.000004 -0.000001 0.000000 0.000000 2.905515
    5 -5.435713 -2.622674 3.516682 2.761736 0.125569 -0.929008
    6 10.523518 -0.000001 0.000001 0.000000 0.000000 2.454404
    7 13.611947 -0.000005 0.000001 0.000000 0.000000 -2.922465
    8 -8.416648 1.073514 -0.018171 -0.010560 -0.015086 -0.006102
    9 -9.984109 -4.710447 3.170796 -2.902516 -0.005546 -2.717710
    10 5.945611 -0.000002 0.000001 0.000000 0.000000 0.735012
    11 -9.984109 -4.710444 -2.998739 -0.223381 0.004087 -2.697966
    12 5.945621 0.000001 0.000000 0.000000 0.000000 -0.753546
    13 -13.167570 0.616875 1.590356 3.140739 -0.157522 -3.136150
    14 1.939793 0.000001 0.000001 3.040688 0.121169 2.449692
    15 -13.157710 0.632509 -1.795553 1.570796 0.016921 -3.058549
    16 2.215700 0.000000 -0.000001 1.570796 -0.608107 -3.124672
    17 -2.622045 -6.273479 8.263164 -2.855746 0.210909 -0.731608
    18 11.485746 -0.000002 -0.000003 0.000000 0.000000 -1.436285
    19 24.536905 -0.000003 -0.000001 0.000000 0.000000 1.363612
    20 -2.622042 -6.273478 -8.136835 -0.366961 0.355096 -0.915316
    21 11.659971 -0.000001 0.000002 0.000000 0.000000 2.102744
    22 25.724377 0.000003 0.000005 0.000000 0.000000 -2.673018
    23 3.880156 -0.980430 0.090609 0.002502 0.184005 0.000516
    24 13.389689 0.268264 -6.517196 0.542283 1.306249 -0.395924
    25 9.913786 0.000002 0.000002 1.378371 0.468279 -1.816498
    26 21.016012 0.000001 0.000000 0.000000 0.000000 -2.202408
    27 28.471630 -0.000003 0.000000 0.000000 0.000000 2.994044
    28 13.389681 0.268263 6.023555 -0.462585 -1.348926 -0.488759
    29 9.768897 0.000001 -0.000003 -1.804983 0.101844 -1.968390
    30 19.931143 -0.000003 -0.000001 0.000000 0.000000 -1.308462
    31 26.044123 0.000007 -0.000002 0.000000 0.000000 1.248506
    32 -5.849916 4.319724 0.063164 0.504001 0.071120 0.390106
    33 -5.827132 4.411096 0.063164 -0.287413 0.076872 0.390350
    34 13.389696 0.268264 6.023556 -0.462585 -1.348926 -0.488759
    35 -2.157505 -59.012981 0.000001 1.570796 0.000000 -1.570796
  time 5
    0 -0.077328 2.007218 -78.153608 0.158024 1.474744 0.224723
    1 -5.577781 -0.123185 0.054231 0.003405 0.069847 0.268023
    2 -5.512516 -2.697432 -3.989360 0.393185 -0.134116 -0.907903
    3 10.569405 -0.000002 0.000000 0.000000 0.000000 -2.446638
    4 13.357939 0.000004 -0.000001 0.000000 0.000000 2.905515
    5 -5.435713 -2.622674 3.516682 2.761736 0.125569 -0.929008
    6 10.523518 -0.000001 0.000001 0.000000 0.000000 2.454404
    7 13.611947 -0.000005 0.000001 0.000000 0.000000 -2.922465
    8 -8.416648 1.073514 -0.018171 -0.010560 -0.015086 -0.006102
    9 -9.984109 -4.710447 3.170796 -2.902516 -0.005546 -2.717710
    10 5.945611 -0.000002 0.000001 0.000000 0.000000 0.735012
    11 -9.984109 -4.710444 -2.998739 -0.223381 0.004087 -2.697966
    12 5.945621 0.000001 0.000000 0.000000 0.000000 -0.753546
    13 -13.167570 0.616875 1.590356 3.140739 -0.157522 -3.136150
    14 1.939793 0.000001 0.000001 3.040688 0.121169 2.449692
    15 -13.157710 0.632509 -1.795553 1.570796 0.016921 -3.058549
    16 2.215700 0.000000 -0.000001 1.570796 -0.608107 -3.124672
    17 -2.622045 -6.273479 8.263164 -2.861881 0.224497 -0.724318
    18 11.485746 -0.000002 -0.000003 0.000000 0.000000 -1.184714
    19 24.536905 -0.000003 -0.000001 0.000000 0.000000 0.923788
    20 -2.622042 -6.273478 -8.136835 -0.307148 0.281871 -0.874248
    21 11.659971 -0.000001 0.000002 0.000000 0.000000 1.977175
    22 25.724377 0.000003 0.000005 0.000000 0.000000 -2.418642
    23 3.880156 -0.980430 0.090609 0.002502 0.184005 0.035011
    24 13.389689 0.268264 -6.517196 0.542283 1.306249 -0.395924
    25 9.913786 0.000002 0.000002 1.344134 0.694582 -1.889256
    26 21.016012 0.000001 0.000000 0.000000 0.000000 -2.142488
    27 28.471630 -0.000003 0.000000 0.000000 0.000000 3.224133
    28 13.389681 0.268263 6.023555 -0.462585 -1.348926 -0.488759
    29 9.768897 0.000001 -0.000003 -1.772654 0.122345 -1.946917
    30 19.931143 -0.000003 -0.000001 0.000000 0.000000 -1.415524
    31 26.044123 0.000007 -0.000002 0.000000 0.000000 1.431172
    32 -5.849916 4.319724 0.063164 0.504001 0.071120 0.390106
    33 -5.827132 4.411096 0.063164 -0.287413 0.076872 0.390350
    34 13.389696 0.268264 6.023556 -0.462585 -1.348926 -0.488759
    35 -2.157930 -59.011755 0.000001 1.570796 0.000000 -1.570796
  time 6
    0 -0.231885 1.305993 -70.636900 0.158694 1.472269 0.229598
    1 -5.577781 -0.123185 0.054231 0.003405 0.069847 0.346895
    2 -5.512516 -2.697432 -3.989360 0.393185 -0.134116 -0.907903
    3 10.569405 -0.000002 0.000000 0.000000 0.000000 -2.446638
    4 13.357939 0.000004 -0.000001 0.000000 0.000000 2.905515
    5 -5.435713 -2.622674 3.516682 2.761736 0.125569 -0.929008
    6 10.523518 -0.000001 0.000001 0.000000 0.000000 2.454404
    7 13.611947 -0.000005 0.000001 0.000000 0.000000 -2.922465
    8 -8.416648 1.073514 -0.018171 -0.010560 -0.015086 -0.006102
    9 -9.984109 -4.710447 3.170796 -2.902516 -0.005546 -2.717710
    10 5.945611 -0.000002 0.000001 0.000000 0.000000 0.735012
    11 -9.984109 -4.710444 -2.998739 -0.223381 0.004087 -2.697966
    12 5.945621 0.000001 0.000000 0.000000 0.000000 -0.753546
    13 -13.167570 0.616875 1.590356 3.140739 -0.157522 -3.136150
    14 1.939793 0.000001 0.000001 3.040688 0.121169 2.449692
    15 -13.157710 0.632509 -1.795553 1.570796 0.016921 -3.058549
    16 2.215700 0.000000 -0.000001 1.570796 -0.608107 -3.124672
    17 -2.622045 -6.273479 8.263164 -2.857280 0.225140 -0.691947
    18 11.485746 -0.000002 -0.000003 0.000000 0.000000 -1.241322
    19 24.536905 -0.000003 -0.000001 0.000000 0.000000 1.014839
    20 -2.622042 -6.273478 -8.136835 -0.266953 0.233783 -0.841098
    21 11.659971 -0.000001 0.000002 0.000000 0.000000 1.850112
    22 25.724377 0.000003 0.000005 0.000000 0.000000 -2.151430
    23 3.880156 -0.980430 0.090609 0.002502 0.184005 0.071027
    24 13.389689 0.268264 -6.517196 0.542283 1.306249 -0.395924
    25 9.913786 0.000002 0.000002 1.317367 0.814936 -1.941463
    26 21.016012 0.000001 0.000000 0.000000 0.000000 -2.124139
    27 28.471630 -0.000003 0.000000 0.000000 0.000000 3.249983
    28 13.389681 0.268263 6.023555 -0.462585 -1.348926 -0.488759
    29 9.768897 0.000001 -0.000003 -1.762994 0.065178 -1.934796
    30 19.931143 -0.000003 -0.000001 0.000000 0.000000 -1.586696
    31 26.044123 0.000007 -0.000002 0.000000 0.000000 1.754951
    32 -5.849916 4.319724 0.063164 0.504001 0.071120 0.390106
    33 -5.827132 4.411096 0.063164 -0.287413 0.076872 0.390350
    34 13.389696 0.268264 6.023556 -0.462585 -1.348926 -0.488759
    35 -2.155359 -59.013843 0.000001 1.570796 0.000000 -1.570796
  time 7
    0 -0.516464 0.015126 -63.154378 0.160801 1.469583 0.236161
    1 -5.577781 -0.123185 0.054231 0.003405 0.069847 0.407409
    2 -5.512516 -2.697432 -3.989360 0.393185 -0.134116 -0.907903
    3 10.569405 -0.000002 0.000000 0.000000 0.000000 -2.446638
    4 13.357939 0.000004 -0.000001 0.000000 0.000000 2.905515
    5 -5.435713 -2.622674 3.516682 2.761736 0.125569 -0.929008
    6 10.523518 -0.000001 0.000001 0.000000 0.000000 2.454404
    7 13.611947 -0.000005 0.000001 0.000000 0.000000 -2.922465
    8 -8.416648 1.073514 -0.018171 -0.010560 -0.015086 -0.006102
    9 -9.984109 -4.710447 3.170796 -2.902516 -0.005546 -2.717710
    10 5.945611 -0.000002 0.000001 0.000000 0.000000 0.735012
    11 -9.984109 -4.710444 -2.998739 -0.223381 0.004087 -2.697966
    12 5.945621 0.000001 0.000000 0.000000 0.000000 -0.753546
    13 -13.167570 0.616875 1.590356 3.140739 -0.157522 -3.136150
    14 1.939793 0.000001 0.000001 3.040688 0.121169 2.449692
    15 -13.157710 0.632509 -1.795553 1.570796 0.016921 -3.058549
    16 2.215700 0.000000 -0.000001 1.570796 -0.608107 -3.124672
    17 -2.622045 -6.273479 8.263164 -2.839354 0.207154 -0.613929
    18 11.485746 -0.000002 -0.000003 0.000000 0.000000 -1.491467
    19 24.536905 -0.000003 -0.000001 0.000000 0.000000 1.470991
    20 -2.622042 -6.273478 -8.136835 -0.236998 0.198615 -0.812558
    21 11.659971 -0.000001 0.000002 0.000000 0.000000 1.712954
    22 25.724377 0.000003 0.000005 0.000000 0.000000 -1.861436
    23 3.880156 -0.980430 0.090609 0.002502 0.184005 0.106374
    24 13.389689 0.268264 -6.517196 0.542283 1.306249 -0.395924
    25 9.913786 0.000002 0.000002 1.329757 0.792227 -1.939890
    26 21.016012 0.000001 0.000000 0.000000 0.000000 -2.192100
    27 28.471630 -0.000003 0.000000 0.000000 0.000000 3.108513
    28 13.389681 0.268263 6.023555 -0.462585 -1.348926 -0.488759
    29 9.768897 0.000001 -0.000003 -1.753238 -0.016300 -1.917522
    30 19.931143 -0.000003 -0.000001 0.000000 0.000000 -1.727545
    31 26.044123 0.000007 -0.000002 0.000000 0.000000 2.055361
    32 -5.849916 4.319724 0.063164 0.504001 0.071120 0.390106
    33 -5.827132 4.411096 0.063164 -0.287413 0.076872 0.390350
    34 13.389696 0.268264 6.023556 -0.462585 -1.348926 -0.488759
    35 -2.157739 -59.014634 0.000001 1.570796 0.000000 -1.570796
  time 8
    0 -0.899814 -1.752415 -55.680402 0.164823 1.466791 0.244786
    1 -5.577781 -0.123185 0.054231 0.003405 0.069847 0.439528
    2 -5.512516 -2.697432 -3.989360 0.393185 -0.134116 -0.907903
    3 10.569405 -0.000002 0.000000 0.000000 0.000000 -2.446638
    4 13.357939 0.000004 -0.000001 0.000000 0.000000 2.905515
    5 -5.435713 -2.622674 3.516682 2.761736 0.125569 -0.929008
    6 10.523518 -0.000001 0.000001 0.000000 0.000000 2.454404
    7 13.611947 -0.000005 0.000001 0.000000 0.000000 -2.922465
    8 -8.416648 1.073514 -0.018171 -0.010560 -0.015086 -0.006102
    9 -9.984109 -4.710447 3.170796 -2.902516 -0.005546 -2.717710
    10 5.945611 -0.000002 0.000001 0.000000 0.000000 0.735012
    11 -9.984109 -4.710444 -2.998739 -0.223381 0.004087 -2.697966
    12 5.945621 0.000001 0.000000 0.000000 0.000000 -0.753546
    13 -13.167570 0.616875 1.590356 3.140739 -0.157522 -3.136150
    14 1.939793 0.000001 0.000001 3.040688 0.121169 2.449692
    15 -13.157710 0.632509 -1.795553 1.570796 0.016921 -3.058549
    16 2.215700 0.000000 -0.000001 1.570796 -0.608107 -3.124672
    17 -2.622045 -6.273479 8.263164 -2.807623 0.158023 -0.467143
    18 11.485746 -0.000002 -0.000003 0.000000 0.000000 -1.723998
    19 24.536905 -0.000003 -0.000001 0.000000 0.000000 1.954056
    20 -2.622042 -6.273478 -8.136835 -0.213264 0.171785 -0.785731
    21 11.659971 -0.000001 0.000002 0.000000 0.000000 1.551227
    22 25.724377 0.000003 0.000005 0.000000 0.000000 -1.530983
    23 3.880156 -0.980430 0.090609 0.002502 0.184005 0.138861
    24 13.389689 0.268264 -6.517196 0.542283 1.306249 -0.395924
    25 9.913786 0.000002 0.000002 1.371467 0.644170 -1.902123
    26 21.016012 0.000001 0.000000 0.000000 0.000000 -2.169276
    27 28.471630 -0.000003 0.000000 0.000000 0.000000 2.801129
    28 13.389681 0.268263 6.023555 -0.462585 -1.348926 -0.488759
    29 9.768897 0.000001 -0.000003 -1.743004 -0.121631 -1.894045
    30 19.931143 -0.000003 -0.000001 0.000000 0.000000 -1.849156
    31 26.044123 0.000007 -0.000002 0.000000 0.000000 2.346743
    32 -5.849916 4.319724 0.063164 0.504001 0.071120 0.390106
    33 -5.827132 4.411096 0.063164 -0.287413 0.076872 0.390350
    34 13.389696 0.268264 6.023556 -0.462585 -1.348926 -0.488759
    35 -2.157122 -59.014128 0.000001 1.570796 0.000000 -1.570796
  time 9
    0 -1.338964 -3.910558 -48.193606 0.171239 1.463947 0.255755
    1 -5.577781 -0.123185 0.054231 0.003436 0.069871 0.455638
    2 -5.512516 -2.697432 -3.989360 0.393185 -0.134116 -0.907903
    3 10.569405 -0.000002 0.000000 0.000000 0.000000 -2.446638
    4 13.357939 0.000004 -0.000001 0.000000 0.000000 2.905515
    5 -5.435713 -2.622674 3.516682 2.761736 0.125569 -0.929008
    6 10.523518 -0.000001 0.000001 0.000000 0.000000 2.454404
    7 13.611947 -0.000005 0.000001 0.000000 0.000000 -2.922465
    8 -8.416648 1.073514 -0.018171 -0.010560 -0.015086 -0.006102
    9 -9.984109 -4.710447 3.170796 -2.902516 -0.005546 -2.717710
    10 5.945611 -0.000002 0.000001 0.000000 0.000000 0.735012
    11 -9.984109 -4.710444 -2.998739 -0.223381 0.004087 -2.697966
    12 5.945621 0.000001 0.000000 0.000000 0.000000 -0.753546
    13 -13.167570 0.616875 1.590356 3.140739 -0.157522 -3.136150
    14 1.939793 0.000001 0.000001 3.040688 0.121169 2.449692
    15 -13.157710 0.632509 -1.795553 1.570796 0.016921 -3.058549
    16 2.215700 0.000000 -0.000001 1.570796 -0.608107 -3.124672
    17 -2.622045 -6.273479 8.263164 -2.779344 0.083218 -0.296309
    18 11.485746 -0.000002 -0.000003 0.000000 0.000000 -1.896671
    19 24.536905 -0.000003 -0.000001 0.000000 0.000000 2.329328
    20 -2.622042 -6.273478 -8.136835 -0.192402 0.152715 -0.749272
    21 11.659971 -0.000001 0.000002 0.000000 0.000000 1.333103
    22 25.724377 0.000003 0.000005 0.000000 0.000000 -1.126065
    23 3.880156 -0.980430 0.090609 0.002502 0.184005 0.166238
    24 13.389689 0.268264 -6.517196 0.542283 1.306249 -0.395924
    25 9.913786 0.000002 0.000002 1.405327 0.528488 -1.884720
    26 21.016012 0.000001 0.000000 0.000000 0.000000 -2.048135
    27 28.471630 -0.000003 0.000000 0.000000 0.000000 2.486644
    28 13.389681 0.268263 6.023555 -0.462585 -1.348926 -0.488759
    29 9.768897 0.000001 -0.000003 -1.732769 -0.262971 -1.861978
    30 19.931143 -0.000003 -0.000001 0.000000 0.000000 -1.946039
    31 26.044123 0.000007 -0.000002 0.000000 0.000000 2.640174
    32 -5.849916 4.319724 0.063164 0.504001 0.071120 0.390106
    33 -5.827132 4.411096 0.063164 -0.287413 0.076872 0.390350
    34 13.389696 0.268264 6.023556 -0.462585 -1.348926 -0.488759
    35 -2.157483 -59.012325 0.000001 1.570796 0.000000 -1.570796
  time 10
    0 -1.798758 -6.394747 -40.659804 0.180719 1.461103 0.269443
    1 -5.577781 -0.123185 0.054231 0.003436 0.070036 0.518401
    2 -5.512516 -2.697432 -3.989360 0.393185 -0.134116 -0.907903
    3 10.569405 -0.000002 0.000000 0.000000 0.000000 -2.446638
    4 13.357939 0.000004 -0.000001 0.000000 0.000000 2.905515
    5 -5.435713 -2.622674 3.516682 2.761736 0.125569 -0.929008
    6 10.523518 -0.000001 0.000001 0.000000 0.000000 2.454404
    7 13.611947 -0.000005 0.000001 0.000000 0.000000 -2.922465
    8 -8.416648 1.073514 -0.018171 -0.010560 -0.015086 0.005373
    9 -9.984109 -4.710447 3.170796 -2.902516 -0.005546 -2.717710
    10 5.945611 -0.000002 0.000001 0.000000 0.000000 0.735012
    11 -9.984109 -4.710444 -2.998739 -0.223381 0.004087 -2.697966
    12 5.945621 0.000001 0.000000 0.000000 0.000000 -0.753546
    13 -13.167570 0.616875 1.590356 3.140739 -0.157522 -3.136150
    14 1.939793 0.000001 0.000001 3.040688 0.121169 2.449692
    15 -13.157710 0.632509 -1.795553 1.570796 0.016921 -3.058549
    16 2.215700 0.000000 -0.000001 1.570796 -0.608107 -3.124672
    17 -2.622045 -6.273479 8.263164 -2.768800 0.037627 -0.217584
    18 11.485746 -0.000002 -0.000003 0.000000 0.000000 -1.956414
    19 24.536905 -0.000003 -0.000001 0.000000 0.000000 2.457532
    20 -2.622042 -6.273478 -8.136835 -0.166275 0.149330 -0.648760
    21 11.659971 -0.000001 0.000002 0.000000 0.000000 0.972258
    22 25.724377 0.000003 0.000005 0.000000 0.000000 -0.599034
    23 3.880156 -0.980430 0.090609 0.002502 0.184005 0.186193
    24 13.389689 0.268264 -6.517196 0.542283 1.306249 -0.395924
    25 9.913786 0.000002 0.000002 1.443064 0.331901 -1.816684
    26 21.016012 0.000001 0.000000 0.000000 0.000000 -1.850027
    27 28.471630 -0.000003 0.000000 0.000000 0.000000 2.085587
    28 13.389681 0.268263 6.023555 -0.462585 -1.348926 -0.488759
    29 9.768897 0.000001 -0.000003 -1.724448 -0.458520 -1.818078
    30 19.931143 -0.000003 -0.000001 0.000000 0.000000 -1.991390
    31 26.044123 0.000007 -0.000002 0.000000 0.000000 2.936550
    32 -5.849916 4.319724 0.063164 0.504001 0.071120 0.390106
    33 -5.827132 4.411096 0.063164 -0.287413 0.076872 0.390350
    34 13.389696 0.268264 6.023556 -0.462585 -1.348926 -0.488759
    35 -2.158822 -59.013836 0.000001 1.570796 0.000000 -1.570796
  time 11
    0 -2.247945 -9.151190 -33.053357 0.193839 1.458311 0.286412
    1 -5.577781 -0.123185 0.054231 0.003468 0.070248 0.608248
    2 -5.512516 -2.697432 -3.989360 0.393185 -0.134116 -0.907903
    3 10.569405 -0.000002 0.000000 0.000000 0.000000 -2.446638
    4 13.357939 0.000004 -0.000001 0.000000 0.000000 2.905515
    5 -5.435713 -2.622674 3.516682 2.761736 0.125569 -0.929008
    6 10.523518 -0.000001 0.000001 0.000000 0.000000 2.454404
    7 13.611947 -0.000005 0.000001 0.000000 0.000000 -2.922465
    8 -8.416648 1.073514 -0.018171 -0.010560 -0.015086 0.038864
    9 -9.984109 -4.710447 3.170796 -2.902516 -0.005546 -2.717710
    10 5.945611 -0.000002 0.000001 0.000000 0.000000 0.735012
    11 -9.984109 -4.710444 -2.998739 -0.223381 0.004087 -2.697966
    12 5.945621 0.000001 0.000000 0.000000 0.000000 -0.753546
    13 -13.167570 0.616875 1.590356 3.140739 -0.157522 -3.136150
    14 1.939793 0.000001 0.000001 3.040688 0.121169 2.449692
    15 -13.157710 0.632509 -1.795553 1.570796 0.016921 -3.058549
    16 2.215700 0.000000 -0.000001 1.570796 -0.608107 -3.124672
    17 -2.622045 -6.273479 8.263164 -2.775414 0.101276 -0.274329
    18 11.485746 -0.000002 -0.000003 0.000000 0.000000 -1.796225
    19 24.536905 -0.000003 -0.000001 0.000000 0.000000 2.110765
    20 -2.622042 -6.273478 -8.136835 -0.169242 0.148133 -0.679014
    21 11.659971 -0.000001 0.000002 0.000000 0.000000 1.287830
    22 25.724377 0.000003 0.000005 0.000000 0.000000 -1.049920
    23 3.880156 -0.980430 0.090609 0.002502 0.184005 0.196657
    24 13.389689 0.268264 -6.517196 0.542283 1.306249 -0.395924
    25 9.913786 0.000002 0.000002 1.464628 0.130901 -1.715323
    26 21.016012 0.000001 0.000000 0.000000 0.000000 -1.709063
    27 28.471630 -0.000003 0.000000 0.000000 0.000000 1.822161
    28 13.389681 0.268263 6.023555 -0.462585 -1.348926 -0.488759
    29 9.768897 0.000001 -0.000003 -1.719666 -0.699802 -1.764061
    30 19.931143 -0.000003 -0.000001 0.000000 0.000000 -1.926961
    31 26.044123 0.000007 -0.000002 0.000000 0.000000 3.199760
    32 -5.849916 4.319724 0.063164 0.504001 0.071120 0.390106
    33 -5.827132 4.411096 0.063164 -0.287413 0.076872 0.390350
    34 13.389696 0.268264 6.023556 -0.462585 -1.348926 -0.488759
    35 -2.157164 -59.014050 0.000001 1.570796 0.000000 -1.570796
  time 12
    0 -2.651368 -12.131469 -25.348624 0.310955 1.451306 0.406040
    1 -5.577781 -0.123185 0.054231 0.003499 0.070484 0.698129
    2 -5.512516 -2.697432 -3.989360 0.393185 -0.134116 -0.907903
    3 10.569405 -0.000002 0.000000 0.000000 0.000000 -2.446638
    4 13.357939 0.000004 -0.000001 0.000000 0.000000 2.905515
    5 -5.435713 -2.622674 3.516682 2.761736 0.125569 -0.929008
    6 10.523518 -0.000001 0.000001 0.000000 0.000000 2.454404
    7 13.611947 -0.000005 0.000001 0.000000 0.000000 -2.922465
    8 -8.416648 1.073514 -0.018171 -0.010560 -0.015086 0.082167
    9 -9.984109 -4.710447 3.170796 -2.902516 -0.005546 -2.717710
    10 5.945611 -0.000002 0.000001 0.000000 0.000000 0.735012
    11 -9.984109 -4.710444 -2.998739 -0.223381 0.004087 -2.697966
    12 5.945621 0.000001 0.000000 0.000000 0.000000 -0.753546
    13 -13.167570 0.616875 1.590356 3.140739 -0.157522 -3.136150
    14 1.939793 0.000001 0.000001 3.040688 0.121169 2.449692
    15 -13.157710 0.632509 -1.795553 1.570796 0.016921 -3.058549
    16 2.215700 0.000000 -0.000001 1.570796 -0.608107 -3.124672
    17 -2.622045 -6.273479 8.263164 -2.786055 0.148082 -0.328136
    18 11.485746 -0.000002 -0.000003 0.000000 0.000000 -1.618250
    19 24.536905 -0.000003 -0.000001 0.000000 0.000000 1.729267
    20 -2.622042 -6.273478 -8.136835 -0.173836 0.175376 -0.673164
    21 11.659971 -0.000001 0.000002 0.000000 0.000000 1.634048
    22 25.724377 0.000003 0.000005 0.000000 0.000000 -1.698192
    23 3.880156 -0.980430 0.090609 0.002502 0.184055 0.178832
    24 13.389689 0.268264 -6.517196 0.542283 1.306249 -0.395924
    25 9.913786 0.000002 0.000002 1.461696 -0.010409 -1.594523
    26 21.016012 0.000001 0.000000 0.000000 0.000000 -1.781839
    27 28.471630 -0.000003 0.000000 0.000000 0.000000 1.956145
    28 13.389681 0.268263 6.023555 -0.462585 -1.348926 -0.488759
    29 9.768897 0.000001 -0.000003 -2.244863 -1.249849 -1.299954
    30 19.931143 -0.000003 -0.000001 0.000000 0.000000 -1.746357
    31 26.044123 0.000007 -0.000002 0.000000 0.000000 3.377624
    32 -5.849916 4.319724 0.063164 0.504001 0.071120 0.390106
    33 -5.827132 4.411096 0.063164 -0.287413 0.076872 0.390350
    34 13.389696 0.268264 6.023556 -0.462585 -1.348926 -0.488759
    35 -2.156484 -59.012967 0.000001 1.570796 0.000000 -1.570796
  time 13
    0 -2.966055 -15.292550 -17.515692 0.714591 1.409432 0.808517
    1 -5.577781 -0.123185 0.054231 0.003499 0.070696 0.760958
    2 -5.512516 -2.697432 -3.989360 0.393185 -0.134116 -0.907903
    3 10.569405 -0.000002 0.000000 0.000000 0.000000 -2.446638
    4 13.357939 0.000004 -0.000001 0.000000 0.000000 2.905515
    5 -5.435713 -2.622674 3.516682 2.761736 0.125569 -0.929008
    6 10.523518 -0.000001 0.000001 0.000000 0.000000 2.454404
    7 13.611947 -0.000005 0.000001 0.000000 0.000000 -2.922465
    8 -8.416648 1.073514 -0.018171 -0.010560 -0.015086 0.122673
    9 -9.984109 -4.710447 3.170796 -2.902516 -0.005546 -2.717710
    10 5.945611 -0.000002 0.000001 0.000000 0.000000 0.735012
    11 -9.984109 -4.710444 -2.998739 -0.223381 0.004087 -2.697966
    12 5.945621 0.000001 0.000000 0.000000 0.000000 -0.753546
    13 -13.167570 0.616875 1.590356 3.140739 -0.157522 -3.136150
    14 1.939793 0.000001 0.000001 3.040688 0.121169 2.449692
    15 -13.157710 0.632509 -1.795553 1.570796 0.016921 -3.058549
    16 2.215700 0.000000 -0.000001 1.570796 -0.608107 -3.124672
    17 -2.622045 -6.273479 8.263164 -2.805035 0.182911 -0.416763
    18 11.485746 -0.000002 -0.000003 0.000000 0.000000 -1.395069
    19 24.536905 -0.000003 -0.000001 0.000000 0.000000 1.285707
    20 -2.622042 -6.273478 -8.136835 -0.179960 0.234361 -0.662646
    21 11.659971 -0.000001 0.000002 0.000000 0.000000 1.910321
    22 25.724377 0.000003 0.000005 0.000000 0.000000 -2.279189
    23 3.880156 -0.980430 0.090609 0.002534 0.184254 0.080274
    24 13.389689 0.268264 -6.517196 0.542283 1.306249 -0.395924
    25 9.913786 0.000002 0.000002 1.424054 -0.085216 -1.465948
    26 21.016012 0.000001 0.000000 0.000000 0.000000 -1.979324
    27 28.471630 -0.000003 0.000000 0.000000 0.000000 2.340886
    28 13.389681 0.268263 6.023555 -0.462585 -1.348926 -0.488759
    29 9.768897 0.000001 -0.000003 -1.889439 -0.777141 -1.728559
    30 19.931143 -0.000003 -0.000001 0.000000 0.000000 -1.991284
    31 26.044123 0.000007 -0.000002 0.000000 0.000000 2.930531
    32 -5.849916 4.319724 0.063164 0.504001 0.071120 0.390106
    33 -5.827132 4.411096 0.063164 -0.287413 0.076872 0.390350
    34 13.389696 0.268264 6.023556 -0.462585 -1.348926 -0.488759
    35 -2.156781 -59.010587 0.000001 1.570796 0.000000 -1.570796
  time 14
    0 -3.164663 -18.591397 -9.520376 1.041234 1.305353 1.129992
    1 -5.577781 -0.123185 0.054231 0.003531 0.070814 0.769718
    2 -5.512516 -2.697432 -3.989360 0.393185 -0.134116 -0.907903
    3 10.569405 -0.000002 0.000000 0.000000 0.000000 -2.446638
    4 13.357939 0.000004 -0.000001 0.000000 0.000000 2.905515
    5 -5.435713 -2.622674 3.516682 2.761736 0.125569 -0.929008
    6 10.523518 -0.000001 0.000001 0.000000 0.000000 2.454404
    7 13.611947 -0.000005 0.000001 0.000000 0.000000 -2.922465
    8 -8.416648 1.073514 -0.018171 -0.010560 -0.015086 0.147933
    9 -9.984109 -4.710447 3.170796 -2.902516 -0.005546 -2.717710
    10 5.945611 -0.000002 0.000001 0.000000 0.000000 0.735012
    11 -9.984109 -4.710444 -2.998739 -0.223381 0.004087 -2.697966
    12 5.945621 0.000001 0.000000 0.000000 0.000000 -0.753546
    13 -13.167570 0.616875 1.590356 3.140739 -0.157522 -3.136150
    14 1.939793 0.000001 0.000001 3.040688 0.121169 2.449692
    15 -13.157710 0.632509 -1.795553 1.570796 0.016921 -3.058549
    16 2.215700 0.000000 -0.000001 1.570796 -0.608107 -3.124672
    17 -2.622045 -6.273479 8.263164 -2.827467 0.196320 -0.538740
    18 11.485746 -0.000002 -0.000003 0.000000 0.000000 -1.202044
    19 24.536905 -0.000003 -0.000001 0.000000 0.000000 0.951187
    20 -2.622042 -6.273478 -8.136835 -0.150293 0.329628 -0.576197
    21 11.659971 -0.000001 0.000002 0.000000 0.000000 2.126643
    22 25.724377 0.000003 0.000005 0.000000 0.000000 -2.720264
    23 3.880156 -0.980430 0.090609 0.002534 0.184577 -0.068718
    24 13.389689 0.268264 -6.517196 0.542283 1.306249 -0.395924
    25 9.913786 0.000002 0.000002 1.412231 -0.024812 -1.467800
    26 21.016012 0.000001 0.000000 0.000000 0.000000 -2.111736
    27 28.471630 -0.000003 0.000000 0.000000 0.000000 2.635089
    28 13.389681 0.268263 6.023555 -0.462585 -1.348926 -0.488759
    29 9.768897 0.000001 -0.000003 -1.743386 -0.561288 -1.757189
    30 19.931143 -0.000003 -0.000001 0.000000 0.000000 -1.951102
    31 26.044123 0.000007 -0.000002 0.000000 0.000000 2.659253
    32 -5.849916 4.319724 0.063164 0.504001 0.071120 0.390106
    33 -5.827132 4.411096 0.063164 -0.287413 0.076872 0.390350
    34 13.389696 0.268264 6.023556 -0.462585 -1.348926 -0.488759
    35 -2.158056 -59.011520 0.000001 1.570796 0.000000 -1.570796
  time 15
    0 -3.204222 -21.947316 -1.315668 1.236971 1.111417 1.314496
    1 -5.577781 -0.123185 0.054231 0.003531 0.070885 0.688698
    2 -5.512516 -2.697432 -3.989360 0.393185 -0.134116 -0.907903
    3 10.569405 -0.000002 0.000000 0.000000 0.000000 -2.446638
    4 13.357939 0.000004 -0.000001 0.000000 0.000000 2.905515
    5 -5.435713 -2.622674 3.516682 2.761736 0.125569 -0.929008
    6 10.523518 -0.000001 0.000001 0.000000 0.000000 2.454404
    7 13.611947 -0.000005 0.000001 0.000000 0.000000 -2.922465
    8 -8.416648 1.073514 -0.018171 -0.010489 -0.015058 0.152150
    9 -9.984109 -4.710447 3.170796 -2.902516 -0.005546 -2.717710
    10 5.945611 -0.000002 0.000001 0.000000 0.000000 0.735012
    11 -9.984109 -4.710444 -2.998739 -0.223381 0.004087 -2.697966
    12 5.945621 0.000001 0.000000 0.000000 0.000000 -0.753546
    13 -13.167570 0.616875 1.590356 3.140739 -0.157522 -3.136150
    14 1.939793 0.000001 0.000001 3.040688 0.121169 2.449692
    15 -13.157710 0.632509 -1.795553 1.570796 0.016921 -3.058549
    16 2.215700 0.000000 -0.000001 1.570796 -0.608107 -3.124672
    17 -2.622045 -6.273479 8.263164 -2.852103 0.176546 -0.758593
    18 11.485746 -0.000002 -0.000003 0.000000 0.000000 -1.484114
    19 24.536905 -0.000003 -0.000001 0.000000 0.000000 1.456738
    20 -2.622042 -6.273478 -8.136835 -0.141967 0.324592 -0.639955
    21 11.659971 -0.000001 0.000002 0.000000 0.000000 2.109955
    22 25.724377 0.000003 0.000005 0.000000 0.000000 -2.687333
    23 3.880156 -0.980430 0.090609 0.002566 0.184950 -0.229634
    24 13.389689 0.268264 -6.517196 0.542283 1.306249 -0.395924
    25 9.913786 0.000002 0.000002 1.388492 0.093205 -1.482425
    26 21.016012 0.000001 0.000000 0.000000 0.000000 -2.192270
    27 28.471630 -0.000003 0.000000 0.000000 0.000000 2.898642
    28 13.389681 0.268263 6.023555 -0.462585 -1.348926 -0.488759
    29 9.768897 0.000001 -0.000003 -1.542527 -0.532245 -1.692102
    30 19.931143 -0.000003 -0.000001 0.000000 0.000000 -1.975243
    31 26.044123 0.000007 -0.000002 0.000000 0.000000 2.767649
    32 -5.849916 4.319724 0.063164 0.504001 0.071120 0.390106
    33 -5.827132 4.411096 0.063164 -0.287413 0.076872 0.390350
    34 13.389696 0.268264 6.023556 -0.462585 -1.348926 -0.488759
    35 -2.156334 -59.011157 0.000001 1.570796 0.000000 -1.570796
  time 16
    0 -3.053481 -25.849842 6.564270 1.349778 0.807345 1.407873
    1 -5.577781 -0.123185 0.054231 0.003562 0.071144 0.511017
    2 -5.512516 -2.697432 -3.989360 0.393185 -0.134116 -0.907903
    3 10.569405 -0.000002 0.000000 0.000000 0.000000 -2.446638
    4 13.357939 0.000004 -0.000001 0.000000 0.000000 2.905515
    5 -5.435713 -2.622674 3.516682 2.761736 0.125569 -0.929008
    6 10.523518 -0.000001 0.000001 0.000000 0.000000 2.454404
    7 13.611947 -0.000005 0.000001 0.000000 0.000000 -2.922465
    8 -8.416648 1.073514 -0.018171 -0.010062 -0.014973 0.158556
    9 -9.984109 -4.710447 3.170796 -2.902516 -0.005546 -2.717710
    10 5.945611 -0.000002 0.000001 0.000000 0.000000 0.735012
    11 -9.984109 -4.710444 -2.998739 -0.223381 0.004087 -2.697966
    12 5.945621 0.000001 0.000000 0.000000 0.000000 -0.753546
    13 -13.167570 0.616875 1.590356 3.140739 -0.157522 -3.136150
    14 1.939793 0.000001 0.000001 3.040688 0.121169 2.449692
    15 -13.157710 0.632509 -1.795553 1.570796 0.016921 -3.058549
    16 2.215700 0.000000 -0.000001 1.570796 -0.608107 -3.124672
    17 -2.622045 -6.273479 8.263164 -2.861114 0.111931 -1.023168
    18 11.485746 -0.000002 -0.000003 0.000000 0.000000 -1.773024
    19 24.536905 -0.000003 -0.000001 0.000000 0.000000 2.060259
    20 -2.622042 -6.273478 -8.136835 -0.208575 0.265814 -0.980551
    21 11.659971 -0.000001 0.000002 0.000000 0.000000 1.986343
    22 25.724377 0.000003 0.000005 0.000000 0.000000 -2.437393
    23 3.880156 -0.980430 0.090609 0.002598 0.185274 -0.363904
    24 13.389689 0.268264 -6.517196 0.542283 1.306249 -0.395924
    25 9.913786 0.000002 0.000002 1.348011 0.238148 -1.515194
    26 21.016012 0.000001 0.000000 0.000000 0.000000 -2.199066
    27 28.471630 -0.000003 0.000000 0.000000 0.000000 3.071977
    28 13.389681 0.268263 6.023555 -0.462585 -1.348926 -0.488759
    29 9.768897 0.000001 -0.000003 -1.449558 -0.422906 -1.630832
    30 19.931143 -0.000003 -0.000001 0.000000 0.000000 -1.983556
    31 26.044123 0.000007 -0.000002 0.000000 0.000000 2.828666
    32 -5.849916 4.319724 0.063164 0.504001 0.071120 0.390106
    33 -5.827132 4.411096 0.063164 -0.287413 0.076872 0.390350
    34 13.389696 0.268264 6.023556 -0.462585 -1.348926 -0.488759
    35 -2.155590 -59.014107 0.000001 1.570796 0.000000 -1.570796
  time 17
    0 -2.731971 -31.412529 12.931465 1.401585 0.546779 1.440218
    1 -5.577781 -0.123185 0.054231 0.003562 0.071168 0.347197
    2 -5.512516 -2.697432 -3.989360 0.393185 -0.134116 -0.907903
    3 10.569405 -0.000002 0.000000 0.000000 0.000000 -2.446638
    4 13.357939 0.000004 -0.000001 0.000000 0.000000 2.905515
    5 -5.435713 -2.622674 3.516682 2.761736 0.125569 -0.929008
    6 10.523518 -0.000001 0.000001 0.000000 0.000000 2.454404
    7 13.611947 -0.000005 0.000001 0.000000 0.000000 -2.922465
    8 -8.416648 1.073514 -0.018171 -0.009369 -0.014860 0.167436
    9 -9.984109 -4.710447 3.170796 -2.902516 -0.005546 -2.717710
    10 5.945611 -0.000002 0.000001 0.000000 0.000000 0.735012
    11 -9.984109 -4.710444 -2.998739 -0.223381 0.004087 -2.697966
    12 5.945621 0.000001 0.000000 0.000000 0.000000 -0.753546
    13 -13.167570 0.616875 1.590356 3.140739 -0.157522 -3.136150
    14 1.939793 0.000001 0.000001 3.040688 0.121169 2.449692
    15 -13.157710 0.632509 -1.795553 1.570796 0.016921 -3.058549
    16 2.215700 0.000000 -0.000001 1.570796 -0.608107 -3.124672
    17 -2.622045 -6.273479 8.263164 -2.841175 0.006804 -1.180618
    18 11.485746 -0.000002 -0.000003 0.000000 0.000000 -1.997459
    19 24.536905 -0.000003 -0.000001 0.000000 0.000000 2.544985
    20 -2.622042 -6.273478 -8.136835 -0.247143 0.220492 -1.218803
    21 11.659971 -0.000001 0.000002 0.000000 0.000000 1.874371
    22 25.724377 0.000003 0.000005 0.000000 0.000000 -2.203112
    23 3.880156 -0.980430 0.090609 0.002598 0.185473 -0.432833
    24 13.389689 0.268264 -6.517196 0.542283 1.306249 -0.395924
    25 9.913786 0.000002 0.000002 1.265916 0.409368 -1.569160
    26 21.016012 0.000001 0.000000 0.000000 0.000000 -2.143111
    27 28.471630 -0.000003 0.000000 0.000000 0.000000 3.223174
    28 13.389681 0.268263 6.023555 -0.462585 -1.348926 -0.488759
    29 9.768897 0.000001 -0.000003 -1.443437 -0.307718 -1.588840
    30 19.931143 -0.000003 -0.000001 0.000000 0.000000 -1.980199
    31 26.044123 0.000007 -0.000002 0.000000 0.000000 2.801391
    32 -5.849916 4.319724 0.063164 0.504001 0.071120 0.390106
    33 -5.827132 4.411096 0.063164 -0.287413 0.076872 0.390350
    34 13.389696 0.268264 6.023556 -0.462585 -1.348926 -0.488759
    35 -2.155823 -59.011150 0.000001 1.570796 0.000000 -1.570796
  time 18
    0 -2.509232 -38.124324 17.730364 1.435868 0.325717 1.454937
    1 -5.577781 -0.123185 0.054231 0.003562 0.071191 0.218216
    2 -5.512516 -2.697432 -3.989360 0.393185 -0.134116 -0.907903
    3 10.569405 -0.000002 0.000000 0.000000 0.000000 -2.446638
    4 13.357939 0.000004 -0.000001 0.000000 0.000000 2.905515
    5 -5.435713 -2.622674 3.516682 2.761736 0.125569 -0.929008
    6 10.523518 -0.000001 0.000001 0.000000 0.000000 2.454404
    7 13.611947 -0.000005 0.000001 0.000000 0.000000 -2.922465
    8 -8.416648 1.073514 -0.018171 -0.008551 -0.014718 0.175140
    9 -9.984109 -4.710447 3.170796 -2.902516 -0.005546 -2.717710
    10 5.945611 -0.000002 0.000001 0.000000 0.000000 0.735012
    11 -9.984109 -4.710444 -2.998739 -0.223381 0.004087 -2.697966
    12 5.945621 0.000001 0.000000 0.000000 0.000000 -0.753546
    13 -13.167570 0.616875 1.590356 3.140739 -0.157522 -3.136150
    14 1.939793 0.000001 0.000001 3.040688 0.121169 2.449692
    15 -13.157710 0.632509 -1.795553 1.570796 0.016921 -3.058549
    16 2.215700 0.000000 -0.000001 1.570796 -0.608107 -3.124672
    17 -2.622045 -6.273479 8.263164 -2.854308 -0.022446 -1.262988
    18 11.485746 -0.000002 -0.000003 0.000000 0.000000 -2.034001
    19 24.536905 -0.000003 -0.000001 0.000000 0.000000 2.622751
    20 -2.622042 -6.273478 -8.136835 -0.270302 0.178307 -1.388747
    21 11.659971 -0.000001 0.000002 0.000000 0.000000 1.767498
    22 25.724377 0.000003 0.000005 0.000000 0.000000 -1.976089
    23 3.880156 -0.980430 0.090609 0.002630 0.185547 -0.409410
    24 13.389689 0.268264 -6.517196 0.542283 1.306249 -0.395924
    25 9.913786 0.000002 0.000002 1.170958 0.563070 -1.636826
    26 21.016012 0.000001 0.000000 0.000000 0.000000 -2.051080
    27 28.471630 -0.000003 0.000000 0.000000 0.000000 3.324654
    28 13.389681 0.268263 6.023555 -0.462585 -1.348926 -0.488759
    29 9.768897 0.000001 -0.000003 -1.462853 -0.038576 -1.538927
    30 19.931143 -0.000003 -0.000001 0.000000 0.000000 -1.976469
    31 26.044123 0.000007 -0.000002 0.000000 0.000000 2.774180
    32 -5.849916 4.319724 0.063164 0.504001 0.071120 0.390106
    33 -5.827132 4.411096 0.063164 -0.287413 0.076872 0.390350
    34 13.389696 0.268264 6.023556 -0.462585 -1.348926 -0.488759
    35 -2.157034 -59.011506 0.000001 1.570796 0.000000 -1.570796
  time 19
    0 -2.389170 -44.473593 20.965241 1.462873 0.140261 1.462624
    1 -5.577781 -0.123185 0.054231 0.003562 0.071356 0.102022
    2 -5.512516 -2.697432 -3.989360 0.393185 -0.134116 -0.907903
    3 10.569405 -0.000002 0.000000 0.000000 0.000000 -2.446638
    4 13.357939 0.000004 -0.000001 0.000000 0.000000 2.905515
    5 -5.435713 -2.622674 3.516682 2.761736 0.125569 -0.929008
    6 10.523518 -0.000001 0.000001 0.000000 0.000000 2.454404
    7 13.611947 -0.000005 0.000001 0.000000 0.000000 -2.922465
    8 -8.416648 1.073514 -0.018171 -0.007769 -0.014577 0.178059
    9 -9.984109 -4.710447 3.170796 -2.902516 -0.005546 -2.717710
    10 5.945611 -0.000002 0.000001 0.000000 0.000000 0.735012
    11 -9.984109 -4.710444 -2.998739 -0.223381 0.004087 -2.697966
    12 5.945621 0.000001 0.000000 0.000000 0.000000 -0.753546
    13 -13.167570 0.616875 1.590356 3.140739 -0.157522 -3.136150
    14 1.939793 0.000001 0.000001 3.040688 0.121169 2.449692
    15 -13.157710 0.632509 -1.795553 1.570796 0.016921 -3.058549
    16 2.215700 0.000000 -0.000001 1.570796 -0.608107 -3.124672
    17 -2.622045 -6.273479 8.263164 -2.880478 0.013597 -1.351452
    18 11.485746 -0.000002 -0.000003 0.000000 0.000000 -1.963882
    19 24.536905 -0.000003 -0.000001 0.000000 0.000000 2.473445
    20 -2.622042 -6.273478 -8.136835 -0.286476 0.139052 -1.524300
    21 11.659971 -0.000001 0.000002 0.000000 0.000000 1.670616
    22 25.724377 0.000003 0.000005 0.000000 0.000000 -1.772925
    23 3.880156 -0.980430 0.090609 0.002630 0.185896 -0.338595
    24 13.389689 0.268264 -6.517196 0.542283 1.306249 -0.395924
    25 9.913786 0.000002 0.000002 1.196021 0.570920 -1.629143
    26 21.016012 0.000001 0.000000 0.000000 0.000000 -2.177885
    27 28.471630 -0.000003 0.000000 0.000000 0.000000 3.153942
    28 13.389681 0.268263 6.023555 -0.462585 -1.348926 -0.488759
    29 9.768897 0.000001 -0.000003 -1.500921 -0.057763 -1.552288
    30 19.931143 -0.000003 -0.000001 0.000000 0.000000 -1.973271
    31 26.044123 0.000007 -0.000002 0.000000 0.000000 2.755612
    32 -5.849916 4.319724 0.063164 0.504001 0.071120 0.390106
    33 -5.827132 4.411096 0.063164 -0.287413 0.076872 0.390350
    34 13.389696 0.268264 6.023556 -0.462585 -1.348926 -0.488759
    35 -2.159222 -59.010565 0.000001 1.570796 0.000000 -1.570796
  time 20
    0 -2.336629 -50.982145 23.759969 1.485760 -0.009379 1.467406
    1 -5.577781 -0.123185 0.054231 0.003594 0.071498 -0.010144
    2 -5.512516 -2.697432 -3.989360 0.393185 -0.134116 -0.907903
    3 10.569405 -0.000002 0.000000 0.000000 0.000000 -2.446638
    4 13.357939 0.000004 -0.000001 0.000000 0.000000 2.905515
    5 -5.435713 -2.622674 3.516682 2.761736 0.125569 -0.929008
    6 10.523518 -0.000001 0.000001 0.000000 0.000000 2.454404
    7 13.611947 -0.000005 0.000001 0.000000 0.000000 -2.922465
    8 -8.416648 1.073514 -0.018171 -0.007147 -0.014435 0.172585
    9 -9.984109 -4.710447 3.170796 -2.902516 -0.005546 -2.717710
    10 5.945611 -0.000002 0.000001 0.000000 0.000000 0.735012
    11 -9.984109 -4.710444 -2.998739 -0.223381 0.004087 -2.697966
    12 5.945621 0.000001 0.000000 0.000000 0.000000 -0.753546
    13 -13.167570 0.616875 1.590356 3.140739 -0.157522 -3.136150
    14 1.939793 0.000001 0.000001 3.040688 0.121169 2.449692
    15 -13.157710 0.632509 -1.795553 1.570796 0.016921 -3.058549
    16 2.215700 0.000000 -0.000001 1.570796 -0.608107 -3.124672
    17 -2.622045 -6.273479 8.263164 -2.891886 0.043634 -1.431809
    18 11.485746 -0.000002 -0.000003 0.000000 0.000000 -1.880994
    19 24.536905 -0.000003 -0.000001 0.000000 0.000000 2.295426
    20 -2.622042 -6.273478 -8.136835 -0.274800 0.147308 -1.453628
    21 11.659971 -0.000001 0.000002 0.000000 0.000000 1.700798
    22 25.724377 0.000003 0.000005 0.000000 0.000000 -1.835964
    23 3.880156 -0.980430 0.090609 0.002662 0.186194 -0.241315
    24 13.389689 0.268264 -6.517196 0.542283 1.306249 -0.395924
    25 9.913786 0.000002 0.000002 1.316611 0.355517 -1.556479
    26 21.016012 0.000001 0.000000 0.000000 0.000000 -2.085684
    27 28.471630 -0.000003 0.000000 0.000000 0.000000 2.571744
    28 13.389681 0.268263 6.023555 -0.462585 -1.348926 -0.488759
    29 9.768897 0.000001 -0.000003 -1.536310 -0.157837 -1.559064
    30 19.931143 -0.000003 -0.000001 0.000000 0.000000 -1.982757
    31 26.044123 0.000007 -0.000002 0.000000 0.000000 2.822519
    32 -5.849916 4.319724 0.063164 0.504001 0.071120 0.390106
    33 -5.827132 4.411096 0.063164 -0.287413 0.076872 0.390350
    34 13.389696 0.268264 6.023556 -0.462585 -1.348926 -0.488759
    35 -2.158414 -59.012938 0.000001 1.570796 0.000000 -1.570796
  time 21
    0 -2.335982 -59.279966 26.362400 1.505582 -0.119936 1.471343
    1 -5.577781 -0.123185 0.054231 0.003594 0.071474 -0.126976
    2 -5.512516 -2.697432 -3.989360 0.393185 -0.134116 -0.907903
    3 10.569405 -0.000002 0.000000 0.000000 0.000000 -2.446638
    4 13.357939 0.000004 -0.000001 0.000000 0.000000 2.905515
    5 -5.435713 -2.622674 3.516682 2.761736 0.125569 -0.929008
    6 10.523518 -0.000001 0.000001 0.000000 0.000000 2.454404
    7 13.611947 -0.000005 0.000001 0.000000 0.000000 -2.922465
    8 -8.416648 1.073514 -0.018171 -0.006809 -0.014378 0.155029
    9 -9.984109 -4.710447 3.170796 -2.902516 -0.005546 -2.717710
    10 5.945611 -0.000002 0.000001 0.000000 0.000000 0.735012
    11 -9.984109 -4.710444 -2.998739 -0.223381 0.004087 -2.697966
    12 5.945621 0.000001 0.000000 0.000000 0.000000 -0.753546
    13 -13.167570 0.616875 1.590356 3.140739 -0.157522 -3.136150
    14 1.939793 0.000001 0.000001 3.040688 0.121169 2.449692
    15 -13.157710 0.632509 -1.795553 1.570796 0.016921 -3.058549
    16 2.215700 0.000000 -0.000001 1.570796 -0.608107 -3.124672
    17 -2.622045 -6.273479 8.263164 -2.826987 0.105924 -1.464452
    18 11.485746 -0.000002 -0.000003 0.000000 0.000000 -1.763675
    19 24.536905 -0.000003 -0.000001 0.000000 0.000000 2.039987
    20 -2.622042 -6.273478 -8.136835 -0.193454 0.213351 -1.228081
    21 11.659971 -0.000001 0.000002 0.000000 0.000000 1.827243
    22 25.724377 0.000003 0.000005 0.000000 0.000000 -2.102907
    23 3.880156 -0.980430 0.090609 0.002662 0.186144 -0.130712
    24 13.389689 0.268264 -6.517196 0.542283 1.306249 -0.395924
    25 9.913786 0.000002 0.000002 1.365225 0.159643 -1.540650
    26 21.016012 0.000001 0.000000 0.000000 0.000000 -1.783708
    27 28.471630 -0.000003 0.000000 0.000000 0.000000 1.959728
    28 13.389681 0.268263 6.023555 -0.462585 -1.348926 -0.488759
    29 9.768897 0.000001 -0.000003 -1.567683 -0.218157 -1.541694
    30 19.931143 -0.000003 -0.000001 0.000000 0.000000 -1.990911
    31 26.044123 0.000007 -0.000002 0.000000 0.000000 2.915485
    32 -5.849916 4.319724 0.063164 0.504001 0.071120 0.390106
    33 -5.827132 4.411096 0.063164 -0.287413 0.076872 0.390350
    34 13.389696 0.268264 6.023556 -0.462585 -1.348926 -0.488759
    35 -2.158584 -59.018625 0.000001 1.570796 0.000000 -1.570796
  time 22
    0 -2.348166 -68.172808 27.627292 1.522053 -0.184617 1.476406
    1 -5.577781 -0.123185 0.054231 0.003594 0.071569 -0.202794
    2 -5.512516 -2.697432 -3.989360 0.393185 -0.134116 -0.907903
    3 10.569405 -0.000002 0.000000 0.000000 0.000000 -2.446638
    4 13.357939 0.000004 -0.000001 0.000000 0.000000 2.905515
    5 -5.435713 -2.622674 3.516682 2.761736 0.125569 -0.929008
    6 10.523518 -0.000001 0.000001 0.000000 0.000000 2.454404
    7 13.611947 -0.000005 0.000001 0.000000 0.000000 -2.922465
    8 -8.416648 1.073514 -0.018171 -0.005582 -0.014152 0.127539
    9 -9.984109 -4.710447 3.170796 -2.902516 -0.005546 -2.717710
    10 5.945611 -0.000002 0.000001 0.000000 0.000000 0.735012
    11 -9.984109 -4.710444 -2.998739 -0.223381 0.004087 -2.697966
    12 5.945621 0.000001 0.000000 0.000000 0.000000 -0.753546
    13 -13.167570 0.616875 1.590356 3.140739 -0.157522 -3.136150
    14 1.939793 0.000001 0.000001 3.040688 0.121169 2.449692
    15 -13.157710 0.632509 -1.795553 1.570796 0.016921 -3.058549
    16 2.215700 0.000000 -0.000001 1.570796 -0.608107 -3.124672
    17 -2.622045 -6.273479 8.263164 -2.711666 0.191135 -1.432516
    18 11.485746 -0.000002 -0.000003 0.000000 0.000000 -1.628683
    19 24.536905 -0.000003 -0.000001 0.000000 0.000000 1.750992
    20 -2.622042 -6.273478 -8.136835 0.170307 0.369460 -0.929202
    21 11.659971 -0.000001 0.000002 0.000000 0.000000 1.907334
    22 25.724377 0.000003 0.000005 0.000000 0.000000 -2.272805
    23 3.880156 -0.980430 0.090609 0.002598 0.185373 -0.019865
    24 13.389689 0.268264 -6.517196 0.542283 1.306249 -0.395924
    25 9.913786 0.000002 0.000002 1.351700 0.123894 -1.535466
    26 21.016012 0.000001 0.000000 0.000000 0.000000 -1.409806
    27 28.471630 -0.000003 0.000000 0.000000 0.000000 1.316873
    28 13.389681 0.268263 6.023555 -0.462585 -1.348926 -0.488759
    29 9.768897 0.000001 -0.000003 -1.591786 -0.234125 -1.502279
    30 19.931143 -0.000003 -0.000001 0.000000 0.000000 -1.987660
    31 26.044123 0.000007 -0.000002 0.000000 0.000000 3.005442
    32 -5.849916 4.319724 0.063164 0.504001 0.071120 0.390106
    33 -5.827132 4.411096 0.063164 -0.287413 0.076872 0.390350
    34 13.389696 0.268264 6.023556 -0.462585 -1.348926 -0.488759
    35 -2.159731 -59.018404 0.000001 1.570796 0.000000 -1.570796
  time 23
    0 -2.486465 -76.331939 27.255517 1.534407 -0.192412 1.483531
    1 -5.577781 -0.123185 0.054231 0.003247 0.068244 -0.209674
    2 -5.512516 -2.697432 -3.989360 0.392596 -0.133821 -0.904678
    3 10.569405 -0.000002 0.000000 0.000000 0.000000 -2.446790
    4 13.357939 0.000004 -0.000001 0.000000 0.000000 2.906005
    5 -5.435713 -2.622674 3.516682 2.762282 0.125941 -0.925399
    6 10.523518 -0.000001 0.000001 0.000000 0.000000 2.454297
    7 13.611947 -0.000005 0.000001 0.000000 0.000000 -2.921956
    8 -8.416648 1.073514 -0.018171 -0.017351 -0.016275 0.104671
    9 -9.984109 -4.710447 3.170796 -2.902516 -0.005546 -2.717710
    10 5.945611 -0.000002 0.000001 0.000000 0.000000 0.735012
    11 -9.984109 -4.710444 -2.998739 -0.223381 0.004087 -2.697966
    12 5.945621 0.000001 0.000000 0.000000 0.000000 -0.753546
    13 -13.167570 0.616875 1.590356 3.140739 -0.157522 -3.136150
    14 1.939793 0.000001 0.000001 3.040688 0.121169 2.449692
    15 -13.157710 0.632509 -1.795553 1.570796 0.016921 -3.058549
    16 2.215700 0.000000 -0.000001 1.570796 -0.608107 -3.124672
    17 -2.622045 -6.273479 8.263164 -2.637373 0.256786 -1.346609
    18 11.485746 -0.000002 -0.000003 0.000000 0.000000 -1.448598
    19 24.536905 -0.000003 -0.000001 0.000000 0.000000 1.387274
    20 -2.622042 -6.273478 -8.136835 0.452434 0.395382 -0.774031
    21 11.659971 -0.000001 0.000002 0.000000 0.000000 1.973415
    22 25.724377 0.000003 0.000005 0.000000 0.000000 -2.410846
    23 3.880156 -0.980430 0.090609 0.002598 0.182687 0.078753
    24 13.389689 0.268264 -6.517196 0.542283 1.306249 -0.395924
    25 9.913786 0.000002 0.000002 1.355578 0.126035 -1.550184
    26 21.016012 0.000001 0.000000 0.000000 0.000000 -1.171148
    27 28.471630 -0.000003 0.000000 0.000000 0.000000 0.971482
    28 13.389681 0.268263 6.023555 -0.462585 -1.348926 -0.488759
    29 9.768897 0.000001 -0.000003 -1.615984 -0.223611 -1.429748
    30 19.931143 -0.000003 -0.000001 0.000000 0.000000 -1.971193
    31 26.044123 0.000007 -0.000002 0.000000 0.000000 3.091620
    32 -5.849916 4.319724 0.063164 0.506191 0.073425 0.393944
    33 -5.827132 4.411096 0.063164 -0.285223 0.079198 0.394247
    34 13.389696 0.268264 6.023556 -0.462585 -1.348926 -0.488759
    35 -2.161855 -59.016886 0.000001 1.570796 0.000000 -1.570796
  time 24
    0 -2.629783 -83.079543 26.242748 1.552122 -0.179929 1.495625
    1 -5.577781 -0.123185 0.054231 0.001545 0.051218 -0.227563
    2 -5.512516 -2.697432 -3.989360 0.384103 -0.123767 -0.866890
    3 10.569405 -0.000002 0.000000 0.000000 0.000000 -2.455545
    4 13.357939 0.000004 -0.000001 0.000000 0.000000 2.936724
    5 -5.435713 -2.622674 3.516682 2.770231 0.125177 -0.881597
    6 10.523518 -0.000001 0.000001 0.000000 0.000000 2.458930
    7 13.611947 -0.000005 0.000001 0.000000 0.000000 -2.937600
    8 -8.416648 1.073514 -0.018171 -0.044267 -0.022049 0.084641
    9 -9.984109 -4.710447 3.170796 -2.902516 -0.005511 -2.717861
    10 5.945611 -0.000002 0.000001 0.000000 0.000000 0.734664
    11 -9.984109 -4.710444 -2.998739 -0.223381 0.004063 -2.698088
    12 5.945621 0.000001 0.000000 0.000000 0.000000 -0.753242
    13 -13.167570 0.616875 1.590356 3.140739 -0.157522 -3.136150
    14 1.939793 0.000001 0.000001 3.040688 0.121169 2.449692
    15 -13.157710 0.632509 -1.795553 1.570796 0.016921 -3.058549
    16 2.215700 0.000000 -0.000001 1.570796 -0.608107 -3.124672
    17 -2.622045 -6.273479 8.263164 -2.714638 0.216201 -1.282465
    18 11.485746 -0.000002 -0.000003 0.000000 0.000000 -1.253635
    19 24.536905 -0.000003 -0.000001 0.000000 0.000000 1.035457
    20 -2.622042 -6.273478 -8.136835 0.033836 0.229119 -0.927902
    21 11.659971 -0.000001 0.000002 0.000000 0.000000 2.133853
    22 25.724377 0.000003 0.000005 0.000000 0.000000 -2.734310
    23 3.880156 -0.980430 0.090609 -0.003239 0.159154 0.159729
    24 13.389689 0.268264 -6.517196 0.542283 1.306249 -0.395924
    25 9.913786 0.000002 0.000002 1.326636 0.168467 -1.550369
    26 21.016012 0.000001 0.000000 0.000000 0.000000 -1.401028
    27 28.471630 -0.000003 0.000000 0.000000 0.000000 1.303244
    28 13.389681 0.268263 6.023555 -0.462585 -1.348926 -0.488759
    29 9.768897 0.000001 -0.000003 -1.764811 -0.565625 -1.535968
    30 19.931143 -0.000003 -0.000001 0.000000 0.000000 -1.990964
    31 26.044123 0.000007 -0.000002 0.000000 0.000000 2.968883
    32 -5.849916 4.319724 0.063164 0.530902 0.096990 0.440879
    33 -5.827132 4.411096 0.063164 -0.260518 0.102737 0.441278
    34 13.389696 0.268264 6.023556 -0.462585 -1.348926 -0.488759
    35 -2.160983 -59.018682 0.000001 1.570796 0.000000 -1.570796
  time 25
    0 -2.698167 -88.337877 25.759867 1.583628 -0.183352 1.519532
    1 -5.577781 -0.123185 0.054231 0.001166 0.021930 -0.252769
    2 -5.512516 -2.697432 -3.989360 0.374069 -0.111649 -0.835220
    3 10.569405 -0.000002 0.000000 0.000000 0.000000 -2.466121
    4 13.357939 0.000004 -0.000001 0.000000 0.000000 2.981719
    5 -5.435713 -2.622674 3.516682 2.779427 0.120273 -0.841341
    6 10.523518 -0.000001 0.000001 0.000000 0.000000 2.465480
    7 13.611947 -0.000005 0.000001 0.000000 0.000000 -2.965250
    8 -8.416648 1.073514 -0.018171 -0.028693 -0.021794 0.067611
    9 -9.984109 -4.710447 3.170796 -2.902516 -0.005487 -2.717973
    10 5.945611 -0.000002 0.000001 0.000000 0.000000 0.734466
    11 -9.984109 -4.710444 -2.998739 -0.223561 0.003572 -2.698047
    12 5.945621 0.000001 0.000000 0.000000 0.000000 -0.753089
    13 -13.167570 0.616875 1.590356 3.140739 -0.157522 -3.136150
    14 1.939793 0.000001 0.000001 3.040688 0.121169 2.449692
    15 -13.157710 0.632509 -1.795553 1.570796 0.016921 -3.058549
    16 2.215700 0.000000 -0.000001 1.570796 -0.608107 -3.124672
    17 -2.622045 -6.273479 8.263164 -2.794586 0.096520 -1.199932
    18 11.485746 -0.000002 -0.000003 0.000000 0.000000 -1.523277
    19 24.536905 -0.000003 -0.000001 0.000000 0.000000 1.533813
    20 -2.622042 -6.273478 -8.136835 -0.051242 0.237209 -1.296625
    21 11.659971 -0.000001 0.000002 0.000000 0.000000 2.164911
    22 25.724377 0.000003 0.000005 0.000000 0.000000 -2.796072
    23 3.880156 -0.980430 0.090609 -0.018794 0.101766 0.208886
    24 13.389689 0.268264 -6.517196 0.542283 1.306249 -0.395924
    25 9.913786 0.000002 0.000002 1.345458 0.195911 -1.606557
    26 21.016012 0.000001 0.000000 0.000000 0.000000 -1.522169
    27 28.471630 -0.000003 0.000000 0.000000 0.000000 1.497886
    28 13.389681 0.268263 6.023555 -0.462585 -1.348926 -0.488759
    29 9.768897 0.000001 -0.000003 -1.690972 -0.623120 -1.689048
    30 19.931143 -0.000003 -0.000001 0.000000 0.000000 -1.933676
    31 26.044123 0.000007 -0.000002 0.000000 0.000000 2.594459
    32 -5.849916 4.319724 0.063164 0.531045 0.091782 0.455025
    33 -5.827132 4.411096 0.063164 -0.260121 0.097637 0.455424
    34 13.389696 0.268264 6.023556 -0.462585 -1.348926 -0.488759
    35 -2.159993 -59.017513 0.000001 1.570796 0.000000 -1.570796
  time 26
    0 -2.676992 -91.776751 25.631668 1.611495 -0.198785 1.548501
    1 -5.577781 -0.123185 0.054231 0.001166 0.014243 -0.254883
    2 -5.512516 -2.697432 -3.989360 0.375383 -0.110100 -0.843158
    3 10.569405 -0.000002 0.000000 0.000000 0.000000 -2.467032
    4 13.357939 0.000004 -0.000001 0.000000 0.000000 2.986407
    5 -5.435713 -2.622674 3.516682 2.778219 0.117458 -0.849616
    6 10.523518 -0.000001 0.000001 0.000000 0.000000 2.466598
    7 13.611947 -0.000005 0.000001 0.000000 0.000000 -2.970343
    8 -8.416648 1.073514 -0.018171 -0.023360 -0.020266 0.056299
    9 -9.984109 -4.710447 3.170796 -2.902516 -0.005487 -2.717936
    10 5.945611 -0.000002 0.000001 0.000000 0.000000 0.734466
    11 -9.984109 -4.710444 -2.998739 -0.222530 0.006268 -2.698694
    12 5.945621 0.000001 0.000000 0.000000 0.000000 -0.753089
    13 -13.167570 0.616875 1.590356 3.140739 -0.157522 -3.136150
    14 1.939793 0.000001 0.000001 3.040688 0.121169 2.449692
    15 -13.157710 0.632509 -1.795553 1.570796 0.016921 -3.058549
    16 2.215700 0.000000 -0.000001 1.570796 -0.608107 -3.124672
    17 -2.622045 -6.273479 8.263164 -2.749819 0.007233 -0.922681
    18 11.485746 -0.000002 -0.000003 0.000000 0.000000 -1.707865
    19 24.536905 -0.000003 -0.000001 0.000000 0.000000 1.919117
    20 -2.622042 -6.273478 -8.136835 -0.091054 0.226683 -1.413092
    21 11.659971 -0.000001 0.000002 0.000000 0.000000 2.125098
    22 25.724377 0.000003 0.000005 0.000000 0.000000 -2.717172
    23 3.880156 -0.980430 0.090609 -0.020687 0.082065 0.235715
    24 13.389689 0.268264 -6.517196 0.542283 1.306249 -0.395924
    25 9.913786 0.000002 0.000002 1.381871 0.218554 -1.611556
    26 21.016012 0.000001 0.000000 0.000000 0.000000 -1.617655
    27 28.471630 -0.000003 0.000000 0.000000 0.000000 1.659831
    28 13.389681 0.268263 6.023555 -0.462585 -1.348926 -0.488759
    29 9.768897 0.000001 -0.000003 -1.666103 -0.672270 -1.744305
    30 19.931143 -0.000003 -0.000001 0.000000 0.000000 -1.859548
    31 26.044123 0.000007 -0.000002 0.000000 0.000000 2.374594
    32 -5.849916 4.319724 0.063164 0.525402 0.082931 0.470652
    33 -5.827132 4.411096 0.063164 -0.266922 0.088417 0.470799
    34 13.389696 0.268264 6.023556 -0.462585 -1.348926 -0.488759
    35 -2.163197 -59.015912 0.000001 1.570796 0.000000 -1.570796
  time 27
    0 -2.636573 -93.180993 25.520563 1.629498 -0.211953 1.570814
    1 -5.577781 -0.123185 0.054231 0.001072 0.011508 -0.252131
    2 -5.512516 -2.697432 -3.989360 0.379256 -0.110346 -0.860109
    3 10.569405 -0.000002 0.000000 0.000000 0.000000 -2.466526
    4 13.357939 0.000004 -0.000001 0.000000 0.000000 2.983748
    5 -5.435713 -2.622674 3.516682 2.774569 0.114605 -0.869402
    6 10.523518 -0.000001 0.000001 0.000000 0.000000 2.466970
    7 13.611947 -0.000005 0.000001 0.000000 0.000000 -2.971944
    8 -8.416648 1.073514 -0.018171 -0.020427 -0.018341 0.052204
    9 -9.984109 -4.710447 3.170796 -2.902516 -0.005499 -2.717936
    10 5.945611 -0.000002 0.000001 0.000000 0.000000 0.734515
    11 -9.984109 -4.710444 -2.998739 -0.221080 0.010067 -2.699584
    12 5.945621 0.000001 0.000000 0.000000 0.000000 -0.753039
    13 -13.167570 0.616875 1.590356 3.140739 -0.157522 -3.136150
    14 1.939793 0.000001 0.000001 3.040688 0.121169 2.449692
    15 -13.157710 0.632509 -1.795553 1.570796 0.016921 -3.058549
    16 2.215700 0.000000 -0.000001 1.570796 -0.608107 -3.124672
    17 -2.622045 -6.273479 8.263164 -2.686359 -0.056631 -0.673231
    18 11.485746 -0.000002 -0.000003 0.000000 0.000000 -1.793546
    19 24.536905 -0.000003 -0.000001 0.000000 0.000000 2.104954
    20 -2.622042 -6.273478 -8.136835 -0.128569 0.223959 -1.451501
    21 11.659971 -0.000001 0.000002 0.000000 0.000000 2.083945
    22 25.724377 0.000003 0.000005 0.000000 0.000000 -2.635517
    23 3.880156 -0.980430 0.090609 -0.019500 0.071493 0.271975
    24 13.389689 0.268264 -6.517196 0.542283 1.306249 -0.395924
    25 9.913786 0.000002 0.000002 1.424999 0.249827 -1.608038
    26 21.016012 0.000001 0.000000 0.000000 0.000000 -1.671175
    27 28.471630 -0.000003 0.000000 0.000000 0.000000 1.753825
    28 13.389681 0.268263 6.023555 -0.462585 -1.348926 -0.488759
    29 9.768897 0.000001 -0.000003 -1.656443 -0.741396 -1.762438
    30 19.931143 -0.000003 -0.000001 0.000000 0.000000 -1.833541
    31 26.044123 0.000007 -0.000002 0.000000 0.000000 2.306983
    32 -5.849916 4.319724 0.063164 0.520189 0.074934 0.491981
    33 -5.827132 4.411096 0.063164 -0.273466 0.080010 0.491885
    34 13.389696 0.268264 6.023556 -0.462585 -1.348926 -0.488759
    35 -2.162647 -59.018497 0.000001 1.570796 0.000000 -1.570796
  time 28
    0 -2.592535 -93.674915 25.405184 1.639266 -0.222329 1.586283
    1 -5.577781 -0.123185 0.054231 0.000977 0.009102 -0.248574
    2 -5.512516 -2.697432 -3.989360 0.383469 -0.111181 -0.878383
    3 10.569405 -0.000002 0.000000 0.000000 0.000000 -2.465564
    4 13.357939 0.000004 -0.000001 0.000000 0.000000 2.978850
    5 -5.435713 -2.622674 3.516682 2.770621 0.111809 -0.891116
    6 10.523518 -0.000001 0.000001 0.000000 0.000000 2.467024
    7 13.611947 -0.000005 0.000001 0.000000 0.000000 -2.972235
    8 -8.416648 1.073514 -0.018171 -0.017547 -0.016275 0.054393
    9 -9.984109 -4.710447 3.170796 -2.902516 -0.005499 -2.717898
    10 5.945611 -0.000002 0.000001 0.000000 0.000000 0.734565
    11 -9.984109 -4.710444 -2.998739 -0.219486 0.014238 -2.700595
    12 5.945621 0.000001 0.000000 0.000000 0.000000 -0.752886
    13 -13.167570 0.616875 1.590356 3.140739 -0.157522 -3.136150
    14 1.939793 0.000001 0.000001 3.040688 0.121169 2.449692
    15 -13.157710 0.632509 -1.795553 1.570796 0.016921 -3.058549
    16 2.215700 0.000000 -0.000001 1.570796 -0.608107 -3.124672
    17 -2.622045 -6.273479 8.263164 -2.613696 -0.098682 -0.493094
    18 11.485746 -0.000002 -0.000003 0.000000 0.000000 -1.833736
    19 24.536905 -0.000003 -0.000001 0.000000 0.000000 2.192614
    20 -2.622042 -6.273478 -8.136835 -0.175558 0.228871 -1.460719
    21 11.659971 -0.000001 0.000002 0.000000 0.000000 2.044029
    22 25.724377 0.000003 0.000005 0.000000 0.000000 -2.555205
    23 3.880156 -0.980430 0.090609 -0.017832 0.061219 0.317786
    24 13.389689 0.268264 -6.517196 0.542283 1.306249 -0.395924
    25 9.913786 0.000002 0.000002 1.468695 0.287717 -1.604983
    26 21.016012 0.000001 0.000000 0.000000 0.000000 -1.701191
    27 28.471630 -0.000003 0.000000 0.000000 0.000000 1.807892
    28 13.389681 0.268263 6.023555 -0.462585 -1.348926 -0.488759
    29 9.768897 0.000001 -0.000003 -1.655773 -0.791794 -1.762534
    30 19.931143 -0.000003 -0.000001 0.000000 0.000000 -1.811958
    31 26.044123 0.000007 -0.000002 0.000000 0.000000 2.253073
    32 -5.849916 4.319724 0.063164 0.514350 0.066282 0.515283
    33 -5.827132 4.411096 0.063164 -0.280459 0.071071 0.515000
    34 13.389696 0.268264 6.023556 -0.462585 -1.348926 -0.488759
    35 -2.162318 -59.016046 0.000001 1.570796 0.000000 -1.570796
  time 29
    0 -2.544878 -93.661978 25.285532 1.642138 -0.230388 1.596033
    1 -5.577781 -0.123185 0.054231 0.000820 0.007051 -0.244412
    2 -5.512516 -2.697432 -3.989360 0.387681 -0.112681 -0.896823
    3 10.569405 -0.000002 0.000000 0.000000 0.000000 -2.464097
    4 13.357939 0.000004 -0.000001 0.000000 0.000000 2.971712
    5 -5.435713 -2.622674 3.516682 2.766620 0.109292 -0.913577
    6 10.523518 -0.000001 0.000001 0.000000 0.000000 2.466757
    7 13.611947 -0.000005 0.000001 0.000000 0.000000 -2.970925
    8 -8.416648 1.073514 -0.018171 -0.014756 -0.014067 0.061692
    9 -9.984109 -4.710447 3.170796 -2.902516 -0.005511 -2.717898
    10 5.945611 -0.000002 0.000001 0.000000 0.000000 0.734615
    11 -9.984109 -4.710444 -2.998739 -0.217808 0.018660 -2.701687
    12 5.945621 0.000001 0.000000 0.000000 0.000000 -0.752582
    13 -13.167570 0.616875 1.590356 3.140739 -0.157522 -3.136150
    14 1.939793 0.000001 0.000001 3.040688 0.121169 2.449692
    15 -13.157710 0.632509 -1.795553 1.570796 0.016921 -3.058549
    16 2.215700 0.000000 -0.000001 1.570796 -0.608107 -3.124672
    17 -2.622045 -6.273479 8.263164 -2.551290 -0.134726 -0.390866
    18 11.485746 -0.000002 -0.000003 0.000000 0.000000 -1.854543
    19 24.536905 -0.000003 -0.000001 0.000000 0.000000 2.238001
    20 -2.622042 -6.273478 -8.136835 -0.232692 0.237250 -1.452328
    21 11.659971 -0.000001 0.000002 0.000000 0.000000 2.005554
    22 25.724377 0.000003 0.000005 0.000000 0.000000 -2.476910
    23 3.880156 -0.980430 0.090609 -0.015844 0.051294 0.370836
    24 13.389689 0.268264 -6.517196 0.542283 1.306249 -0.395924
    25 9.913786 0.000002 0.000002 1.513621 0.330343 -1.602392
    26 21.016012 0.000001 0.000000 0.000000 0.000000 -1.718974
    27 28.471630 -0.000003 0.000000 0.000000 0.000000 1.839885
    28 13.389681 0.268263 6.023555 -0.462585 -1.348926 -0.488759
    29 9.768897 0.000001 -0.000003 -1.663138 -0.825306 -1.745546
    30 19.931143 -0.000003 -0.000001 0.000000 0.000000 -1.790642
    31 26.044123 0.000007 -0.000002 0.000000 0.000000 2.201468
    32 -5.849916 4.319724 0.063164 0.507990 0.057260 0.539902
    33 -5.827132 4.411096 0.063164 -0.287643 0.061852 0.539450
    34 13.389696 0.268264 6.023556 -0.462585 -1.348926 -0.488759
    35 -2.162210 -59.017781 0.000001 1.570796 0.000000 -1.570796
  time 30
    0 -2.493603 -93.341224 25.170153 1.639649 -0.236340 1.600721
    1 -5.577781 -0.123185 0.054231 0.000694 0.005329 -0.239881
    2 -5.512516 -2.697432 -3.989360 0.391713 -0.114844 -0.914601
    3 10.569405 -0.000002 0.000000 0.000000 0.000000 -2.462022
    4 13.357939 0.000004 -0.000001 0.000000 0.000000 2.962405
    5 -5.435713 -2.622674 3.516682 2.762776 0.107222 -0.935665
    6 10.523518 -0.000001 0.000001 0.000000 0.000000 2.466065
    7 13.611947 -0.000005 0.000001 0.000000 0.000000 -2.967869
    8 -8.416648 1.073514 -0.018171 -0.012089 -0.011803 0.073004
    9 -9.984109 -4.710447 3.170796 -2.902516 -0.005511 -2.717861
    10 5.945611 -0.000002 0.000001 0.000000 0.000000 0.734664
    11 -9.984109 -4.710444 -2.998739 -0.216082 0.023178 -2.702900
    12 5.945621 0.000001 0.000000 0.000000 0.000000 -0.752176
    13 -13.167570 0.616875 1.590356 3.140739 -0.157522 -3.136150
    14 1.939793 0.000001 0.000001 3.040688 0.121169 2.449692
    15 -13.157710 0.632509 -1.795553 1.570796 0.016921 -3.058549
    16 2.215700 0.000000 -0.000001 1.570796 -0.608107 -3.124672
    17 -2.622045 -6.273479 8.263164 -2.530392 -0.181247 -0.366166
    18 11.485746 -0.000002 -0.000003 0.000000 0.000000 -1.869137
    19 24.536905 -0.000003 -0.000001 0.000000 0.000000 2.269758
    20 -2.622042 -6.273478 -8.136835 -0.298630 0.246125 -1.432533
    21 11.659971 -0.000001 0.000002 0.000000 0.000000 1.968316
    22 25.724377 0.000003 0.000005 0.000000 0.000000 -2.400295
    23 3.880156 -0.980430 0.090609 -0.013631 0.041866 0.428572
    24 13.389689 0.268264 -6.517196 0.542283 1.306249 -0.395924
    25 9.913786 0.000002 0.000002 1.559870 0.377057 -1.600725
    26 21.016012 0.000001 0.000000 0.000000 0.000000 -1.729225
    27 28.471630 -0.000003 0.000000 0.000000 0.000000 1.858696
    28 13.389681 0.268263 6.023555 -0.462585 -1.348926 -0.488759
    29 9.768897 0.000001 -0.000003 -1.677294 -0.843901 -1.714720
    30 19.931143 -0.000003 -0.000001 0.000000 0.000000 -1.768100
    31 26.044123 0.000007 -0.000002 0.000000 0.000000 2.148454
    32 -5.849916 4.319724 0.063164 0.501251 0.048068 0.565014
    33 -5.827132 4.411096 0.063164 -0.294803 0.052604 0.564487
    34 13.389696 0.268264 6.023556 -0.462585 -1.348926 -0.488759
    35 -2.162322 -59.019090 0.000001 1.570796 0.000000 -1.570796
  time 31
    0 -2.442616 -92.825623 25.059048 1.632945 -0.240554 1.601377
    1 -5.577781 -0.123185 0.054231 0.000567 0.003891 -0.235148
    2 -5.512516 -2.697432 -3.989360 0.395314 -0.117622 -0.931138
    3 10.569405 -0.000002 0.000000 0.000000 0.000000 -2.459340
    4 13.357939 0.000004 -0.000001 0.000000 0.000000 2.951209
    5 -5.435713 -2.622674 3.516682 2.759269 0.105712 -0.956571
    6 10.523518 -0.000001 0.000001 0.000000 0.000000 2.465000
    7 13.611947 -0.000005 0.000001 0.000000 0.000000 -2.963140
    8 -8.416648 1.073514 -0.018171 -0.009582 -0.009595 0.087195
    9 -9.984109 -4.710447 3.170796 -2.902516 -0.005523 -2.717823
    10 5.945611 -0.000002 0.000001 0.000000 0.000000 0.734764
    11 -9.984109 -4.710444 -2.998739 -0.214381 0.027661 -2.704113
    12 5.945621 0.000001 0.000000 0.000000 0.000000 -0.751618
    13 -13.167570 0.616875 1.590356 3.140739 -0.157522 -3.136150
    14 1.939793 0.000001 0.000001 3.040688 0.121169 2.449692
    15 -13.157710 0.632509 -1.795553 1.570796 0.016921 -3.058549
    16 2.215700 0.000000 -0.000001 1.570796 -0.608107 -3.124672
    17 -2.622045 -6.273479 8.263164 -2.549564 -0.237386 -0.410724
    18 11.485746 -0.000002 -0.000003 0.000000 0.000000 -1.880538
    19 24.536905 -0.000003 -0.000001 0.000000 0.000000 2.294458
    20 -2.622042 -6.273478 -8.136835 -0.371267 0.253431 -1.404820
    21 11.659971 -0.000001 0.000002 0.000000 0.000000 1.932314
    22 25.724377 0.000003 0.000005 0.000000 0.000000 -2.325226
    23 3.880156 -0.980430 0.090609 -0.011289 0.033085 0.488679
    24 13.389689 0.268264 -6.517196 0.542283 1.306249 -0.395924
    25 9.913786 0.000002 0.000002 1.606971 0.426237 -1.599892
    26 21.016012 0.000001 0.000000 0.000000 0.000000 -1.735115
    27 28.471630 -0.000003 0.000000 0.000000 0.000000 1.869510
    28 13.389681 0.268263 6.023555 -0.462585 -1.348926 -0.488759
    29 9.768897 0.000001 -0.000003 -1.696806 -0.849224 -1.675210
    30 19.931143 -0.000003 -0.000001 0.000000 0.000000 -1.743372
    31 26.044123 0.000007 -0.000002 0.000000 0.000000 2.091535
    32 -5.849916 4.319724 0.063164 0.494318 0.038961 0.589907
    33 -5.827132 4.411096 0.063164 -0.301757 0.043525 0.589364
    34 13.389696 0.268264 6.023556 -0.462585 -1.348926 -0.488759
    35 -2.162655 -59.015363 0.000001 1.570796 0.000000 -1.570796
  time 32
    0 -2.391916 -92.190486 24.952216 1.623465 -0.243293 1.598846
    1 -5.577781 -0.123185 0.054231 0.000441 0.002712 -0.230416
    2 -5.512516 -2.697432 -3.989360 0.398417 -0.120818 -0.946022
    3 10.569405 -0.000002 0.000000 0.000000 0.000000 -2.456051
    4 13.357939 0.000004 -0.000001 0.000000 0.000000 2.938613
    5 -5.435713 -2.622674 3.516682 2.756190 0.104742 -0.975672
    6 10.523518 -0.000001 0.000001 0.000000 0.000000 2.463509
    7 13.611947 -0.000005 0.000001 0.000000 0.000000 -2.956882
    8 -8.416648 1.073514 -0.018171 -0.007271 -0.007444 0.103170
    9 -9.984109 -4.710447 3.170796 -2.902516 -0.005523 -2.717786
    10 5.945611 -0.000002 0.000001 0.000000 0.000000 0.734813
    11 -9.984109 -4.710444 -2.998739 -0.212739 0.031987 -2.705366
    12 5.945621 0.000001 0.000000 0.000000 0.000000 -0.751010
    13 -13.167570 0.616875 1.590356 3.140739 -0.157522 -3.136150
    14 1.939793 0.000001 0.000001 3.040688 0.121169 2.449692
    15 -13.157710 0.632509 -1.795553 1.570796 0.016921 -3.058549
    16 2.215700 0.000000 -0.000001 1.570796 -0.608107 -3.124672
    17 -2.622045 -6.273479 8.263164 -2.574680 -0.287233 -0.508817
    18 11.485746 -0.000002 -0.000003 0.000000 0.000000 -1.885897
    19 24.536905 -0.000003 -0.000001 0.000000 0.000000 2.306012
    20 -2.622042 -6.273478 -8.136835 -0.447350 0.257971 -1.371079
    21 11.659971 -0.000001 0.000002 0.000000 0.000000 1.897496
    22 25.724377 0.000003 0.000005 0.000000 0.000000 -2.252105
    23 3.880156 -0.980430 0.090609 -0.008916 0.025075 0.548666
    24 13.389689 0.268264 -6.517196 0.542283 1.306249 -0.395924
    25 9.913786 0.000002 0.000002 1.653883 0.476324 -1.599615
    26 21.016012 0.000001 0.000000 0.000000 0.000000 -1.738683
    27 28.471630 -0.000003 0.000000 0.000000 0.000000 1.876164
    28 13.389681 0.268263 6.023555 -0.462585 -1.348926 -0.488759
    29 9.768897 0.000001 -0.000003 -1.719092 -0.843178 -1.633790
    30 19.931143 -0.000003 -0.000001 0.000000 0.000000 -1.715821
    31 26.044123 0.000007 -0.000002 0.000000 0.000000 2.029110
    32 -5.849916 4.319724 0.063164 0.487410 0.030224 0.613868
    33 -5.827132 4.411096 0.063164 -0.308301 0.034922 0.613386
    34 13.389696 0.268264 6.023556 -0.462585 -1.348926 -0.488759
    35 -2.163208 -59.015822 0.000001 1.570796 0.000000 -1.570796
  time 33
    0 -2.349316 -91.500367 24.853930 1.612165 -0.244767 1.594158
    1 -5.577781 -0.123185 0.054231 0.000315 0.001792 -0.225885
    2 -5.512516 -2.697432 -3.989360 0.400908 -0.124382 -0.958508
    3 10.569405 -0.000002 0.000000 0.000000 0.000000 -2.452812
    4 13.357939 0.000004 -0.000001 0.000000 0.000000 2.925248
    5 -5.435713 -2.622674 3.516682 2.753606 0.104369 -0.992285
    6 10.523518 -0.000001 0.000001 0.000000 0.000000 2.462125
    7 13.611947 -0.000005 0.000001 0.000000 0.000000 -2.949679
    8 -8.416648 1.073514 -0.018171 -0.005227 -0.005434 0.119754
    9 -9.984109 -4.710447 3.170796 -2.902516 -0.005534 -2.717786
    10 5.945611 -0.000002 0.000001 0.000000 0.000000 0.734863
    11 -9.984109 -4.710444 -2.998739 -0.211217 0.036014 -2.706580
    12 5.945621 0.000001 0.000000 0.000000 0.000000 -0.750300
    13 -13.167570 0.616875 1.590356 3.140739 -0.157522 -3.136150
    14 1.939793 0.000001 0.000001 3.040688 0.121169 2.449692
    15 -13.157710 0.632509 -1.795553 1.570796 0.016921 -3.058549
    16 2.215700 0.000000 -0.000001 1.570796 -0.608107 -3.124672
    17 -2.622045 -6.273479 8.263164 -2.577460 -0.314266 -0.641676
    18 11.485746 -0.000002 -0.000003 0.000000 0.000000 -1.880994
    19 24.536905 -0.000003 -0.000001 0.000000 0.000000 2.295357
    20 -2.622042 -6.273478 -8.136835 -0.523145 0.259498 -1.333084
    21 11.659971 -0.000001 0.000002 0.000000 0.000000 1.864327
    22 25.724377 0.000003 0.000005 0.000000 0.000000 -2.181673
    23 3.880156 -0.980430 0.090609 -0.006607 0.017935 0.606036
    24 13.389689 0.268264 -6.517196 0.542283 1.306249 -0.395924
    25 9.913786 0.000002 0.000002 1.699092 0.525569 -1.599244
    26 21.016012 0.000001 0.000000 0.000000 0.000000 -1.741572
    27 28.471630 -0.000003 0.000000 0.000000 0.000000 1.881475
    28 13.389681 0.268263 6.023555 -0.462585 -1.348926 -0.488759
    29 9.768897 0.000001 -0.000003 -1.742047 -0.828985 -1.596475
    30 19.931143 -0.000003 -0.000001 0.000000 0.000000 -1.685232
    31 26.044123 0.000007 -0.000002 0.000000 0.000000 1.961499
    32 -5.849916 4.319724 0.063164 0.480750 0.022084 0.636129
    33 -5.827132 4.411096 0.063164 -0.314269 0.026992 0.635754
    34 13.389696 0.268264 6.023556 -0.462585 -1.348926 -0.488759
    35 -2.160008 -59.015856 0.000001 1.570796 0.000000 -1.570796
  time 34
    0 -2.307005 -90.798304 24.768465 1.600386 -0.245347 1.588252
    1 -5.577781 -0.123185 0.054231 0.000221 0.001085 -0.221723
    2 -5.512516 -2.697432 -3.989360 0.402901 -0.127774 -0.969175
    3 10.569405 -0.000002 0.000000 0.000000 0.000000 -2.448764
    4 13.357939 0.000004 -0.000001 0.000000 0.000000 2.912162
    5 -5.435713 -2.622674 3.516682 2.751540 0.104425 -1.006160
    6 10.523518 -0.000001 0.000001 0.000000 0.000000 2.460208
    7 13.611947 -0.000005 0.000001 0.000000 0.000000 -2.941966
    8 -8.416648 1.073514 -0.018171 -0.003449 -0.003651 0.135850
    9 -9.984109 -4.710447 3.170796 -2.902516 -0.005534 -2.717748
    10 5.945611 -0.000002 0.000001 0.000000 0.000000 0.734913
    11 -9.984109 -4.710444 -2.998739 -0.209874 0.039597 -2.707671
    12 5.945621 0.000001 0.000000 0.000000 0.000000 -0.749589
    13 -13.167570 0.616875 1.590356 3.140739 -0.157522 -3.136150
    14 1.939793 0.000001 0.000001 3.040688 0.121169 2.449692
    15 -13.157710 0.632509 -1.795553 1.570796 0.016921 -3.058549
    16 2.215700 0.000000 -0.000001 1.570796 -0.608107 -3.124672
    17 -2.622045 -6.273479 8.263164 -2.555699 -0.312656 -0.787048
    18 11.485746 -0.000002 -0.000003 0.000000 0.000000 -1.864006
    19 24.536905 -0.000003 -0.000001 0.000000 0.000000 2.258619
    20 -2.622042 -6.273478 -8.136835 -0.594156 0.258508 -1.293139
    21 11.659971 -0.000001 0.000002 0.000000 0.000000 1.833373
    22 25.724377 0.000003 0.000005 0.000000 0.000000 -2.115878
    23 3.880156 -0.980430 0.090609 -0.004522 0.011816 0.658478
    24 13.389689 0.268264 -6.517196 0.542283 1.306249 -0.395924
    25 9.913786 0.000002 0.000002 1.740707 0.571764 -1.598226
    26 21.016012 0.000001 0.000000 0.000000 0.000000 -1.745026
    27 28.471630 -0.000003 0.000000 0.000000 0.000000 1.887873
    28 13.389681 0.268263 6.023555 -0.462585 -1.348926 -0.488759
    29 9.768897 0.000001 -0.000003 -1.763281 -0.810258 -1.566985
    30 19.931143 -0.000003 -0.000001 0.000000 0.000000 -1.652564
    31 26.044123 0.000007 -0.000002 0.000000 0.000000 1.891262
    32 -5.849916 4.319724 0.063164 0.474637 0.014827 0.656032
    33 -5.827132 4.411096 0.063164 -0.319495 0.019986 0.655719
    34 13.389696 0.268264 6.023556 -0.462585 -1.348926 -0.488759
    35 -2.161002 -59.015464 0.000001 1.570796 0.000000 -1.570796
  time 35
    0 -2.272794 -90.138089 24.704365 1.589182 -0.245347 1.581971
    1 -5.577781 -0.123185 0.054231 0.000126 0.000566 -0.218166
    2 -5.512516 -2.697432 -3.989360 0.404351 -0.130847 -0.977692
    3 10.569405 -0.000002 0.000000 0.000000 0.000000 -2.444867
    4 13.357939 0.000004 -0.000001 0.000000 0.000000 2.900336
    5 -5.435713 -2.622674 3.516682 2.749956 0.104649 -1.017484
    6 10.523518 -0.000001 0.000001 0.000000 0.000000 2.458078
    7 13.611947 -0.000005 0.000001 0.000000 0.000000 -2.934690
    8 -8.416648 1.073514 -0.018171 -0.001991 -0.002151 0.150325
    9 -9.984109 -4.710447 3.170796 -2.902516 -0.005546 -2.717710
    10 5.945611 -0.000002 0.000001 0.000000 0.000000 0.734962
    11 -9.984109 -4.710444 -2.998739 -0.208736 0.042617 -2.708642
    12 5.945621 0.000001 0.000000 0.000000 0.000000 -0.748930
    13 -13.167570 0.616875 1.590356 3.140739 -0.157522 -3.136150
    14 1.939793 0.000001 0.000001 3.040688 0.121169 2.449692
    15 -13.157710 0.632509 -1.795553 1.570796 0.016921 -3.058549
    16 2.215700 0.000000 -0.000001 1.570796 -0.608107 -3.124672
    17 -2.622045 -6.273479 8.263164 -2.523490 -0.288734 -0.922082
    18 11.485746 -0.000002 -0.000003 0.000000 0.000000 -1.837384
    19 24.536905 -0.000003 -0.000001 0.000000 0.000000 2.200640
    20 -2.622042 -6.273478 -8.136835 -0.655788 0.256031 -1.254198
    21 11.659971 -0.000001 0.000002 0.000000 0.000000 1.805766
    22 25.724377 0.000003 0.000005 0.000000 0.000000 -2.057207
    23 3.880156 -0.980430 0.090609 -0.002694 0.006841 0.703498
    24 13.389689 0.268264 -6.517196 0.542283 1.306249 -0.395924
    25 9.913786 0.000002 0.000002 1.776837 0.612379 -1.595634
    26 21.016012 0.000001 0.000000 0.000000 0.000000 -1.750123
    27 28.471630 -0.000003 0.000000 0.000000 0.000000 1.897279
    28 13.389681 0.268263 6.023555 -0.462585 -1.348926 -0.488759
    29 9.768897 0.000001 -0.000003 -1.781454 -0.790809 -1.546275
    30 19.931143 -0.000003 -0.000001 0.000000 0.000000 -1.619950
    31 26.044123 0.000007 -0.000002 0.000000 0.000000 1.823203
    32 -5.849916 4.319724 0.063164 0.469346 0.008737 0.672755
    33 -5.827132 4.411096 0.063164 -0.323811 0.014130 0.672535
    34 13.389696 0.268264 6.023556 -0.462585 -1.348926 -0.488759
    35 -2.162217 -59.019258 0.000001 1.570796 0.000000 -1.570796
  time 36
    0 -2.242777 -89.573519 24.648813 1.579702 -0.244978 1.576345
    1 -5.577781 -0.123185 0.054231 0.000032 0.000236 -0.215380
    2 -5.512516 -2.697432 -3.989360 0.405324 -0.133330 -0.983893
    3 10.569405 -0.000002 0.000000 0.000000 0.000000 -2.441578
    4 13.357939 0.000004 -0.000001 0.000000 0.000000 2.890610
    5 -5.435713 -2.622674 3.516682 2.748852 0.105003 -1.025821
    6 10.523518 -0.000001 0.000001 0.000000 0.000000 2.456268
    7 13.611947 -0.000005 0.000001 0.000000 0.000000 -2.928505
    8 -8.416648 1.073514 -0.018171 -0.000907 -0.000991 0.162084
    9 -9.984109 -4.710447 3.170796 -2.902516 -0.005546 -2.717710
    10 5.945611 -0.000002 0.000001 0.000000 0.000000 0.735012
    11 -9.984109 -4.710444 -2.998739 -0.207873 0.044930 -2.709410
    12 5.945621 0.000001 0.000000 0.000000 0.000000 -0.748423
    13 -13.167570 0.616875 1.590356 3.140739 -0.157522 -3.136150
    14 1.939793 0.000001 0.000001 3.040688 0.121169 2.449692
    15 -13.157710 0.632509 -1.795553 1.570796 0.016921 -3.058549
    16 2.215700 0.000000 -0.000001 1.570796 -0.608107 -3.124672
    17 -2.622045 -6.273479 8.263164 -2.494348 -0.255909 -1.029370
    18 11.485746 -0.000002 -0.000003 0.000000 0.000000 -1.807456
    19 24.536905 -0.000003 -0.000001 0.000000 0.000000 2.135258
    20 -2.622042 -6.273478 -8.136835 -0.703925 0.253059 -1.220517
    21 11.659971 -0.000001 0.000002 0.000000 0.000000 1.783052
    22 25.724377 0.000003 0.000005 0.000000 0.000000 -2.009155
    23 3.880156 -0.980430 0.090609 -0.001251 0.003109 0.738663
    24 13.389689 0.268264 -6.517196 0.542283 1.306249 -0.395924
    25 9.913786 0.000002 0.000002 1.805684 0.644624 -1.590728
    26 21.016012 0.000001 0.000000 0.000000 0.000000 -1.757826
    27 28.471630 -0.000003 0.000000 0.000000 0.000000 1.911548
    28 13.389681 0.268263 6.023555 -0.462585 -1.348926 -0.488759
    29 9.768897 0.000001 -0.000003 -1.795418 -0.773593 -1.533869
    30 19.931143 -0.000003 -0.000001 0.000000 0.000000 -1.591119
    31 26.044123 0.000007 -0.000002 0.000000 0.000000 1.763915
    32 -5.849916 4.319724 0.063164 0.465201 0.004041 0.685585
    33 -5.827132 4.411096 0.063164 -0.327076 0.009646 0.685507
    34 13.389696 0.268264 6.023556 -0.462585 -1.348926 -0.488759
    35 -2.159679 -59.018015 0.000001 1.570796 0.000000 -1.570796
  time 37
    0 -2.224766 -89.158389 24.614626 1.573190 -0.244557 1.572314
    1 -5.577781 -0.123185 0.054231 0.000000 0.000047 -0.213568
    2 -5.512516 -2.697432 -3.989360 0.405868 -0.135050 -0.987531
    3 10.569405 -0.000002 0.000000 0.000000 0.000000 -2.439706
    4 13.357939 0.000004 -0.000001 0.000000 0.000000 2.884172
    5 -5.435713 -2.622674 3.516682 2.748189 0.105283 -1.031048
    6 10.523518 -0.000001 0.000001 0.000000 0.000000 2.454990
    7 13.611947 -0.000005 0.000001 0.000000 0.000000 -2.924284
    8 -8.416648 1.073514 -0.018171 -0.000231 -0.000255 0.169950
    9 -9.984109 -4.710447 3.170796 -2.902516 -0.005546 -2.717710
    10 5.945611 -0.000002 0.000001 0.000000 0.000000 0.735012
    11 -9.984109 -4.710444 -2.998739 -0.207310 0.046429 -2.709895
    12 5.945621 0.000001 0.000000 0.000000 0.000000 -0.748017
    13 -13.167570 0.616875 1.590356 3.140739 -0.157522 -3.136150
    14 1.939793 0.000001 0.000001 3.040688 0.121169 2.449692
    15 -13.157710 0.632509 -1.795553 1.570796 0.016921 -3.058549
    16 2.215700 0.000000 -0.000001 1.570796 -0.608107 -3.124672
    17 -2.622045 -6.273479 8.263164 -2.475367 -0.228268 -1.098901
    18 11.485746 -0.000002 -0.000003 0.000000 0.000000 -1.782829
    19 24.536905 -0.000003 -0.000001 0.000000 0.000000 2.081776
    20 -2.622042 -6.273478 -8.136835 -0.735124 0.250459 -1.196763
    21 11.659971 -0.000001 0.000002 0.000000 0.000000 1.767498
    22 25.724377 0.000003 0.000005 0.000000 0.000000 -1.976089
    23 3.880156 -0.980430 0.090609 -0.000321 0.000796 0.761538
    24 13.389689 0.268264 -6.517196 0.542283 1.306249 -0.395924
    25 9.913786 0.000002 0.000002 1.825356 0.665516 -1.582953
    26 21.016012 0.000001 0.000000 0.000000 0.000000 -1.769323
    27 28.471630 -0.000003 0.000000 0.000000 0.000000 1.932727
    28 13.389681 0.268263 6.023555 -0.462585 -1.348926 -0.488759
    29 9.768897 0.000001 -0.000003 -1.804409 -0.761437 -1.527665
    30 19.931143 -0.000003 -0.000001 0.000000 0.000000 -1.570335
    31 26.044123 0.000007 -0.000002 0.000000 0.000000 1.721978
    32 -5.849916 4.319724 0.063164 0.462503 0.001053 0.693865
    33 -5.827132 4.411096 0.063164 -0.329164 0.006760 0.693835
    34 13.389696 0.268264 6.023556 -0.462585 -1.348926 -0.488759
    35 -2.161335 -59.016348 0.000001 1.570796 0.000000 -1.570796
  time 38
    0 -2.218763 -88.994908 24.601806 1.570796 -0.244346 1.570720
    1 -5.577781 -0.123185 0.054231 0.000000 0.000000 -0.212930
    2 -5.512516 -2.697432 -3.989360 0.406049 -0.135640 -0.988854
    3 10.569405 -0.000002 0.000000 0.000000 0.000000 -2.438846
    4 13.357939 0.000004 -0.000001 0.000000 0.000000 2.881863
    5 -5.435713 -2.622674 3.516682 2.747968 0.105413 -1.032852
    6 10.523518 -0.000001 0.000001 0.000000 0.000000 2.454510
    7 13.611947 -0.000005 0.000001 0.000000 0.000000 -2.922756
    8 -8.416648 1.073514 -0.018171 0.000000 0.000000 0.172788
    9 -9.984109 -4.710447 3.170796 -2.902516 -0.005546 -2.717710
    10 5.945611 -0.000002 0.000001 0.000000 0.000000 0.735012
    11 -9.984109 -4.710444 -2.998739 -0.207118 0.046944 -2.710057
    12 5.945621 0.000001 0.000000 0.000000 0.000000 -0.747916
    13 -13.167570 0.616875 1.590356 3.140739 -0.157522 -3.136150
    14 1.939793 0.000001 0.000001 3.040688 0.121169 2.449692
    15 -13.157710 0.632509 -1.795553 1.570796 0.016921 -3.058549
    16 2.215700 0.000000 -0.000001 1.570796 -0.608107 -3.124672
    17 -2.622045 -6.273479 8.263164 -2.468657 -0.217112 -1.123818
    18 11.485746 -0.000002 -0.000003 0.000000 0.000000 -1.772910
    19 24.536905 -0.000003 -0.000001 0.000000 0.000000 2.060120
    20 -2.622042 -6.273478 -8.136835 -0.746225 0.249303 -1.187722
    21 11.659971 -0.000001 0.000002 0.000000 0.000000 1.761574
    22 25.724377 0.000003 0.000005 0.000000 0.000000 -1.963589
    23 3.880156 -0.980430 0.090609 0.000000 0.000000 0.769690
    24 13.389689 0.268264 -6.517196 0.542283 1.306249 -0.395924
    25 9.913786 0.000002 0.000002 1.834152 0.672523 -1.571937
    26 21.016012 0.000001 0.000000 0.000000 0.000000 -1.785803
    27 28.471630 -0.000003 0.000000 0.000000 0.000000 1.963632
    28 13.389681 0.268263 6.023555 -0.462585 -1.348926 -0.488759
    29 9.768897 0.000001 -0.000003 -1.807661 -0.756969 -1.525852
    30 19.931143 -0.000003 -0.000001 0.000000 0.000000 -1.562182
    31 26.044123 0.000007 -0.000002 0.000000 0.000000 1.706035
    32 -5.849916 4.319724 0.063164 0.461552 0.000000 0.696771
    33 -5.827132 4.411096 0.063164 -0.329881 0.005779 0.696771
    34 13.389696 0.268264 6.023556 -0.462585 -1.348926 -0.488759
    35 -2.159238 -59.018866 0.000001 1.570796 0.000000 -1.570796
end
