// Created by Crowbar 0.62
version 1
nodes
  0 "Antlion.Body_Bone" -1
  1 "Antlion.Chest_Bone" 0
  2 "Antlion.ArmR1_Bone" 1
  3 "Antlion.ArmR2_Bone" 2
  4 "Antlion.ArmR3_Bone" 3
  5 "Antlion.ArmL1_Bone" 1
  6 "Antlion.ArmL2_Bone" 5
  7 "Antlion.ArmL3_Bone" 6
  8 "Antlion.Head_Bone" 1
  9 "Antlion.FangBottomL1_Bone" 8
  10 "Antlion.FangBottomL2_Bone" 9
  11 "Antlion.FangBottomR1_Bone" 8
  12 "Antlion.FangBottomR2_Bone" 11
  13 "Antlion.FangTopL1_Bone" 8
  14 "Antlion.FangTopL2_Bone" 13
  15 "Antlion.FangTopR1_Bone" 8
  16 "Antlion.FangTopR2_Bone" 15
  17 "Antlion.LegMidL1_Bone" 0
  18 "Antlion.LegMidL2_Bone" 17
  19 "Antlion.LegMidL3_Bone" 18
  20 "Antlion.LegMidR1_Bone" 0
  21 "Antlion.LegMidR2_Bone" 20
  22 "Antlion.LegMidR3_Bone" 21
  23 "Antlion.Back_Bone" 0
  24 "Antlion.LegShoulder_R_Bone" 23
  25 "Antlion.LegL1_Bone" 24
  26 "Antlion.LegL2_Bone" 25
  27 "Antlion.LegL3_Bone" 26
  28 "Antlion.LegShoulder_L_Bone" 23
  29 "Antlion.LegR1_Bone" 28
  30 "Antlion.LegR2_Bone" 29
  31 "Antlion.LegR3_Bone" 30
  32 "Antlion.WingL_Bone" 0
  33 "Antlion.WingR_Bone" 0
  34 "Antlion.bone" 23
  35 "MAXSceneRoot.AntLionMesh" -1
end
skeleton
  time 0
    0 -0.059525 1.526386 24.721458 1.570796 -0.244346 1.570720
    1 -5.577778 -0.123185 0.054231 0.000000 0.000000 -0.212930
    2 -5.512519 -2.697433 -3.989360 0.393304 -0.165984 -0.903143
    3 10.569402 -0.000001 0.000000 0.000000 0.000000 -2.401411
    4 13.357939 0.000000 0.000000 0.000000 0.000000 2.790964
    5 -5.435715 -2.622672 3.516682 2.761840 0.146227 -0.922288
    6 10.523519 0.000000 0.000000 0.000000 0.000000 2.412018
    7 13.611946 0.000001 0.000000 0.000000 0.000000 -2.810411
    8 -8.416649 1.073515 -0.018171 0.000000 0.000000 0.172788
    9 -9.984112 -4.710448 3.170796 -2.902516 -0.005546 -2.717710
    10 5.945618 0.000001 -0.000001 0.000000 0.000000 0.735012
    11 -9.984110 -4.710446 -2.998739 -0.223381 0.004087 -2.697966
    12 5.945625 -0.000001 0.000000 0.000000 0.000000 -0.753546
    13 -13.167568 0.616876 1.590356 3.140739 -0.157522 -3.136150
    14 1.939788 0.000000 0.000000 3.040688 0.121169 2.449692
    15 -13.157713 0.632509 -1.795553 1.570796 0.016921 -3.058550
    16 2.215696 0.000000 -0.000001 1.570796 -0.608107 -3.124672
    17 -2.622040 -6.273479 8.263164 -2.853637 0.102241 -1.108476
    18 11.485749 0.000000 0.000000 0.000000 0.000000 -1.867940
    19 24.536900 0.000000 -0.000001 0.000000 0.000000 2.267129
    20 -2.622039 -6.273478 -8.136835 -0.285519 -0.090695 -1.166804
    21 11.659969 0.000000 0.000000 0.000000 0.000000 1.907643
    22 25.724377 0.000002 -0.000001 0.000000 0.000000 -2.273544
    23 3.880158 -0.980431 0.090609 0.000000 0.000000 0.769690
    24 13.389692 0.268267 -6.517195 0.542283 1.306249 -0.395924
    25 9.913785 -0.000002 0.000002 1.463683 0.680568 -1.789561
    26 21.016018 0.000002 0.000000 0.000000 0.000000 -1.855747
    27 28.471636 -0.000006 0.000001 0.000000 0.000000 2.096656
    28 13.389688 0.268267 6.023557 -0.462585 -1.348926 -0.488759
    29 9.768896 0.000001 -0.000002 -1.503886 -0.788443 -1.726268
    30 19.931139 -0.000001 0.000000 0.000000 0.000000 -1.746197
    31 26.044121 0.000003 -0.000001 0.000000 0.000000 2.098002
    32 -5.849912 4.319725 0.063164 0.461552 0.000000 0.804073
    33 -5.827132 4.411092 0.063164 -0.329881 0.005779 0.804072
    34 13.389692 0.268266 6.023556 -0.462585 -1.348926 -0.488759
    35 0.000000 0.077740 0.000001 1.570796 0.000000 -1.570796
  time 1
    0 -0.059525 1.526386 24.721458 1.570796 -0.287537 1.570720
    1 -5.577778 -0.123185 0.054231 0.000000 0.000000 -0.212930
    2 -5.512519 -2.697433 -3.989360 0.393304 -0.165984 -0.903143
    3 10.569402 -0.000001 0.000000 0.000000 0.000000 -2.401411
    4 13.357939 0.000000 0.000000 0.000000 0.000000 2.790964
    5 -5.435715 -2.622672 3.516682 2.761840 0.146227 -0.922288
    6 10.523519 0.000000 0.000000 0.000000 0.000000 2.412018
    7 13.611946 0.000001 0.000000 0.000000 0.000000 -2.810411
    8 -8.416649 1.073515 -0.018171 0.000000 0.000000 0.172788
    9 -9.984112 -4.710448 3.170796 -2.902516 -0.005523 -2.717823
    10 5.945618 0.000001 -0.000001 0.000000 0.000000 0.734813
    11 -9.984110 -4.710446 -2.998739 -0.223381 0.004075 -2.698047
    12 5.945625 -0.000001 0.000000 0.000000 0.000000 -0.753343
    13 -13.167568 0.616876 1.590356 3.140739 -0.157522 -3.136150
    14 1.939788 0.000000 0.000000 3.040688 0.121169 2.449692
    15 -13.157713 0.632509 -1.795553 1.570796 0.016921 -3.058550
    16 2.215696 0.000000 -0.000001 1.570796 -0.608107 -3.124672
    17 -2.622040 -6.273479 8.263164 -2.838683 0.111538 -1.222129
    18 11.485749 0.000000 0.000000 0.000000 0.000000 -1.851579
    19 24.536900 0.000000 -0.000001 0.000000 0.000000 2.231497
    20 -2.622039 -6.273478 -8.136835 -0.306286 -0.102583 -1.278898
    21 11.659969 0.000000 0.000000 0.000000 0.000000 1.891367
    22 25.724377 0.000002 -0.000001 0.000000 0.000000 -2.239134
    23 3.880158 -0.980431 0.090609 0.000000 0.000000 0.652394
    24 13.389692 0.268267 -6.517195 0.542283 1.306249 -0.395924
    25 9.913785 -0.000002 0.000002 1.445523 0.574748 -1.757071
    26 21.016018 0.000002 0.000000 0.000000 0.000000 -1.815650
    27 28.471636 -0.000006 0.000001 0.000000 0.000000 2.019938
    28 13.389688 0.268267 6.023557 -0.462585 -1.348926 -0.488759
    29 9.768896 0.000001 -0.000002 -1.492695 -0.664976 -1.715866
    30 19.931139 -0.000001 0.000000 0.000000 0.000000 -1.715448
    31 26.044121 0.000003 -0.000001 0.000000 0.000000 2.028278
    32 -5.849912 4.319725 0.063164 0.461552 0.000000 0.685421
    33 -5.827132 4.411092 0.063164 -0.329881 0.005779 0.685400
    34 13.389692 0.268266 6.023556 -0.462585 -1.348926 -0.488759
    35 0.000000 0.077740 0.000001 1.570796 0.000000 -1.570796
  time 2
    0 -0.059525 1.526386 24.721458 1.570796 -0.301916 1.570720
    1 -5.577778 -0.123185 0.054231 0.000000 0.000000 -0.212930
    2 -5.512519 -2.697433 -3.989360 0.393304 -0.165984 -0.903143
    3 10.569402 -0.000001 0.000000 0.000000 0.000000 -2.401411
    4 13.357939 0.000000 0.000000 0.000000 0.000000 2.790964
    5 -5.435715 -2.622672 3.516682 2.761840 0.146227 -0.922288
    6 10.523519 0.000000 0.000000 0.000000 0.000000 2.412018
    7 13.611946 0.000001 0.000000 0.000000 0.000000 -2.810411
    8 -8.416649 1.073515 -0.018171 0.000000 0.000000 0.172788
    9 -9.984112 -4.710448 3.170796 -2.902516 -0.005511 -2.717898
    10 5.945618 0.000001 -0.000001 0.000000 0.000000 0.734615
    11 -9.984110 -4.710446 -2.998739 -0.223381 0.004051 -2.698128
    12 5.945625 -0.000001 0.000000 0.000000 0.000000 -0.753191
    13 -13.167568 0.616876 1.590356 3.140739 -0.157522 -3.136150
    14 1.939788 0.000000 0.000000 3.040688 0.121169 2.449692
    15 -13.157713 0.632509 -1.795553 1.570796 0.016921 -3.058550
    16 2.215696 0.000000 -0.000001 1.570796 -0.608107 -3.124672
    17 -2.622040 -6.273479 8.263164 -2.823057 0.116651 -1.281758
    18 11.485749 0.000000 0.000000 0.000000 0.000000 -1.851921
    19 24.536900 0.000000 -0.000001 0.000000 0.000000 2.232328
    20 -2.622039 -6.273478 -8.136835 -0.327340 -0.110921 -1.337929
    21 11.659969 0.000000 0.000000 0.000000 0.000000 1.891728
    22 25.724377 0.000002 -0.000001 0.000000 0.000000 -2.239874
    23 3.880158 -0.980431 0.090609 0.000000 0.000000 0.631831
    24 13.389692 0.268267 -6.517195 0.542283 1.306249 -0.395924
    25 9.913785 -0.000002 0.000002 1.422446 0.544968 -1.743556
    26 21.016018 0.000002 0.000000 0.000000 0.000000 -1.781952
    27 28.471636 -0.000006 0.000001 0.000000 0.000000 1.956401
    28 13.389688 0.268267 6.023557 -0.462585 -1.348926 -0.488759
    29 9.768896 0.000001 -0.000002 -1.490687 -0.628771 -1.713575
    30 19.931139 -0.000001 0.000000 0.000000 0.000000 -1.684645
    31 26.044121 0.000003 -0.000001 0.000000 0.000000 1.960282
    32 -5.849912 4.319725 0.063164 0.461552 0.000000 0.648740
    33 -5.827132 4.411092 0.063164 -0.329881 0.005779 0.648779
    34 13.389692 0.268266 6.023556 -0.462585 -1.348926 -0.488759
    35 0.000000 0.077740 0.000001 1.570796 0.000000 -1.570796
  time 3
    0 -0.059525 1.526386 24.721458 1.570796 -0.293646 1.570720
    1 -5.577778 -0.123185 0.054231 0.000000 0.000000 -0.212930
    2 -5.512519 -2.697433 -3.989360 0.393304 -0.165984 -0.903143
    3 10.569402 -0.000001 0.000000 0.000000 0.000000 -2.401411
    4 13.357939 0.000000 0.000000 0.000000 0.000000 2.790894
    5 -5.435715 -2.622672 3.516682 2.761840 0.146246 -0.922288
    6 10.523519 0.000000 0.000000 0.000000 0.000000 2.412018
    7 13.611946 0.000001 0.000000 0.000000 0.000000 -2.810338
    8 -8.416649 1.073515 -0.018171 0.000000 0.000000 0.172788
    9 -9.984112 -4.710448 3.170796 -2.902516 -0.005487 -2.717936
    10 5.945618 0.000001 -0.000001 0.000000 0.000000 0.734466
    11 -9.984110 -4.710446 -2.998739 -0.223381 0.004039 -2.698169
    12 5.945625 -0.000001 0.000000 0.000000 0.000000 -0.753089
    13 -13.167568 0.616876 1.590356 3.140739 -0.157522 -3.136150
    14 1.939788 0.000000 0.000000 3.040688 0.121169 2.449692
    15 -13.157713 0.632509 -1.795553 1.570796 0.016921 -3.058550
    16 2.215696 0.000000 -0.000001 1.570796 -0.608107 -3.124672
    17 -2.622040 -6.273479 8.263164 -2.805802 0.116508 -1.303194
    18 11.485749 0.000000 0.000000 0.000000 0.000000 -1.871645
    19 24.536900 0.000000 -0.000001 0.000000 0.000000 2.275154
    20 -2.622039 -6.273478 -8.136835 -0.349735 -0.114471 -1.359793
    21 11.659969 0.000000 0.000000 0.000000 0.000000 1.911197
    22 25.724377 0.000002 -0.000001 0.000000 0.000000 -2.281071
    23 3.880158 -0.980431 0.090609 0.000000 0.000000 0.780458
    24 13.389692 0.268267 -6.517195 0.542283 1.306249 -0.395924
    25 9.913785 -0.000002 0.000002 1.408542 0.679725 -1.762439
    26 21.016018 0.000002 0.000000 0.000000 0.000000 -1.755221
    27 28.471636 -0.000006 0.000001 0.000000 0.000000 1.906685
    28 13.389688 0.268267 6.023557 -0.462585 -1.348926 -0.488759
    29 9.768896 0.000001 -0.000002 -1.495373 -0.737782 -1.736098
    30 19.931139 -0.000001 0.000000 0.000000 0.000000 -1.655122
    31 26.044121 0.000003 -0.000001 0.000000 0.000000 1.896832
    32 -5.849912 4.319725 0.063164 0.461552 0.000000 0.765582
    33 -5.827132 4.411092 0.063164 -0.329881 0.005779 0.765583
    34 13.389692 0.268266 6.023556 -0.462585 -1.348926 -0.488759
    35 0.000000 0.077740 0.000001 1.570796 0.000000 -1.570796
  time 4
    0 -0.059525 1.526386 24.721458 1.570796 -0.244346 1.570720
    1 -5.577778 -0.123185 0.054231 0.000000 0.000000 -0.212930
    2 -5.512519 -2.697433 -3.989360 0.393304 -0.165984 -0.903143
    3 10.569402 -0.000001 0.000000 0.000000 0.000000 -2.401411
    4 13.357939 0.000000 0.000000 0.000000 0.000000 2.790894
    5 -5.435715 -2.622672 3.516682 2.761840 0.146246 -0.922226
    6 10.523519 0.000000 0.000000 0.000000 0.000000 2.412018
    7 13.611946 0.000001 0.000000 0.000000 0.000000 -2.810338
    8 -8.416649 1.073515 -0.018171 0.000000 0.000000 0.172788
    9 -9.984112 -4.710448 3.170796 -2.902516 -0.005475 -2.718011
    10 5.945618 0.000001 -0.000001 0.000000 0.000000 0.734366
    11 -9.984110 -4.710446 -2.998739 -0.223381 0.004039 -2.698209
    12 5.945625 -0.000001 0.000000 0.000000 0.000000 -0.753039
    13 -13.167568 0.616876 1.590356 3.140739 -0.157522 -3.136150
    14 1.939788 0.000000 0.000000 3.040688 0.121169 2.449692
    15 -13.157713 0.632509 -1.795553 1.570796 0.016921 -3.058550
    16 2.215696 0.000000 -0.000001 1.570796 -0.608107 -3.124672
    17 -2.622040 -6.273479 8.263164 -2.787780 0.110394 -1.247428
    18 11.485749 0.000000 0.000000 0.000000 0.000000 -1.907617
    19 24.536900 0.000000 -0.000001 0.000000 0.000000 2.352852
    20 -2.622039 -6.273478 -8.136835 -0.372320 -0.112448 -1.305430
    21 11.659969 0.000000 0.000000 0.000000 0.000000 1.946941
    22 25.724377 0.000002 -0.000001 0.000000 0.000000 -2.355872
    23 3.880158 -0.980431 0.090609 0.000000 0.000000 1.074245
    24 13.389692 0.268267 -6.517195 0.542283 1.306249 -0.395924
    25 9.913785 -0.000002 0.000002 1.402489 0.937105 -1.806131
    26 21.016018 0.000002 0.000000 0.000000 0.000000 -1.730641
    27 28.471636 -0.000006 0.000001 0.000000 0.000000 1.861320
    28 13.389688 0.268267 6.023557 -0.462585 -1.348926 -0.488759
    29 9.768896 0.000001 -0.000002 -1.493269 -0.989314 -1.790306
    30 19.931139 -0.000001 0.000000 0.000000 0.000000 -1.661304
    31 26.044121 0.000003 -0.000001 0.000000 0.000000 1.909638
    32 -5.849912 4.319725 0.063164 0.461552 0.000000 1.035839
    33 -5.827132 4.411092 0.063164 -0.329881 0.005779 1.035810
    34 13.389692 0.268266 6.023556 -0.462585 -1.348926 -0.488759
    35 0.000000 0.077740 0.000001 1.570796 0.000000 -1.570796
  time 5
    0 -0.071244 1.526386 24.721458 1.570796 -0.096076 1.570720
    1 -5.577778 -0.123185 0.054231 0.000000 0.000000 -0.212930
    2 -5.512519 -2.697433 -3.989360 0.393304 -0.165984 -0.903143
    3 10.569402 -0.000001 0.000000 0.000000 0.000000 -2.401411
    4 13.357939 0.000000 0.000000 0.000000 0.000000 2.790894
    5 -5.435715 -2.622672 3.516682 2.761840 0.146246 -0.922226
    6 10.523519 0.000000 0.000000 0.000000 0.000000 2.412018
    7 13.611946 0.000001 0.000000 0.000000 0.000000 -2.810338
    8 -8.416649 1.073515 -0.018171 0.000000 0.000000 0.172788
    9 -9.984112 -4.710448 3.170796 -2.902516 -0.005475 -2.718011
    10 5.945618 0.000001 -0.000001 0.000000 0.000000 0.734317
    11 -9.984110 -4.710446 -2.998739 -0.223381 0.004027 -2.698249
    12 5.945625 -0.000001 0.000000 0.000000 0.000000 -0.752937
    13 -13.167568 0.616876 1.590356 3.140739 -0.157522 -3.136150
    14 1.939788 0.000000 0.000000 3.040688 0.121169 2.449692
    15 -13.157713 0.632509 -1.795553 1.570796 0.016921 -3.058550
    16 2.215696 0.000000 -0.000001 1.570796 -0.608107 -3.124672
    17 -2.622040 -6.273479 8.263164 -2.770333 0.093552 -0.997325
    18 11.485749 0.000000 0.000000 0.000000 0.000000 -1.965421
    19 24.536900 0.000000 -0.000001 0.000000 0.000000 2.476628
    20 -2.622039 -6.273478 -8.136835 -0.392896 -0.100065 -1.058078
    21 11.659969 0.000000 0.000000 0.000000 0.000000 2.004679
    22 25.724377 0.000002 -0.000001 0.000000 0.000000 -2.475096
    23 3.880158 -0.980431 0.090609 0.000000 0.000000 1.368031
    24 13.389692 0.268267 -6.517195 0.542283 1.306249 -0.395924
    25 9.913785 -0.000002 0.000002 1.432187 1.119549 -1.800207
    26 21.016018 0.000002 0.000000 0.000000 0.000000 -1.627906
    27 28.471636 -0.000006 0.000001 0.000000 0.000000 1.677811
    28 13.389688 0.268267 6.023557 -0.462585 -1.348926 -0.488759
    29 9.768896 0.000001 -0.000002 -1.498243 -1.220215 -1.827144
    30 19.931139 -0.000001 0.000000 0.000000 0.000000 -1.679583
    31 26.044121 0.000003 -0.000001 0.000000 0.000000 1.949206
    32 -5.849912 4.319725 0.063164 0.461552 0.000000 1.352428
    33 -5.827132 4.411092 0.063164 -0.329881 0.005779 1.352427
    34 13.389692 0.268266 6.023556 -0.462585 -1.348926 -0.488759
    35 0.000000 0.077740 0.000001 1.570796 0.000000 -1.570796
  time 6
    0 -0.086869 1.526386 24.721458 1.570796 0.105550 1.570720
    1 -5.577778 -0.123185 0.054231 0.000000 0.000000 -0.212930
    2 -5.512519 -2.697433 -3.989360 0.393304 -0.165984 -0.903143
    3 10.569402 -0.000001 0.000000 0.000000 0.000000 -2.401411
    4 13.357939 0.000000 0.000000 0.000000 0.000000 2.790894
    5 -5.435715 -2.622672 3.516682 2.761840 0.146246 -0.922226
    6 10.523519 0.000000 0.000000 0.000000 0.000000 2.412018
    7 13.611946 0.000001 0.000000 0.000000 0.000000 -2.810338
    8 -8.416649 1.073515 -0.018171 0.000000 0.000000 0.172788
    9 -9.984112 -4.710448 3.170796 -2.902516 -0.005463 -2.718048
    10 5.945618 0.000001 -0.000001 0.000000 0.000000 0.734267
    11 -9.984110 -4.710446 -2.998739 -0.223381 0.004027 -2.698249
    12 5.945625 -0.000001 0.000000 0.000000 0.000000 -0.752937
    13 -13.167568 0.616876 1.590356 3.140739 -0.157522 -3.136150
    14 1.939788 0.000000 0.000000 3.040688 0.121169 2.449692
    15 -13.157713 0.632509 -1.795553 1.570796 0.016921 -3.058550
    16 2.215696 0.000000 -0.000001 1.570796 -0.608107 -3.124672
    17 -2.622040 -6.273479 8.263164 -2.754612 0.067020 -0.619859
    18 11.485749 0.000000 0.000000 0.000000 0.000000 -2.031321
    19 24.536900 0.000000 -0.000001 0.000000 0.000000 2.617009
    20 -2.622039 -6.273478 -8.136835 -0.410026 -0.078147 -0.684332
    21 11.659969 0.000000 0.000000 0.000000 0.000000 2.071017
    22 25.724377 0.000002 -0.000001 0.000000 0.000000 -2.609777
    23 3.880158 -0.980431 0.090609 0.000000 0.000000 1.516658
    24 13.389692 0.268267 -6.517195 0.542283 1.306249 -0.395924
    25 9.913785 -0.000002 0.000002 1.472195 1.142322 -1.730874
    26 21.016018 0.000002 0.000000 0.000000 0.000000 -1.516166
    27 28.471636 -0.000006 0.000001 0.000000 0.000000 1.487840
    28 13.389688 0.268267 6.023557 -0.462585 -1.348926 -0.488759
    29 9.768896 0.000001 -0.000002 -1.634253 -1.241439 -1.704795
    30 19.931139 -0.000001 0.000000 0.000000 0.000000 -1.596128
    31 26.044121 0.000003 -0.000001 0.000000 0.000000 1.774159
    32 -5.849912 4.319725 0.063164 0.461552 0.000000 1.608155
    33 -5.827132 4.411092 0.063164 -0.329881 0.005779 1.608188
    34 13.389692 0.268266 6.023556 -0.462585 -1.348926 -0.488759
    35 0.000000 0.077740 0.000001 1.570796 0.000000 -1.570796
  time 7
    0 -0.098589 1.526386 24.721458 1.570796 0.242338 1.570720
    1 -5.577778 -0.123185 0.054231 0.000000 0.000000 -0.212930
    2 -5.512519 -2.697433 -3.989360 0.393304 -0.165984 -0.903143
    3 10.569402 -0.000001 0.000000 0.000000 0.000000 -2.401411
    4 13.357939 0.000000 0.000000 0.000000 0.000000 2.790894
    5 -5.435715 -2.622672 3.516682 2.761840 0.146246 -0.922226
    6 10.523519 0.000000 0.000000 0.000000 0.000000 2.412018
    7 13.611946 0.000001 0.000000 0.000000 0.000000 -2.810338
    8 -8.416649 1.073515 -0.018171 0.000000 0.000000 0.172788
    9 -9.984112 -4.710448 3.170796 -2.902516 -0.005463 -2.718086
    10 5.945618 0.000001 -0.000001 0.000000 0.000000 0.734217
    11 -9.984110 -4.710446 -2.998739 -0.223381 0.004015 -2.698249
    12 5.945625 -0.000001 0.000000 0.000000 0.000000 -0.752886
    13 -13.167568 0.616876 1.590356 3.140739 -0.157522 -3.136150
    14 1.939788 0.000000 0.000000 3.040688 0.121169 2.449692
    15 -13.157713 0.632509 -1.795553 1.570796 0.016921 -3.058550
    16 2.215696 0.000000 -0.000001 1.570796 -0.608107 -3.124672
    17 -2.622040 -6.273479 8.263164 -2.741479 0.041417 -0.322641
    18 11.485749 0.000000 0.000000 0.000000 0.000000 -2.081259
    19 24.536900 0.000000 -0.000001 0.000000 0.000000 2.722935
    20 -2.622039 -6.273478 -8.136835 -0.424095 -0.056435 -0.390417
    21 11.659969 0.000000 0.000000 0.000000 0.000000 2.121904
    22 25.724377 0.000002 -0.000001 0.000000 0.000000 -2.710922
    23 3.880158 -0.980431 0.090609 0.000000 0.000000 1.427835
    24 13.389692 0.268267 -6.517195 0.542283 1.306249 -0.395924
    25 9.913785 -0.000002 0.000002 1.452711 1.006073 -1.670058
    26 21.016018 0.000002 0.000000 0.000000 0.000000 -1.461230
    27 28.471636 -0.000006 0.000001 0.000000 0.000000 1.397941
    28 13.389688 0.268267 6.023557 -0.462585 -1.348926 -0.488759
    29 9.768896 0.000001 -0.000002 -1.674233 -1.068822 -1.623006
    30 19.931139 -0.000001 0.000000 0.000000 0.000000 -1.465778
    31 26.044121 0.000003 -0.000001 0.000000 0.000000 1.522601
    32 -5.849912 4.319725 0.063164 0.461552 0.000000 1.695883
    33 -5.827132 4.411092 0.063164 -0.329881 0.005779 1.695897
    34 13.389692 0.268266 6.023556 -0.462585 -1.348926 -0.488759
    35 0.000000 0.077740 0.000001 1.570796 0.000000 -1.570796
  time 8
    0 -0.106401 1.526386 24.721458 1.570796 0.272150 1.570720
    1 -5.577778 -0.123185 0.054231 0.000000 0.000000 -0.212930
    2 -5.512519 -2.697433 -3.989360 0.393304 -0.165984 -0.903143
    3 10.569402 -0.000001 0.000000 0.000000 0.000000 -2.401411
    4 13.357939 0.000000 0.000000 0.000000 0.000000 2.790894
    5 -5.435715 -2.622672 3.516682 2.761840 0.146246 -0.922226
    6 10.523519 0.000000 0.000000 0.000000 0.000000 2.412018
    7 13.611946 0.000001 0.000000 0.000000 0.000000 -2.810338
    8 -8.416649 1.073515 -0.018171 0.000000 0.000000 0.172788
    9 -9.984112 -4.710448 3.170796 -2.902516 -0.005463 -2.718086
    10 5.945618 0.000001 -0.000001 0.000000 0.000000 0.734168
    11 -9.984110 -4.710446 -2.998739 -0.223381 0.004015 -2.698290
    12 5.945625 -0.000001 0.000000 0.000000 0.000000 -0.752836
    13 -13.167568 0.616876 1.590356 3.140739 -0.157522 -3.136150
    14 1.939788 0.000000 0.000000 3.040688 0.121169 2.449692
    15 -13.157713 0.632509 -1.795553 1.570796 0.016921 -3.058550
    16 2.215696 0.000000 -0.000001 1.570796 -0.608107 -3.124672
    17 -2.622040 -6.273479 8.263164 -2.725566 -0.001027 -0.170034
    18 11.485749 0.000000 0.000000 0.000000 0.000000 -2.141515
    19 24.536900 0.000000 -0.000001 0.000000 0.000000 2.855428
    20 -2.622039 -6.273478 -8.136835 -0.433952 -0.018832 -0.244700
    21 11.659969 0.000000 0.000000 0.000000 0.000000 2.185101
    22 25.724377 0.000002 -0.000001 0.000000 0.000000 -2.836598
    23 3.880158 -0.980431 0.090609 0.000000 0.000000 1.151326
    24 13.389692 0.268267 -6.517195 0.542283 1.306249 -0.395924
    25 9.913785 -0.000002 0.000002 1.396342 0.781133 -1.617480
    26 21.016018 0.000002 0.000000 0.000000 0.000000 -1.322419
    27 28.471636 -0.000006 0.000001 0.000000 0.000000 1.184232
    28 13.389688 0.268267 6.023557 -0.462585 -1.348926 -0.488759
    29 9.768896 0.000001 -0.000002 -1.614358 -0.824517 -1.604396
    30 19.931139 -0.000001 0.000000 0.000000 0.000000 -1.349230
    31 26.044121 0.000003 -0.000001 0.000000 0.000000 1.315733
    32 -5.849912 4.319725 0.063164 0.449796 -0.002931 1.505623
    33 -5.827132 4.411092 0.063164 -0.329881 0.001912 1.517649
    34 13.389692 0.268266 6.023556 -0.462585 -1.348926 -0.488759
    35 0.000000 0.077740 0.000001 1.570796 0.000000 -1.570796
  time 9
    0 -0.110308 1.526386 24.721458 1.570796 0.234437 1.570720
    1 -5.577778 -0.123185 0.054231 0.000000 0.000000 -0.212930
    2 -5.512519 -2.697433 -3.989360 0.393304 -0.165984 -0.903143
    3 10.569402 -0.000001 0.000000 0.000000 0.000000 -2.401411
    4 13.357939 0.000000 0.000000 0.000000 0.000000 2.790894
    5 -5.435715 -2.622672 3.516682 2.761840 0.146246 -0.922226
    6 10.523519 0.000000 0.000000 0.000000 0.000000 2.412018
    7 13.611946 0.000001 0.000000 0.000000 0.000000 -2.810338
    8 -8.416649 1.073515 -0.018171 0.000000 0.000000 0.172788
    9 -9.984112 -4.710448 3.170796 -2.902516 -0.005451 -2.718086
    10 5.945618 0.000001 -0.000001 0.000000 0.000000 0.734168
    11 -9.984110 -4.710446 -2.998739 -0.223381 0.004015 -2.698290
    12 5.945625 -0.000001 0.000000 0.000000 0.000000 -0.752836
    13 -13.167568 0.616876 1.590356 3.140739 -0.157522 -3.136150
    14 1.939788 0.000000 0.000000 3.040688 0.121169 2.449692
    15 -13.157713 0.632509 -1.795553 1.570796 0.016921 -3.058550
    16 2.215696 0.000000 -0.000001 1.570796 -0.608107 -3.124672
    17 -2.622040 -6.273479 8.263164 -2.703997 -0.093676 -0.054041
    18 11.485749 0.000000 0.000000 0.000000 0.000000 -2.207301
    19 24.536900 0.000000 -0.000001 0.000000 0.000000 3.046039
    20 -2.622039 -6.273478 -8.136835 -0.392896 0.057324 -0.140288
    21 11.659969 0.000000 0.000000 0.000000 0.000000 2.264986
    22 25.724377 0.000002 -0.000001 0.000000 0.000000 -3.017315
    23 3.880158 -0.980431 0.090609 0.000000 0.000000 0.755393
    24 13.389692 0.268267 -6.517195 0.542283 1.306249 -0.395924
    25 9.913785 -0.000002 0.000002 1.314908 0.527321 -1.570086
    26 21.016018 0.000002 0.000000 0.000000 0.000000 -1.106811
    27 28.471636 -0.000006 0.000001 0.000000 0.000000 0.887982
    28 13.389688 0.268267 6.023557 -0.462585 -1.348926 -0.488759
    29 9.768896 0.000001 -0.000002 -1.551231 -0.538619 -1.572139
    30 19.931139 -0.000001 0.000000 0.000000 0.000000 -1.166707
    31 26.044121 0.000003 -0.000001 0.000000 0.000000 1.027616
    32 -5.849912 4.319725 0.063164 0.423912 -0.009562 1.087051
    33 -5.827132 4.411092 0.063164 -0.329881 -0.006607 1.125227
    34 13.389692 0.268266 6.023556 -0.462585 -1.348926 -0.488759
    35 0.000000 0.077740 0.000001 1.570796 0.000000 -1.570796
  time 10
    0 -0.110308 1.526386 24.721458 1.570796 0.133150 1.570720
    1 -5.577778 -0.123185 0.054231 0.000000 0.000000 -0.212930
    2 -5.512519 -2.697433 -3.989360 0.393304 -0.165984 -0.903143
    3 10.569402 -0.000001 0.000000 0.000000 0.000000 -2.401411
    4 13.357939 0.000000 0.000000 0.000000 0.000000 2.790894
    5 -5.435715 -2.622672 3.516682 2.761840 0.146246 -0.922226
    6 10.523519 0.000000 0.000000 0.000000 0.000000 2.412018
    7 13.611946 0.000001 0.000000 0.000000 0.000000 -2.810338
    8 -8.416649 1.073515 -0.018171 0.000000 0.000000 0.172788
    9 -9.984112 -4.710448 3.170796 -2.902516 -0.005451 -2.718086
    10 5.945618 0.000001 -0.000001 0.000000 0.000000 0.734168
    11 -9.984110 -4.710446 -2.998739 -0.223381 0.004015 -2.698290
    12 5.945625 -0.000001 0.000000 0.000000 0.000000 -0.752836
    13 -13.167568 0.616876 1.590356 3.140739 -0.157522 -3.136150
    14 1.939788 0.000000 0.000000 3.040688 0.121169 2.449692
    15 -13.157713 0.632509 -1.795553 1.570796 0.016921 -3.058550
    16 2.215696 0.000000 -0.000001 1.570796 -0.608107 -3.124672
    17 -2.622040 -6.273479 8.263164 0.263012 0.094803 -0.789278
    18 11.485749 0.000000 0.000000 0.000000 0.000000 -2.196527
    19 24.536900 0.000000 -0.000001 0.000000 0.000000 3.188357
    20 -2.622039 -6.273478 -8.136835 1.092676 -0.221460 -0.237787
    21 11.659969 0.000000 0.000000 0.000000 0.000000 2.280128
    22 25.724377 0.000002 -0.000001 0.000000 0.000000 -3.159591
    23 3.880158 -0.980431 0.090609 0.000000 0.000000 0.308112
    24 13.389692 0.268267 -6.517195 0.542283 1.306249 -0.395924
    25 9.913785 -0.000002 0.000002 1.239812 0.284473 -1.529449
    26 21.016018 0.000002 0.000000 0.000000 0.000000 -0.939115
    27 28.471636 -0.000006 0.000001 0.000000 0.000000 0.689693
    28 13.389688 0.268267 6.023557 -0.462585 -1.348926 -0.488759
    29 9.768896 0.000001 -0.000002 -1.494513 -0.268687 -1.530147
    30 19.931139 -0.000001 0.000000 0.000000 0.000000 -1.028096
    31 26.044121 0.000003 -0.000001 0.000000 0.000000 0.835410
    32 -5.849912 4.319725 0.063164 0.398054 -0.016336 0.572306
    33 -5.827132 4.411092 0.063164 -0.329907 -0.015154 0.636341
    34 13.389692 0.268266 6.023556 -0.462585 -1.348926 -0.488759
    35 0.000000 0.077740 0.000001 1.570796 0.000000 -1.570796
  time 11
    0 -0.106401 1.526386 24.721458 1.570796 -0.027761 1.570720
    1 -5.577778 -0.123185 0.054231 0.000000 0.000000 -0.212930
    2 -5.512519 -2.697433 -3.989360 0.393304 -0.165984 -0.903143
    3 10.569402 -0.000001 0.000000 0.000000 0.000000 -2.401411
    4 13.357939 0.000000 0.000000 0.000000 0.000000 2.790894
    5 -5.435715 -2.622672 3.516682 2.761840 0.146246 -0.922226
    6 10.523519 0.000000 0.000000 0.000000 0.000000 2.412018
    7 13.611946 0.000001 0.000000 0.000000 0.000000 -2.810338
    8 -8.416649 1.073515 -0.018171 0.000000 0.000000 0.172788
    9 -9.984112 -4.710448 3.170796 -2.902516 -0.005451 -2.718086
    10 5.945618 0.000001 -0.000001 0.000000 0.000000 0.734168
    11 -9.984110 -4.710446 -2.998739 -0.223381 0.004015 -2.698290
    12 5.945625 -0.000001 0.000000 0.000000 0.000000 -0.752836
    13 -13.167568 0.616876 1.590356 3.140739 -0.157522 -3.136150
    14 1.939788 0.000000 0.000000 3.040688 0.121169 2.449692
    15 -13.157713 0.632509 -1.795553 1.570796 0.016921 -3.058550
    16 2.215696 0.000000 -0.000001 1.570796 -0.608107 -3.124672
    17 -2.622040 -6.273479 8.263164 -1.881122 -0.368939 -0.463769
    18 11.485749 0.000000 0.000000 0.000000 0.000000 -2.205306
    19 24.536900 0.000000 -0.000001 0.000000 0.000000 3.164349
    20 -2.622039 -6.273478 -8.136835 0.070203 0.015222 -0.309463
    21 11.659969 0.000000 0.000000 0.000000 0.000000 2.283785
    22 25.724377 0.000002 -0.000001 0.000000 0.000000 -3.134523
    23 3.880158 -0.980431 0.090609 0.000000 0.000000 -0.122316
    24 13.389692 0.268267 -6.517195 0.542283 1.306249 -0.395924
    25 9.913785 -0.000002 0.000002 1.199899 0.037927 -1.477797
    26 21.016018 0.000002 0.000000 0.000000 0.000000 -1.022368
    27 28.471636 -0.000006 0.000001 0.000000 0.000000 0.784902
    28 13.389688 0.268267 6.023557 -0.462585 -1.348926 -0.488759
    29 9.768896 0.000001 -0.000002 -1.453480 -0.032005 -1.483097
    30 19.931139 -0.000001 0.000000 0.000000 0.000000 -1.098121
    31 26.044121 0.000003 -0.000001 0.000000 0.000000 0.929401
    32 -5.849912 4.319725 0.063164 0.386298 -0.019466 0.092708
    33 -5.827132 4.411092 0.063164 -0.329932 -0.019021 0.168328
    34 13.389692 0.268266 6.023556 -0.462585 -1.348926 -0.488759
    35 0.000000 0.077740 0.000001 1.570796 0.000000 -1.570796
  time 12
    0 -0.098589 1.526386 24.721458 1.570796 -0.244346 1.570720
    1 -5.577778 -0.123185 0.054231 0.000000 0.000000 -0.212930
    2 -5.512519 -2.697433 -3.989360 0.393304 -0.165984 -0.903143
    3 10.569402 -0.000001 0.000000 0.000000 0.000000 -2.401411
    4 13.357939 0.000000 0.000000 0.000000 0.000000 2.790894
    5 -5.435715 -2.622672 3.516682 2.761840 0.146246 -0.922226
    6 10.523519 0.000000 0.000000 0.000000 0.000000 2.412018
    7 13.611946 0.000001 0.000000 0.000000 0.000000 -2.810338
    8 -8.416649 1.073515 -0.018171 0.000000 0.000000 0.172788
    9 -9.984112 -4.710448 3.170796 -2.902516 -0.005451 -2.718086
    10 5.945618 0.000001 -0.000001 0.000000 0.000000 0.734168
    11 -9.984110 -4.710446 -2.998739 -0.223381 0.004015 -2.698290
    12 5.945625 -0.000001 0.000000 0.000000 0.000000 -0.752836
    13 -13.167568 0.616876 1.590356 3.140739 -0.157522 -3.136150
    14 1.939788 0.000000 0.000000 3.040688 0.121169 2.449692
    15 -13.157713 0.632509 -1.795553 1.570796 0.016921 -3.058550
    16 2.215696 0.000000 -0.000001 1.570796 -0.608107 -3.124672
    17 -2.622040 -6.273479 8.263164 -2.683291 -0.008572 -0.710825
    18 11.485749 0.000000 0.000000 0.000000 0.000000 -2.150351
    19 24.536900 0.000000 -0.000001 0.000000 0.000000 2.876738
    20 -2.622039 -6.273478 -8.136835 -0.499603 -0.015860 -0.783663
    21 11.659969 0.000000 0.000000 0.000000 0.000000 2.195042
    22 25.724377 0.000002 -0.000001 0.000000 0.000000 -2.856827
    23 3.880158 -0.980431 0.090609 0.000000 0.000000 -0.467632
    24 13.389692 0.268267 -6.517195 0.542283 1.306249 -0.395924
    25 9.913785 -0.000002 0.000002 1.163108 -0.119667 -1.420128
    26 21.016018 0.000002 0.000000 0.000000 0.000000 -1.321399
    27 28.471636 -0.000006 0.000001 0.000000 0.000000 1.182696
    28 13.389688 0.268267 6.023557 -0.462585 -1.348926 -0.488759
    29 9.768896 0.000001 -0.000002 -1.438942 0.089885 -1.441773
    30 19.931139 -0.000001 0.000000 0.000000 0.000000 -1.354719
    31 26.044121 0.000003 -0.000001 0.000000 0.000000 1.325081
    32 -5.849912 4.319725 0.063164 0.402746 -0.015083 -0.220426
    33 -5.827132 4.411092 0.063164 -0.329907 -0.013613 -0.161102
    34 13.389692 0.268266 6.023556 -0.462585 -1.348926 -0.488759
    35 0.000000 0.077740 0.000001 1.570796 0.000000 -1.570796
  time 13
    0 -0.079057 1.526386 24.721458 1.570796 -0.566063 1.570720
    1 -5.577778 -0.123185 0.054231 0.000000 0.000000 -0.212930
    2 -5.512519 -2.697433 -3.989360 0.393304 -0.165984 -0.903143
    3 10.569402 -0.000001 0.000000 0.000000 0.000000 -2.401411
    4 13.357939 0.000000 0.000000 0.000000 0.000000 2.790894
    5 -5.435715 -2.622672 3.516682 2.761840 0.146246 -0.922226
    6 10.523519 0.000000 0.000000 0.000000 0.000000 2.412018
    7 13.611946 0.000001 0.000000 0.000000 0.000000 -2.810338
    8 -8.416649 1.073515 -0.018171 0.000000 0.000000 0.172788
    9 -9.984112 -4.710448 3.170796 -2.902516 -0.005451 -2.718086
    10 5.945618 0.000001 -0.000001 0.000000 0.000000 0.734118
    11 -9.984110 -4.710446 -2.998739 -0.223381 0.004015 -2.698290
    12 5.945625 -0.000001 0.000000 0.000000 0.000000 -0.752785
    13 -13.167568 0.616876 1.590356 3.140739 -0.157522 -3.136150
    14 1.939788 0.000000 0.000000 3.040688 0.121169 2.449692
    15 -13.157713 0.632509 -1.795553 1.570796 0.016921 -3.058550
    16 2.215696 0.000000 -0.000001 1.570796 -0.608107 -3.124672
    17 -2.622040 -6.273479 8.263164 -2.719335 0.179728 -1.349003
    18 11.485749 0.000000 0.000000 0.000000 0.000000 -1.765841
    19 24.536900 0.000000 -0.000001 0.000000 0.000000 2.044622
    20 -2.622039 -6.273478 -8.136835 -0.495296 -0.202597 -1.383252
    21 11.659969 0.000000 0.000000 0.000000 0.000000 1.806590
    22 25.724377 0.000002 -0.000001 0.000000 0.000000 -2.058955
    23 3.880158 -0.980431 0.090609 0.000000 0.000000 -0.659698
    24 13.389692 0.268267 -6.517195 0.542283 1.306249 -0.395924
    25 9.913785 -0.000002 0.000002 1.175970 -0.089563 -1.404669
    26 21.016018 0.000002 0.000000 0.000000 0.000000 -1.749954
    27 28.471636 -0.000006 0.000001 0.000000 0.000000 1.896959
    28 13.389688 0.268267 6.023557 -0.462585 -1.348926 -0.488759
    29 9.768896 0.000001 -0.000002 -1.493652 -0.001319 -1.401880
    30 19.931139 -0.000001 0.000000 0.000000 0.000000 -1.720937
    31 26.044121 0.000003 -0.000001 0.000000 0.000000 2.040443
    32 -5.849912 4.319725 0.063164 0.461552 0.000000 -0.234353
    33 -5.827132 4.411092 0.063164 -0.329881 0.005779 -0.234397
    34 13.389692 0.268266 6.023556 -0.462585 -1.348926 -0.488759
    35 0.000000 0.077740 0.000001 1.570796 0.000000 -1.570796
  time 14
    0 -0.059525 1.526386 24.721458 1.570796 -0.847171 1.570720
    1 -5.577778 -0.123185 0.054231 0.000000 0.000000 -0.212930
    2 -5.512519 -2.697433 -3.989360 0.393304 -0.165984 -0.903143
    3 10.569402 -0.000001 0.000000 0.000000 0.000000 -2.401411
    4 13.357939 0.000000 0.000000 0.000000 0.000000 2.790894
    5 -5.435715 -2.622672 3.516682 2.761840 0.146246 -0.922226
    6 10.523519 0.000000 0.000000 0.000000 0.000000 2.412018
    7 13.611946 0.000001 0.000000 0.000000 0.000000 -2.810338
    8 -8.416649 1.073515 -0.018171 0.000000 0.000000 0.172788
    9 -9.984112 -4.710448 3.170796 -2.902516 -0.005451 -2.718124
    10 5.945618 0.000001 -0.000001 0.000000 0.000000 0.734118
    11 -9.984110 -4.710446 -2.998739 -0.223381 0.004015 -2.698290
    12 5.945625 -0.000001 0.000000 0.000000 0.000000 -0.752785
    13 -13.167568 0.616876 1.590356 3.140739 -0.157522 -3.136150
    14 1.939788 0.000000 0.000000 3.040688 0.121169 2.449692
    15 -13.157713 0.632509 -1.795553 1.570796 0.016921 -3.058550
    16 2.215696 0.000000 -0.000001 1.570796 -0.608107 -3.124672
    17 -2.622040 -6.273479 8.263164 -2.733427 0.243413 -1.819122
    18 11.485749 0.000000 0.000000 0.000000 0.000000 -1.389140
    19 24.536900 0.000000 -0.000001 0.000000 0.000000 1.274637
    20 -2.622039 -6.273478 -8.136835 -0.487640 -0.262366 -1.829029
    21 11.659969 0.000000 0.000000 0.000000 0.000000 1.469643
    22 25.724377 0.000002 -0.000001 0.000000 0.000000 -1.373653
    23 3.880158 -0.980431 0.090609 0.000000 0.000000 -0.685615
    24 13.389692 0.268267 -6.517195 0.542283 1.306249 -0.395924
    25 9.913785 -0.000002 0.000002 1.245392 -0.199081 -1.394857
    26 21.016018 0.000002 0.000000 0.000000 0.000000 -1.850593
    27 28.471636 -0.000006 0.000001 0.000000 0.000000 2.086738
    28 13.389688 0.268267 6.023557 -0.462585 -1.348926 -0.488759
    29 9.768896 0.000001 -0.000002 -1.477296 0.125828 -1.351490
    30 19.931139 -0.000001 0.000000 0.000000 0.000000 -1.785366
    31 26.044121 0.000003 -0.000001 0.000000 0.000000 2.189047
    32 -5.849912 4.319725 0.063164 0.598088 0.083044 0.101975
    33 -5.827132 4.411092 0.063164 -0.329881 0.006648 0.016826
    34 13.389692 0.268266 6.023556 -0.462585 -1.348926 -0.488759
    35 0.000000 0.077740 0.000001 1.570796 0.000000 -1.570796
  time 15
    0 -0.055619 1.526386 24.721458 1.570796 -0.893785 1.570720
    1 -5.577778 -0.123185 0.054231 0.000000 0.000000 -0.212930
    2 -5.512519 -2.697433 -3.989360 0.393304 -0.165984 -0.903143
    3 10.569402 -0.000001 0.000000 0.000000 0.000000 -2.401411
    4 13.357939 0.000000 0.000000 0.000000 0.000000 2.790894
    5 -5.435715 -2.622672 3.516682 2.761840 0.146246 -0.922226
    6 10.523519 0.000000 0.000000 0.000000 0.000000 2.412018
    7 13.611946 0.000001 0.000000 0.000000 0.000000 -2.810338
    8 -8.416649 1.073515 -0.018171 0.000000 0.000000 0.172788
    9 -9.984112 -4.710448 3.170796 -2.902516 -0.005451 -2.718124
    10 5.945618 0.000001 -0.000001 0.000000 0.000000 0.734118
    11 -9.984110 -4.710446 -2.998739 -0.223381 0.004015 -2.698290
    12 5.945625 -0.000001 0.000000 0.000000 0.000000 -0.752785
    13 -13.167568 0.616876 1.590356 3.140739 -0.157522 -3.136150
    14 1.939788 0.000000 0.000000 3.040688 0.121169 2.449692
    15 -13.157713 0.632509 -1.795553 1.570796 0.016921 -3.058550
    16 2.215696 0.000000 -0.000001 1.570796 -0.608107 -3.124672
    17 -2.622040 -6.273479 8.263164 -2.720485 0.243377 -1.967813
    18 11.485749 0.000000 0.000000 0.000000 0.000000 -1.430641
    19 24.536900 0.000000 -0.000001 0.000000 0.000000 1.352819
    20 -2.622039 -6.273478 -8.136835 -0.501230 -0.270415 -1.955718
    21 11.659969 0.000000 0.000000 0.000000 0.000000 1.472322
    22 25.724377 0.000002 -0.000001 0.000000 0.000000 -1.378761
    23 3.880158 -0.980431 0.090609 0.000000 0.000000 -0.598312
    24 13.389692 0.268267 -6.517195 0.542283 1.306249 -0.395924
    25 9.913785 -0.000002 0.000002 1.253621 -0.386521 -1.381713
    26 21.016018 0.000002 0.000000 0.000000 0.000000 -1.649257
    27 28.471636 -0.000006 0.000001 0.000000 0.000000 1.715434
    28 13.389688 0.268267 6.023557 -0.462585 -1.348926 -0.488759
    29 9.768896 0.000001 -0.000002 -1.725691 0.364876 -1.431656
    30 19.931139 -0.000001 0.000000 0.000000 0.000000 -1.592025
    31 26.044121 0.000003 -0.000001 0.000000 0.000000 1.765771
    32 -5.849912 4.319725 0.063164 0.688539 0.048722 0.473887
    33 -5.827132 4.411092 0.063164 -0.330970 0.080235 0.436206
    34 13.389692 0.268266 6.023556 -0.462585 -1.348926 -0.488759
    35 0.000000 0.077740 0.000001 1.570796 0.000000 -1.570796
  time 16
    0 -0.059525 1.526386 24.721458 1.570796 -0.800820 1.570720
    1 -5.577778 -0.123185 0.054231 0.000000 0.000000 -0.212930
    2 -5.512519 -2.697433 -3.989360 0.393304 -0.165984 -0.903143
    3 10.569402 -0.000001 0.000000 0.000000 0.000000 -2.401411
    4 13.357939 0.000000 0.000000 0.000000 0.000000 2.790894
    5 -5.435715 -2.622672 3.516682 2.761840 0.146246 -0.922226
    6 10.523519 0.000000 0.000000 0.000000 0.000000 2.411965
    7 13.611946 0.000001 0.000000 0.000000 0.000000 -2.810338
    8 -8.416649 1.073515 -0.018171 0.000000 0.000000 0.172788
    9 -9.984112 -4.710448 3.170796 -2.902516 -0.005451 -2.718124
    10 5.945618 0.000001 -0.000001 0.000000 0.000000 0.734118
    11 -9.984110 -4.710446 -2.998739 -0.223381 0.004015 -2.698290
    12 5.945625 -0.000001 0.000000 0.000000 0.000000 -0.752785
    13 -13.167568 0.616876 1.590356 3.140739 -0.157522 -3.136150
    14 1.939788 0.000000 0.000000 3.040688 0.121169 2.449692
    15 -13.157713 0.632509 -1.795553 1.570796 0.016921 -3.058550
    16 2.215696 0.000000 -0.000001 1.570796 -0.608107 -3.124672
    17 -2.622040 -6.273479 8.263164 -2.705723 0.226285 -1.865911
    18 11.485749 0.000000 0.000000 0.000000 0.000000 -1.600350
    19 24.536900 0.000000 -0.000001 0.000000 0.000000 1.692044
    20 -2.622039 -6.273478 -8.136835 -0.508120 -0.277060 -1.845101
    21 11.659969 0.000000 0.000000 0.000000 0.000000 1.516359
    22 25.724377 0.000002 -0.000001 0.000000 0.000000 -1.463440
    23 3.880158 -0.980431 0.090609 0.000000 0.000000 -0.428270
    24 13.389692 0.268267 -6.517195 0.542283 1.306249 -0.395924
    25 9.913785 -0.000002 0.000002 1.455454 -0.664144 -1.442436
    26 21.016018 0.000002 0.000000 0.000000 0.000000 -1.705552
    27 28.471636 -0.000006 0.000001 0.000000 0.000000 1.815890
    28 13.389688 0.268267 6.023557 -0.462585 -1.348926 -0.488759
    29 9.768896 0.000001 -0.000002 -2.003259 0.445566 -1.555724
    30 19.931139 -0.000001 0.000000 0.000000 0.000000 -1.397672
    31 26.044121 0.000003 -0.000001 0.000000 0.000000 1.399415
    32 -5.849912 4.319725 0.063164 0.665327 -0.427460 0.568468
    33 -5.827132 4.411092 0.063164 -0.355072 0.371668 0.813414
    34 13.389692 0.268266 6.023556 -0.462585 -1.348926 -0.488759
    35 0.000000 0.077740 0.000001 1.570796 0.000000 -1.570796
  time 17
    0 -0.059525 1.526386 24.721458 1.570796 -0.705010 1.570720
    1 -5.577778 -0.123185 0.054231 0.000000 0.000000 -0.212930
    2 -5.512519 -2.697433 -3.989360 0.393304 -0.165984 -0.903143
    3 10.569402 -0.000001 0.000000 0.000000 0.000000 -2.401411
    4 13.357939 0.000000 0.000000 0.000000 0.000000 2.790894
    5 -5.435715 -2.622672 3.516682 2.761840 0.146246 -0.922226
    6 10.523519 0.000000 0.000000 0.000000 0.000000 2.411965
    7 13.611946 0.000001 0.000000 0.000000 0.000000 -2.810338
    8 -8.416649 1.073515 -0.018171 0.000000 0.000000 0.172788
    9 -9.984112 -4.710448 3.170796 -2.902516 -0.005451 -2.718124
    10 5.945618 0.000001 -0.000001 0.000000 0.000000 0.734118
    11 -9.984110 -4.710446 -2.998739 -0.223381 0.004015 -2.698290
    12 5.945625 -0.000001 0.000000 0.000000 0.000000 -0.752785
    13 -13.167568 0.616876 1.590356 3.140739 -0.157522 -3.136150
    14 1.939788 0.000000 0.000000 3.040688 0.121169 2.449692
    15 -13.157713 0.632509 -1.795553 1.570796 0.016921 -3.058550
    16 2.215696 0.000000 -0.000001 1.570796 -0.608107 -3.124672
    17 -2.622040 -6.273479 8.263164 -2.712816 0.221136 -1.720539
    18 11.485749 0.000000 0.000000 0.000000 0.000000 -1.715276
    19 24.536900 0.000000 -0.000001 0.000000 0.000000 1.935099
    20 -2.622039 -6.273478 -8.136835 -0.513575 -0.276276 -1.673444
    21 11.659969 0.000000 0.000000 0.000000 0.000000 1.638477
    22 25.724377 0.000002 -0.000001 0.000000 0.000000 -1.707197
    23 3.880158 -0.980431 0.090609 0.000000 0.000000 -0.206090
    24 13.389692 0.268267 -6.517195 0.542283 1.306249 -0.395924
    25 9.913785 -0.000002 0.000002 1.425945 -0.965254 -1.380046
    26 21.016018 0.000002 0.000000 0.000000 0.000000 -1.793279
    27 28.471636 -0.000006 0.000001 0.000000 0.000000 1.977516
    28 13.389688 0.268267 6.023557 -0.462585 -1.348926 -0.488759
    29 9.768896 0.000001 -0.000002 -1.924159 0.627973 -1.475175
    30 19.931139 -0.000001 0.000000 0.000000 0.000000 -1.422239
    31 26.044121 0.000003 -0.000001 0.000000 0.000000 1.443209
    32 -5.849912 4.319725 0.063164 0.749574 -0.858420 0.700006
    33 -5.827132 4.411092 0.063164 -0.433836 0.691012 1.028550
    34 13.389692 0.268266 6.023556 -0.462585 -1.348926 -0.488759
    35 0.000000 0.077740 0.000001 1.570796 0.000000 -1.570796
  time 18
    0 -0.059525 1.526386 24.721458 1.570796 -0.647915 1.570720
    1 -5.577778 -0.123185 0.054231 0.000000 0.000000 -0.212930
    2 -5.512519 -2.697433 -3.989360 0.393304 -0.165984 -0.903143
    3 10.569402 -0.000001 0.000000 0.000000 0.000000 -2.401411
    4 13.357939 0.000000 0.000000 0.000000 0.000000 2.790894
    5 -5.435715 -2.622672 3.516682 2.761840 0.146246 -0.922226
    6 10.523519 0.000000 0.000000 0.000000 0.000000 2.411965
    7 13.611946 0.000001 0.000000 0.000000 0.000000 -2.810338
    8 -8.416649 1.073515 -0.018171 0.000000 0.000000 0.172788
    9 -9.984112 -4.710448 3.170796 -2.902516 -0.005451 -2.718124
    10 5.945618 0.000001 -0.000001 0.000000 0.000000 0.734118
    11 -9.984110 -4.710446 -2.998739 -0.223381 0.004015 -2.698290
    12 5.945625 -0.000001 0.000000 0.000000 0.000000 -0.752785
    13 -13.167568 0.616876 1.590356 3.140739 -0.157522 -3.136150
    14 1.939788 0.000000 0.000000 3.040688 0.121169 2.449692
    15 -13.157713 0.632509 -1.795553 1.570796 0.016921 -3.058550
    16 2.215696 0.000000 -0.000001 1.570796 -0.608107 -3.124672
    17 -2.622040 -6.273479 8.263164 -2.729017 0.216094 -1.539695
    18 11.485749 0.000000 0.000000 0.000000 0.000000 -1.863892
    19 24.536900 0.000000 -0.000001 0.000000 0.000000 2.258342
    20 -2.622039 -6.273478 -8.136835 -0.510800 -0.273056 -1.524300
    21 11.659969 0.000000 0.000000 0.000000 0.000000 1.793302
    22 25.724377 0.000002 -0.000001 0.000000 0.000000 -2.030728
    23 3.880158 -0.980431 0.090609 0.000000 0.000000 0.037688
    24 13.389692 0.268267 -6.517195 0.542283 1.306249 -0.395924
    25 9.913785 -0.000002 0.000002 1.475883 -0.823685 -1.553702
    26 21.016018 0.000002 0.000000 0.000000 0.000000 -1.897034
    27 28.471636 -0.000006 0.000001 0.000000 0.000000 2.176445
    28 13.389688 0.268267 6.023557 -0.462585 -1.348926 -0.488759
    29 9.768896 0.000001 -0.000002 -1.322157 0.859268 -1.183045
    30 19.931139 -0.000001 0.000000 0.000000 0.000000 -1.390477
    31 26.044121 0.000003 -0.000001 0.000000 0.000000 1.386866
    32 -5.849912 4.319725 0.063164 0.686845 -0.915055 1.005683
    33 -5.827132 4.411092 0.063164 -0.518849 0.858950 1.112842
    34 13.389692 0.268266 6.023556 -0.462585 -1.348926 -0.488759
    35 0.000000 0.077740 0.000001 1.570796 0.000000 -1.570796
  time 19
    0 -0.059525 1.526386 24.721458 1.570796 -0.584129 1.570720
    1 -5.577778 -0.123185 0.054231 0.000000 0.000000 -0.212930
    2 -5.512519 -2.697433 -3.989360 0.393304 -0.165984 -0.903143
    3 10.569402 -0.000001 0.000000 0.000000 0.000000 -2.401411
    4 13.357939 0.000000 0.000000 0.000000 0.000000 2.790894
    5 -5.435715 -2.622672 3.516682 2.761840 0.146246 -0.922226
    6 10.523519 0.000000 0.000000 0.000000 0.000000 2.412018
    7 13.611946 0.000001 0.000000 0.000000 0.000000 -2.810338
    8 -8.416649 1.073515 -0.018171 0.000000 0.000000 0.172788
    9 -9.984112 -4.710448 3.170796 -2.902516 -0.005451 -2.718124
    10 5.945618 0.000001 -0.000001 0.000000 0.000000 0.734118
    11 -9.984110 -4.710446 -2.998739 -0.223381 0.004015 -2.698290
    12 5.945625 -0.000001 0.000000 0.000000 0.000000 -0.752785
    13 -13.167568 0.616876 1.590356 3.140739 -0.157522 -3.136150
    14 1.939788 0.000000 0.000000 3.040688 0.121169 2.449692
    15 -13.157713 0.632509 -1.795553 1.570796 0.016921 -3.058550
    16 2.215696 0.000000 -0.000001 1.570796 -0.608107 -3.124672
    17 -2.622040 -6.273479 8.263164 -2.701792 0.167713 -1.023766
    18 11.485749 0.000000 0.000000 0.000000 0.000000 -2.129487
    19 24.536900 0.000000 -0.000001 0.000000 0.000000 2.828376
    20 -2.622039 -6.273478 -8.136835 -0.499890 -0.277225 -1.324575
    21 11.659969 0.000000 0.000000 0.000000 0.000000 1.944160
    22 25.724377 0.000002 -0.000001 0.000000 0.000000 -2.350092
    23 3.880158 -0.980431 0.090609 0.000000 0.000000 0.272583
    24 13.389692 0.268267 -6.517195 0.542283 1.306249 -0.395924
    25 9.913785 -0.000002 0.000002 1.612362 -0.621518 -1.723469
    26 21.016018 0.000002 0.000000 0.000000 0.000000 -1.929938
    27 28.471636 -0.000006 0.000001 0.000000 0.000000 2.241198
    28 13.389688 0.268267 6.023557 -0.462585 -1.348926 -0.488759
    29 9.768896 0.000001 -0.000002 -1.369406 0.891859 -1.235249
    30 19.931139 -0.000001 0.000000 0.000000 0.000000 -1.340490
    31 26.044121 0.000003 -0.000001 0.000000 0.000000 1.301455
    32 -5.849912 4.319725 0.063164 0.655891 -0.932529 1.157836
    33 -5.827132 4.411092 0.063164 -0.567477 0.923990 1.162382
    34 13.389692 0.268266 6.023556 -0.462585 -1.348926 -0.488759
    35 0.000000 0.077740 0.000001 1.570796 0.000000 -1.570796
  time 20
    0 -0.059525 1.526386 24.721458 1.570796 -0.519344 1.570720
    1 -5.577778 -0.123185 0.054231 0.000000 0.000000 -0.212930
    2 -5.512519 -2.697433 -3.989360 0.393304 -0.165984 -0.903143
    3 10.569402 -0.000001 0.000000 0.000000 0.000000 -2.401411
    4 13.357939 0.000000 0.000000 0.000000 0.000000 2.790894
    5 -5.435715 -2.622672 3.516682 2.761840 0.146246 -0.922226
    6 10.523519 0.000000 0.000000 0.000000 0.000000 2.412018
    7 13.611946 0.000001 0.000000 0.000000 0.000000 -2.810338
    8 -8.416649 1.073515 -0.018171 0.000000 0.000000 0.172788
    9 -9.984112 -4.710448 3.170796 -2.902516 -0.005451 -2.718124
    10 5.945618 0.000001 -0.000001 0.000000 0.000000 0.734118
    11 -9.984110 -4.710446 -2.998739 -0.223381 0.004015 -2.698290
    12 5.945625 -0.000001 0.000000 0.000000 0.000000 -0.752785
    13 -13.167568 0.616876 1.590356 3.140739 -0.157522 -3.136150
    14 1.939788 0.000000 0.000000 3.040688 0.121169 2.449692
    15 -13.157713 0.632509 -1.795553 1.570796 0.016921 -3.058550
    16 2.215696 0.000000 -0.000001 1.570796 -0.608107 -3.124672
    17 -2.622040 -6.273479 8.263164 0.249496 0.506733 -1.018707
    18 11.485749 0.000000 0.000000 0.000000 0.000000 -2.110219
    19 24.536900 0.000000 -0.000001 0.000000 0.000000 3.283767
    20 -2.622039 -6.273478 -8.136835 -0.497497 -0.288866 -1.087800
    21 11.659969 0.000000 0.000000 0.000000 0.000000 2.069781
    22 25.724377 0.000002 -0.000001 0.000000 0.000000 -2.607290
    23 3.880158 -0.980431 0.090609 0.000000 0.000000 0.467995
    24 13.389692 0.268267 -6.517195 0.542283 1.306249 -0.395924
    25 9.913785 -0.000002 0.000002 1.507473 -0.330983 -1.811129
    26 21.016018 0.000002 0.000000 0.000000 0.000000 -1.999542
    27 28.471636 -0.000006 0.000001 0.000000 0.000000 2.382540
    28 13.389688 0.268267 6.023557 -0.462585 -1.348926 -0.488759
    29 9.768896 0.000001 -0.000002 -1.352955 0.727522 -1.340324
    30 19.931139 -0.000001 0.000000 0.000000 0.000000 -1.508091
    31 26.044121 0.000003 -0.000001 0.000000 0.000000 1.601161
    32 -5.849912 4.319725 0.063164 0.652346 -0.922226 1.191886
    33 -5.827132 4.411092 0.063164 -0.563110 0.918750 1.208612
    34 13.389692 0.268266 6.023556 -0.462585 -1.348926 -0.488759
    35 0.000000 0.077740 0.000001 1.570796 0.000000 -1.570796
  time 21
    0 -0.059525 1.526386 24.721458 1.570796 -0.459509 1.570720
    1 -5.577778 -0.123185 0.054231 0.000000 0.000000 -0.212930
    2 -5.512519 -2.697433 -3.989360 0.393304 -0.165984 -0.903143
    3 10.569402 -0.000001 0.000000 0.000000 0.000000 -2.401411
    4 13.357939 0.000000 0.000000 0.000000 0.000000 2.790894
    5 -5.435715 -2.622672 3.516682 2.761840 0.146246 -0.922226
    6 10.523519 0.000000 0.000000 0.000000 0.000000 2.412018
    7 13.611946 0.000001 0.000000 0.000000 0.000000 -2.810338
    8 -8.416649 1.073515 -0.018171 0.000000 0.000000 0.172788
    9 -9.984112 -4.710448 3.170796 -2.902516 -0.005451 -2.718124
    10 5.945618 0.000001 -0.000001 0.000000 0.000000 0.734118
    11 -9.984110 -4.710446 -2.998739 -0.223381 0.004015 -2.698290
    12 5.945625 -0.000001 0.000000 0.000000 0.000000 -0.752785
    13 -13.167568 0.616876 1.590356 3.140739 -0.157522 -3.136150
    14 1.939788 0.000000 0.000000 3.040688 0.121169 2.449692
    15 -13.157713 0.632509 -1.795553 1.570796 0.016921 -3.058550
    16 2.215696 0.000000 -0.000001 1.570796 -0.608107 -3.124672
    17 -2.622040 -6.273479 8.263164 -5.947279 0.542133 -0.612623
    18 11.485749 0.000000 0.000000 0.000000 0.000000 -2.129373
    19 24.536900 0.000000 -0.000001 0.000000 0.000000 3.269791
    20 -2.622039 -6.273478 -8.136835 -0.506493 -0.293282 -0.886834
    21 11.659969 0.000000 0.000000 0.000000 0.000000 2.155074
    22 25.724377 0.000002 -0.000001 0.000000 0.000000 -2.776650
    23 3.880158 -0.980431 0.090609 0.000000 0.000000 0.593442
    24 13.389692 0.268267 -6.517195 0.542283 1.306249 -0.395924
    25 9.913785 -0.000002 0.000002 1.494989 -0.027148 -1.912397
    26 21.016018 0.000002 0.000000 0.000000 0.000000 -2.075546
    27 28.471636 -0.000006 0.000001 0.000000 0.000000 2.548261
    28 13.389688 0.268267 6.023557 -0.462585 -1.348926 -0.488759
    29 9.768896 0.000001 -0.000002 -1.462949 0.456145 -1.491781
    30 19.931139 -0.000001 0.000000 0.000000 0.000000 -1.726372
    31 26.044121 0.000003 -0.000001 0.000000 0.000000 2.052736
    32 -5.849912 4.319725 0.063164 0.666318 -0.894991 1.150599
    33 -5.827132 4.411092 0.063164 -0.525944 0.869458 1.247956
    34 13.389692 0.268266 6.023556 -0.462585 -1.348926 -0.488759
    35 0.000000 0.077740 0.000001 1.570796 0.000000 -1.570796
  time 22
    0 -0.059525 1.526386 24.721458 1.570796 -0.410419 1.570720
    1 -5.577778 -0.123185 0.054231 0.000000 0.000000 -0.212930
    2 -5.512519 -2.697433 -3.989360 0.393304 -0.165984 -0.903143
    3 10.569402 -0.000001 0.000000 0.000000 0.000000 -2.401411
    4 13.357939 0.000000 0.000000 0.000000 0.000000 2.790894
    5 -5.435715 -2.622672 3.516682 2.761840 0.146246 -0.922226
    6 10.523519 0.000000 0.000000 0.000000 0.000000 2.412018
    7 13.611946 0.000001 0.000000 0.000000 0.000000 -2.810338
    8 -8.416649 1.073515 -0.018171 0.000000 0.000000 0.172788
    9 -9.984112 -4.710448 3.170796 -2.902516 -0.005451 -2.718124
    10 5.945618 0.000001 -0.000001 0.000000 0.000000 0.734118
    11 -9.984110 -4.710446 -2.998739 -0.223381 0.004015 -2.698290
    12 5.945625 -0.000001 0.000000 0.000000 0.000000 -0.752785
    13 -13.167568 0.616876 1.590356 3.140739 -0.157522 -3.136150
    14 1.939788 0.000000 0.000000 3.040688 0.121169 2.449692
    15 -13.157713 0.632509 -1.795553 1.570796 0.016921 -3.058550
    16 2.215696 0.000000 -0.000001 1.570796 -0.608107 -3.124672
    17 -2.622040 -6.273479 8.263164 -5.924656 0.409972 -0.257735
    18 11.485749 0.000000 0.000000 0.000000 0.000000 -2.204451
    19 24.536900 0.000000 -0.000001 0.000000 0.000000 3.167117
    20 -2.622039 -6.273478 -8.136835 -0.514819 -0.283706 -0.728236
    21 11.659969 0.000000 0.000000 0.000000 0.000000 2.217034
    22 25.724377 0.000002 -0.000001 0.000000 0.000000 -2.903199
    23 3.880158 -0.980431 0.090609 0.000000 0.000000 0.660912
    24 13.389692 0.268267 -6.517195 0.542283 1.306249 -0.395924
    25 9.913785 -0.000002 0.000002 1.449117 0.238278 -2.013295
    26 21.016018 0.000002 0.000000 0.000000 0.000000 -2.143451
    27 28.471636 -0.000006 0.000001 0.000000 0.000000 2.718781
    28 13.389688 0.268267 6.023557 -0.462585 -1.348926 -0.488759
    29 9.768896 0.000001 -0.000002 -1.519190 0.176555 -1.589222
    30 19.931139 -0.000001 0.000000 0.000000 0.000000 -1.890403
    31 26.044121 0.000003 -0.000001 0.000000 0.000000 2.459236
    32 -5.849912 4.319725 0.063164 0.686715 -0.861466 1.078168
    33 -5.827132 4.411092 0.063164 -0.484014 0.800831 1.269202
    34 13.389692 0.268266 6.023556 -0.462585 -1.348926 -0.488759
    35 0.000000 0.077740 0.000001 1.570796 0.000000 -1.570796
  time 23
    0 -0.059525 1.526386 24.721458 1.570796 -0.371179 1.570720
    1 -5.577778 -0.123185 0.054231 0.000000 0.000000 -0.212930
    2 -5.512519 -2.697433 -3.989360 0.393304 -0.165984 -0.903143
    3 10.569402 -0.000001 0.000000 0.000000 0.000000 -2.401411
    4 13.357939 0.000000 0.000000 0.000000 0.000000 2.790894
    5 -5.435715 -2.622672 3.516682 2.761840 0.146246 -0.922226
    6 10.523519 0.000000 0.000000 0.000000 0.000000 2.411965
    7 13.611946 0.000001 0.000000 0.000000 0.000000 -2.810338
    8 -8.416649 1.073515 -0.018171 0.000000 0.000000 0.172788
    9 -9.984112 -4.710448 3.170796 -2.902516 -0.005451 -2.718124
    10 5.945618 0.000001 -0.000001 0.000000 0.000000 0.734118
    11 -9.984110 -4.710446 -2.998739 -0.223381 0.004015 -2.698290
    12 5.945625 -0.000001 0.000000 0.000000 0.000000 -0.752785
    13 -13.167568 0.616876 1.590356 3.140739 -0.157522 -3.136150
    14 1.939788 0.000000 0.000000 3.040688 0.121169 2.449692
    15 -13.157713 0.632509 -1.795553 1.570796 0.016921 -3.058550
    16 2.215696 0.000000 -0.000001 1.570796 -0.608107 -3.124672
    17 -2.622040 -6.273479 8.263164 -2.365894 0.046816 0.434141
    18 11.485749 0.000000 0.000000 0.000000 0.000000 -2.213287
    19 24.536900 0.000000 -0.000001 0.000000 0.000000 3.116818
    20 -2.622039 -6.273478 -8.136835 -0.506589 -0.263480 -0.616910
    21 11.659969 0.000000 0.000000 0.000000 0.000000 2.261174
    22 25.724377 0.000002 -0.000001 0.000000 0.000000 -3.006629
    23 3.880158 -0.980431 0.090609 0.000000 0.000000 0.705445
    24 13.389692 0.268267 -6.517195 0.542283 1.306249 -0.395924
    25 9.913785 -0.000002 0.000002 1.500853 0.425458 -2.088459
    26 21.016018 0.000002 0.000000 0.000000 0.000000 -2.181906
    27 28.471636 -0.000006 0.000001 0.000000 0.000000 2.848222
    28 13.389688 0.268267 6.023557 -0.462585 -1.348926 -0.488759
    29 9.768896 0.000001 -0.000002 -1.517755 -0.080629 -1.651541
    30 19.931139 -0.000001 0.000000 0.000000 0.000000 -1.975190
    31 26.044121 0.000003 -0.000001 0.000000 0.000000 2.765408
    32 -5.849912 4.319725 0.063164 0.703762 -0.832152 1.016649
    33 -5.827132 4.411092 0.063164 -0.453943 0.739687 1.272245
    34 13.389692 0.268266 6.023556 -0.462585 -1.348926 -0.488759
    35 0.000000 0.077740 0.000001 1.570796 0.000000 -1.570796
  time 24
    0 -0.059525 1.526386 24.721458 1.570796 -0.337838 1.570720
    1 -5.577778 -0.123185 0.054231 0.000000 0.000000 -0.212930
    2 -5.512519 -2.697433 -3.989360 0.393304 -0.165984 -0.903143
    3 10.569402 -0.000001 0.000000 0.000000 0.000000 -2.401411
    4 13.357939 0.000000 0.000000 0.000000 0.000000 2.790894
    5 -5.435715 -2.622672 3.516682 2.761840 0.146246 -0.922226
    6 10.523519 0.000000 0.000000 0.000000 0.000000 2.412018
    7 13.611946 0.000001 0.000000 0.000000 0.000000 -2.810338
    8 -8.416649 1.073515 -0.018171 0.000000 0.000000 0.172788
    9 -9.984112 -4.710448 3.170796 -2.902516 -0.005451 -2.718124
    10 5.945618 0.000001 -0.000001 0.000000 0.000000 0.734118
    11 -9.984110 -4.710446 -2.998739 -0.223381 0.004015 -2.698290
    12 5.945625 -0.000001 0.000000 0.000000 0.000000 -0.752785
    13 -13.167568 0.616876 1.590356 3.140739 -0.157522 -3.136150
    14 1.939788 0.000000 0.000000 3.040688 0.121169 2.449692
    15 -13.157713 0.632509 -1.795553 1.570796 0.016921 -3.058550
    16 2.215696 0.000000 -0.000001 1.570796 -0.608107 -3.124672
    17 -2.622040 -6.273479 8.263164 0.206837 0.350042 -0.204799
    18 11.485749 0.000000 0.000000 0.000000 0.000000 -2.208042
    19 24.536900 0.000000 -0.000001 0.000000 0.000000 3.154663
    20 -2.622039 -6.273478 -8.136835 -0.465342 -0.247052 -0.518584
    21 11.659969 0.000000 0.000000 0.000000 0.000000 2.283682
    22 25.724377 0.000002 -0.000001 0.000000 0.000000 -3.104818
    23 3.880158 -0.980431 0.090609 0.000000 0.000000 0.730815
    24 13.389692 0.268267 -6.517195 0.542283 1.306249 -0.395924
    25 9.913785 -0.000002 0.000002 1.490165 0.506559 -2.119377
    26 21.016018 0.000002 0.000000 0.000000 0.000000 -2.191704
    27 28.471636 -0.000006 0.000001 0.000000 0.000000 2.895571
    28 13.389688 0.268267 6.023557 -0.462585 -1.348926 -0.488759
    29 9.768896 0.000001 -0.000002 1.388958 0.396416 -1.759957
    30 19.931139 -0.000001 0.000000 0.000000 0.000000 -1.991124
    31 26.044121 0.000003 -0.000001 0.000000 0.000000 2.963761
    32 -5.849912 4.319725 0.063164 0.708884 -0.817410 1.006012
    33 -5.827132 4.411092 0.063164 -0.443146 0.714438 1.265786
    34 13.389692 0.268266 6.023556 -0.462585 -1.348926 -0.488759
    35 0.000000 0.077740 0.000001 1.570796 0.000000 -1.570796
  time 25
    0 -0.059525 1.526386 24.721458 1.570796 -0.311871 1.570720
    1 -5.577778 -0.123185 0.054231 0.000000 0.000000 -0.212930
    2 -5.512519 -2.697433 -3.989360 0.393304 -0.165984 -0.903143
    3 10.569402 -0.000001 0.000000 0.000000 0.000000 -2.401411
    4 13.357939 0.000000 0.000000 0.000000 0.000000 2.790894
    5 -5.435715 -2.622672 3.516682 2.761840 0.146246 -0.922226
    6 10.523519 0.000000 0.000000 0.000000 0.000000 2.412018
    7 13.611946 0.000001 0.000000 0.000000 0.000000 -2.810338
    8 -8.416649 1.073515 -0.018171 0.000000 0.000000 0.172788
    9 -9.984112 -4.710448 3.170796 -2.902516 -0.005451 -2.718124
    10 5.945618 0.000001 -0.000001 0.000000 0.000000 0.734118
    11 -9.984110 -4.710446 -2.998739 -0.223381 0.004015 -2.698290
    12 5.945625 -0.000001 0.000000 0.000000 0.000000 -0.752785
    13 -13.167568 0.616876 1.590356 3.140739 -0.157522 -3.136150
    14 1.939788 0.000000 0.000000 3.040688 0.121169 2.449692
    15 -13.157713 0.632509 -1.795553 1.570796 0.016921 -3.058550
    16 2.215696 0.000000 -0.000001 1.570796 -0.608107 -3.124672
    17 -2.622040 -6.273479 8.263164 -5.906251 0.473729 -0.478840
    18 11.485749 0.000000 0.000000 0.000000 0.000000 -2.184555
    19 24.536900 0.000000 -0.000001 0.000000 0.000000 3.210497
    20 -2.622039 -6.273478 -8.136835 -0.319110 -0.285605 -0.352186
    21 11.659969 0.000000 0.000000 0.000000 0.000000 2.258084
    22 25.724377 0.000002 -0.000001 0.000000 0.000000 -3.211608
    23 3.880158 -0.980431 0.090609 0.000000 0.000000 0.741035
    24 13.389692 0.268267 -6.517195 0.542283 1.306249 -0.395924
    25 9.913785 -0.000002 0.000002 1.488463 0.519470 -2.117340
    26 21.016018 0.000002 0.000000 0.000000 0.000000 -2.192440
    27 28.471636 -0.000006 0.000001 0.000000 0.000000 2.899474
    28 13.389688 0.268267 6.023557 -0.462585 -1.348926 -0.488759
    29 9.768896 0.000001 -0.000002 1.374898 0.357122 -1.828385
    30 19.931139 -0.000001 0.000000 0.000000 0.000000 -1.979293
    31 26.044121 0.000003 -0.000001 0.000000 0.000000 3.058327
    32 -5.849912 4.319725 0.063164 0.705626 -0.813825 1.030302
    33 -5.827132 4.411092 0.063164 -0.443979 0.716456 1.258846
    34 13.389692 0.268266 6.023556 -0.462585 -1.348926 -0.488759
    35 0.000000 0.077740 0.000001 1.570796 0.000000 -1.570796
  time 26
    0 -0.059525 1.526386 24.721458 1.570796 -0.294595 1.570720
    1 -5.577778 -0.123185 0.054231 0.000000 0.000000 -0.212930
    2 -5.512519 -2.697433 -3.989360 0.393304 -0.165984 -0.903143
    3 10.569402 -0.000001 0.000000 0.000000 0.000000 -2.401411
    4 13.357939 0.000000 0.000000 0.000000 0.000000 2.790894
    5 -5.435715 -2.622672 3.516682 2.761840 0.146246 -0.922226
    6 10.523519 0.000000 0.000000 0.000000 0.000000 2.412018
    7 13.611946 0.000001 0.000000 0.000000 0.000000 -2.810338
    8 -8.416649 1.073515 -0.018171 0.000000 0.000000 0.172788
    9 -9.984112 -4.710448 3.170796 -2.902516 -0.005451 -2.718124
    10 5.945618 0.000001 -0.000001 0.000000 0.000000 0.734118
    11 -9.984110 -4.710446 -2.998739 -0.223381 0.004015 -2.698290
    12 5.945625 -0.000001 0.000000 0.000000 0.000000 -0.752785
    13 -13.167568 0.616876 1.590356 3.140739 -0.157522 -3.136150
    14 1.939788 0.000000 0.000000 3.040688 0.121169 2.449692
    15 -13.157713 0.632509 -1.795553 1.570796 0.016921 -3.058550
    16 2.215696 0.000000 -0.000001 1.570796 -0.608107 -3.124672
    17 -2.622040 -6.273479 8.263164 -5.961563 0.467864 -0.761096
    18 11.485749 0.000000 0.000000 0.000000 0.000000 -2.171615
    19 24.536900 0.000000 -0.000001 0.000000 0.000000 3.228486
    20 -2.622039 -6.273478 -8.136835 0.406785 -0.733872 -0.277732
    21 11.659969 0.000000 0.000000 0.000000 0.000000 2.178611
    22 25.724377 0.000002 -0.000001 0.000000 0.000000 -3.285401
    23 3.880158 -0.980431 0.090609 0.000000 0.000000 0.739879
    24 13.389692 0.268267 -6.517195 0.542283 1.306249 -0.395924
    25 9.913785 -0.000002 0.000002 1.500758 0.510971 -2.107065
    26 21.016018 0.000002 0.000000 0.000000 0.000000 -2.190401
    27 28.471636 -0.000006 0.000001 0.000000 0.000000 2.888021
    28 13.389688 0.268267 6.023557 -0.462585 -1.348926 -0.488759
    29 9.768896 0.000001 -0.000002 1.366577 0.236612 -1.879825
    30 19.931139 -0.000001 0.000000 0.000000 0.000000 -1.974657
    31 26.044121 0.000003 -0.000001 0.000000 0.000000 3.080032
    32 -5.849912 4.319725 0.063164 0.703110 -0.811035 1.047847
    33 -5.827132 4.411092 0.063164 -0.444619 0.718025 1.254095
    34 13.389692 0.268266 6.023556 -0.462585 -1.348926 -0.488759
    35 0.000000 0.077740 0.000001 1.570796 0.000000 -1.570796
  time 27
    0 -0.059525 1.526386 24.721458 1.570796 -0.287537 1.570720
    1 -5.577778 -0.123185 0.054231 0.000000 0.000000 -0.212930
    2 -5.512519 -2.697433 -3.989360 0.393304 -0.165984 -0.903143
    3 10.569402 -0.000001 0.000000 0.000000 0.000000 -2.401411
    4 13.357939 0.000000 0.000000 0.000000 0.000000 2.790894
    5 -5.435715 -2.622672 3.516682 2.761840 0.146246 -0.922226
    6 10.523519 0.000000 0.000000 0.000000 0.000000 2.412018
    7 13.611946 0.000001 0.000000 0.000000 0.000000 -2.810338
    8 -8.416649 1.073515 -0.018171 0.000000 0.000000 0.172788
    9 -9.984112 -4.710448 3.170796 -2.902516 -0.005451 -2.718124
    10 5.945618 0.000001 -0.000001 0.000000 0.000000 0.734118
    11 -9.984110 -4.710446 -2.998739 -0.223381 0.004015 -2.698290
    12 5.945625 -0.000001 0.000000 0.000000 0.000000 -0.752785
    13 -13.167568 0.616876 1.590356 3.140739 -0.157522 -3.136150
    14 1.939788 0.000000 0.000000 3.040688 0.121169 2.449692
    15 -13.157713 0.632509 -1.795553 1.570796 0.016921 -3.058550
    16 2.215696 0.000000 -0.000001 1.570796 -0.608107 -3.124672
    17 -2.622040 -6.273479 8.263164 -5.980256 0.440903 -0.898144
    18 11.485749 0.000000 0.000000 0.000000 0.000000 -2.178684
    19 24.536900 0.000000 -0.000001 0.000000 0.000000 3.219422
    20 -2.622039 -6.273478 -8.136835 2.328659 -1.064046 -1.409724
    21 11.659969 0.000000 0.000000 0.000000 0.000000 2.086726
    22 25.724377 0.000002 -0.000001 0.000000 0.000000 -3.331572
    23 3.880158 -0.980431 0.090609 0.000000 0.000000 0.731301
    24 13.389692 0.268267 -6.517195 0.542283 1.306249 -0.395924
    25 9.913785 -0.000002 0.000002 1.518255 0.489625 -2.094198
    26 21.016018 0.000002 0.000000 0.000000 0.000000 -2.185644
    27 28.471636 -0.000006 0.000001 0.000000 0.000000 2.863771
    28 13.389688 0.268267 6.023557 -0.462585 -1.348926 -0.488759
    29 9.768896 0.000001 -0.000002 1.296085 0.099216 -1.956651
    30 19.931139 -0.000001 0.000000 0.000000 0.000000 -1.976309
    31 26.044121 0.000003 -0.000001 0.000000 0.000000 3.072925
    32 -5.849912 4.319725 0.063164 0.701234 -0.808929 1.059636
    33 -5.827132 4.411092 0.063164 -0.445106 0.719202 1.251105
    34 13.389692 0.268266 6.023556 -0.462585 -1.348926 -0.488759
    35 0.000000 0.077740 0.000001 1.570796 0.000000 -1.570796
  time 28
    0 0.053760 1.526386 24.721458 1.570796 -0.299282 1.570720
    1 -5.577778 -0.123185 0.054231 0.000000 0.000000 -0.212930
    2 -5.512519 -2.697433 -3.989360 0.393304 -0.165984 -0.903143
    3 10.569402 -0.000001 0.000000 0.000000 0.000000 -2.401411
    4 13.357939 0.000000 0.000000 0.000000 0.000000 2.790894
    5 -5.435715 -2.622672 3.516682 2.761840 0.146246 -0.922226
    6 10.523519 0.000000 0.000000 0.000000 0.000000 2.412018
    7 13.611946 0.000001 0.000000 0.000000 0.000000 -2.810338
    8 -8.416649 1.073515 -0.018171 0.000000 0.000000 0.172788
    9 -9.984112 -4.710448 3.170796 -2.902516 -0.005451 -2.718124
    10 5.945618 0.000001 -0.000001 0.000000 0.000000 0.734118
    11 -9.984110 -4.710446 -2.998739 -0.223381 0.004015 -2.698290
    12 5.945625 -0.000001 0.000000 0.000000 0.000000 -0.752785
    13 -13.167568 0.616876 1.590356 3.140739 -0.157522 -3.136150
    14 1.939788 0.000000 0.000000 3.040688 0.121169 2.449692
    15 -13.157713 0.632509 -1.795553 1.570796 0.016921 -3.058550
    16 2.215696 0.000000 -0.000001 1.570796 -0.608107 -3.124672
    17 -2.622040 -6.273479 8.263164 0.287457 0.426850 -0.992646
    18 11.485749 0.000000 0.000000 0.000000 0.000000 -2.185753
    19 24.536900 0.000000 -0.000001 0.000000 0.000000 3.208629
    20 -2.622039 -6.273478 -8.136835 2.805060 -0.971545 -1.823710
    21 11.659969 0.000000 0.000000 0.000000 0.000000 2.032079
    22 25.724377 0.000002 -0.000001 0.000000 0.000000 -3.351935
    23 3.880158 -0.980431 0.090609 0.000000 0.000000 0.704776
    24 13.389692 0.268267 -6.517195 0.542283 1.306249 -0.395924
    25 9.913785 -0.000002 0.000002 1.546913 0.426431 -2.063003
    26 21.016018 0.000002 0.000000 0.000000 0.000000 -2.170126
    27 28.471636 -0.000006 0.000001 0.000000 0.000000 2.804329
    28 13.389688 0.268267 6.023557 -0.462585 -1.348926 -0.488759
    29 9.768896 0.000001 -0.000002 1.181117 -0.009992 -2.052946
    30 19.931139 -0.000001 0.000000 0.000000 0.000000 -1.980199
    31 26.044121 0.000003 -0.000001 0.000000 0.000000 3.053589
    32 -5.849912 4.319725 0.063164 0.699891 -0.807393 1.066709
    33 -5.827132 4.411092 0.063164 -0.445465 0.720043 1.249611
    34 13.389692 0.268266 6.023556 -0.462585 -1.348926 -0.488759
    35 0.000000 0.077740 0.000001 1.570796 0.000000 -1.570796
  time 29
    0 0.346738 1.526386 24.721458 1.570796 -0.331781 1.570720
    1 -5.577778 -0.123185 0.054231 0.000000 0.000000 -0.212930
    2 -5.512519 -2.697433 -3.989360 0.393304 -0.165984 -0.903143
    3 10.569402 -0.000001 0.000000 0.000000 0.000000 -2.401411
    4 13.357939 0.000000 0.000000 0.000000 0.000000 2.790894
    5 -5.435715 -2.622672 3.516682 2.761840 0.146246 -0.922226
    6 10.523519 0.000000 0.000000 0.000000 0.000000 2.412018
    7 13.611946 0.000001 0.000000 0.000000 0.000000 -2.810338
    8 -8.416649 1.073515 -0.018171 0.000000 0.000000 0.172788
    9 -9.984112 -4.710448 3.170796 -2.902516 -0.005451 -2.718124
    10 5.945618 0.000001 -0.000001 0.000000 0.000000 0.734118
    11 -9.984110 -4.710446 -2.998739 -0.223381 0.004015 -2.698290
    12 5.945625 -0.000001 0.000000 0.000000 0.000000 -0.752785
    13 -13.167568 0.616876 1.590356 3.140739 -0.157522 -3.136150
    14 1.939788 0.000000 0.000000 3.040688 0.121169 2.449692
    15 -13.157713 0.632509 -1.795553 1.570796 0.016921 -3.058550
    16 2.215696 0.000000 -0.000001 1.570796 -0.608107 -3.124672
    17 -2.622040 -6.273479 8.263164 0.233966 0.395276 -1.124961
    18 11.485749 0.000000 0.000000 0.000000 0.000000 -2.198579
    19 24.536900 0.000000 -0.000001 0.000000 0.000000 3.183722
    20 -2.622039 -6.273478 -8.136835 2.749266 -0.916770 -1.936159
    21 11.659969 0.000000 0.000000 0.000000 0.000000 2.054072
    22 25.724377 0.000002 -0.000001 0.000000 0.000000 -3.344341
    23 3.880158 -0.980431 0.090609 0.000000 0.000000 0.653611
    24 13.389692 0.268267 -6.517195 0.542283 1.306249 -0.395924
    25 9.913785 -0.000002 0.000002 1.585974 0.329630 -2.022459
    26 21.016018 0.000002 0.000000 0.000000 0.000000 -2.141412
    27 28.471636 -0.000006 0.000001 0.000000 0.000000 2.713022
    28 13.389688 0.268267 6.023557 -0.462585 -1.348926 -0.488759
    29 9.768896 0.000001 -0.000002 0.937887 -0.102707 -2.173005
    30 19.931139 -0.000001 0.000000 0.000000 0.000000 -1.986754
    31 26.044121 0.000003 -0.000001 0.000000 0.000000 3.014405
    32 -5.849912 4.319725 0.063164 0.698992 -0.806368 1.070053
    33 -5.827132 4.411092 0.063164 -0.445708 0.720603 1.249184
    34 13.389692 0.268266 6.023556 -0.462585 -1.348926 -0.488759
    35 0.000000 0.077740 0.000001 1.570796 0.000000 -1.570796
  time 30
    0 0.737374 1.526386 24.721458 1.570796 -0.376393 1.570720
    1 -5.577778 -0.123185 0.054231 0.000000 0.000000 -0.212930
    2 -5.512519 -2.697433 -3.989360 0.393304 -0.165984 -0.903143
    3 10.569402 -0.000001 0.000000 0.000000 0.000000 -2.401411
    4 13.357939 0.000000 0.000000 0.000000 0.000000 2.790894
    5 -5.435715 -2.622672 3.516682 2.761840 0.146246 -0.922226
    6 10.523519 0.000000 0.000000 0.000000 0.000000 2.412018
    7 13.611946 0.000001 0.000000 0.000000 0.000000 -2.810338
    8 -8.416649 1.073515 -0.018171 0.000000 0.000000 0.172788
    9 -9.984112 -4.710448 3.170796 -2.902516 -0.005451 -2.718124
    10 5.945618 0.000001 -0.000001 0.000000 0.000000 0.734118
    11 -9.984110 -4.710446 -2.998739 -0.223381 0.004015 -2.698290
    12 5.945625 -0.000001 0.000000 0.000000 0.000000 -0.752785
    13 -13.167568 0.616876 1.590356 3.140739 -0.157522 -3.136150
    14 1.939788 0.000000 0.000000 3.040688 0.121169 2.449692
    15 -13.157713 0.632509 -1.795553 1.570796 0.016921 -3.058550
    16 2.215696 0.000000 -0.000001 1.570796 -0.608107 -3.124672
    17 -2.622040 -6.273479 8.263164 -2.484762 0.091192 -0.650979
    18 11.485749 0.000000 0.000000 0.000000 0.000000 -2.211805
    19 24.536900 0.000000 -0.000001 0.000000 0.000000 3.135498
    20 -2.622039 -6.273478 -8.136835 1.851588 -0.971379 -1.553254
    21 11.659969 0.000000 0.000000 0.000000 0.000000 2.140601
    22 25.724377 0.000002 -0.000001 0.000000 0.000000 -3.306974
    23 3.880158 -0.980431 0.090609 0.000000 0.000000 0.587845
    24 13.389692 0.268267 -6.517195 0.542283 1.306249 -0.395924
    25 9.913785 -0.000002 0.000002 1.625320 0.241847 -1.989691
    26 21.016018 0.000002 0.000000 0.000000 0.000000 -2.109980
    27 28.471636 -0.000006 0.000001 0.000000 0.000000 2.630802
    28 13.389688 0.268267 6.023557 -0.462585 -1.348926 -0.488759
    29 9.768896 0.000001 -0.000002 0.398533 -0.264482 -2.285620
    30 19.931139 -0.000001 0.000000 0.000000 0.000000 -1.991284
    31 26.044121 0.000003 -0.000001 0.000000 0.000000 2.956974
    32 -5.849912 4.319725 0.063164 0.698432 -0.805742 1.070657
    33 -5.827132 4.411092 0.063164 -0.445849 0.720968 1.249504
    34 13.389692 0.268266 6.023556 -0.462585 -1.348926 -0.488759
    35 0.000000 0.077740 0.000001 1.570796 0.000000 -1.570796
  time 31
    0 1.151450 1.526386 24.721458 1.570796 -0.424430 1.570720
    1 -5.577778 -0.123185 0.054231 0.000000 0.000000 -0.212930
    2 -5.512519 -2.697433 -3.989360 0.393304 -0.165984 -0.903143
    3 10.569402 -0.000001 0.000000 0.000000 0.000000 -2.401411
    4 13.357939 0.000000 0.000000 0.000000 0.000000 2.790894
    5 -5.435715 -2.622672 3.516682 2.761840 0.146246 -0.922226
    6 10.523519 0.000000 0.000000 0.000000 0.000000 2.412018
    7 13.611946 0.000001 0.000000 0.000000 0.000000 -2.810338
    8 -8.416649 1.073515 -0.018171 0.000000 0.000000 0.172788
    9 -9.984112 -4.710448 3.170796 -2.902516 -0.005451 -2.718124
    10 5.945618 0.000001 -0.000001 0.000000 0.000000 0.734118
    11 -9.984110 -4.710446 -2.998739 -0.223381 0.004015 -2.698290
    12 5.945625 -0.000001 0.000000 0.000000 0.000000 -0.752785
    13 -13.167568 0.616876 1.590356 3.140739 -0.157522 -3.136150
    14 1.939788 0.000000 0.000000 3.040688 0.121169 2.449692
    15 -13.157713 0.632509 -1.795553 1.570796 0.016921 -3.058550
    16 2.215696 0.000000 -0.000001 1.570796 -0.608107 -3.124672
    17 -2.622040 -6.273479 8.263164 -2.686359 0.194889 -0.905489
    18 11.485749 0.000000 0.000000 0.000000 0.000000 -2.210322
    19 24.536900 0.000000 -0.000001 0.000000 0.000000 3.063267
    20 -2.622039 -6.273478 -8.136835 0.071926 -0.360316 -1.096132
    21 11.659969 0.000000 0.000000 0.000000 0.000000 2.247319
    22 25.724377 0.000002 -0.000001 0.000000 0.000000 -3.226797
    23 3.880158 -0.980431 0.090609 0.000000 0.000000 0.517395
    24 13.389692 0.268267 -6.517195 0.542283 1.306249 -0.395924
    25 9.913785 -0.000002 0.000002 1.657477 0.175409 -1.963217
    26 21.016018 0.000002 0.000000 0.000000 0.000000 -2.088289
    27 28.471636 -0.000006 0.000001 0.000000 0.000000 2.577886
    28 13.389688 0.268267 6.023557 -0.462585 -1.348926 -0.488759
    29 9.768896 0.000001 -0.000002 -0.287256 -0.416138 -2.230935
    30 19.931139 -0.000001 0.000000 0.000000 0.000000 -1.989738
    31 26.044121 0.000003 -0.000001 0.000000 0.000000 2.892500
    32 -5.849912 4.319725 0.063164 0.698132 -0.805401 1.069505
    33 -5.827132 4.411092 0.063164 -0.445938 0.721164 1.250198
    34 13.389692 0.268266 6.023556 -0.462585 -1.348926 -0.488759
    35 0.000000 0.077740 0.000001 1.570796 0.000000 -1.570796
  time 32
    0 1.514742 1.526386 24.721458 1.570796 -0.467357 1.570720
    1 -5.577778 -0.123185 0.054231 0.000000 0.000000 -0.212930
    2 -5.512519 -2.697433 -3.989360 0.393304 -0.165984 -0.903143
    3 10.569402 -0.000001 0.000000 0.000000 0.000000 -2.401411
    4 13.357939 0.000000 0.000000 0.000000 0.000000 2.790894
    5 -5.435715 -2.622672 3.516682 2.761840 0.146246 -0.922226
    6 10.523519 0.000000 0.000000 0.000000 0.000000 2.412018
    7 13.611946 0.000001 0.000000 0.000000 0.000000 -2.810338
    8 -8.416649 1.073515 -0.018171 0.000000 0.000000 0.172788
    9 -9.984112 -4.710448 3.170796 -2.902516 -0.005451 -2.718124
    10 5.945618 0.000001 -0.000001 0.000000 0.000000 0.734118
    11 -9.984110 -4.710446 -2.998739 -0.223381 0.004015 -2.698290
    12 5.945625 -0.000001 0.000000 0.000000 0.000000 -0.752785
    13 -13.167568 0.616876 1.590356 3.140739 -0.157522 -3.136150
    14 1.939788 0.000000 0.000000 3.040688 0.121169 2.449692
    15 -13.157713 0.632509 -1.795553 1.570796 0.016921 -3.058550
    16 2.215696 0.000000 -0.000001 1.570796 -0.608107 -3.124672
    17 -2.622040 -6.273479 8.263164 -2.764869 0.241661 -1.160923
    18 11.485749 0.000000 0.000000 0.000000 0.000000 -2.189572
    19 24.536900 0.000000 -0.000001 0.000000 0.000000 2.978858
    20 -2.622039 -6.273478 -8.136835 -0.165318 -0.204702 -1.433124
    21 11.659969 0.000000 0.000000 0.000000 0.000000 2.283630
    22 25.724377 0.000002 -0.000001 0.000000 0.000000 -3.104213
    23 3.880158 -0.980431 0.090609 0.000000 0.000000 0.452177
    24 13.389692 0.268267 -6.517195 0.542283 1.306249 -0.395924
    25 9.913785 -0.000002 0.000002 1.681689 0.122272 -1.940167
    26 21.016018 0.000002 0.000000 0.000000 0.000000 -2.075886
    27 28.471636 -0.000006 0.000001 0.000000 0.000000 2.549029
    28 13.389688 0.268267 6.023557 -0.462585 -1.348926 -0.488759
    29 9.768896 0.000001 -0.000002 -0.746744 -0.403850 -2.100760
    30 19.931139 -0.000001 0.000000 0.000000 0.000000 -1.983503
    31 26.044121 0.000003 -0.000001 0.000000 0.000000 2.828346
    32 -5.849912 4.319725 0.063164 0.698001 -0.805230 1.067586
    33 -5.827132 4.411092 0.063164 -0.445964 0.721248 1.250945
    34 13.389692 0.268266 6.023556 -0.462585 -1.348926 -0.488759
    35 0.000000 0.077740 0.000001 1.570796 0.000000 -1.570796
  time 33
    0 1.737405 1.526386 24.721458 1.570796 -0.496379 1.570720
    1 -5.577778 -0.123185 0.054231 0.000000 0.000000 -0.212930
    2 -5.512519 -2.697433 -3.989360 0.393304 -0.165984 -0.903143
    3 10.569402 -0.000001 0.000000 0.000000 0.000000 -2.401411
    4 13.357939 0.000000 0.000000 0.000000 0.000000 2.790894
    5 -5.435715 -2.622672 3.516682 2.761840 0.146246 -0.922226
    6 10.523519 0.000000 0.000000 0.000000 0.000000 2.412018
    7 13.611946 0.000001 0.000000 0.000000 0.000000 -2.810338
    8 -8.416649 1.073515 -0.018171 0.000000 0.000000 0.172788
    9 -9.984112 -4.710448 3.170796 -2.902516 -0.005451 -2.718124
    10 5.945618 0.000001 -0.000001 0.000000 0.000000 0.734118
    11 -9.984110 -4.710446 -2.998739 -0.223381 0.004015 -2.698290
    12 5.945625 -0.000001 0.000000 0.000000 0.000000 -0.752785
    13 -13.167568 0.616876 1.590356 3.140739 -0.157522 -3.136150
    14 1.939788 0.000000 0.000000 3.040688 0.121169 2.449692
    15 -13.157713 0.632509 -1.795553 1.570796 0.016921 -3.058550
    16 2.215696 0.000000 -0.000001 1.570796 -0.608107 -3.124672
    17 -2.622040 -6.273479 8.263164 -2.817689 0.262436 -1.357001
    18 11.485749 0.000000 0.000000 0.000000 0.000000 -2.159016
    19 24.536900 0.000000 -0.000001 0.000000 0.000000 2.897771
    20 -2.622039 -6.273478 -8.136835 -0.235180 -0.180844 -1.659144
    21 11.659969 0.000000 0.000000 0.000000 0.000000 2.253809
    22 25.724377 0.000002 -0.000001 0.000000 0.000000 -2.987140
    23 3.880158 -0.980431 0.090609 0.000000 0.000000 0.402046
    24 13.389692 0.268267 -6.517195 0.542283 1.306249 -0.395924
    25 9.913785 -0.000002 0.000002 1.697579 0.082630 -1.926190
    26 21.016018 0.000002 0.000000 0.000000 0.000000 -2.075093
    27 28.471636 -0.000006 0.000001 0.000000 0.000000 2.547238
    28 13.389688 0.268267 6.023557 -0.462585 -1.348926 -0.488759
    29 9.768896 0.000001 -0.000002 -1.029094 -0.321649 -2.002938
    30 19.931139 -0.000001 0.000000 0.000000 0.000000 -1.974977
    31 26.044121 0.000003 -0.000001 0.000000 0.000000 2.764192
    32 -5.849912 4.319725 0.063164 0.697949 -0.805173 1.065886
    33 -5.827132 4.411092 0.063164 -0.445990 0.721276 1.251426
    34 13.389692 0.268266 6.023556 -0.462585 -1.348926 -0.488759
    35 0.000000 0.077740 0.000001 1.570796 0.000000 -1.570796
end
