// Created by Crowbar 0.62
version 1
nodes
  0 "Antlion.Body_Bone" -1
  1 "Antlion.Chest_Bone" 0
  2 "Antlion.ArmR1_Bone" 1
  3 "Antlion.ArmR2_Bone" 2
  4 "Antlion.ArmR3_Bone" 3
  5 "Antlion.ArmL1_Bone" 1
  6 "Antlion.ArmL2_Bone" 5
  7 "Antlion.ArmL3_Bone" 6
  8 "Antlion.Head_Bone" 1
  9 "Antlion.FangBottomL1_Bone" 8
  10 "Antlion.FangBottomL2_Bone" 9
  11 "Antlion.FangBottomR1_Bone" 8
  12 "Antlion.FangBottomR2_Bone" 11
  13 "Antlion.FangTopL1_Bone" 8
  14 "Antlion.FangTopL2_Bone" 13
  15 "Antlion.FangTopR1_Bone" 8
  16 "Antlion.FangTopR2_Bone" 15
  17 "Antlion.LegMidL1_Bone" 0
  18 "Antlion.LegMidL2_Bone" 17
  19 "Antlion.LegMidL3_Bone" 18
  20 "Antlion.LegMidR1_Bone" 0
  21 "Antlion.LegMidR2_Bone" 20
  22 "Antlion.LegMidR3_Bone" 21
  23 "Antlion.Back_Bone" 0
  24 "Antlion.LegShoulder_R_Bone" 23
  25 "Antlion.LegL1_Bone" 24
  26 "Antlion.LegL2_Bone" 25
  27 "Antlion.LegL3_Bone" 26
  28 "Antlion.LegShoulder_L_Bone" 23
  29 "Antlion.LegR1_Bone" 28
  30 "Antlion.LegR2_Bone" 29
  31 "Antlion.LegR3_Bone" 30
  32 "Antlion.WingL_Bone" 0
  33 "Antlion.WingR_Bone" 0
  34 "Antlion.bone" 23
  35 "MAXSceneRoot.AntLionMesh" -1
end
skeleton
  time 0
    0 -0.059525 1.526386 38.348965 1.570796 -0.502963 1.570720
    1 -5.577777 -0.123187 0.054231 0.000000 0.000000 -0.212931
    2 -5.512521 -2.697433 -3.989360 0.393288 -0.166016 -0.903048
    3 10.569404 0.000000 -0.000001 0.000000 0.000000 -2.401349
    4 13.357937 0.000001 0.000000 0.000000 0.000000 2.790894
    5 -5.435716 -2.622672 3.516682 2.761840 0.146246 -0.922226
    6 10.523520 0.000001 0.000000 0.000000 0.000000 2.411965
    7 13.611951 -0.000001 0.000000 0.000000 0.000000 -2.810338
    8 -8.416650 1.073516 -0.018171 0.000000 0.000000 0.172788
    9 -9.984111 -4.710446 3.170796 -2.902516 -0.005451 -2.718124
    10 5.945616 -0.000002 0.000000 0.000000 0.000000 0.734118
    11 -9.984111 -4.710443 -2.998739 -0.223381 0.004015 -2.698290
    12 5.945623 -0.000001 0.000000 0.000000 0.000000 -0.752785
    13 -13.167565 0.616876 1.590356 3.140739 -0.157523 -3.136150
    14 1.939788 0.000000 0.000000 3.040688 0.121169 2.449692
    15 -13.157713 0.632509 -1.795553 1.570797 0.016920 -3.058550
    16 2.215698 0.000000 0.000002 1.570796 -0.608107 -3.124672
    17 -2.622039 -6.273480 8.263164 -2.839545 0.265046 -1.474626
    18 11.485746 0.000000 0.000000 0.000000 0.000000 -2.131368
    19 24.536901 -0.000002 0.000000 0.000000 0.000000 2.832527
    20 -2.622038 -6.273479 -8.136834 -0.253076 -0.183444 -1.778861
    21 11.659970 0.000002 0.000000 0.000000 0.000000 2.216725
    22 25.724375 0.000000 -0.000001 0.000000 0.000000 -2.902527
    23 3.880159 -0.980432 0.090609 0.000000 0.000000 0.377042
    24 13.389691 0.268267 -6.517195 0.542283 1.306249 -0.395924
    25 9.913785 0.000002 0.000001 1.699565 0.058624 -1.927301
    26 21.016018 0.000001 -0.000001 0.000000 0.000000 -2.087496
    27 28.471632 -0.000001 0.000000 0.000000 0.000000 2.575967
    28 13.389687 0.268268 6.023557 -0.462585 -1.348926 -0.488759
    29 9.768898 0.000004 -0.000002 -1.219145 -0.238330 -1.940141
    30 19.931143 -0.000001 0.000001 0.000000 0.000000 -1.962346
    31 26.044125 0.000000 -0.000001 0.000000 0.000000 2.704648
    32 -5.849912 4.319726 0.063164 0.697884 -0.805116 1.065338
    33 -5.827132 4.411091 0.063164 -0.446002 0.721332 1.251212
    34 13.389688 0.268266 6.023556 -0.462585 -1.348926 -0.488759
    35 -1.823856 33.886020 0.000001 1.570796 0.000000 -1.570796
  time 1
    0 -0.157184 1.526386 38.348965 1.570796 -0.495799 1.570720
    1 -5.577777 -0.123187 0.054231 0.000000 0.000000 -0.212931
    2 -5.512521 -2.697433 -3.989360 0.393288 -0.166016 -0.903048
    3 10.569404 0.000000 -0.000001 0.000000 0.000000 -2.401349
    4 13.357937 0.000001 0.000000 0.000000 0.000000 2.790894
    5 -5.435716 -2.622672 3.516682 2.761840 0.146246 -0.922226
    6 10.523520 0.000001 0.000000 0.000000 0.000000 2.411965
    7 13.611951 -0.000001 0.000000 0.000000 0.000000 -2.810338
    8 -8.416650 1.073516 -0.018171 0.000000 0.000000 0.172788
    9 -9.984111 -4.710446 3.170796 -2.902516 -0.005451 -2.718124
    10 5.945616 -0.000002 0.000000 0.000000 0.000000 0.734118
    11 -9.984111 -4.710443 -2.998739 -0.223381 0.004015 -2.698290
    12 5.945623 -0.000001 0.000000 0.000000 0.000000 -0.752785
    13 -13.167565 0.616876 1.590356 3.140739 -0.157523 -3.136150
    14 1.939788 0.000000 0.000000 3.040688 0.121169 2.449692
    15 -13.157713 0.632509 -1.795553 1.570797 0.016920 -3.058550
    16 2.215698 0.000000 0.000002 1.570796 -0.608107 -3.124672
    17 -2.622039 -6.273480 8.263164 -2.848173 0.260862 -1.530120
    18 11.485746 0.000000 0.000000 0.000000 0.000000 -2.111758
    19 24.536901 -0.000002 0.000000 0.000000 0.000000 2.788939
    20 -2.622038 -6.273479 -8.136834 -0.246664 -0.189925 -1.837656
    21 11.659970 0.000002 0.000000 0.000000 0.000000 2.190561
    22 25.724375 0.000000 -0.000001 0.000000 0.000000 -2.847485
    23 3.880159 -0.980432 0.090609 0.000000 0.000000 0.368403
    24 13.389691 0.268267 -6.517195 0.542283 1.306249 -0.395924
    25 9.913785 0.000002 0.000001 1.731438 0.047335 -1.938964
    26 21.016018 0.000001 -0.000001 0.000000 0.000000 -2.103354
    27 28.471632 -0.000001 0.000000 0.000000 0.000000 2.614486
    28 13.389687 0.268268 6.023557 -0.462585 -1.348926 -0.488759
    29 9.768898 0.000004 -0.000002 -1.250517 -0.179061 -1.919336
    30 19.931143 -0.000001 0.000001 0.000000 0.000000 -1.952274
    31 26.044125 0.000000 -0.000001 0.000000 0.000000 2.663671
    32 -5.849912 4.319726 0.063164 0.698145 -0.805401 1.065009
    33 -5.827132 4.411091 0.063164 -0.445926 0.721136 1.250678
    34 13.389688 0.268266 6.023556 -0.462585 -1.348926 -0.488759
    35 -1.823856 33.886020 0.000001 1.570796 0.000000 -1.570796
  time 2
    0 -0.235312 1.526386 38.348965 1.570796 -0.489532 1.570720
    1 -5.577777 -0.123187 0.054231 0.000000 0.000000 -0.212931
    2 -5.512521 -2.697433 -3.989360 0.393288 -0.166016 -0.903048
    3 10.569404 0.000000 -0.000001 0.000000 0.000000 -2.401349
    4 13.357937 0.000001 0.000000 0.000000 0.000000 2.790894
    5 -5.435716 -2.622672 3.516682 2.761840 0.146246 -0.922226
    6 10.523520 0.000001 0.000000 0.000000 0.000000 2.411965
    7 13.611951 -0.000001 0.000000 0.000000 0.000000 -2.810338
    8 -8.416650 1.073516 -0.018171 0.000000 0.000000 0.172788
    9 -9.984111 -4.710446 3.170796 -2.902516 -0.005451 -2.718124
    10 5.945616 -0.000002 0.000000 0.000000 0.000000 0.734118
    11 -9.984111 -4.710443 -2.998739 -0.223381 0.004015 -2.698290
    12 5.945623 -0.000001 0.000000 0.000000 0.000000 -0.752785
    13 -13.167565 0.616876 1.590356 3.140739 -0.157523 -3.136150
    14 1.939788 0.000000 0.000000 3.040688 0.121169 2.449692
    15 -13.157713 0.632509 -1.795553 1.570797 0.016920 -3.058550
    16 2.215698 0.000000 0.000002 1.570796 -0.608107 -3.124672
    17 -2.622039 -6.273480 8.263164 -2.849994 0.257787 -1.555581
    18 11.485746 0.000000 0.000000 0.000000 0.000000 -2.100698
    19 24.536901 -0.000002 0.000000 0.000000 0.000000 2.764793
    20 -2.622038 -6.273479 -8.136834 -0.241879 -0.193887 -1.871455
    21 11.659970 0.000002 0.000000 0.000000 0.000000 2.171967
    22 25.724375 0.000000 -0.000001 0.000000 0.000000 -2.810253
    23 3.880159 -0.980432 0.090609 0.000000 0.000000 0.360859
    24 13.389691 0.268267 -6.517195 0.542283 1.306249 -0.395924
    25 9.913785 0.000002 0.000001 1.758015 0.042080 -1.946184
    26 21.016018 0.000001 -0.000001 0.000000 0.000000 -2.114398
    27 28.471632 -0.000001 0.000000 0.000000 0.000000 2.641615
    28 13.389687 0.268268 6.023557 -0.462585 -1.348926 -0.488759
    29 9.768898 0.000004 -0.000002 -1.247074 -0.147192 -1.915136
    30 19.931143 -0.000001 0.000001 0.000000 0.000000 -1.947212
    31 26.044125 0.000000 -0.000001 0.000000 0.000000 2.644591
    32 -5.849912 4.319726 0.063164 0.699044 -0.806425 1.063364
    33 -5.827132 4.411091 0.063164 -0.445695 0.720575 1.250518
    34 13.389688 0.268266 6.023556 -0.462585 -1.348926 -0.488759
    35 -1.823856 33.886020 0.000001 1.570796 0.000000 -1.570796
  time 3
    0 -0.290001 1.526386 38.348965 1.570796 -0.484370 1.570720
    1 -5.577777 -0.123187 0.054231 0.000000 0.000000 -0.212931
    2 -5.512521 -2.697433 -3.989360 0.393288 -0.166016 -0.903048
    3 10.569404 0.000000 -0.000001 0.000000 0.000000 -2.401349
    4 13.357937 0.000001 0.000000 0.000000 0.000000 2.790894
    5 -5.435716 -2.622672 3.516682 2.761840 0.146246 -0.922226
    6 10.523520 0.000001 0.000000 0.000000 0.000000 2.411965
    7 13.611951 -0.000001 0.000000 0.000000 0.000000 -2.810338
    8 -8.416650 1.073516 -0.018171 0.000000 0.000000 0.172788
    9 -9.984111 -4.710446 3.170796 -2.902516 -0.005451 -2.718124
    10 5.945616 -0.000002 0.000000 0.000000 0.000000 0.734118
    11 -9.984111 -4.710443 -2.998739 -0.223381 0.004015 -2.698290
    12 5.945623 -0.000001 0.000000 0.000000 0.000000 -0.752785
    13 -13.167565 0.616876 1.590356 3.140739 -0.157523 -3.136150
    14 1.939788 0.000000 0.000000 3.040688 0.121169 2.449692
    15 -13.157713 0.632509 -1.795553 1.570797 0.016920 -3.058550
    16 2.215698 0.000000 0.000002 1.570796 -0.608107 -3.124672
    17 -2.622039 -6.273480 8.263164 -2.847694 0.255713 -1.558356
    18 11.485746 0.000000 0.000000 0.000000 0.000000 -2.097392
    19 24.536901 -0.000002 0.000000 0.000000 0.000000 2.757736
    20 -2.622038 -6.273479 -8.136834 -0.239200 -0.196446 -1.887942
    21 11.659970 0.000002 0.000000 0.000000 0.000000 2.161100
    22 25.724375 0.000000 -0.000001 0.000000 0.000000 -2.788545
    23 3.880159 -0.980432 0.090609 0.000000 0.000000 0.354410
    24 13.389691 0.268267 -6.517195 0.542283 1.306249 -0.395924
    25 9.913785 0.000002 0.000001 1.769554 0.042339 -1.949517
    26 21.016018 0.000001 -0.000001 0.000000 0.000000 -2.121307
    27 28.471632 -0.000001 0.000000 0.000000 0.000000 2.659083
    28 13.389687 0.268268 6.023557 -0.462585 -1.348926 -0.488759
    29 9.768898 0.000004 -0.000002 -1.232057 -0.130831 -1.917809
    30 19.931143 -0.000001 0.000001 0.000000 0.000000 -1.945506
    31 26.044125 0.000000 -0.000001 0.000000 0.000000 2.638189
    32 -5.849912 4.319726 0.063164 0.700413 -0.807990 1.060787
    33 -5.827132 4.411091 0.063164 -0.445324 0.719707 1.250572
    34 13.389688 0.268266 6.023556 -0.462585 -1.348926 -0.488759
    35 -1.823856 33.886020 0.000001 1.570796 0.000000 -1.570796
  time 4
    0 -0.325158 1.526386 38.348965 1.570796 -0.480577 1.570720
    1 -5.577777 -0.123187 0.054231 0.000000 0.000000 -0.212931
    2 -5.512521 -2.697433 -3.989360 0.393288 -0.166016 -0.903048
    3 10.569404 0.000000 -0.000001 0.000000 0.000000 -2.401349
    4 13.357937 0.000001 0.000000 0.000000 0.000000 2.790894
    5 -5.435716 -2.622672 3.516682 2.761840 0.146246 -0.922226
    6 10.523520 0.000001 0.000000 0.000000 0.000000 2.411965
    7 13.611951 -0.000001 0.000000 0.000000 0.000000 -2.810338
    8 -8.416650 1.073516 -0.018171 0.000000 0.000000 0.172788
    9 -9.984111 -4.710446 3.170796 -2.902516 -0.005451 -2.718124
    10 5.945616 -0.000002 0.000000 0.000000 0.000000 0.734118
    11 -9.984111 -4.710443 -2.998739 -0.223381 0.004015 -2.698290
    12 5.945623 -0.000001 0.000000 0.000000 0.000000 -0.752785
    13 -13.167565 0.616876 1.590356 3.140739 -0.157523 -3.136150
    14 1.939788 0.000000 0.000000 3.040688 0.121169 2.449692
    15 -13.157713 0.632509 -1.795553 1.570797 0.016920 -3.058550
    16 2.215698 0.000000 0.000002 1.570796 -0.608107 -3.124672
    17 -2.622039 -6.273480 8.263164 -2.842421 0.254355 -1.543068
    18 11.485746 0.000000 0.000000 0.000000 0.000000 -2.100984
    19 24.536901 -0.000002 0.000000 0.000000 0.000000 2.765416
    20 -2.622038 -6.273479 -8.136834 -0.238338 -0.198098 -1.891073
    21 11.659970 0.000002 0.000000 0.000000 0.000000 2.157134
    22 25.724375 0.000000 -0.000001 0.000000 0.000000 -2.780749
    23 3.880159 -0.980432 0.090609 0.000000 0.000000 0.349117
    24 13.389691 0.268267 -6.517195 0.542283 1.306249 -0.395924
    25 9.913785 0.000002 0.000001 1.770027 0.047140 -1.950165
    26 21.016018 0.000001 -0.000001 0.000000 0.000000 -2.124818
    27 28.471632 -0.000001 0.000000 0.000000 0.000000 2.668169
    28 13.389687 0.268268 6.023557 -0.462585 -1.348926 -0.488759
    29 9.768898 0.000004 -0.000002 -1.215415 -0.118017 -1.920958
    30 19.931143 -0.000001 0.000001 0.000000 0.000000 -1.944600
    31 26.044125 0.000000 -0.000001 0.000000 0.000000 2.634923
    32 -5.849912 4.319726 0.063164 0.702081 -0.809869 1.057497
    33 -5.827132 4.411091 0.063164 -0.444888 0.718670 1.250839
    34 13.389688 0.268266 6.023556 -0.462585 -1.348926 -0.488759
    35 -1.823856 33.886020 0.000001 1.570796 0.000000 -1.570796
  time 5
    0 -0.348596 1.526386 38.348965 1.570796 -0.478418 1.570720
    1 -5.577777 -0.123187 0.054231 0.000000 0.000000 -0.212931
    2 -5.512521 -2.697433 -3.989360 0.393288 -0.166016 -0.903048
    3 10.569404 0.000000 -0.000001 0.000000 0.000000 -2.401349
    4 13.357937 0.000001 0.000000 0.000000 0.000000 2.790894
    5 -5.435716 -2.622672 3.516682 2.761840 0.146246 -0.922226
    6 10.523520 0.000001 0.000000 0.000000 0.000000 2.411965
    7 13.611951 -0.000001 0.000000 0.000000 0.000000 -2.810338
    8 -8.416650 1.073516 -0.018171 0.000000 0.000000 0.172788
    9 -9.984111 -4.710446 3.170796 -2.902516 -0.005451 -2.718124
    10 5.945616 -0.000002 0.000000 0.000000 0.000000 0.734118
    11 -9.984111 -4.710443 -2.998739 -0.223381 0.004015 -2.698290
    12 5.945623 -0.000001 0.000000 0.000000 0.000000 -0.752785
    13 -13.167565 0.616876 1.590356 3.140739 -0.157523 -3.136150
    14 1.939788 0.000000 0.000000 3.040688 0.121169 2.449692
    15 -13.157713 0.632509 -1.795553 1.570797 0.016920 -3.058550
    16 2.215698 0.000000 0.000002 1.570796 -0.608107 -3.124672
    17 -2.622039 -6.273480 8.263164 -2.834561 0.253389 -1.512601
    18 11.485746 0.000000 0.000000 0.000000 0.000000 -2.110105
    19 24.536901 -0.000002 0.000000 0.000000 0.000000 2.785341
    20 -2.622038 -6.273479 -8.136834 -0.238912 -0.199088 -1.883332
    21 11.659970 0.000002 0.000000 0.000000 0.000000 2.159503
    22 25.724375 0.000000 -0.000001 0.000000 0.000000 -2.785387
    23 3.880159 -0.980432 0.090609 0.000000 0.000000 0.344980
    24 13.389691 0.268267 -6.517195 0.542283 1.306249 -0.395924
    25 9.913785 0.000002 0.000001 1.762461 0.055445 -1.948684
    26 21.016018 0.000001 -0.000001 0.000000 0.000000 -2.125328
    27 28.471632 -0.000001 0.000000 0.000000 0.000000 2.669513
    28 13.389687 0.268268 6.023557 -0.462585 -1.348926 -0.488759
    29 9.768898 0.000004 -0.000002 -1.203746 -0.114403 -1.924012
    30 19.931143 -0.000001 0.000001 0.000000 0.000000 -1.945560
    31 26.044125 0.000000 -0.000001 0.000000 0.000000 2.638381
    32 -5.849912 4.319726 0.063164 0.703919 -0.811946 1.053824
    33 -5.827132 4.411091 0.063164 -0.444414 0.717521 1.251266
    34 13.389688 0.268266 6.023556 -0.462585 -1.348926 -0.488759
    35 -1.823856 33.886020 0.000001 1.570796 0.000000 -1.570796
  time 6
    0 -0.352503 1.526386 38.348965 1.570796 -0.478102 1.570720
    1 -5.577777 -0.123187 0.054231 0.000000 0.000000 -0.212931
    2 -5.512521 -2.697433 -3.989360 0.393288 -0.166016 -0.903048
    3 10.569404 0.000000 -0.000001 0.000000 0.000000 -2.401349
    4 13.357937 0.000001 0.000000 0.000000 0.000000 2.790894
    5 -5.435716 -2.622672 3.516682 2.761840 0.146246 -0.922226
    6 10.523520 0.000001 0.000000 0.000000 0.000000 2.411965
    7 13.611951 -0.000001 0.000000 0.000000 0.000000 -2.810338
    8 -8.416650 1.073516 -0.018171 0.000000 0.000000 0.172788
    9 -9.984111 -4.710446 3.170796 -2.902516 -0.005451 -2.718124
    10 5.945616 -0.000002 0.000000 0.000000 0.000000 0.734118
    11 -9.984111 -4.710443 -2.998739 -0.223381 0.004015 -2.698290
    12 5.945623 -0.000001 0.000000 0.000000 0.000000 -0.752785
    13 -13.167565 0.616876 1.590356 3.140739 -0.157523 -3.136150
    14 1.939788 0.000000 0.000000 3.040688 0.121169 2.449692
    15 -13.157713 0.632509 -1.795553 1.570797 0.016920 -3.058550
    16 2.215698 0.000000 0.000002 1.570796 -0.608107 -3.124672
    17 -2.622039 -6.273480 8.263164 -2.824207 0.252531 -1.468913
    18 11.485746 0.000000 0.000000 0.000000 0.000000 -2.123501
    19 24.536901 -0.000002 0.000000 0.000000 0.000000 2.815161
    20 -2.622038 -6.273479 -8.136834 -0.240635 -0.199377 -1.865901
    21 11.659970 0.000002 0.000000 0.000000 0.000000 2.167486
    22 25.724375 0.000000 -0.000001 0.000000 0.000000 -2.801382
    23 3.880159 -0.980432 0.090609 0.000000 0.000000 0.341999
    24 13.389691 0.268267 -6.517195 0.542283 1.306249 -0.395924
    25 9.913785 0.000002 0.000001 1.750260 0.065501 -1.945629
    26 21.016018 0.000001 -0.000001 0.000000 0.000000 -2.123233
    27 28.471632 -0.000001 0.000000 0.000000 0.000000 2.664074
    28 13.389687 0.268268 6.023557 -0.462585 -1.348926 -0.488759
    29 9.768898 0.000004 -0.000002 -1.194372 -0.130108 -1.930406
    30 19.931143 -0.000001 0.000001 0.000000 0.000000 -1.950143
    31 26.044125 0.000000 -0.000001 0.000000 0.000000 2.655540
    32 -5.849912 4.319726 0.063164 0.705743 -0.813967 1.050095
    33 -5.827132 4.411091 0.063164 -0.443940 0.716372 1.251693
    34 13.389688 0.268266 6.023556 -0.462585 -1.348926 -0.488759
    35 -1.823856 33.886020 0.000001 1.570796 0.000000 -1.570796
  time 7
    0 -0.348596 1.526386 38.348965 1.570796 -0.479893 1.570720
    1 -5.577777 -0.123187 0.054231 0.000000 0.000000 -0.212931
    2 -5.512521 -2.697433 -3.989360 0.393288 -0.166016 -0.903048
    3 10.569404 0.000000 -0.000001 0.000000 0.000000 -2.401349
    4 13.357937 0.000001 0.000000 0.000000 0.000000 2.790894
    5 -5.435716 -2.622672 3.516682 2.761840 0.146246 -0.922226
    6 10.523520 0.000001 0.000000 0.000000 0.000000 2.411965
    7 13.611951 -0.000001 0.000000 0.000000 0.000000 -2.810338
    8 -8.416650 1.073516 -0.018171 0.000000 0.000000 0.172788
    9 -9.984111 -4.710446 3.170796 -2.902516 -0.005451 -2.718124
    10 5.945616 -0.000002 0.000000 0.000000 0.000000 0.734118
    11 -9.984111 -4.710443 -2.998739 -0.223381 0.004015 -2.698290
    12 5.945623 -0.000001 0.000000 0.000000 0.000000 -0.752785
    13 -13.167565 0.616876 1.590356 3.140739 -0.157523 -3.136150
    14 1.939788 0.000000 0.000000 3.040688 0.121169 2.449692
    15 -13.157713 0.632509 -1.795553 1.570797 0.016920 -3.058550
    16 2.215698 0.000000 0.000002 1.570796 -0.608107 -3.124672
    17 -2.622039 -6.273480 8.263164 -2.811170 0.251458 -1.413909
    18 11.485746 0.000000 0.000000 0.000000 0.000000 -2.140147
    19 24.536901 -0.000002 0.000000 0.000000 0.000000 2.852246
    20 -2.622038 -6.273479 -8.136834 -0.242932 -0.198964 -1.839192
    21 11.659970 0.000002 0.000000 0.000000 0.000000 2.180569
    22 25.724375 0.000000 -0.000001 0.000000 0.000000 -2.827525
    23 3.880159 -0.980432 0.090609 0.000000 0.000000 0.340113
    24 13.389691 0.268267 -6.517195 0.542283 1.306249 -0.395924
    25 9.913785 0.000002 0.000001 1.737586 0.076531 -1.941556
    26 21.016018 0.000001 -0.000001 0.000000 0.000000 -2.118758
    27 28.471632 -0.000001 0.000000 0.000000 0.000000 2.652621
    28 13.389687 0.268268 6.023557 -0.462585 -1.348926 -0.488759
    29 9.768898 0.000004 -0.000002 -1.180121 -0.160465 -1.940332
    30 19.931143 -0.000001 0.000001 0.000000 0.000000 -1.956857
    31 26.044125 0.000000 -0.000001 0.000000 0.000000 2.681854
    32 -5.849912 4.319726 0.063164 0.707398 -0.815788 1.046641
    33 -5.827132 4.411091 0.063164 -0.443518 0.715363 1.252173
    34 13.389688 0.268266 6.023556 -0.462585 -1.348926 -0.488759
    35 -1.823856 33.886020 0.000001 1.570796 0.000000 -1.570796
  time 8
    0 -0.332971 1.526386 38.348965 1.570796 -0.484054 1.570720
    1 -5.577777 -0.123187 0.054231 0.000000 0.000000 -0.212931
    2 -5.512521 -2.697433 -3.989360 0.393288 -0.166016 -0.903048
    3 10.569404 0.000000 -0.000001 0.000000 0.000000 -2.401349
    4 13.357937 0.000001 0.000000 0.000000 0.000000 2.790894
    5 -5.435716 -2.622672 3.516682 2.761840 0.146246 -0.922226
    6 10.523520 0.000001 0.000000 0.000000 0.000000 2.411965
    7 13.611951 -0.000001 0.000000 0.000000 0.000000 -2.810338
    8 -8.416650 1.073516 -0.018171 0.000000 0.000000 0.172788
    9 -9.984111 -4.710446 3.170796 -2.902516 -0.005451 -2.718124
    10 5.945616 -0.000002 0.000000 0.000000 0.000000 0.734118
    11 -9.984111 -4.710443 -2.998739 -0.223381 0.004015 -2.698290
    12 5.945623 -0.000001 0.000000 0.000000 0.000000 -0.752785
    13 -13.167565 0.616876 1.590356 3.140739 -0.157523 -3.136150
    14 1.939788 0.000000 0.000000 3.040688 0.121169 2.449692
    15 -13.157713 0.632509 -1.795553 1.570797 0.016920 -3.058550
    16 2.215698 0.000000 0.000002 1.570796 -0.608107 -3.124672
    17 -2.622039 -6.273480 8.263164 -2.798133 0.250099 -1.360048
    18 11.485746 0.000000 0.000000 0.000000 0.000000 -2.155026
    19 24.536901 -0.000002 0.000000 0.000000 0.000000 2.887877
    20 -2.622038 -6.273479 -8.136834 -0.245324 -0.197685 -1.802911
    21 11.659970 0.000002 0.000000 0.000000 0.000000 2.197977
    22 25.724375 0.000000 -0.000001 0.000000 0.000000 -2.863077
    23 3.880159 -0.980432 0.090609 0.000000 0.000000 0.339444
    24 13.389691 0.268267 -6.517195 0.542283 1.306249 -0.395924
    25 9.913785 0.000002 0.000001 1.730020 0.087561 -1.937020
    26 21.016018 0.000001 -0.000001 0.000000 0.000000 -2.112302
    27 28.471632 -0.000001 0.000000 0.000000 0.000000 2.636432
    28 13.389687 0.268268 6.023557 -0.462585 -1.348926 -0.488759
    29 9.768898 0.000004 -0.000002 -1.152096 -0.200219 -1.954552
    30 19.931143 -0.000001 0.000001 0.000000 0.000000 -1.964212
    31 26.044125 0.000000 -0.000001 0.000000 0.000000 2.712779
    32 -5.849912 4.319726 0.063164 0.708715 -0.817240 1.043790
    33 -5.827132 4.411091 0.063164 -0.443185 0.714550 1.252600
    34 13.389688 0.268266 6.023556 -0.462585 -1.348926 -0.488759
    35 -1.823856 33.886020 0.000001 1.570796 0.000000 -1.570796
  time 9
    0 -0.305626 1.526386 38.348965 1.570796 -0.490796 1.570720
    1 -5.577777 -0.123187 0.054231 0.000000 0.000000 -0.212931
    2 -5.512521 -2.697433 -3.989360 0.393288 -0.166016 -0.903048
    3 10.569404 0.000000 -0.000001 0.000000 0.000000 -2.401349
    4 13.357937 0.000001 0.000000 0.000000 0.000000 2.790894
    5 -5.435716 -2.622672 3.516682 2.761840 0.146246 -0.922226
    6 10.523520 0.000001 0.000000 0.000000 0.000000 2.411965
    7 13.611951 -0.000001 0.000000 0.000000 0.000000 -2.810338
    8 -8.416650 1.073516 -0.018171 0.000000 0.000000 0.172788
    9 -9.984111 -4.710446 3.170796 -2.902516 -0.005451 -2.718124
    10 5.945616 -0.000002 0.000000 0.000000 0.000000 0.734118
    11 -9.984111 -4.710443 -2.998739 -0.223381 0.004015 -2.698290
    12 5.945623 -0.000001 0.000000 0.000000 0.000000 -0.752785
    13 -13.167565 0.616876 1.590356 3.140739 -0.157523 -3.136150
    14 1.939788 0.000000 0.000000 3.040688 0.121169 2.449692
    15 -13.157713 0.632509 -1.795553 1.570797 0.016920 -3.058550
    16 2.215698 0.000000 0.000002 1.570796 -0.608107 -3.124672
    17 -2.622039 -6.273480 8.263164 -2.788355 0.249241 -1.321800
    18 11.485746 0.000000 0.000000 0.000000 0.000000 -2.165914
    19 24.536901 -0.000002 0.000000 0.000000 0.000000 2.914722
    20 -2.622038 -6.273479 -8.136834 -0.246760 -0.195415 -1.755757
    21 11.659970 0.000002 0.000000 0.000000 0.000000 2.218888
    22 25.724375 0.000000 -0.000001 0.000000 0.000000 -2.907097
    23 3.880159 -0.980432 0.090609 0.000000 0.000000 0.339931
    24 13.389691 0.268267 -6.517195 0.542283 1.306249 -0.395924
    25 9.913785 0.000002 0.000001 1.734181 0.098136 -1.933132
    26 21.016018 0.000001 -0.000001 0.000000 0.000000 -2.104373
    27 28.471632 -0.000001 0.000000 0.000000 0.000000 2.616981
    28 13.389687 0.268268 6.023557 -0.462585 -1.348926 -0.488759
    29 9.768898 0.000004 -0.000002 -1.102934 -0.243587 -1.973925
    30 19.931143 -0.000001 0.000001 0.000000 0.000000 -1.970926
    31 26.044125 0.000000 -0.000001 0.000000 0.000000 2.744024
    32 -5.849912 4.319726 0.063164 0.709510 -0.818122 1.041871
    33 -5.827132 4.411091 0.063164 -0.442980 0.714074 1.252920
    34 13.389688 0.268266 6.023556 -0.462585 -1.348926 -0.488759
    35 -1.823856 33.886020 0.000001 1.570796 0.000000 -1.570796
  time 10
    0 -0.274375 1.526386 38.348965 1.570796 -0.500382 1.570720
    1 -5.577777 -0.123187 0.054231 0.000000 0.000000 -0.212931
    2 -5.512521 -2.697433 -3.989360 0.393288 -0.166016 -0.903048
    3 10.569404 0.000000 -0.000001 0.000000 0.000000 -2.401349
    4 13.357937 0.000001 0.000000 0.000000 0.000000 2.790894
    5 -5.435716 -2.622672 3.516682 2.761840 0.146246 -0.922226
    6 10.523520 0.000001 0.000000 0.000000 0.000000 2.411965
    7 13.611951 -0.000001 0.000000 0.000000 0.000000 -2.810338
    8 -8.416650 1.073516 -0.018171 0.000000 0.000000 0.172788
    9 -9.984111 -4.710446 3.170796 -2.902516 -0.005451 -2.718124
    10 5.945616 -0.000002 0.000000 0.000000 0.000000 0.734118
    11 -9.984111 -4.710443 -2.998739 -0.223381 0.004015 -2.698290
    12 5.945623 -0.000001 0.000000 0.000000 0.000000 -0.752785
    13 -13.167565 0.616876 1.590356 3.140739 -0.157523 -3.136150
    14 1.939788 0.000000 0.000000 3.040688 0.121169 2.449692
    15 -13.157713 0.632509 -1.795553 1.570797 0.016920 -3.058550
    16 2.215698 0.000000 0.000002 1.570796 -0.608107 -3.124672
    17 -2.622039 -6.273480 8.263164 -2.782987 0.249170 -1.301616
    18 11.485746 0.000000 0.000000 0.000000 0.000000 -2.172983
    19 24.536901 -0.000002 0.000000 0.000000 0.000000 2.932849
    20 -2.622038 -6.273479 -8.136834 -0.248961 -0.192443 -1.706003
    21 11.659970 0.000002 0.000000 0.000000 0.000000 2.238512
    22 25.724375 0.000000 -0.000001 0.000000 0.000000 -2.950311
    23 3.880159 -0.980432 0.090609 0.000000 0.000000 0.341573
    24 13.389691 0.268267 -6.517195 0.542283 1.306249 -0.395924
    25 9.913785 0.000002 0.000001 1.732195 0.107414 -1.929800
    26 21.016018 0.000001 -0.000001 0.000000 0.000000 -2.096048
    27 28.471632 -0.000001 0.000000 0.000000 0.000000 2.595994
    28 13.389687 0.268268 6.023557 -0.462585 -1.348926 -0.488759
    29 9.768898 0.000004 -0.000002 -1.034259 -0.284260 -1.998070
    30 19.931143 -0.000001 0.000001 0.000000 0.000000 -1.975989
    31 26.044125 0.000000 -0.000001 0.000000 0.000000 2.771491
    32 -5.849912 4.319726 0.063164 0.709627 -0.818236 1.041158
    33 -5.827132 4.411091 0.063164 -0.442954 0.713990 1.253081
    34 13.389688 0.268266 6.023556 -0.462585 -1.348926 -0.488759
    35 -1.823856 33.886020 0.000001 1.570796 0.000000 -1.570796
  time 11
    0 -0.239218 1.526386 38.348965 1.570796 -0.509810 1.570720
    1 -5.577777 -0.123187 0.054231 0.000000 0.000000 -0.212931
    2 -5.512521 -2.697433 -3.989360 0.393288 -0.166016 -0.903048
    3 10.569404 0.000000 -0.000001 0.000000 0.000000 -2.401349
    4 13.357937 0.000001 0.000000 0.000000 0.000000 2.790894
    5 -5.435716 -2.622672 3.516682 2.761840 0.146246 -0.922226
    6 10.523520 0.000001 0.000000 0.000000 0.000000 2.411965
    7 13.611951 -0.000001 0.000000 0.000000 0.000000 -2.810338
    8 -8.416650 1.073516 -0.018171 0.000000 0.000000 0.172788
    9 -9.984111 -4.710446 3.170796 -2.902516 -0.005451 -2.718124
    10 5.945616 -0.000002 0.000000 0.000000 0.000000 0.734118
    11 -9.984111 -4.710443 -2.998739 -0.223381 0.004015 -2.698290
    12 5.945623 -0.000001 0.000000 0.000000 0.000000 -0.752785
    13 -13.167565 0.616876 1.590356 3.140739 -0.157523 -3.136150
    14 1.939788 0.000000 0.000000 3.040688 0.121169 2.449692
    15 -13.157713 0.632509 -1.795553 1.570797 0.016920 -3.058550
    16 2.215698 0.000000 0.000002 1.570796 -0.608107 -3.124672
    17 -2.622039 -6.273480 8.263164 -2.782124 0.250278 -1.298080
    18 11.485746 0.000000 0.000000 0.000000 0.000000 -2.176346
    19 24.536901 -0.000002 0.000000 0.000000 0.000000 2.941636
    20 -2.622038 -6.273479 -8.136834 -0.253746 -0.188975 -1.664699
    21 11.659970 0.000002 0.000000 0.000000 0.000000 2.251800
    22 25.724375 0.000000 -0.000001 0.000000 0.000000 -2.982099
    23 3.880159 -0.980432 0.090609 0.000000 0.000000 0.344433
    24 13.389691 0.268267 -6.517195 0.542283 1.306249 -0.395924
    25 9.913785 0.000002 0.000001 1.712522 0.113967 -1.925912
    26 21.016018 0.000001 -0.000001 0.000000 0.000000 -2.087779
    27 28.471632 -0.000001 0.000000 0.000000 0.000000 2.576607
    28 13.389687 0.268268 6.023557 -0.462585 -1.348926 -0.488759
    29 9.768898 0.000004 -0.000002 -0.956785 -0.315998 -2.023361
    30 19.931143 -0.000001 0.000001 0.000000 0.000000 -1.979133
    31 26.044125 0.000000 -0.000001 0.000000 0.000000 2.793004
    32 -5.849912 4.319726 0.063164 0.708884 -0.817410 1.042035
    33 -5.827132 4.411091 0.063164 -0.443146 0.714438 1.252974
    34 13.389688 0.268266 6.023556 -0.462585 -1.348926 -0.488759
    35 -1.823856 33.886020 0.000001 1.570796 0.000000 -1.570796
  time 12
    0 -0.200154 1.526386 38.348965 1.570796 -0.515815 1.570720
    1 -5.577777 -0.123187 0.054231 0.000000 0.000000 -0.212931
    2 -5.512521 -2.697433 -3.989360 0.393288 -0.166016 -0.903048
    3 10.569404 0.000000 -0.000001 0.000000 0.000000 -2.401349
    4 13.357937 0.000001 0.000000 0.000000 0.000000 2.790894
    5 -5.435716 -2.622672 3.516682 2.761840 0.146246 -0.922226
    6 10.523520 0.000001 0.000000 0.000000 0.000000 2.411965
    7 13.611951 -0.000001 0.000000 0.000000 0.000000 -2.810338
    8 -8.416650 1.073516 -0.018171 0.000000 0.000000 0.172788
    9 -9.984111 -4.710446 3.170796 -2.902516 -0.005451 -2.718124
    10 5.945616 -0.000002 0.000000 0.000000 0.000000 0.734118
    11 -9.984111 -4.710443 -2.998739 -0.223381 0.004015 -2.698290
    12 5.945623 -0.000001 0.000000 0.000000 0.000000 -0.752785
    13 -13.167565 0.616876 1.590356 3.140739 -0.157523 -3.136150
    14 1.939788 0.000000 0.000000 3.040688 0.121169 2.449692
    15 -13.157713 0.632509 -1.795553 1.570797 0.016920 -3.058550
    16 2.215698 0.000000 0.000002 1.570796 -0.608107 -3.124672
    17 -2.622039 -6.273480 8.263164 -2.785959 0.252602 -1.308580
    18 11.485746 0.000000 0.000000 0.000000 0.000000 -2.175890
    19 24.536901 -0.000002 0.000000 0.000000 0.000000 2.940390
    20 -2.622038 -6.273479 -8.136834 -0.260254 -0.185549 -1.637399
    21 11.659970 0.000002 0.000000 0.000000 0.000000 2.258702
    22 25.724375 0.000000 -0.000001 0.000000 0.000000 -2.999842
    23 3.880159 -0.980432 0.090609 0.000000 0.000000 0.348509
    24 13.389691 0.268267 -6.517195 0.542283 1.306249 -0.395924
    25 9.913785 0.000002 0.000001 1.691715 0.115914 -1.922117
    26 21.016018 0.000001 -0.000001 0.000000 0.000000 -2.081493
    27 28.471632 -0.000001 0.000000 0.000000 0.000000 2.561826
    28 13.389687 0.268268 6.023557 -0.462585 -1.348926 -0.488759
    29 9.768898 0.000004 -0.000002 -0.899301 -0.335776 -2.041780
    30 19.931143 -0.000001 0.000001 0.000000 0.000000 -1.980679
    31 26.044125 0.000000 -0.000001 0.000000 0.000000 2.806385
    32 -5.849912 4.319726 0.063164 0.706942 -0.815276 1.044996
    33 -5.827132 4.411091 0.063164 -0.443633 0.715643 1.252493
    34 13.389688 0.268266 6.023556 -0.462585 -1.348926 -0.488759
    35 -1.823856 33.886020 0.000001 1.570796 0.000000 -1.570796
  time 13
    0 -0.161090 1.526386 38.348965 1.570796 -0.518290 1.570720
    1 -5.577777 -0.123187 0.054231 0.000000 0.000000 -0.212931
    2 -5.512521 -2.697433 -3.989360 0.393288 -0.166016 -0.903048
    3 10.569404 0.000000 -0.000001 0.000000 0.000000 -2.401349
    4 13.357937 0.000001 0.000000 0.000000 0.000000 2.790894
    5 -5.435716 -2.622672 3.516682 2.761840 0.146246 -0.922226
    6 10.523520 0.000001 0.000000 0.000000 0.000000 2.411965
    7 13.611951 -0.000001 0.000000 0.000000 0.000000 -2.810338
    8 -8.416650 1.073516 -0.018171 0.000000 0.000000 0.172788
    9 -9.984111 -4.710446 3.170796 -2.902516 -0.005451 -2.718124
    10 5.945616 -0.000002 0.000000 0.000000 0.000000 0.734118
    11 -9.984111 -4.710443 -2.998739 -0.223381 0.004015 -2.698290
    12 5.945623 -0.000001 0.000000 0.000000 0.000000 -0.752785
    13 -13.167565 0.616876 1.590356 3.140739 -0.157523 -3.136150
    14 1.939788 0.000000 0.000000 3.040688 0.121169 2.449692
    15 -13.157713 0.632509 -1.795553 1.570797 0.016920 -3.058550
    16 2.215698 0.000000 0.000002 1.570796 -0.608107 -3.124672
    17 -2.622039 -6.273480 8.263164 -2.794490 0.255892 -1.333171
    18 11.485746 0.000000 0.000000 0.000000 0.000000 -2.171501
    19 24.536901 -0.000002 0.000000 0.000000 0.000000 2.928974
    20 -2.622038 -6.273479 -8.136834 -0.266570 -0.182825 -1.632081
    21 11.659970 0.000002 0.000000 0.000000 0.000000 2.259423
    22 25.724375 0.000000 -0.000001 0.000000 0.000000 -3.001858
    23 3.880159 -0.980432 0.090609 0.000000 0.000000 0.353802
    24 13.389691 0.268267 -6.517195 0.542283 1.306249 -0.395924
    25 9.913785 0.000002 0.000001 1.683865 0.112734 -1.920080
    26 21.016018 0.000001 -0.000001 0.000000 0.000000 -2.077812
    27 28.471632 -0.000001 0.000000 0.000000 0.000000 2.553380
    28 13.389687 0.268268 6.023557 -0.462585 -1.348926 -0.488759
    29 9.768898 0.000004 -0.000002 -0.913935 -0.346815 -2.039967
    30 19.931143 -0.000001 0.000001 0.000000 0.000000 -1.980998
    31 26.044125 0.000000 -0.000001 0.000000 0.000000 2.808498
    32 -5.849912 4.319726 0.063164 0.704101 -0.812145 1.049821
    33 -5.827132 4.411091 0.063164 -0.444363 0.717409 1.251799
    34 13.389688 0.268266 6.023556 -0.462585 -1.348926 -0.488759
    35 -1.823856 33.886020 0.000001 1.570796 0.000000 -1.570796
  time 14
    0 -0.125933 1.526386 38.348965 1.570796 -0.517026 1.570720
    1 -5.577777 -0.123187 0.054231 0.000000 0.000000 -0.212931
    2 -5.512521 -2.697433 -3.989360 0.393288 -0.166016 -0.903048
    3 10.569404 0.000000 -0.000001 0.000000 0.000000 -2.401349
    4 13.357937 0.000001 0.000000 0.000000 0.000000 2.790894
    5 -5.435716 -2.622672 3.516682 2.761840 0.146246 -0.922226
    6 10.523520 0.000001 0.000000 0.000000 0.000000 2.411965
    7 13.611951 -0.000001 0.000000 0.000000 0.000000 -2.810338
    8 -8.416650 1.073516 -0.018171 0.000000 0.000000 0.172788
    9 -9.984111 -4.710446 3.170796 -2.902516 -0.005451 -2.718124
    10 5.945616 -0.000002 0.000000 0.000000 0.000000 0.734118
    11 -9.984111 -4.710443 -2.998739 -0.223381 0.004015 -2.698290
    12 5.945623 -0.000001 0.000000 0.000000 0.000000 -0.752785
    13 -13.167565 0.616876 1.590356 3.140739 -0.157523 -3.136150
    14 1.939788 0.000000 0.000000 3.040688 0.121169 2.449692
    15 -13.157713 0.632509 -1.795553 1.570797 0.016920 -3.058550
    16 2.215698 0.000000 0.000002 1.570796 -0.608107 -3.124672
    17 -2.622039 -6.273480 8.263164 -2.807048 0.259611 -1.370602
    18 11.485746 0.000000 0.000000 0.000000 0.000000 -2.162893
    19 24.536901 -0.000002 0.000000 0.000000 0.000000 2.907180
    20 -2.622038 -6.273479 -8.136834 -0.270207 -0.181669 -1.653944
    21 11.659970 0.000002 0.000000 0.000000 0.000000 2.253706
    22 25.724375 0.000000 -0.000001 0.000000 0.000000 -2.986871
    23 3.880159 -0.980432 0.090609 0.000000 0.000000 0.360311
    24 13.389691 0.268267 -6.517195 0.542283 1.306249 -0.395924
    25 9.913785 0.000002 0.000001 1.679419 0.103197 -1.919618
    26 21.016018 0.000001 -0.000001 0.000000 0.000000 -2.077415
    27 28.471632 -0.000001 0.000000 0.000000 0.000000 2.552548
    28 13.389687 0.268268 6.023557 -0.462585 -1.348926 -0.488759
    29 9.768898 0.000004 -0.000002 -1.016277 -0.344647 -2.012290
    30 19.931143 -0.000001 0.000001 0.000000 0.000000 -1.979506
    31 26.044125 0.000000 -0.000001 0.000000 0.000000 2.795437
    32 -5.849912 4.319726 0.063164 0.701129 -0.808816 1.055414
    33 -5.827132 4.411091 0.063164 -0.445144 0.719258 1.251159
    34 13.389688 0.268266 6.023556 -0.462585 -1.348926 -0.488759
    35 -1.823856 33.886020 0.000001 1.570796 0.000000 -1.570796
  time 15
    0 -0.090776 1.526386 38.348965 1.570796 -0.511970 1.570720
    1 -5.577777 -0.123187 0.054231 0.000000 0.000000 -0.212931
    2 -5.512521 -2.697433 -3.989360 0.393288 -0.166016 -0.903048
    3 10.569404 0.000000 -0.000001 0.000000 0.000000 -2.401349
    4 13.357937 0.000001 0.000000 0.000000 0.000000 2.790894
    5 -5.435716 -2.622672 3.516682 2.761840 0.146246 -0.922226
    6 10.523520 0.000001 0.000000 0.000000 0.000000 2.411965
    7 13.611951 -0.000001 0.000000 0.000000 0.000000 -2.810338
    8 -8.416650 1.073516 -0.018171 0.000000 0.000000 0.172788
    9 -9.984111 -4.710446 3.170796 -2.902516 -0.005451 -2.718124
    10 5.945616 -0.000002 0.000000 0.000000 0.000000 0.734118
    11 -9.984111 -4.710443 -2.998739 -0.223381 0.004015 -2.698290
    12 5.945623 -0.000001 0.000000 0.000000 0.000000 -0.752785
    13 -13.167565 0.616876 1.590356 3.140739 -0.157523 -3.136150
    14 1.939788 0.000000 0.000000 3.040688 0.121169 2.449692
    15 -13.157713 0.632509 -1.795553 1.570797 0.016920 -3.058550
    16 2.215698 0.000000 0.000002 1.570796 -0.608107 -3.124672
    17 -2.622039 -6.273480 8.263164 -2.822674 0.262972 -1.418751
    18 11.485746 0.000000 0.000000 0.000000 0.000000 -2.149667
    19 24.536901 -0.000002 0.000000 0.000000 0.000000 2.875077
    20 -2.622038 -6.273479 -8.136834 -0.267240 -0.182247 -1.703994
    21 11.659970 0.000002 0.000000 0.000000 0.000000 2.240109
    22 25.724375 0.000000 -0.000001 0.000000 0.000000 -2.953940
    23 3.880159 -0.980432 0.090609 0.000000 0.000000 0.368038
    24 13.389691 0.268267 -6.517195 0.542283 1.306249 -0.395924
    25 9.913785 0.000002 0.000001 1.682541 0.085809 -1.921747
    26 21.016018 0.000001 -0.000001 0.000000 0.000000 -2.080700
    27 28.471632 -0.000001 0.000000 0.000000 0.000000 2.560034
    28 13.389687 0.268268 6.023557 -0.462585 -1.348926 -0.488759
    29 9.768898 0.000004 -0.000002 -1.143488 -0.311858 -1.972875
    30 19.931143 -0.000001 0.000001 0.000000 0.000000 -1.974657
    31 26.044125 0.000000 -0.000001 0.000000 0.000000 2.762719
    32 -5.849912 4.319726 0.063164 0.698810 -0.806169 1.060952
    33 -5.827132 4.411091 0.063164 -0.445746 0.720715 1.250839
    34 13.389688 0.268266 6.023556 -0.462585 -1.348926 -0.488759
    35 -1.823856 33.886020 0.000001 1.570796 0.000000 -1.570796
  time 16
    0 -0.059525 1.526386 38.348965 1.570796 -0.502963 1.570720
    1 -5.577777 -0.123187 0.054231 0.000000 0.000000 -0.212931
    2 -5.512521 -2.697433 -3.989360 0.393288 -0.166016 -0.903048
    3 10.569404 0.000000 -0.000001 0.000000 0.000000 -2.401349
    4 13.357937 0.000001 0.000000 0.000000 0.000000 2.790894
    5 -5.435716 -2.622672 3.516682 2.761840 0.146246 -0.922226
    6 10.523520 0.000001 0.000000 0.000000 0.000000 2.411965
    7 13.611951 -0.000001 0.000000 0.000000 0.000000 -2.810338
    8 -8.416650 1.073516 -0.018171 0.000000 0.000000 0.172788
    9 -9.984111 -4.710446 3.170796 -2.902516 -0.005451 -2.718124
    10 5.945616 -0.000002 0.000000 0.000000 0.000000 0.734118
    11 -9.984111 -4.710443 -2.998739 -0.223381 0.004015 -2.698290
    12 5.945623 -0.000001 0.000000 0.000000 0.000000 -0.752785
    13 -13.167565 0.616876 1.590356 3.140739 -0.157523 -3.136150
    14 1.939788 0.000000 0.000000 3.040688 0.121169 2.449692
    15 -13.157713 0.632509 -1.795553 1.570797 0.016920 -3.058550
    16 2.215698 0.000000 0.000002 1.570796 -0.608107 -3.124672
    17 -2.622039 -6.273480 8.263164 -2.839545 0.265046 -1.474626
    18 11.485746 0.000000 0.000000 0.000000 0.000000 -2.131368
    19 24.536901 -0.000002 0.000000 0.000000 0.000000 2.832527
    20 -2.622038 -6.273479 -8.136834 -0.253076 -0.183444 -1.778861
    21 11.659970 0.000002 0.000000 0.000000 0.000000 2.216725
    22 25.724375 0.000000 -0.000001 0.000000 0.000000 -2.902527
    23 3.880159 -0.980432 0.090609 0.000000 0.000000 0.377042
    24 13.389691 0.268267 -6.517195 0.542283 1.306249 -0.395924
    25 9.913785 0.000002 0.000001 1.699565 0.058624 -1.927301
    26 21.016018 0.000001 -0.000001 0.000000 0.000000 -2.087496
    27 28.471632 -0.000001 0.000000 0.000000 0.000000 2.575967
    28 13.389687 0.268268 6.023557 -0.462585 -1.348926 -0.488759
    29 9.768898 0.000004 -0.000002 -1.219145 -0.238330 -1.940141
    30 19.931143 -0.000001 0.000001 0.000000 0.000000 -1.962346
    31 26.044125 0.000000 -0.000001 0.000000 0.000000 2.704648
    32 -5.849912 4.319726 0.063164 0.697884 -0.805116 1.065338
    33 -5.827132 4.411091 0.063164 -0.446002 0.721332 1.251212
    34 13.389688 0.268266 6.023556 -0.462585 -1.348926 -0.488759
    35 -1.823856 33.886020 0.000001 1.570796 0.000000 -1.570796
end
