// Created by Crowbar 0.62

$modelname "items/largeboxbrounds.mdl"

$staticprop

$bodygroup "body"
{
	studio "largeboxbrounds_reference.smd"
}


$contents "solid"

$illumposition 0.001 0.002 5.167

$cdmaterials "models\items\"

$cbox 0 0 0 0 0 0

$bbox -9.937 -6.101 -0.014 9.934 6.102 10.349

$animation "a_IDLE" "LargeBoxBRounds_anims\IDLE.smd" {
	fps 5
	loop
}

$sequence "IDLE" {
	"a_IDLE"
	fadein 0.2
	fadeout 0.2
}

