// Created by Crowbar 0.62
version 1
nodes
  0 "static_prop" -1
end
skeleton
  time 0
    0 0.000000 0.000000 0.000000 0.000000 0.000000 0.000000
end
triangles
largeboxbrounds
  0 -2.333699 -9.933900 10.345400 0.000000 -1.000000 0.000000 0.153000 0.325500 1 0 1.000000
  0 -5.801099 -9.933900 10.346000 0.000000 -1.000000 0.000000 0.070300 0.325500 1 0 1.000000
  0 -5.801099 -9.933900 -0.014500 0.000000 -1.000000 0.000000 0.070300 0.078900 1 0 1.000000
largeboxbrounds
  0 -5.801099 -9.933900 -0.014500 0.000000 -1.000000 0.000000 0.070300 0.078900 1 0 1.000000
  0 -2.333699 -9.933900 -0.014500 0.000000 -1.000000 0.000000 0.153000 0.078900 1 0 1.000000
  0 -2.333699 -9.933900 10.345400 0.000000 -1.000000 0.000000 0.153000 0.325500 1 0 1.000000
largeboxbrounds
  0 -2.333699 -9.933900 -0.014500 0.707107 -0.707107 0.000000 0.153000 0.078900 1 0 1.000000
  0 -2.033700 -9.633900 -0.014500 0.707107 -0.707107 0.000000 0.163100 0.078900 1 0 1.000000
  0 -2.333699 -9.933900 10.345400 0.707107 -0.707107 0.000000 0.153000 0.325500 1 0 1.000000
largeboxbrounds
  0 -2.033700 -9.633900 10.345400 0.707107 -0.707107 0.000000 0.163100 0.325500 1 0 1.000000
  0 -2.333699 -9.933900 10.345400 0.707107 -0.707107 0.000000 0.153000 0.325500 1 0 1.000000
  0 -2.033700 -9.633900 -0.014500 0.707107 -0.707107 0.000000 0.163100 0.078900 1 0 1.000000
largeboxbrounds
  0 2.333700 -9.933900 10.345400 -0.000200 -0.000500 1.000000 0.011700 0.719800 1 0 1.000000
  0 5.801100 -9.933900 10.346000 -0.000200 -0.000400 1.000000 0.011700 0.638900 1 0 1.000000
  0 6.101100 -9.633900 10.346200 -0.000200 -0.000500 1.000000 0.018700 0.631900 1 0 1.000000
largeboxbrounds
  0 5.801100 -6.198800 10.348000 -0.000200 -0.000500 1.000000 0.098900 0.638900 1 0 1.000000
  0 6.101100 -9.633900 10.346200 -0.000200 -0.000500 1.000000 0.018700 0.631900 1 0 1.000000
  0 6.101100 -6.498799 10.347500 0.001100 -0.000400 0.999999 0.091900 0.631900 1 0 1.000000
largeboxbrounds
  0 2.333700 -9.933900 10.345400 -0.000200 -0.000500 1.000000 0.011700 0.719800 1 0 1.000000
  0 6.101100 -9.633900 10.346200 -0.000200 -0.000500 1.000000 0.018700 0.631900 1 0 1.000000
  0 5.801100 -6.198800 10.348000 -0.000200 -0.000500 1.000000 0.098900 0.638900 1 0 1.000000
largeboxbrounds
  0 2.333700 -9.933900 10.345400 -0.000200 -0.000500 1.000000 0.011700 0.719800 1 0 1.000000
  0 5.801100 -6.198800 10.348000 -0.000200 -0.000500 1.000000 0.098900 0.638900 1 0 1.000000
  0 5.001101 -6.198800 10.349100 0.001400 -0.002000 0.999997 0.098900 0.657600 1 0 1.000000
largeboxbrounds
  0 2.033700 -9.633900 10.345400 -0.001500 0.000000 0.999999 0.018700 0.726800 1 0 1.000000
  0 2.333700 -9.933900 10.345400 -0.000200 -0.000500 1.000000 0.011700 0.719800 1 0 1.000000
  0 5.001101 -6.198800 10.349100 0.001400 -0.002000 0.999997 0.098900 0.657600 1 0 1.000000
largeboxbrounds
  0 2.033700 -9.633900 10.345400 -0.001500 0.000000 0.999999 0.018700 0.726800 1 0 1.000000
  0 5.001101 -6.198800 10.349100 0.001400 -0.002000 0.999997 0.098900 0.657600 1 0 1.000000
  0 4.701100 -5.898800 10.349400 -0.001500 0.000000 0.999999 0.105900 0.664600 1 0 1.000000
largeboxbrounds
  0 2.033700 -9.633900 10.345400 -0.001500 0.000000 0.999999 0.018700 0.726800 1 0 1.000000
  0 4.701100 -5.898800 10.349400 -0.001500 0.000000 0.999999 0.105900 0.664600 1 0 1.000000
  0 2.033700 -8.833900 10.345400 -0.001500 0.000000 0.999999 0.037400 0.726800 1 0 1.000000
largeboxbrounds
  0 2.033700 -8.833900 10.345400 -0.001500 0.000000 0.999999 0.037400 0.726800 1 0 1.000000
  0 4.701100 -5.898800 10.349400 -0.001500 0.000000 0.999999 0.105900 0.664600 1 0 1.000000
  0 1.733700 -8.533900 10.345400 -0.000700 -0.000700 0.999999 0.044400 0.733800 1 0 1.000000
largeboxbrounds
  0 -4.701099 -5.898800 10.349100 0.000200 -0.001100 0.999999 0.105900 0.884100 1 0 1.000000
  0 1.733700 -8.533900 10.345400 -0.000700 -0.000700 0.999999 0.044400 0.733800 1 0 1.000000
  0 4.701100 -5.898800 10.349400 -0.001500 0.000000 0.999999 0.105900 0.664600 1 0 1.000000
largeboxbrounds
  0 -4.701099 -5.898800 10.349100 0.000200 -0.001100 0.999999 0.105900 0.884100 1 0 1.000000
  0 4.701100 -5.898800 10.349400 -0.001500 0.000000 0.999999 0.105900 0.664600 1 0 1.000000
  0 4.701799 5.900300 10.347900 -0.001900 -0.001200 0.999997 0.381300 0.664600 1 0 1.000000
largeboxbrounds
  0 -4.701099 -5.898800 10.349100 0.000200 -0.001100 0.999999 0.105900 0.884100 1 0 1.000000
  0 4.701799 5.900300 10.347900 -0.001900 -0.001200 0.999997 0.381300 0.664600 1 0 1.000000
  0 -4.700500 5.900300 10.348000 0.001000 0.000000 0.999999 0.381300 0.884000 1 0 1.000000
largeboxbrounds
  0 4.701799 5.900300 10.347900 -0.001900 -0.001200 0.999997 0.381300 0.664600 1 0 1.000000
  0 -1.732400 8.537100 10.345400 0.000500 0.000500 1.000000 0.442900 0.814800 1 0 1.000000
  0 -4.700500 5.900300 10.348000 0.001000 0.000000 0.999999 0.381300 0.884000 1 0 1.000000
largeboxbrounds
  0 4.701799 5.900300 10.347900 -0.001900 -0.001200 0.999997 0.381300 0.664600 1 0 1.000000
  0 1.735000 8.537100 10.345400 0.001100 0.003000 0.999995 0.442900 0.733800 1 0 1.000000
  0 -1.732400 8.537100 10.345400 0.000500 0.000500 1.000000 0.442900 0.814800 1 0 1.000000
largeboxbrounds
  0 5.002399 6.201900 10.348800 0.001100 0.003000 0.999995 0.388400 0.657500 1 0 1.000000
  0 1.735000 8.537100 10.345400 0.001100 0.003000 0.999995 0.442900 0.733800 1 0 1.000000
  0 4.701799 5.900300 10.347900 -0.001900 -0.001200 0.999997 0.381300 0.664600 1 0 1.000000
largeboxbrounds
  0 5.802400 6.201900 10.348000 0.001100 0.003000 0.999995 0.388400 0.638900 1 0 1.000000
  0 1.735000 8.537100 10.345400 0.001100 0.003000 0.999995 0.442900 0.733800 1 0 1.000000
  0 5.002399 6.201900 10.348800 0.001100 0.003000 0.999995 0.388400 0.657500 1 0 1.000000
largeboxbrounds
  0 5.802400 6.201900 10.348000 0.001100 0.003000 0.999995 0.388400 0.638900 1 0 1.000000
  0 2.035000 8.837100 10.345400 -0.000500 0.000000 1.000000 0.449900 0.726800 1 0 1.000000
  0 1.735000 8.537100 10.345400 0.001100 0.003000 0.999995 0.442900 0.733800 1 0 1.000000
largeboxbrounds
  0 6.102399 6.501901 10.347500 -0.000200 0.000400 1.000000 0.395400 0.631900 1 0 1.000000
  0 2.035000 8.837100 10.345400 -0.000500 0.000000 1.000000 0.449900 0.726800 1 0 1.000000
  0 5.802400 6.201900 10.348000 0.001100 0.003000 0.999995 0.388400 0.638900 1 0 1.000000
largeboxbrounds
  0 2.035000 9.637100 10.345400 -0.000200 0.000400 1.000000 0.468600 0.726800 1 0 1.000000
  0 2.035000 8.837100 10.345400 -0.000500 0.000000 1.000000 0.449900 0.726800 1 0 1.000000
  0 6.102399 6.501901 10.347500 -0.000200 0.000400 1.000000 0.395400 0.631900 1 0 1.000000
largeboxbrounds
  0 6.102399 6.501901 10.347500 -0.000200 0.000400 1.000000 0.395400 0.631900 1 0 1.000000
  0 5.802400 9.937100 10.346000 -0.000200 0.000400 1.000000 0.475600 0.638900 1 0 1.000000
  0 2.035000 9.637100 10.345400 -0.000200 0.000400 1.000000 0.468600 0.726800 1 0 1.000000
largeboxbrounds
  0 2.035000 9.637100 10.345400 -0.000200 0.000400 1.000000 0.468600 0.726800 1 0 1.000000
  0 5.802400 9.937100 10.346000 -0.000200 0.000400 1.000000 0.475600 0.638900 1 0 1.000000
  0 2.335000 9.937100 10.345400 -0.000200 0.000000 1.000000 0.475600 0.719800 1 0 1.000000
largeboxbrounds
  0 6.102399 6.501901 10.347500 -0.000200 0.000400 1.000000 0.395400 0.631900 1 0 1.000000
  0 6.102399 9.637100 10.346200 -0.000200 0.000400 1.000000 0.468600 0.631900 1 0 1.000000
  0 5.802400 9.937100 10.346000 -0.000200 0.000400 1.000000 0.475600 0.638900 1 0 1.000000
largeboxbrounds
  0 -2.032400 8.837100 10.345400 0.001000 0.000000 0.999999 0.449900 0.821800 1 0 1.000000
  0 -4.700500 5.900300 10.348000 0.001000 0.000000 0.999999 0.381300 0.884000 1 0 1.000000
  0 -1.732400 8.537100 10.345400 0.000500 0.000500 1.000000 0.442900 0.814800 1 0 1.000000
largeboxbrounds
  0 -2.032400 9.637100 10.345400 0.001000 0.000000 0.999999 0.468600 0.821800 1 0 1.000000
  0 -4.700500 5.900300 10.348000 0.001000 0.000000 0.999999 0.381300 0.884000 1 0 1.000000
  0 -2.032400 8.837100 10.345400 0.001000 0.000000 0.999999 0.449900 0.821800 1 0 1.000000
largeboxbrounds
  0 -2.032400 9.637100 10.345400 0.001000 0.000000 0.999999 0.468600 0.821800 1 0 1.000000
  0 -4.999900 6.201900 10.349100 -0.001400 0.002000 0.999997 0.388400 0.891000 1 0 1.000000
  0 -4.700500 5.900300 10.348000 0.001000 0.000000 0.999999 0.381300 0.884000 1 0 1.000000
largeboxbrounds
  0 -2.032400 9.637100 10.345400 0.001000 0.000000 0.999999 0.468600 0.821800 1 0 1.000000
  0 -2.332401 9.937100 10.345400 0.000200 0.000500 1.000000 0.475600 0.828800 1 0 1.000000
  0 -4.999900 6.201900 10.349100 -0.001400 0.002000 0.999997 0.388400 0.891000 1 0 1.000000
largeboxbrounds
  0 -2.332401 9.937100 10.345400 0.000200 0.000500 1.000000 0.475600 0.828800 1 0 1.000000
  0 -5.799901 6.201900 10.348000 0.000200 0.000500 1.000000 0.388400 0.909700 1 0 1.000000
  0 -4.999900 6.201900 10.349100 -0.001400 0.002000 0.999997 0.388400 0.891000 1 0 1.000000
largeboxbrounds
  0 -2.332401 9.937100 10.345400 0.000200 0.000500 1.000000 0.475600 0.828800 1 0 1.000000
  0 -6.099900 9.637100 10.346200 0.000200 0.000500 1.000000 0.468600 0.916700 1 0 1.000000
  0 -5.799901 6.201900 10.348000 0.000200 0.000500 1.000000 0.388400 0.909700 1 0 1.000000
largeboxbrounds
  0 -5.799901 6.201900 10.348000 0.000200 0.000500 1.000000 0.388400 0.909700 1 0 1.000000
  0 -6.099900 9.637100 10.346200 0.000200 0.000500 1.000000 0.468600 0.916700 1 0 1.000000
  0 -6.099900 6.501900 10.347500 -0.001100 0.000400 0.999999 0.395400 0.916700 1 0 1.000000
largeboxbrounds
  0 -2.332401 9.937100 10.345400 0.000200 0.000500 1.000000 0.475600 0.828800 1 0 1.000000
  0 -5.799901 9.937100 10.346000 0.000200 0.000400 1.000000 0.475600 0.909700 1 0 1.000000
  0 -6.099900 9.637100 10.346200 0.000200 0.000500 1.000000 0.468600 0.916700 1 0 1.000000
largeboxbrounds
  0 -6.101099 -6.498800 10.347500 0.000200 -0.000400 1.000000 0.091900 0.916700 1 0 1.000000
  0 -6.101099 -9.633900 10.346200 0.000200 -0.000400 1.000000 0.018700 0.916700 1 0 1.000000
  0 -5.801099 -9.933900 10.346000 0.000200 -0.000400 1.000000 0.011700 0.909700 1 0 1.000000
largeboxbrounds
  0 -4.701099 -5.898800 10.349100 0.000200 -0.001100 0.999999 0.105900 0.884100 1 0 1.000000
  0 -1.733700 -8.533900 10.345400 -0.001100 -0.003000 0.999995 0.044400 0.814800 1 0 1.000000
  0 1.733700 -8.533900 10.345400 -0.000700 -0.000700 0.999999 0.044400 0.733800 1 0 1.000000
largeboxbrounds
  0 -5.001100 -6.198800 10.348800 -0.001100 -0.003000 0.999995 0.098900 0.891100 1 0 1.000000
  0 -1.733700 -8.533900 10.345400 -0.001100 -0.003000 0.999995 0.044400 0.814800 1 0 1.000000
  0 -4.701099 -5.898800 10.349100 0.000200 -0.001100 0.999999 0.105900 0.884100 1 0 1.000000
largeboxbrounds
  0 -5.801099 -6.198801 10.348000 -0.001100 -0.003000 0.999995 0.098900 0.909700 1 0 1.000000
  0 -1.733700 -8.533900 10.345400 -0.001100 -0.003000 0.999995 0.044400 0.814800 1 0 1.000000
  0 -5.001100 -6.198800 10.348800 -0.001100 -0.003000 0.999995 0.098900 0.891100 1 0 1.000000
largeboxbrounds
  0 -5.801099 -6.198801 10.348000 -0.001100 -0.003000 0.999995 0.098900 0.909700 1 0 1.000000
  0 -2.033700 -8.833900 10.345400 0.000500 0.000000 1.000000 0.037400 0.821800 1 0 1.000000
  0 -1.733700 -8.533900 10.345400 -0.001100 -0.003000 0.999995 0.044400 0.814800 1 0 1.000000
largeboxbrounds
  0 -6.101099 -6.498800 10.347500 0.000200 -0.000400 1.000000 0.091900 0.916700 1 0 1.000000
  0 -2.033700 -8.833900 10.345400 0.000500 0.000000 1.000000 0.037400 0.821800 1 0 1.000000
  0 -5.801099 -6.198801 10.348000 -0.001100 -0.003000 0.999995 0.098900 0.909700 1 0 1.000000
largeboxbrounds
  0 -2.033700 -9.633900 10.345400 0.000200 -0.000400 1.000000 0.018700 0.821800 1 0 1.000000
  0 -2.033700 -8.833900 10.345400 0.000500 0.000000 1.000000 0.037400 0.821800 1 0 1.000000
  0 -6.101099 -6.498800 10.347500 0.000200 -0.000400 1.000000 0.091900 0.916700 1 0 1.000000
largeboxbrounds
  0 -6.101099 -6.498800 10.347500 0.000200 -0.000400 1.000000 0.091900 0.916700 1 0 1.000000
  0 -5.801099 -9.933900 10.346000 0.000200 -0.000400 1.000000 0.011700 0.909700 1 0 1.000000
  0 -2.033700 -9.633900 10.345400 0.000200 -0.000400 1.000000 0.018700 0.821800 1 0 1.000000
largeboxbrounds
  0 -2.033700 -9.633900 10.345400 0.000200 -0.000400 1.000000 0.018700 0.821800 1 0 1.000000
  0 -5.801099 -9.933900 10.346000 0.000200 -0.000400 1.000000 0.011700 0.909700 1 0 1.000000
  0 -2.333699 -9.933900 10.345400 0.000200 0.000000 1.000000 0.011700 0.828800 1 0 1.000000
largeboxbrounds
  0 5.802400 6.201900 -0.014500 0.707107 -0.707107 0.000000 0.833100 0.078900 1 0 1.000000
  0 6.102399 6.501901 -0.014500 0.707107 -0.707107 0.000000 0.843300 0.078900 1 0 1.000000
  0 5.802400 6.201900 10.348000 0.707107 -0.707107 0.000000 0.833100 0.325600 1 0 1.000000
largeboxbrounds
  0 6.102399 6.501901 10.347500 0.707107 -0.707107 0.000000 0.843300 0.325600 1 0 1.000000
  0 5.802400 6.201900 10.348000 0.707107 -0.707107 0.000000 0.833100 0.325600 1 0 1.000000
  0 6.102399 6.501901 -0.014500 0.707107 -0.707107 0.000000 0.843300 0.078900 1 0 1.000000
largeboxbrounds
  0 4.701799 5.900300 -0.014500 0.708206 -0.706006 0.000000 0.803400 0.078900 1 0 1.000000
  0 5.002399 6.201900 -0.014500 0.708206 -0.706006 0.000000 0.813900 0.078900 1 0 1.000000
  0 4.701799 5.900300 10.347900 0.708206 -0.706006 0.000000 0.803400 0.325600 1 0 1.000000
largeboxbrounds
  0 5.002399 6.201900 10.348800 0.708206 -0.706006 0.000000 0.813900 0.325600 1 0 1.000000
  0 4.701799 5.900300 10.347900 0.708206 -0.706006 0.000000 0.803400 0.325600 1 0 1.000000
  0 5.002399 6.201900 -0.014500 0.708206 -0.706006 0.000000 0.813900 0.078900 1 0 1.000000
largeboxbrounds
  0 -4.999900 6.201900 -0.014500 -0.709702 -0.704502 0.000000 0.512900 0.365100 1 0 1.000000
  0 -4.700500 5.900300 -0.014500 -0.709702 -0.704502 0.000000 0.523200 0.365100 1 0 1.000000
  0 -4.999900 6.201900 10.349100 -0.709702 -0.704502 0.000000 0.512900 0.611900 1 0 1.000000
largeboxbrounds
  0 -4.700500 5.900300 10.348000 -0.709702 -0.704502 0.000000 0.523200 0.611900 1 0 1.000000
  0 -4.999900 6.201900 10.349100 -0.709702 -0.704502 0.000000 0.512900 0.611900 1 0 1.000000
  0 -4.700500 5.900300 -0.014500 -0.709702 -0.704502 0.000000 0.523200 0.365100 1 0 1.000000
largeboxbrounds
  0 -6.099900 6.501900 -0.014500 -0.707107 -0.707107 0.000000 0.483500 0.365100 1 0 1.000000
  0 -5.799901 6.201900 -0.014500 -0.707107 -0.707107 0.000000 0.493800 0.365100 1 0 1.000000
  0 -6.099900 6.501900 10.347500 -0.707107 -0.707107 0.000000 0.483500 0.611800 1 0 1.000000
largeboxbrounds
  0 -5.799901 6.201900 10.348000 -0.707107 -0.707107 0.000000 0.493800 0.611900 1 0 1.000000
  0 -6.099900 6.501900 10.347500 -0.707107 -0.707107 0.000000 0.483500 0.611800 1 0 1.000000
  0 -5.799901 6.201900 -0.014500 -0.707107 -0.707107 0.000000 0.493800 0.365100 1 0 1.000000
largeboxbrounds
  0 -2.032400 9.637100 -0.014500 0.707107 0.707107 0.000000 0.305800 0.365100 1 0 1.000000
  0 -2.332401 9.937100 -0.014500 0.707107 0.707107 0.000000 0.315900 0.365100 1 0 1.000000
  0 -2.032400 9.637100 10.345400 0.707107 0.707107 0.000000 0.305800 0.611800 1 0 1.000000
largeboxbrounds
  0 -2.332401 9.937100 10.345400 0.707107 0.707107 0.000000 0.315900 0.611800 1 0 1.000000
  0 -2.032400 9.637100 10.345400 0.707107 0.707107 0.000000 0.305800 0.611800 1 0 1.000000
  0 -2.332401 9.937100 -0.014500 0.707107 0.707107 0.000000 0.315900 0.365100 1 0 1.000000
largeboxbrounds
  0 -5.799901 9.937100 -0.014500 -0.707107 0.707107 0.000000 0.398300 0.365100 1 0 1.000000
  0 -6.099900 9.637100 -0.014500 -0.707107 0.707107 0.000000 0.408600 0.365100 1 0 1.000000
  0 -5.799901 9.937100 10.346000 -0.707107 0.707107 0.000000 0.398300 0.611800 1 0 1.000000
largeboxbrounds
  0 -6.099900 9.637100 10.346200 -0.707107 0.707107 0.000000 0.408600 0.611800 1 0 1.000000
  0 -5.799901 9.937100 10.346000 -0.707107 0.707107 0.000000 0.398300 0.611800 1 0 1.000000
  0 -6.099900 9.637100 -0.014500 -0.707107 0.707107 0.000000 0.408600 0.365100 1 0 1.000000
largeboxbrounds
  0 2.035000 8.837100 -0.014500 -0.707107 0.707107 0.000000 0.183700 0.365100 1 0 1.000000
  0 1.735000 8.537100 -0.014500 -0.707107 0.707107 0.000000 0.193900 0.365100 1 0 1.000000
  0 2.035000 8.837100 10.345400 -0.707107 0.707107 0.000000 0.183700 0.611800 1 0 1.000000
largeboxbrounds
  0 1.735000 8.537100 10.345400 -0.707107 0.707107 0.000000 0.193900 0.611800 1 0 1.000000
  0 2.035000 8.837100 10.345400 -0.707107 0.707107 0.000000 0.183700 0.611800 1 0 1.000000
  0 1.735000 8.537100 -0.014500 -0.707107 0.707107 0.000000 0.193900 0.365100 1 0 1.000000
largeboxbrounds
  0 -1.732400 8.537100 -0.014500 0.707107 0.707107 0.000000 0.276400 0.365100 1 0 1.000000
  0 -2.032400 8.837100 -0.014500 0.707107 0.707107 0.000000 0.286600 0.365100 1 0 1.000000
  0 -1.732400 8.537100 10.345400 0.707107 0.707107 0.000000 0.276400 0.611800 1 0 1.000000
largeboxbrounds
  0 -2.032400 8.837100 10.345400 0.707107 0.707107 0.000000 0.286600 0.611800 1 0 1.000000
  0 -1.732400 8.537100 10.345400 0.707107 0.707107 0.000000 0.276400 0.611800 1 0 1.000000
  0 -2.032400 8.837100 -0.014500 0.707107 0.707107 0.000000 0.286600 0.365100 1 0 1.000000
largeboxbrounds
  0 6.102399 9.637100 -0.014500 0.707107 0.707107 0.000000 0.061400 0.365100 1 0 1.000000
  0 5.802400 9.937100 -0.014500 0.707107 0.707107 0.000000 0.071600 0.365100 1 0 1.000000
  0 6.102399 9.637100 10.346200 0.707107 0.707107 0.000000 0.061400 0.611800 1 0 1.000000
largeboxbrounds
  0 5.802400 9.937100 10.346000 0.707107 0.707107 0.000000 0.071600 0.611800 1 0 1.000000
  0 6.102399 9.637100 10.346200 0.707107 0.707107 0.000000 0.061400 0.611800 1 0 1.000000
  0 5.802400 9.937100 -0.014500 0.707107 0.707107 0.000000 0.071600 0.365100 1 0 1.000000
largeboxbrounds
  0 2.335000 9.937100 -0.014500 -0.707107 0.707107 0.000000 0.154400 0.365100 1 0 1.000000
  0 2.035000 9.637100 -0.014500 -0.707107 0.707107 0.000000 0.164600 0.365100 1 0 1.000000
  0 2.335000 9.937100 10.345400 -0.707107 0.707107 0.000000 0.154400 0.611800 1 0 1.000000
largeboxbrounds
  0 2.035000 9.637100 10.345400 -0.707107 0.707107 0.000000 0.164600 0.611800 1 0 1.000000
  0 2.335000 9.937100 10.345400 -0.707107 0.707107 0.000000 0.154400 0.611800 1 0 1.000000
  0 2.035000 9.637100 -0.014500 -0.707107 0.707107 0.000000 0.164600 0.365100 1 0 1.000000
largeboxbrounds
  0 -5.801099 -6.198801 -0.014500 -0.707107 0.707107 0.000000 0.833500 0.365100 1 0 1.000000
  0 -6.101099 -6.498800 -0.014500 -0.707107 0.707107 0.000000 0.843800 0.365100 1 0 1.000000
  0 -5.801099 -6.198801 10.348000 -0.707107 0.707107 0.000000 0.833500 0.611900 1 0 1.000000
largeboxbrounds
  0 -6.101099 -6.498800 10.347500 -0.707107 0.707107 0.000000 0.843800 0.611800 1 0 1.000000
  0 -5.801099 -6.198801 10.348000 -0.707107 0.707107 0.000000 0.833500 0.611900 1 0 1.000000
  0 -6.101099 -6.498800 -0.014500 -0.707107 0.707107 0.000000 0.843800 0.365100 1 0 1.000000
largeboxbrounds
  0 -4.701099 -5.898800 -0.014500 -0.707107 0.707107 0.000000 0.804200 0.365100 1 0 1.000000
  0 -5.001100 -6.198800 -0.014500 -0.707107 0.707107 0.000000 0.814400 0.365100 1 0 1.000000
  0 -4.701099 -5.898800 10.349100 -0.707107 0.707107 0.000000 0.804200 0.611900 1 0 1.000000
largeboxbrounds
  0 -5.001100 -6.198800 10.348800 -0.707107 0.707107 0.000000 0.814400 0.611900 1 0 1.000000
  0 -4.701099 -5.898800 10.349100 -0.707107 0.707107 0.000000 0.804200 0.611900 1 0 1.000000
  0 -5.001100 -6.198800 -0.014500 -0.707107 0.707107 0.000000 0.814400 0.365100 1 0 1.000000
largeboxbrounds
  0 5.001101 -6.198800 -0.014500 0.707107 0.707107 0.000000 0.511800 0.078900 1 0 1.000000
  0 4.701100 -5.898800 -0.014500 0.707107 0.707107 0.000000 0.522200 0.078900 1 0 1.000000
  0 5.001101 -6.198800 10.349100 0.707107 0.707107 0.000000 0.511800 0.325600 1 0 1.000000
largeboxbrounds
  0 4.701100 -5.898800 10.349400 0.707107 0.707107 0.000000 0.522200 0.325600 1 0 1.000000
  0 5.001101 -6.198800 10.349100 0.707107 0.707107 0.000000 0.511800 0.325600 1 0 1.000000
  0 4.701100 -5.898800 -0.014500 0.707107 0.707107 0.000000 0.522200 0.078900 1 0 1.000000
largeboxbrounds
  0 6.101100 -6.498799 -0.014500 0.707107 0.707107 0.000000 0.482100 0.078900 1 0 1.000000
  0 5.801100 -6.198800 -0.014500 0.707107 0.707107 0.000000 0.492600 0.078900 1 0 1.000000
  0 6.101100 -6.498799 10.347500 0.707107 0.707107 0.000000 0.482100 0.325600 1 0 1.000000
largeboxbrounds
  0 5.801100 -6.198800 10.348000 0.707107 0.707107 0.000000 0.492600 0.325600 1 0 1.000000
  0 6.101100 -6.498799 10.347500 0.707107 0.707107 0.000000 0.482100 0.325600 1 0 1.000000
  0 5.801100 -6.198800 -0.014500 0.707107 0.707107 0.000000 0.492600 0.078900 1 0 1.000000
largeboxbrounds
  0 2.033700 -9.633900 -0.014500 -0.707107 -0.707107 0.000000 0.304100 0.078900 1 0 1.000000
  0 2.333700 -9.933900 -0.014500 -0.707107 -0.707107 0.000000 0.314300 0.078900 1 0 1.000000
  0 2.033700 -9.633900 10.345400 -0.707107 -0.707107 0.000000 0.304100 0.325500 1 0 1.000000
largeboxbrounds
  0 2.333700 -9.933900 10.345400 -0.707107 -0.707107 0.000000 0.314300 0.325500 1 0 1.000000
  0 2.033700 -9.633900 10.345400 -0.707107 -0.707107 0.000000 0.304100 0.325500 1 0 1.000000
  0 2.333700 -9.933900 -0.014500 -0.707107 -0.707107 0.000000 0.314300 0.078900 1 0 1.000000
largeboxbrounds
  0 5.801100 -9.933900 -0.014500 0.707107 -0.707107 0.000000 0.396900 0.078900 1 0 1.000000
  0 6.101100 -9.633900 -0.014500 0.707107 -0.707107 0.000000 0.407200 0.078900 1 0 1.000000
  0 5.801100 -9.933900 10.346000 0.707107 -0.707107 0.000000 0.396900 0.325500 1 0 1.000000
largeboxbrounds
  0 6.101100 -9.633900 10.346200 0.707107 -0.707107 0.000000 0.407200 0.325500 1 0 1.000000
  0 5.801100 -9.933900 10.346000 0.707107 -0.707107 0.000000 0.396900 0.325500 1 0 1.000000
  0 6.101100 -9.633900 -0.014500 0.707107 -0.707107 0.000000 0.407200 0.078900 1 0 1.000000
largeboxbrounds
  0 -2.033700 -8.833900 -0.014500 0.707107 -0.707107 0.000000 0.182200 0.078900 1 0 1.000000
  0 -1.733700 -8.533900 -0.014500 0.707107 -0.707107 0.000000 0.192400 0.078900 1 0 1.000000
  0 -2.033700 -8.833900 10.345400 0.707107 -0.707107 0.000000 0.182200 0.325500 1 0 1.000000
largeboxbrounds
  0 -1.733700 -8.533900 10.345400 0.707107 -0.707107 0.000000 0.192400 0.325500 1 0 1.000000
  0 -2.033700 -8.833900 10.345400 0.707107 -0.707107 0.000000 0.182200 0.325500 1 0 1.000000
  0 -1.733700 -8.533900 -0.014500 0.707107 -0.707107 0.000000 0.192400 0.078900 1 0 1.000000
largeboxbrounds
  0 1.733700 -8.533900 -0.014500 -0.707107 -0.707107 0.000000 0.275000 0.078900 1 0 1.000000
  0 2.033700 -8.833900 -0.014500 -0.707107 -0.707107 0.000000 0.285100 0.078900 1 0 1.000000
  0 1.733700 -8.533900 10.345400 -0.707107 -0.707107 0.000000 0.275000 0.325500 1 0 1.000000
largeboxbrounds
  0 2.033700 -8.833900 10.345400 -0.707107 -0.707107 0.000000 0.285100 0.325500 1 0 1.000000
  0 1.733700 -8.533900 10.345400 -0.707107 -0.707107 0.000000 0.275000 0.325500 1 0 1.000000
  0 2.033700 -8.833900 -0.014500 -0.707107 -0.707107 0.000000 0.285100 0.078900 1 0 1.000000
largeboxbrounds
  0 -6.101099 -9.633900 -0.014500 -0.707107 -0.707107 0.000000 0.060200 0.078900 1 0 1.000000
  0 -5.801099 -9.933900 -0.014500 -0.707107 -0.707107 0.000000 0.070300 0.078900 1 0 1.000000
  0 -6.101099 -9.633900 10.346200 -0.707107 -0.707107 0.000000 0.060200 0.325500 1 0 1.000000
largeboxbrounds
  0 -5.801099 -9.933900 10.346000 -0.707107 -0.707107 0.000000 0.070300 0.325500 1 0 1.000000
  0 -6.101099 -9.633900 10.346200 -0.707107 -0.707107 0.000000 0.060200 0.325500 1 0 1.000000
  0 -5.801099 -9.933900 -0.014500 -0.707107 -0.707107 0.000000 0.070300 0.078900 1 0 1.000000
largeboxbrounds
  0 -6.101099 -9.633900 -0.014500 0.000000 0.000000 -1.000000 0.531400 0.633400 1 0 1.000000
  0 -6.101099 -6.498800 -0.014500 0.000000 0.000000 -1.000000 0.604600 0.633400 1 0 1.000000
  0 -5.801099 -6.198801 -0.014500 0.000000 0.000000 -1.000000 0.611600 0.640400 1 0 1.000000
largeboxbrounds
  0 -6.101099 -9.633900 -0.014500 0.000000 0.000000 -1.000000 0.531400 0.633400 1 0 1.000000
  0 -5.801099 -6.198801 -0.014500 0.000000 0.000000 -1.000000 0.611600 0.640400 1 0 1.000000
  0 -2.033700 -8.833900 -0.014500 0.000000 0.000000 -1.000000 0.550100 0.728400 1 0 1.000000
largeboxbrounds
  0 -5.801099 -6.198801 -0.014500 0.000000 0.000000 -1.000000 0.611600 0.640400 1 0 1.000000
  0 -5.001100 -6.198800 -0.014500 0.000000 0.000000 -1.000000 0.611600 0.659100 1 0 1.000000
  0 -2.033700 -8.833900 -0.014500 0.000000 0.000000 -1.000000 0.550100 0.728400 1 0 1.000000
largeboxbrounds
  0 -2.033700 -8.833900 -0.014500 0.000000 0.000000 -1.000000 0.550100 0.728400 1 0 1.000000
  0 -5.001100 -6.198800 -0.014500 0.000000 0.000000 -1.000000 0.611600 0.659100 1 0 1.000000
  0 -4.701099 -5.898800 -0.014500 0.000000 0.000000 -1.000000 0.618600 0.666100 1 0 1.000000
largeboxbrounds
  0 -2.033700 -8.833900 -0.014500 0.000000 0.000000 -1.000000 0.550100 0.728400 1 0 1.000000
  0 -4.701099 -5.898800 -0.014500 0.000000 0.000000 -1.000000 0.618600 0.666100 1 0 1.000000
  0 -1.733700 -8.533900 -0.014500 0.000000 0.000000 -1.000000 0.557100 0.735400 1 0 1.000000
largeboxbrounds
  0 -4.701099 -5.898800 -0.014500 0.000000 0.000000 -1.000000 0.618600 0.666100 1 0 1.000000
  0 1.733700 -8.533900 -0.014500 0.000000 0.000000 -1.000000 0.557100 0.816300 1 0 1.000000
  0 -1.733700 -8.533900 -0.014500 0.000000 0.000000 -1.000000 0.557100 0.735400 1 0 1.000000
largeboxbrounds
  0 -2.033700 -8.833900 -0.014500 0.000000 0.000000 -1.000000 0.550100 0.728400 1 0 1.000000
  0 -2.033700 -9.633900 -0.014500 0.000000 0.000000 -1.000000 0.531400 0.728400 1 0 1.000000
  0 -2.333699 -9.933900 -0.014500 0.000000 0.000000 -1.000000 0.524400 0.721400 1 0 1.000000
largeboxbrounds
  0 -2.033700 -8.833900 -0.014500 0.000000 0.000000 -1.000000 0.550100 0.728400 1 0 1.000000
  0 -2.333699 -9.933900 -0.014500 0.000000 0.000000 -1.000000 0.524400 0.721400 1 0 1.000000
  0 -5.801099 -9.933900 -0.014500 0.000000 0.000000 -1.000000 0.524400 0.640400 1 0 1.000000
largeboxbrounds
  0 -5.801099 -9.933900 -0.014500 0.000000 0.000000 -1.000000 0.524400 0.640400 1 0 1.000000
  0 -6.101099 -9.633900 -0.014500 0.000000 0.000000 -1.000000 0.531400 0.633400 1 0 1.000000
  0 -2.033700 -8.833900 -0.014500 0.000000 0.000000 -1.000000 0.550100 0.728400 1 0 1.000000
largeboxbrounds
  0 2.035000 8.837100 -0.014500 0.000000 0.000000 -1.000000 0.962600 0.823300 1 0 1.000000
  0 2.035000 9.637100 -0.014500 0.000000 0.000000 -1.000000 0.981300 0.823300 1 0 1.000000
  0 2.335000 9.937100 -0.014500 0.000000 0.000000 -1.000000 0.988300 0.830300 1 0 1.000000
largeboxbrounds
  0 2.035000 8.837100 -0.014500 0.000000 0.000000 -1.000000 0.962600 0.823300 1 0 1.000000
  0 2.335000 9.937100 -0.014500 0.000000 0.000000 -1.000000 0.988300 0.830300 1 0 1.000000
  0 5.802400 9.937100 -0.014500 0.000000 0.000000 -1.000000 0.988300 0.911300 1 0 1.000000
largeboxbrounds
  0 5.802400 9.937100 -0.014500 0.000000 0.000000 -1.000000 0.988300 0.911300 1 0 1.000000
  0 6.102399 9.637100 -0.014500 0.000000 0.000000 -1.000000 0.981300 0.918300 1 0 1.000000
  0 2.035000 8.837100 -0.014500 0.000000 0.000000 -1.000000 0.962600 0.823300 1 0 1.000000
largeboxbrounds
  0 6.102399 9.637100 -0.014500 0.000000 0.000000 -1.000000 0.981300 0.918300 1 0 1.000000
  0 6.102399 6.501901 -0.014500 0.000000 0.000000 -1.000000 0.908100 0.918300 1 0 1.000000
  0 2.035000 8.837100 -0.014500 0.000000 0.000000 -1.000000 0.962600 0.823300 1 0 1.000000
largeboxbrounds
  0 6.102399 6.501901 -0.014500 0.000000 0.000000 -1.000000 0.908100 0.918300 1 0 1.000000
  0 5.802400 6.201900 -0.014500 0.000000 0.000000 -1.000000 0.901100 0.911300 1 0 1.000000
  0 2.035000 8.837100 -0.014500 0.000000 0.000000 -1.000000 0.962600 0.823300 1 0 1.000000
largeboxbrounds
  0 5.802400 6.201900 -0.014500 0.000000 0.000000 -1.000000 0.901100 0.911300 1 0 1.000000
  0 5.002399 6.201900 -0.014500 0.000000 0.000000 -1.000000 0.901100 0.892600 1 0 1.000000
  0 2.035000 8.837100 -0.014500 0.000000 0.000000 -1.000000 0.962600 0.823300 1 0 1.000000
largeboxbrounds
  0 2.035000 8.837100 -0.014500 0.000000 0.000000 -1.000000 0.962600 0.823300 1 0 1.000000
  0 5.002399 6.201900 -0.014500 0.000000 0.000000 -1.000000 0.901100 0.892600 1 0 1.000000
  0 4.701799 5.900300 -0.014500 0.000000 0.000000 -1.000000 0.894100 0.885600 1 0 1.000000
largeboxbrounds
  0 2.035000 8.837100 -0.014500 0.000000 0.000000 -1.000000 0.962600 0.823300 1 0 1.000000
  0 4.701799 5.900300 -0.014500 0.000000 0.000000 -1.000000 0.894100 0.885600 1 0 1.000000
  0 1.735000 8.537100 -0.014500 0.000000 0.000000 -1.000000 0.955600 0.816300 1 0 1.000000
largeboxbrounds
  0 4.701799 5.900300 -0.014500 0.000000 0.000000 -1.000000 0.894100 0.885600 1 0 1.000000
  0 -1.732400 8.537100 -0.014500 0.000000 0.000000 -1.000000 0.955600 0.735400 1 0 1.000000
  0 1.735000 8.537100 -0.014500 0.000000 0.000000 -1.000000 0.955600 0.816300 1 0 1.000000
largeboxbrounds
  0 4.701799 5.900300 -0.014500 0.000000 0.000000 -1.000000 0.894100 0.885600 1 0 1.000000
  0 -4.700500 5.900300 -0.014500 0.000000 0.000000 -1.000000 0.894100 0.666100 1 0 1.000000
  0 -1.732400 8.537100 -0.014500 0.000000 0.000000 -1.000000 0.955600 0.735400 1 0 1.000000
largeboxbrounds
  0 4.701100 -5.898800 -0.014500 0.000000 0.000000 -1.000000 0.618600 0.885600 1 0 1.000000
  0 -4.700500 5.900300 -0.014500 0.000000 0.000000 -1.000000 0.894100 0.666100 1 0 1.000000
  0 4.701799 5.900300 -0.014500 0.000000 0.000000 -1.000000 0.894100 0.885600 1 0 1.000000
largeboxbrounds
  0 4.701100 -5.898800 -0.014500 0.000000 0.000000 -1.000000 0.618600 0.885600 1 0 1.000000
  0 -4.701099 -5.898800 -0.014500 0.000000 0.000000 -1.000000 0.618600 0.666100 1 0 1.000000
  0 -4.700500 5.900300 -0.014500 0.000000 0.000000 -1.000000 0.894100 0.666100 1 0 1.000000
largeboxbrounds
  0 -4.701099 -5.898800 -0.014500 0.000000 0.000000 -1.000000 0.618600 0.666100 1 0 1.000000
  0 4.701100 -5.898800 -0.014500 0.000000 0.000000 -1.000000 0.618600 0.885600 1 0 1.000000
  0 1.733700 -8.533900 -0.014500 0.000000 0.000000 -1.000000 0.557100 0.816300 1 0 1.000000
largeboxbrounds
  0 1.733700 -8.533900 -0.014500 0.000000 0.000000 -1.000000 0.557100 0.816300 1 0 1.000000
  0 4.701100 -5.898800 -0.014500 0.000000 0.000000 -1.000000 0.618600 0.885600 1 0 1.000000
  0 5.001101 -6.198800 -0.014500 0.000000 0.000000 -1.000000 0.611600 0.892600 1 0 1.000000
largeboxbrounds
  0 1.733700 -8.533900 -0.014500 0.000000 0.000000 -1.000000 0.557100 0.816300 1 0 1.000000
  0 5.001101 -6.198800 -0.014500 0.000000 0.000000 -1.000000 0.611600 0.892600 1 0 1.000000
  0 5.801100 -6.198800 -0.014500 0.000000 0.000000 -1.000000 0.611600 0.911200 1 0 1.000000
largeboxbrounds
  0 2.033700 -8.833900 -0.014500 0.000000 0.000000 -1.000000 0.550100 0.823300 1 0 1.000000
  0 1.733700 -8.533900 -0.014500 0.000000 0.000000 -1.000000 0.557100 0.816300 1 0 1.000000
  0 5.801100 -6.198800 -0.014500 0.000000 0.000000 -1.000000 0.611600 0.911200 1 0 1.000000
largeboxbrounds
  0 2.033700 -9.633900 -0.014500 0.000000 0.000000 -1.000000 0.531400 0.823300 1 0 1.000000
  0 2.033700 -8.833900 -0.014500 0.000000 0.000000 -1.000000 0.550100 0.823300 1 0 1.000000
  0 5.801100 -6.198800 -0.014500 0.000000 0.000000 -1.000000 0.611600 0.911200 1 0 1.000000
largeboxbrounds
  0 5.801100 -6.198800 -0.014500 0.000000 0.000000 -1.000000 0.611600 0.911200 1 0 1.000000
  0 6.101100 -6.498799 -0.014500 0.000000 0.000000 -1.000000 0.604600 0.918300 1 0 1.000000
  0 2.033700 -9.633900 -0.014500 0.000000 0.000000 -1.000000 0.531400 0.823300 1 0 1.000000
largeboxbrounds
  0 2.333700 -9.933900 -0.014500 0.000000 0.000000 -1.000000 0.524400 0.830300 1 0 1.000000
  0 2.033700 -9.633900 -0.014500 0.000000 0.000000 -1.000000 0.531400 0.823300 1 0 1.000000
  0 6.101100 -6.498799 -0.014500 0.000000 0.000000 -1.000000 0.604600 0.918300 1 0 1.000000
largeboxbrounds
  0 6.101100 -6.498799 -0.014500 0.000000 0.000000 -1.000000 0.604600 0.918300 1 0 1.000000
  0 5.801100 -9.933900 -0.014500 0.000000 0.000000 -1.000000 0.524400 0.911200 1 0 1.000000
  0 2.333700 -9.933900 -0.014500 0.000000 0.000000 -1.000000 0.524400 0.830300 1 0 1.000000
largeboxbrounds
  0 6.101100 -6.498799 -0.014500 0.000000 0.000000 -1.000000 0.604600 0.918300 1 0 1.000000
  0 6.101100 -9.633900 -0.014500 0.000000 0.000000 -1.000000 0.531400 0.918300 1 0 1.000000
  0 5.801100 -9.933900 -0.014500 0.000000 0.000000 -1.000000 0.524400 0.911200 1 0 1.000000
largeboxbrounds
  0 -6.099900 6.501900 -0.014500 0.000000 0.000000 -1.000000 0.908100 0.633400 1 0 1.000000
  0 -6.099900 9.637100 -0.014500 0.000000 0.000000 -1.000000 0.981300 0.633400 1 0 1.000000
  0 -5.799901 9.937100 -0.014500 0.000000 0.000000 -1.000000 0.988300 0.640400 1 0 1.000000
largeboxbrounds
  0 -6.099900 6.501900 -0.014500 0.000000 0.000000 -1.000000 0.908100 0.633400 1 0 1.000000
  0 -5.799901 9.937100 -0.014500 0.000000 0.000000 -1.000000 0.988300 0.640400 1 0 1.000000
  0 -2.332401 9.937100 -0.014500 0.000000 0.000000 -1.000000 0.988300 0.721400 1 0 1.000000
largeboxbrounds
  0 -2.332401 9.937100 -0.014500 0.000000 0.000000 -1.000000 0.988300 0.721400 1 0 1.000000
  0 -2.032400 9.637100 -0.014500 0.000000 0.000000 -1.000000 0.981300 0.728400 1 0 1.000000
  0 -6.099900 6.501900 -0.014500 0.000000 0.000000 -1.000000 0.908100 0.633400 1 0 1.000000
largeboxbrounds
  0 -5.799901 6.201900 -0.014500 0.000000 0.000000 -1.000000 0.901100 0.640400 1 0 1.000000
  0 -6.099900 6.501900 -0.014500 0.000000 0.000000 -1.000000 0.908100 0.633400 1 0 1.000000
  0 -2.032400 9.637100 -0.014500 0.000000 0.000000 -1.000000 0.981300 0.728400 1 0 1.000000
largeboxbrounds
  0 -2.032400 9.637100 -0.014500 0.000000 0.000000 -1.000000 0.981300 0.728400 1 0 1.000000
  0 -2.032400 8.837100 -0.014500 0.000000 0.000000 -1.000000 0.962600 0.728400 1 0 1.000000
  0 -5.799901 6.201900 -0.014500 0.000000 0.000000 -1.000000 0.901100 0.640400 1 0 1.000000
largeboxbrounds
  0 -2.032400 8.837100 -0.014500 0.000000 0.000000 -1.000000 0.962600 0.728400 1 0 1.000000
  0 -1.732400 8.537100 -0.014500 0.000000 0.000000 -1.000000 0.955600 0.735400 1 0 1.000000
  0 -5.799901 6.201900 -0.014500 0.000000 0.000000 -1.000000 0.901100 0.640400 1 0 1.000000
largeboxbrounds
  0 -1.732400 8.537100 -0.014500 0.000000 0.000000 -1.000000 0.955600 0.735400 1 0 1.000000
  0 -4.999900 6.201900 -0.014500 0.000000 0.000000 -1.000000 0.901100 0.659100 1 0 1.000000
  0 -5.799901 6.201900 -0.014500 0.000000 0.000000 -1.000000 0.901100 0.640400 1 0 1.000000
largeboxbrounds
  0 -1.732400 8.537100 -0.014500 0.000000 0.000000 -1.000000 0.955600 0.735400 1 0 1.000000
  0 -4.700500 5.900300 -0.014500 0.000000 0.000000 -1.000000 0.894100 0.666100 1 0 1.000000
  0 -4.999900 6.201900 -0.014500 0.000000 0.000000 -1.000000 0.901100 0.659100 1 0 1.000000
largeboxbrounds
  0 1.733700 -8.533900 10.345400 0.000000 -1.000000 0.000000 0.275000 0.325500 1 0 1.000000
  0 -1.733700 -8.533900 10.345400 0.000000 -1.000000 0.000000 0.192400 0.325500 1 0 1.000000
  0 -1.733700 -8.533900 -0.014500 0.000000 -1.000000 0.000000 0.192400 0.078900 1 0 1.000000
largeboxbrounds
  0 -1.733700 -8.533900 -0.014500 0.000000 -1.000000 0.000000 0.192400 0.078900 1 0 1.000000
  0 1.733700 -8.533900 -0.014500 0.000000 -1.000000 0.000000 0.275000 0.078900 1 0 1.000000
  0 1.733700 -8.533900 10.345400 0.000000 -1.000000 0.000000 0.275000 0.325500 1 0 1.000000
largeboxbrounds
  0 5.801100 -9.933900 10.346000 0.000000 -1.000000 0.000000 0.396900 0.325500 1 0 1.000000
  0 2.333700 -9.933900 10.345400 0.000000 -1.000000 0.000000 0.314300 0.325500 1 0 1.000000
  0 2.333700 -9.933900 -0.014500 0.000000 -1.000000 0.000000 0.314300 0.078900 1 0 1.000000
largeboxbrounds
  0 2.333700 -9.933900 -0.014500 0.000000 -1.000000 0.000000 0.314300 0.078900 1 0 1.000000
  0 5.801100 -9.933900 -0.014500 0.000000 -1.000000 0.000000 0.396900 0.078900 1 0 1.000000
  0 5.801100 -9.933900 10.346000 0.000000 -1.000000 0.000000 0.396900 0.325500 1 0 1.000000
largeboxbrounds
  0 6.101100 -6.498799 10.347500 1.000000 0.000000 0.000000 0.482100 0.325600 1 0 1.000000
  0 6.101100 -9.633900 10.346200 1.000000 0.000000 0.000000 0.407200 0.325500 1 0 1.000000
  0 6.101100 -9.633900 -0.014500 1.000000 0.000000 0.000000 0.407200 0.078900 1 0 1.000000
largeboxbrounds
  0 6.101100 -9.633900 -0.014500 1.000000 0.000000 0.000000 0.407200 0.078900 1 0 1.000000
  0 6.101100 -6.498799 -0.014500 1.000000 0.000000 0.000000 0.482100 0.078900 1 0 1.000000
  0 6.101100 -6.498799 10.347500 1.000000 0.000000 0.000000 0.482100 0.325600 1 0 1.000000
largeboxbrounds
  0 4.701799 5.900300 10.347900 1.000000 -0.000100 0.000000 0.803400 0.325600 1 0 1.000000
  0 4.701100 -5.898800 10.349400 1.000000 -0.000100 0.000000 0.522200 0.325600 1 0 1.000000
  0 4.701100 -5.898800 -0.014500 1.000000 -0.000100 0.000000 0.522200 0.078900 1 0 1.000000
largeboxbrounds
  0 4.701100 -5.898800 -0.014500 1.000000 -0.000100 0.000000 0.522200 0.078900 1 0 1.000000
  0 4.701799 5.900300 -0.014500 1.000000 -0.000100 0.000000 0.803400 0.078900 1 0 1.000000
  0 4.701799 5.900300 10.347900 1.000000 -0.000100 0.000000 0.803400 0.325600 1 0 1.000000
largeboxbrounds
  0 -4.701099 -5.898800 10.349100 -1.000000 0.000100 0.000000 0.804200 0.611900 1 0 1.000000
  0 -4.700500 5.900300 10.348000 -1.000000 0.000100 0.000000 0.523200 0.611900 1 0 1.000000
  0 -4.700500 5.900300 -0.014500 -1.000000 0.000100 0.000000 0.523200 0.365100 1 0 1.000000
largeboxbrounds
  0 -4.700500 5.900300 -0.014500 -1.000000 0.000100 0.000000 0.523200 0.365100 1 0 1.000000
  0 -4.701099 -5.898800 -0.014500 -1.000000 0.000100 0.000000 0.804200 0.365100 1 0 1.000000
  0 -4.701099 -5.898800 10.349100 -1.000000 0.000100 0.000000 0.804200 0.611900 1 0 1.000000
largeboxbrounds
  0 -6.101099 -9.633900 10.346200 -1.000000 0.000000 0.000000 0.918500 0.611800 1 0 1.000000
  0 -6.101099 -6.498800 10.347500 -1.000000 0.000000 0.000000 0.843800 0.611800 1 0 1.000000
  0 -6.101099 -6.498800 -0.014500 -1.000000 0.000000 0.000000 0.843800 0.365100 1 0 1.000000
largeboxbrounds
  0 -6.101099 -6.498800 -0.014500 -1.000000 0.000000 0.000000 0.843800 0.365100 1 0 1.000000
  0 -6.101099 -9.633900 -0.014500 -1.000000 0.000000 0.000000 0.918500 0.365100 1 0 1.000000
  0 -6.101099 -9.633900 10.346200 -1.000000 0.000000 0.000000 0.918500 0.611800 1 0 1.000000
largeboxbrounds
  0 -2.033700 -8.833900 -0.014500 1.000000 0.000000 0.000000 0.182200 0.078900 1 0 1.000000
  0 -2.033700 -8.833900 10.345400 1.000000 0.000000 0.000000 0.182200 0.325500 1 0 1.000000
  0 -2.033700 -9.633900 10.345400 1.000000 0.000000 0.000000 0.163100 0.325500 1 0 1.000000
largeboxbrounds
  0 -2.033700 -9.633900 10.345400 1.000000 0.000000 0.000000 0.163100 0.325500 1 0 1.000000
  0 -2.033700 -9.633900 -0.014500 1.000000 0.000000 0.000000 0.163100 0.078900 1 0 1.000000
  0 -2.033700 -8.833900 -0.014500 1.000000 0.000000 0.000000 0.182200 0.078900 1 0 1.000000
largeboxbrounds
  0 2.033700 -8.833900 10.345400 -1.000000 0.000000 0.000000 0.285100 0.325500 1 0 1.000000
  0 2.033700 -8.833900 -0.014500 -1.000000 0.000000 0.000000 0.285100 0.078900 1 0 1.000000
  0 2.033700 -9.633900 -0.014500 -1.000000 0.000000 0.000000 0.304100 0.078900 1 0 1.000000
largeboxbrounds
  0 2.033700 -9.633900 -0.014500 -1.000000 0.000000 0.000000 0.304100 0.078900 1 0 1.000000
  0 2.033700 -9.633900 10.345400 -1.000000 0.000000 0.000000 0.304100 0.325500 1 0 1.000000
  0 2.033700 -8.833900 10.345400 -1.000000 0.000000 0.000000 0.285100 0.325500 1 0 1.000000
largeboxbrounds
  0 5.001101 -6.198800 -0.014500 0.000000 1.000000 0.000000 0.511800 0.078900 1 0 1.000000
  0 5.001101 -6.198800 10.349100 0.000000 1.000000 0.000000 0.511800 0.325600 1 0 1.000000
  0 5.801100 -6.198800 10.348000 0.000000 1.000000 0.000000 0.492600 0.325600 1 0 1.000000
largeboxbrounds
  0 5.801100 -6.198800 10.348000 0.000000 1.000000 0.000000 0.492600 0.325600 1 0 1.000000
  0 5.801100 -6.198800 -0.014500 0.000000 1.000000 0.000000 0.492600 0.078900 1 0 1.000000
  0 5.001101 -6.198800 -0.014500 0.000000 1.000000 0.000000 0.511800 0.078900 1 0 1.000000
largeboxbrounds
  0 -5.001100 -6.198800 10.348800 0.000000 1.000000 0.000000 0.814400 0.611900 1 0 1.000000
  0 -5.001100 -6.198800 -0.014500 0.000000 1.000000 0.000000 0.814400 0.365100 1 0 1.000000
  0 -5.801099 -6.198801 -0.014500 0.000000 1.000000 0.000000 0.833500 0.365100 1 0 1.000000
largeboxbrounds
  0 -5.801099 -6.198801 -0.014500 0.000000 1.000000 0.000000 0.833500 0.365100 1 0 1.000000
  0 -5.801099 -6.198801 10.348000 0.000000 1.000000 0.000000 0.833500 0.611900 1 0 1.000000
  0 -5.001100 -6.198800 10.348800 0.000000 1.000000 0.000000 0.814400 0.611900 1 0 1.000000
largeboxbrounds
  0 2.335000 9.937100 10.345400 0.000000 1.000000 0.000000 0.154400 0.611800 1 0 1.000000
  0 5.802400 9.937100 10.346000 0.000000 1.000000 0.000000 0.071600 0.611800 1 0 1.000000
  0 5.802400 9.937100 -0.014500 0.000000 1.000000 0.000000 0.071600 0.365100 1 0 1.000000
largeboxbrounds
  0 5.802400 9.937100 -0.014500 0.000000 1.000000 0.000000 0.071600 0.365100 1 0 1.000000
  0 2.335000 9.937100 -0.014500 0.000000 1.000000 0.000000 0.154400 0.365100 1 0 1.000000
  0 2.335000 9.937100 10.345400 0.000000 1.000000 0.000000 0.154400 0.611800 1 0 1.000000
largeboxbrounds
  0 -1.732400 8.537100 10.345400 0.000000 1.000000 0.000000 0.276400 0.611800 1 0 1.000000
  0 1.735000 8.537100 10.345400 0.000000 1.000000 0.000000 0.193900 0.611800 1 0 1.000000
  0 1.735000 8.537100 -0.014500 0.000000 1.000000 0.000000 0.193900 0.365100 1 0 1.000000
largeboxbrounds
  0 1.735000 8.537100 -0.014500 0.000000 1.000000 0.000000 0.193900 0.365100 1 0 1.000000
  0 -1.732400 8.537100 -0.014500 0.000000 1.000000 0.000000 0.276400 0.365100 1 0 1.000000
  0 -1.732400 8.537100 10.345400 0.000000 1.000000 0.000000 0.276400 0.611800 1 0 1.000000
largeboxbrounds
  0 -5.799901 9.937100 10.346000 0.000000 1.000000 0.000000 0.398300 0.611800 1 0 1.000000
  0 -2.332401 9.937100 10.345400 0.000000 1.000000 0.000000 0.315900 0.611800 1 0 1.000000
  0 -2.332401 9.937100 -0.014500 0.000000 1.000000 0.000000 0.315900 0.365100 1 0 1.000000
largeboxbrounds
  0 -2.332401 9.937100 -0.014500 0.000000 1.000000 0.000000 0.315900 0.365100 1 0 1.000000
  0 -5.799901 9.937100 -0.014500 0.000000 1.000000 0.000000 0.398300 0.365100 1 0 1.000000
  0 -5.799901 9.937100 10.346000 0.000000 1.000000 0.000000 0.398300 0.611800 1 0 1.000000
largeboxbrounds
  0 -6.099900 6.501900 10.347500 -1.000000 0.000000 0.000000 0.483500 0.611800 1 0 1.000000
  0 -6.099900 9.637100 10.346200 -1.000000 0.000000 0.000000 0.408600 0.611800 1 0 1.000000
  0 -6.099900 9.637100 -0.014500 -1.000000 0.000000 0.000000 0.408600 0.365100 1 0 1.000000
largeboxbrounds
  0 -6.099900 9.637100 -0.014500 -1.000000 0.000000 0.000000 0.408600 0.365100 1 0 1.000000
  0 -6.099900 6.501900 -0.014500 -1.000000 0.000000 0.000000 0.483500 0.365100 1 0 1.000000
  0 -6.099900 6.501900 10.347500 -1.000000 0.000000 0.000000 0.483500 0.611800 1 0 1.000000
largeboxbrounds
  0 6.102399 9.637100 10.346200 1.000000 0.000000 0.000000 0.918000 0.325500 1 0 1.000000
  0 6.102399 6.501901 10.347500 1.000000 0.000000 0.000000 0.843300 0.325600 1 0 1.000000
  0 6.102399 6.501901 -0.014500 1.000000 0.000000 0.000000 0.843300 0.078900 1 0 1.000000
largeboxbrounds
  0 6.102399 6.501901 -0.014500 1.000000 0.000000 0.000000 0.843300 0.078900 1 0 1.000000
  0 6.102399 9.637100 -0.014500 1.000000 0.000000 0.000000 0.918000 0.078900 1 0 1.000000
  0 6.102399 9.637100 10.346200 1.000000 0.000000 0.000000 0.918000 0.325500 1 0 1.000000
largeboxbrounds
  0 2.035000 8.837100 -0.014500 -1.000000 0.000000 0.000000 0.183700 0.365100 1 0 1.000000
  0 2.035000 8.837100 10.345400 -1.000000 0.000000 0.000000 0.183700 0.611800 1 0 1.000000
  0 2.035000 9.637100 10.345400 -1.000000 0.000000 0.000000 0.164600 0.611800 1 0 1.000000
largeboxbrounds
  0 2.035000 9.637100 10.345400 -1.000000 0.000000 0.000000 0.164600 0.611800 1 0 1.000000
  0 2.035000 9.637100 -0.014500 -1.000000 0.000000 0.000000 0.164600 0.365100 1 0 1.000000
  0 2.035000 8.837100 -0.014500 -1.000000 0.000000 0.000000 0.183700 0.365100 1 0 1.000000
largeboxbrounds
  0 -2.032400 8.837100 10.345400 1.000000 0.000000 0.000000 0.286600 0.611800 1 0 1.000000
  0 -2.032400 8.837100 -0.014500 1.000000 0.000000 0.000000 0.286600 0.365100 1 0 1.000000
  0 -2.032400 9.637100 -0.014500 1.000000 0.000000 0.000000 0.305800 0.365100 1 0 1.000000
largeboxbrounds
  0 -2.032400 9.637100 -0.014500 1.000000 0.000000 0.000000 0.305800 0.365100 1 0 1.000000
  0 -2.032400 9.637100 10.345400 1.000000 0.000000 0.000000 0.305800 0.611800 1 0 1.000000
  0 -2.032400 8.837100 10.345400 1.000000 0.000000 0.000000 0.286600 0.611800 1 0 1.000000
largeboxbrounds
  0 -4.999900 6.201900 -0.014500 0.000000 -1.000000 0.000000 0.512900 0.365100 1 0 1.000000
  0 -4.999900 6.201900 10.349100 0.000000 -1.000000 0.000000 0.512900 0.611900 1 0 1.000000
  0 -5.799901 6.201900 10.348000 0.000000 -1.000000 0.000000 0.493800 0.611900 1 0 1.000000
largeboxbrounds
  0 -5.799901 6.201900 10.348000 0.000000 -1.000000 0.000000 0.493800 0.611900 1 0 1.000000
  0 -5.799901 6.201900 -0.014500 0.000000 -1.000000 0.000000 0.493800 0.365100 1 0 1.000000
  0 -4.999900 6.201900 -0.014500 0.000000 -1.000000 0.000000 0.512900 0.365100 1 0 1.000000
largeboxbrounds
  0 5.002399 6.201900 10.348800 0.000000 -1.000000 0.000000 0.813900 0.325600 1 0 1.000000
  0 5.002399 6.201900 -0.014500 0.000000 -1.000000 0.000000 0.813900 0.078900 1 0 1.000000
  0 5.802400 6.201900 -0.014500 0.000000 -1.000000 0.000000 0.833100 0.078900 1 0 1.000000
largeboxbrounds
  0 5.802400 6.201900 -0.014500 0.000000 -1.000000 0.000000 0.833100 0.078900 1 0 1.000000
  0 5.802400 6.201900 10.348000 0.000000 -1.000000 0.000000 0.833100 0.325600 1 0 1.000000
  0 5.002399 6.201900 10.348800 0.000000 -1.000000 0.000000 0.813900 0.325600 1 0 1.000000
end
