// Created by Crowbar 0.62

$modelname "Crow.mdl"

$bodygroup "studio"
{
	studio "Crow_reference.smd"
}

$surfaceprop "flesh"

$contents "solid"

$illumposition -0.172 -0.174 5.257

$eyeposition 0 0 4

$cdmaterials "models\crow\"

$cbox 0 0 0 0 0 0

$bbox -9.798 -16.633 -9.182 10.145 16.29 19.696

$hboxset "default"
$hbox 0 "Crow.Body" -2 -2.2 -4.38 2 2.8 2.62 ""
$hbox 0 "Crow.Tail_L" 0.37 -1.49 -0.8 5.37 1.51 1.2 ""
$hbox 0 "Crow.Head" -1.21 -2.35 -1.28 3.25 1.37 1.26 ""
$hbox 0 "Crow.Phalanges2_L" -0.78 -1.08 -4.12 10.63 1.39 6 ""
$hbox 0 "Crow.Tail_R" 0.37 -1.49 -1.2 5.37 1.51 0.8 ""
$hbox 0 "Crow.Phalanges2_R" -0.78 -1.08 -6 10.63 1.39 4.12 ""
//$skipboneinbbox

$animation "a_Fly01" "Crow_anims\Fly01.smd" {
	fps 40
	loop
}

$animation "a_Idle01" "Crow_anims\Idle01.smd" {
	fps 30
	loop
}

$animation "a_Walk" "Crow_anims\Walk.smd" {
	fps 30
	loop
	walkframe 23 LX LY
}

$animation "a_Run" "Crow_anims\Run.smd" {
	fps 30
	loop
	walkframe 11 LX LY
}

$animation "a_Eat_A" "Crow_anims\Eat_A.smd" {
	fps 30
	loop
}

$animation "a_Eat_B" "Crow_anims\Eat_B.smd" {
	fps 30
	loop
}

$animation "a_Takeoff" "Crow_anims\Takeoff.smd" {
	fps 30
}

$animation "a_Soar" "Crow_anims\Soar.smd" {
	fps 30
	loop
}

$animation "a_Land" "Crow_anims\Land.smd" {
	fps 30
}

$animation "a_Land_b" "Crow_anims\Land_b.smd" {
	fps 30
}

$animation "a_Hop" "Crow_anims\Hop.smd" {
	fps 30
}

$animation "a_Hop_B" "Crow_anims\Hop_B.smd" {
	fps 30
}

$animation "a_reference" "Crow_anims\reference.smd" {
	fps 30
}

$animation "a_ragdoll" "Crow_anims\ragdoll.smd" {
	fps 30
}

$sequence "Fly01" {
	"a_Fly01"
	activity "ACT_FLY" 1
	fadein 0.2
	fadeout 0.2
}

$sequence "Idle01" {
	"a_Idle01"
	activity "ACT_IDLE" 1
	fadein 0.2
	fadeout 0.2
}

$sequence "Walk" {
	"a_Walk"
	activity "ACT_WALK" 1
	fadein 0.2
	fadeout 0.2
}

$sequence "Run" {
	"a_Run"
	activity "ACT_RUN" 1
	fadein 0.2
	fadeout 0.2
}

$sequence "Eat_A" {
	"a_Eat_A"
	fadein 0.2
	fadeout 0.2
}

$sequence "Eat_B" {
	"a_Eat_B"
	fadein 0.2
	fadeout 0.2
}

$sequence "Takeoff" {
	"a_Takeoff"
	activity "ACT_CROW_TAKEOFF" 1
	{ event 2 7 "" }
	{ event 3 8 "" }
	fadein 0.2
	fadeout 0.2
}

$sequence "Soar" {
	"a_Soar"
	fadein 0.2
	fadeout 0.2
}

$sequence "Land" {
	"a_Land"
	fadein 0.2
	fadeout 0.2
}

$sequence "Land_b" {
	"a_Land_b"
	fadein 0.2
	fadeout 0.2
}

$sequence "Hop" {
	"a_Hop"
	activity "ACT_HOP" 1
	{ event 4 0 "" }
	fadein 0.2
	fadeout 0.2
}

$sequence "Hop_B" {
	"a_Hop_B"
	fadein 0.2
	fadeout 0.2
}

$sequence "reference" {
	"a_reference"
	fadein 0.2
	fadeout 0.2
}

$sequence "ragdoll" {
	"a_ragdoll"
	activity "ACT_DIERAGDOLL" 1
	fadein 0.2
	fadeout 0.2
}


$collisionjoints "Crow_physics.smd"
{
	$mass 1.5
	$inertia 10
	$damping 0.01
	$rotdamping 1
	$rootbone "crow.body"


	$jointconstrain "Crow.Humerus_R" x limit -23 32 1
	$jointconstrain "Crow.Humerus_R" y limit -26 44 1
	$jointconstrain "Crow.Humerus_R" z limit -37 50 1

	$jointconstrain "Crow.Ulna_R" x limit 0 0 1
	$jointconstrain "Crow.Ulna_R" y limit 0 0 0
	$jointconstrain "Crow.Ulna_R" z limit -46 10 1

	$jointconstrain "Crow.Phalanges3_R" x limit 0 0 0
	$jointconstrain "Crow.Phalanges3_R" y limit -35 0 1
	$jointconstrain "Crow.Phalanges3_R" z limit 0 0 1

	$jointconstrain "Crow.Phalanges1_R" x limit 0 0 1
	$jointconstrain "Crow.Phalanges1_R" y limit -10 10 1
	$jointconstrain "Crow.Phalanges1_R" z limit -15 15 1

	$jointconstrain "Crow.Tail_R" x limit 0 0 0
	$jointconstrain "Crow.Tail_R" y limit 28 -19 1
	$jointconstrain "Crow.Tail_R" z limit 0 23 1

	$jointconstrain "Crow.Humerus_L" x limit -23 32 1
	$jointconstrain "Crow.Humerus_L" y limit -26 44 1
	$jointconstrain "Crow.Humerus_L" z limit -37 50 1

	$jointconstrain "Crow.Ulna_L" x limit 0 0 0
	$jointconstrain "Crow.Ulna_L" y limit 0 0 0
	$jointconstrain "Crow.Ulna_L" z limit -46 10 1

	$jointconstrain "Crow.Phalanges1_L" x limit 0 0 1
	$jointconstrain "Crow.Phalanges1_L" y limit -10 10 1
	$jointconstrain "Crow.Phalanges1_L" z limit -15 15 1

	$jointconstrain "Crow.Phalanges3_L" x limit 0 0 0
	$jointconstrain "Crow.Phalanges3_L" y limit 35 0 1
	$jointconstrain "Crow.Phalanges3_L" z limit 0 0 0

	$jointconstrain "Crow.Phalanges2_L" x limit 0 0 1
	$jointconstrain "Crow.Phalanges2_L" y limit -1 30 1
	$jointconstrain "Crow.Phalanges2_L" z limit -8 8 1

	$jointconstrain "Crow.Head" x limit -21 21 1
	$jointconstrain "Crow.Head" y limit -28 28 1
	$jointconstrain "Crow.Head" z limit -55 23 1

	$jointconstrain "Crow.Tail_L" x limit 0 0 0
	$jointconstrain "Crow.Tail_L" y limit -28 19 1
	$jointconstrain "Crow.Tail_L" z limit 0 23 1

	$jointconstrain "Crow.Phalanges2_R" x limit 0 0 1
	$jointconstrain "Crow.Phalanges2_R" y limit -1 30 1
	$jointconstrain "Crow.Phalanges2_R" z limit -8 8 1
}
