version 1
nodes
  0 "Rig_Buggy.Frame" -1
  1 "Rig_Buggy.Shock_RR_Sleeve" 0
  2 "Rig_Buggy.Shock_FR_Sleeve" 0
  3 "Rig_Buggy.Axel_RR" 0
  4 "Rig_Buggy.Wheel_RR" 3
  5 "Rig_Buggy.Shock_RR_Piston" 3
  6 "Rig_Buggy.Steer_Arm" 0
  7 "Rig_Buggy.Shock_FL_Sleeve" 0
  8 "Rig_Buggy.Axel_RL" 0
  9 "Rig_Buggy.Wheel_RL" 8
  10 "Rig_Buggy.Shock_RL_Piston" 8
  11 "Rig_Buggy.Shock_RL_Sleeve" 0
  12 "Rig_Buggy.view" 0
  13 "Rig_Buggy.Gun_Base" 0
  14 "Rig_Buggy.Gun" 13
  15 "Rig_Buggy.gun_cylinders" 14
  16 "Rig_Buggy.Speedo" 0
  17 "Rig_Buggy.Wheel_FR_Turn_parent" 0
  18 "Rig_Buggy.Wheel_FR_Turn" 17
  19 "Rig_Buggy.Wheel_FR_Rotate" 18
  20 "Rig_Buggy.Axel_FR" 0
  21 "Rig_Buggy.Shock_FR_Piston" 20
  22 "Rig_Buggy.Wheel_FL_Turn_parent" 0
  23 "Rig_Buggy.Wheel_FL_Turn" 22
  24 "Rig_Buggy.Wheel_FL_Rotate" 23
  25 "Rig_Buggy.Axel_FL" 0
  26 "Rig_Buggy.Shock_FL_Piston" 25
  27 "Rig_Buggy.Steer_Wheel" 0
  28 "Rig_Buggy.lid" 0
  29 "Rig_Buggy.latch" 28
end
skeleton
  time 0
    0 -35.481688 0.000000 34.046600 1.570796 0.000000 1.570796
    1 -26.737438 9.978985 -63.177887 0.007403 -0.264986 -1.495672
    2 -26.847315 6.445414 78.520195 0.268794 0.005691 -3.065482
    3 -4.313085 -13.578558 -57.058857 3.141593 0.000000 3.141593
    4 38.013969 0.147198 -0.193551 3.141593 0.000000 -3.141593
    5 20.686598 0.469208 -0.164128 -3.110558 -0.264987 1.495673
    6 0.016516 -11.367848 70.181595 0.000000 0.000000 0.000000
    7 26.847315 6.445414 78.520195 2.876405 -0.019503 -0.071313
    8 4.313085 -13.578558 -57.058857 0.000000 0.000000 0.000000
    9 38.013966 0.147198 0.193553 3.141593 0.000000 3.141593
    10 20.605600 0.473753 0.167817 -0.024410 0.265136 1.494187
    11 26.690825 9.982033 -63.178242 0.007043 -0.265136 -1.647406
    12 9.429615 20.728470 -11.982518 -1.570796 -1.570796 0.000000
    13 -16.873423 9.784609 52.968449 0.000000 0.000000 0.000000
    14 0.020790 5.827109 -0.224471 -1.570796 -1.570796 0.000000
    15 -8.438861 0.038662 0.559093 1.570796 0.000000 1.570796
    16 5.664327 9.038126 28.830690 -1.230457 0.000000 0.000000
    17 -34.710712 -15.133160 78.859528 0.000000 0.000000 0.000000
    18 0.000000 0.217954 -0.009629 0.000000 0.000000 0.000000
    19 -6.579208 0.000000 -0.000001 0.000000 0.000000 0.000000
    20 -14.319741 -15.458982 88.923607 -1.655486 0.445705 -2.888000
    21 11.574886 -2.180909 1.427974 -1.940707 -0.171070 2.830508
    22 34.710712 -15.133160 78.859528 3.141593 0.000000 3.141593
    23 -0.000001 0.217956 0.009627 0.000000 0.000000 0.000000
    24 -6.579209 0.000000 0.000000 0.000000 0.000000 0.000000
    25 14.319743 -15.458982 88.923607 -0.057762 0.445706 -0.253592
    26 11.620371 -2.905373 2.149562 -0.263171 -0.211841 0.098316
    27 8.930669 9.895990 16.516956 -1.178097 0.000000 0.000000
    28 -10.478000 3.596270 -57.675583 0.000000 0.000000 0.000000
    29 20.682631 -0.459138 0.000005 0.000000 0.000000 0.000000
  time 1
    0 -35.481688 0.000000 34.046600 1.570796 0.000000 1.570796
    1 -26.737438 9.978985 -63.177887 0.007403 -0.264986 -1.495672
    2 -26.847315 6.445414 78.520195 0.268794 0.005691 -3.065482
    3 -4.313085 -13.578558 -57.058857 3.141593 0.000000 3.141593
    4 38.013969 0.147198 -0.193551 3.141593 0.000000 -3.141593
    5 20.686598 0.469208 -0.164128 -3.110558 -0.264987 1.495673
    6 0.016516 -11.367848 70.181595 0.000000 0.000000 0.000000
    7 26.847315 6.445414 78.520195 2.876405 -0.019503 -0.071313
    8 4.313085 -13.578558 -57.058857 0.000000 0.000000 0.000000
    9 38.013966 0.147198 0.193553 3.141593 0.000000 3.141593
    10 20.605600 0.473753 0.167817 -0.024410 0.265136 1.494187
    11 26.690825 9.982033 -63.178242 0.007043 -0.265136 -1.647406
    12 9.429615 20.728470 -11.982518 -1.570796 -1.570796 0.000000
    13 -16.873423 9.784609 52.968449 0.000000 0.000000 0.000000
    14 0.020790 5.827109 -0.224471 -1.570796 -1.570796 0.000000
    15 -8.438861 0.038662 0.559093 1.570796 0.000000 1.570796
    16 5.664327 9.038126 28.830690 -1.230457 0.000000 0.000000
    17 -34.710712 -15.133160 78.859528 0.000000 0.000000 0.000000
    18 0.000000 0.217954 -0.009629 0.000000 0.000000 0.000000
    19 -6.579208 0.000000 -0.000001 0.000000 0.000000 0.000000
    20 -14.319741 -15.458982 88.923607 -1.655486 0.445705 -2.888000
    21 11.574886 -2.180909 1.427974 -1.940707 -0.171070 2.830508
    22 34.710712 -15.133160 78.859528 3.141593 0.000000 3.141593
    23 -0.000001 0.217956 0.009627 0.000000 0.000000 0.000000
    24 -6.579209 0.000000 0.000000 0.000000 0.000000 0.000000
    25 14.319743 -15.458982 88.923607 -0.057762 0.445706 -0.253592
    26 11.620371 -2.905373 2.149562 -0.263171 -0.211841 0.098316
    27 8.930669 9.895990 16.516956 -1.178097 0.000000 0.000000
    28 -10.478000 3.596270 -57.675583 0.000000 0.000000 -0.018241
    29 20.682631 -0.459138 0.000005 0.000000 0.000000 0.104789
  time 2
    0 -35.481688 0.000000 34.046600 1.570796 0.000000 1.570796
    1 -26.737438 9.978985 -63.177887 0.007403 -0.264986 -1.495672
    2 -26.847315 6.445414 78.520195 0.268794 0.005691 -3.065482
    3 -4.313085 -13.578558 -57.058857 3.141593 0.000000 3.141593
    4 38.013969 0.147198 -0.193551 3.141593 0.000000 -3.141593
    5 20.686598 0.469208 -0.164128 -3.110558 -0.264987 1.495673
    6 0.016516 -11.367848 70.181595 0.000000 0.000000 0.000000
    7 26.847315 6.445414 78.520195 2.876405 -0.019503 -0.071313
    8 4.313085 -13.578558 -57.058857 0.000000 0.000000 0.000000
    9 38.013966 0.147198 0.193553 3.141593 0.000000 3.141593
    10 20.605600 0.473753 0.167817 -0.024410 0.265136 1.494187
    11 26.690825 9.982033 -63.178242 0.007043 -0.265136 -1.647406
    12 9.429615 20.728470 -11.982518 -1.570796 -1.570796 0.000000
    13 -16.873423 9.784609 52.968449 0.000000 0.000000 0.000000
    14 0.020790 5.827109 -0.224471 -1.570796 -1.570796 0.000000
    15 -8.438861 0.038662 0.559093 1.570796 0.000000 1.570796
    16 5.664327 9.038126 28.830690 -1.230457 0.000000 0.000000
    17 -34.710712 -15.133160 78.859528 0.000000 0.000000 0.000000
    18 0.000000 0.217954 -0.009629 0.000000 0.000000 0.000000
    19 -6.579208 0.000000 -0.000001 0.000000 0.000000 0.000000
    20 -14.319741 -15.458982 88.923607 -1.655486 0.445705 -2.888000
    21 11.574886 -2.180909 1.427974 -1.940707 -0.171070 2.830508
    22 34.710712 -15.133160 78.859528 3.141593 0.000000 3.141593
    23 -0.000001 0.217956 0.009627 0.000000 0.000000 0.000000
    24 -6.579209 0.000000 0.000000 0.000000 0.000000 0.000000
    25 14.319743 -15.458982 88.923607 -0.057762 0.445706 -0.253592
    26 11.620371 -2.905373 2.149562 -0.263171 -0.211841 0.098316
    27 8.930669 9.895990 16.516956 -1.178097 0.000000 0.000000
    28 -10.478000 3.596270 -57.675583 0.000000 0.000000 -0.034215
    29 20.682631 -0.459138 0.000005 0.000000 0.000000 0.357073
  time 3
    0 -35.481688 0.000000 34.046600 1.570796 0.000000 1.570796
    1 -26.737438 9.978985 -63.177887 0.007403 -0.264986 -1.495672
    2 -26.847315 6.445414 78.520195 0.268794 0.005691 -3.065482
    3 -4.313085 -13.578558 -57.058857 3.141593 0.000000 3.141593
    4 38.013969 0.147198 -0.193551 3.141593 0.000000 -3.141593
    5 20.686598 0.469208 -0.164128 -3.110558 -0.264987 1.495673
    6 0.016516 -11.367848 70.181595 0.000000 0.000000 0.000000
    7 26.847315 6.445414 78.520195 2.876405 -0.019503 -0.071313
    8 4.313085 -13.578558 -57.058857 0.000000 0.000000 0.000000
    9 38.013966 0.147198 0.193553 3.141593 0.000000 3.141593
    10 20.605600 0.473753 0.167817 -0.024410 0.265136 1.494187
    11 26.690825 9.982033 -63.178242 0.007043 -0.265136 -1.647406
    12 9.429615 20.728470 -11.982518 -1.570796 -1.570796 0.000000
    13 -16.873423 9.784609 52.968449 0.000000 0.000000 0.000000
    14 0.020790 5.827109 -0.224471 -1.570796 -1.570796 0.000000
    15 -8.438861 0.038662 0.559093 1.570796 0.000000 1.570796
    16 5.664327 9.038126 28.830690 -1.230457 0.000000 0.000000
    17 -34.710712 -15.133160 78.859528 0.000000 0.000000 0.000000
    18 0.000000 0.217954 -0.009629 0.000000 0.000000 0.000000
    19 -6.579208 0.000000 -0.000001 0.000000 0.000000 0.000000
    20 -14.319741 -15.458982 88.923607 -1.655486 0.445705 -2.888000
    21 11.574886 -2.180909 1.427974 -1.940707 -0.171070 2.830508
    22 34.710712 -15.133160 78.859528 3.141593 0.000000 3.141593
    23 -0.000001 0.217956 0.009627 0.000000 0.000000 0.000000
    24 -6.579209 0.000000 0.000000 0.000000 0.000000 0.000000
    25 14.319743 -15.458982 88.923607 -0.057762 0.445706 -0.253592
    26 11.620371 -2.905373 2.149562 -0.263171 -0.211841 0.098316
    27 8.930669 9.895990 16.516956 -1.178097 0.000000 0.000000
    28 -10.478000 3.596270 -57.675583 0.000000 0.000000 0.000000
    29 20.682631 -0.459138 0.000005 0.000000 0.000000 0.716419
  time 4
    0 -35.481688 0.000000 34.046600 1.570796 0.000000 1.570796
    1 -26.737438 9.978985 -63.177887 0.007403 -0.264986 -1.495672
    2 -26.847315 6.445414 78.520195 0.268794 0.005691 -3.065482
    3 -4.313085 -13.578558 -57.058857 3.141593 0.000000 3.141593
    4 38.013969 0.147198 -0.193551 3.141593 0.000000 -3.141593
    5 20.686598 0.469208 -0.164128 -3.110558 -0.264987 1.495673
    6 0.016516 -11.367848 70.181595 0.000000 0.000000 0.000000
    7 26.847315 6.445414 78.520195 2.876405 -0.019503 -0.071313
    8 4.313085 -13.578558 -57.058857 0.000000 0.000000 0.000000
    9 38.013966 0.147198 0.193553 3.141593 0.000000 3.141593
    10 20.605600 0.473753 0.167817 -0.024410 0.265136 1.494187
    11 26.690825 9.982033 -63.178242 0.007043 -0.265136 -1.647406
    12 9.429615 20.728470 -11.982518 -1.570796 -1.570796 0.000000
    13 -16.873423 9.784609 52.968449 0.000000 0.000000 0.000000
    14 0.020790 5.827109 -0.224471 -1.570796 -1.570796 0.000000
    15 -8.438861 0.038662 0.559093 1.570796 0.000000 1.570796
    16 5.664327 9.038126 28.830690 -1.230457 0.000000 0.000000
    17 -34.710712 -15.133160 78.859528 0.000000 0.000000 0.000000
    18 0.000000 0.217954 -0.009629 0.000000 0.000000 0.000000
    19 -6.579208 0.000000 -0.000001 0.000000 0.000000 0.000000
    20 -14.319741 -15.458982 88.923607 -1.655486 0.445705 -2.888000
    21 11.574886 -2.180909 1.427974 -1.940707 -0.171070 2.830508
    22 34.710712 -15.133160 78.859528 3.141593 0.000000 3.141593
    23 -0.000001 0.217956 0.009627 0.000000 0.000000 0.000000
    24 -6.579209 0.000000 0.000000 0.000000 0.000000 0.000000
    25 14.319743 -15.458982 88.923607 -0.057762 0.445706 -0.253592
    26 11.620371 -2.905373 2.149562 -0.263171 -0.211841 0.098316
    27 8.930669 9.895990 16.516956 -1.178097 0.000000 0.000000
    28 -10.478000 3.596270 -57.675583 0.000000 0.000000 0.168587
    29 20.682631 -0.459138 0.000005 0.000000 0.000000 1.086644
  time 5
    0 -35.481688 0.000000 34.046600 1.570796 0.000000 1.570796
    1 -26.737438 9.978985 -63.177887 0.007403 -0.264986 -1.495672
    2 -26.847315 6.445414 78.520195 0.268794 0.005691 -3.065482
    3 -4.313085 -13.578558 -57.058857 3.141593 0.000000 3.141593
    4 38.013969 0.147198 -0.193551 3.141593 0.000000 -3.141593
    5 20.686598 0.469208 -0.164128 -3.110558 -0.264987 1.495673
    6 0.016516 -11.367848 70.181595 0.000000 0.000000 0.000000
    7 26.847315 6.445414 78.520195 2.876405 -0.019503 -0.071313
    8 4.313085 -13.578558 -57.058857 0.000000 0.000000 0.000000
    9 38.013966 0.147198 0.193553 3.141593 0.000000 3.141593
    10 20.605600 0.473753 0.167817 -0.024410 0.265136 1.494187
    11 26.690825 9.982033 -63.178242 0.007043 -0.265136 -1.647406
    12 9.429615 20.728470 -11.982518 -1.570796 -1.570796 0.000000
    13 -16.873423 9.784609 52.968449 0.000000 0.000000 0.000000
    14 0.020790 5.827109 -0.224471 -1.570796 -1.570796 0.000000
    15 -8.438861 0.038662 0.559093 1.570796 0.000000 1.570796
    16 5.664327 9.038126 28.830690 -1.230457 0.000000 0.000000
    17 -34.710712 -15.133160 78.859528 0.000000 0.000000 0.000000
    18 0.000000 0.217954 -0.009629 0.000000 0.000000 0.000000
    19 -6.579208 0.000000 -0.000001 0.000000 0.000000 0.000000
    20 -14.319741 -15.458982 88.923607 -1.655486 0.445705 -2.888000
    21 11.574886 -2.180909 1.427974 -1.940707 -0.171070 2.830508
    22 34.710712 -15.133160 78.859528 3.141593 0.000000 3.141593
    23 -0.000001 0.217956 0.009627 0.000000 0.000000 0.000000
    24 -6.579209 0.000000 0.000000 0.000000 0.000000 0.000000
    25 14.319743 -15.458982 88.923607 -0.057762 0.445706 -0.253592
    26 11.620371 -2.905373 2.149562 -0.263171 -0.211841 0.098316
    27 8.930669 9.895990 16.516956 -1.178097 0.000000 0.000000
    28 -10.478000 3.596270 -57.675583 0.000000 0.000000 0.388247
    29 20.682631 -0.459138 0.000005 0.000000 0.000000 1.340173
  time 6
    0 -35.481688 0.000000 34.046600 1.570796 0.000000 1.570796
    1 -26.737438 9.978985 -63.177887 0.007403 -0.264986 -1.495672
    2 -26.847315 6.445414 78.520195 0.268794 0.005691 -3.065482
    3 -4.313085 -13.578558 -57.058857 3.141593 0.000000 3.141593
    4 38.013969 0.147198 -0.193551 3.141593 0.000000 -3.141593
    5 20.686598 0.469208 -0.164128 -3.110558 -0.264987 1.495673
    6 0.016516 -11.367848 70.181595 0.000000 0.000000 0.000000
    7 26.847315 6.445414 78.520195 2.876405 -0.019503 -0.071313
    8 4.313085 -13.578558 -57.058857 0.000000 0.000000 0.000000
    9 38.013966 0.147198 0.193553 3.141593 0.000000 3.141593
    10 20.605600 0.473753 0.167817 -0.024410 0.265136 1.494187
    11 26.690825 9.982033 -63.178242 0.007043 -0.265136 -1.647406
    12 9.429615 20.728470 -11.982518 -1.570796 -1.570796 0.000000
    13 -16.873423 9.784609 52.968449 0.000000 0.000000 0.000000
    14 0.020790 5.827109 -0.224471 -1.570796 -1.570796 0.000000
    15 -8.438861 0.038662 0.559093 1.570796 0.000000 1.570796
    16 5.664327 9.038126 28.830690 -1.230457 0.000000 0.000000
    17 -34.710712 -15.133160 78.859528 0.000000 0.000000 0.000000
    18 0.000000 0.217954 -0.009629 0.000000 0.000000 0.000000
    19 -6.579208 0.000000 -0.000001 0.000000 0.000000 0.000000
    20 -14.319741 -15.458982 88.923607 -1.655486 0.445705 -2.888000
    21 11.574886 -2.180909 1.427974 -1.940707 -0.171070 2.830508
    22 34.710712 -15.133160 78.859528 3.141593 0.000000 3.141593
    23 -0.000001 0.217956 0.009627 0.000000 0.000000 0.000000
    24 -6.579209 0.000000 0.000000 0.000000 0.000000 0.000000
    25 14.319743 -15.458982 88.923607 -0.057762 0.445706 -0.253592
    26 11.620371 -2.905373 2.149562 -0.263171 -0.211841 0.098316
    27 8.930669 9.895990 16.516956 -1.178097 0.000000 0.000000
    28 -10.478000 3.596270 -57.675583 0.000000 0.000000 0.648368
    29 20.682631 -0.459138 0.000005 0.000000 0.000000 1.382933
  time 7
    0 -35.481688 0.000000 34.046600 1.570796 0.000000 1.570796
    1 -26.737438 9.978985 -63.177887 0.007403 -0.264986 -1.495672
    2 -26.847315 6.445414 78.520195 0.268794 0.005691 -3.065482
    3 -4.313085 -13.578558 -57.058857 3.141593 0.000000 3.141593
    4 38.013969 0.147198 -0.193551 3.141593 0.000000 -3.141593
    5 20.686598 0.469208 -0.164128 -3.110558 -0.264987 1.495673
    6 0.016516 -11.367848 70.181595 0.000000 0.000000 0.000000
    7 26.847315 6.445414 78.520195 2.876405 -0.019503 -0.071313
    8 4.313085 -13.578558 -57.058857 0.000000 0.000000 0.000000
    9 38.013966 0.147198 0.193553 3.141593 0.000000 3.141593
    10 20.605600 0.473753 0.167817 -0.024410 0.265136 1.494187
    11 26.690825 9.982033 -63.178242 0.007043 -0.265136 -1.647406
    12 9.429615 20.728470 -11.982518 -1.570796 -1.570796 0.000000
    13 -16.873423 9.784609 52.968449 0.000000 0.000000 0.000000
    14 0.020790 5.827109 -0.224471 -1.570796 -1.570796 0.000000
    15 -8.438861 0.038662 0.559093 1.570796 0.000000 1.570796
    16 5.664327 9.038126 28.830690 -1.230457 0.000000 0.000000
    17 -34.710712 -15.133160 78.859528 0.000000 0.000000 0.000000
    18 0.000000 0.217954 -0.009629 0.000000 0.000000 0.000000
    19 -6.579208 0.000000 -0.000001 0.000000 0.000000 0.000000
    20 -14.319741 -15.458982 88.923607 -1.655486 0.445705 -2.888000
    21 11.574886 -2.180909 1.427974 -1.940707 -0.171070 2.830508
    22 34.710712 -15.133160 78.859528 3.141593 0.000000 3.141593
    23 -0.000001 0.217956 0.009627 0.000000 0.000000 0.000000
    24 -6.579209 0.000000 0.000000 0.000000 0.000000 0.000000
    25 14.319743 -15.458982 88.923607 -0.057762 0.445706 -0.253592
    26 11.620371 -2.905373 2.149562 -0.263171 -0.211841 0.098316
    27 8.930669 9.895990 16.516956 -1.178097 0.000000 0.000000
    28 -10.478000 3.596270 -57.675583 0.000000 0.000000 0.939829
    29 20.682631 -0.459138 0.000005 0.000000 0.000000 1.221203
  time 8
    0 -35.481688 0.000000 34.046600 1.570796 0.000000 1.570796
    1 -26.737438 9.978985 -63.177887 0.007403 -0.264986 -1.495672
    2 -26.847315 6.445414 78.520195 0.268794 0.005691 -3.065482
    3 -4.313085 -13.578558 -57.058857 3.141593 0.000000 3.141593
    4 38.013969 0.147198 -0.193551 3.141593 0.000000 -3.141593
    5 20.686598 0.469208 -0.164128 -3.110558 -0.264987 1.495673
    6 0.016516 -11.367848 70.181595 0.000000 0.000000 0.000000
    7 26.847315 6.445414 78.520195 2.876405 -0.019503 -0.071313
    8 4.313085 -13.578558 -57.058857 0.000000 0.000000 0.000000
    9 38.013966 0.147198 0.193553 3.141593 0.000000 3.141593
    10 20.605600 0.473753 0.167817 -0.024410 0.265136 1.494187
    11 26.690825 9.982033 -63.178242 0.007043 -0.265136 -1.647406
    12 9.429615 20.728470 -11.982518 -1.570796 -1.570796 0.000000
    13 -16.873423 9.784609 52.968449 0.000000 0.000000 0.000000
    14 0.020790 5.827109 -0.224471 -1.570796 -1.570796 0.000000
    15 -8.438861 0.038662 0.559093 1.570796 0.000000 1.570796
    16 5.664327 9.038126 28.830690 -1.230457 0.000000 0.000000
    17 -34.710712 -15.133160 78.859528 0.000000 0.000000 0.000000
    18 0.000000 0.217954 -0.009629 0.000000 0.000000 0.000000
    19 -6.579208 0.000000 -0.000001 0.000000 0.000000 0.000000
    20 -14.319741 -15.458982 88.923607 -1.655486 0.445705 -2.888000
    21 11.574886 -2.180909 1.427974 -1.940707 -0.171070 2.830508
    22 34.710712 -15.133160 78.859528 3.141593 0.000000 3.141593
    23 -0.000001 0.217956 0.009627 0.000000 0.000000 0.000000
    24 -6.579209 0.000000 0.000000 0.000000 0.000000 0.000000
    25 14.319743 -15.458982 88.923607 -0.057762 0.445706 -0.253592
    26 11.620371 -2.905373 2.149562 -0.263171 -0.211841 0.098316
    27 8.930669 9.895990 16.516956 -1.178097 0.000000 0.000000
    28 -10.478000 3.596270 -57.675583 0.000000 0.000000 1.252682
    29 20.682631 -0.459138 0.000005 0.000000 0.000000 0.935469
  time 9
    0 -35.481688 0.000000 34.046600 1.570796 0.000000 1.570796
    1 -26.737438 9.978985 -63.177887 0.007403 -0.264986 -1.495672
    2 -26.847315 6.445414 78.520195 0.268794 0.005691 -3.065482
    3 -4.313085 -13.578558 -57.058857 3.141593 0.000000 3.141593
    4 38.013969 0.147198 -0.193551 3.141593 0.000000 -3.141593
    5 20.686598 0.469208 -0.164128 -3.110558 -0.264987 1.495673
    6 0.016516 -11.367848 70.181595 0.000000 0.000000 0.000000
    7 26.847315 6.445414 78.520195 2.876405 -0.019503 -0.071313
    8 4.313085 -13.578558 -57.058857 0.000000 0.000000 0.000000
    9 38.013966 0.147198 0.193553 3.141593 0.000000 3.141593
    10 20.605600 0.473753 0.167817 -0.024410 0.265136 1.494187
    11 26.690825 9.982033 -63.178242 0.007043 -0.265136 -1.647406
    12 9.429615 20.728470 -11.982518 -1.570796 -1.570796 0.000000
    13 -16.873423 9.784609 52.968449 0.000000 0.000000 0.000000
    14 0.020790 5.827109 -0.224471 -1.570796 -1.570796 0.000000
    15 -8.438861 0.038662 0.559093 1.570796 0.000000 1.570796
    16 5.664327 9.038126 28.830690 -1.230457 0.000000 0.000000
    17 -34.710712 -15.133160 78.859528 0.000000 0.000000 0.000000
    18 0.000000 0.217954 -0.009629 0.000000 0.000000 0.000000
    19 -6.579208 0.000000 -0.000001 0.000000 0.000000 0.000000
    20 -14.319741 -15.458982 88.923607 -1.655486 0.445705 -2.888000
    21 11.574886 -2.180909 1.427974 -1.940707 -0.171070 2.830508
    22 34.710712 -15.133160 78.859528 3.141593 0.000000 3.141593
    23 -0.000001 0.217956 0.009627 0.000000 0.000000 0.000000
    24 -6.579209 0.000000 0.000000 0.000000 0.000000 0.000000
    25 14.319743 -15.458982 88.923607 -0.057762 0.445706 -0.253592
    26 11.620371 -2.905373 2.149562 -0.263171 -0.211841 0.098316
    27 8.930669 9.895990 16.516956 -1.178097 0.000000 0.000000
    28 -10.478000 3.596270 -57.675583 0.000000 0.000000 1.570178
    29 20.682631 -0.459138 0.000005 0.000000 0.000000 0.570764
  time 10
    0 -35.481688 0.000000 34.046600 1.570796 0.000000 1.570796
    1 -26.737438 9.978985 -63.177887 0.007403 -0.264986 -1.495672
    2 -26.847315 6.445414 78.520195 0.268794 0.005691 -3.065482
    3 -4.313085 -13.578558 -57.058857 3.141593 0.000000 3.141593
    4 38.013969 0.147198 -0.193551 3.141593 0.000000 -3.141593
    5 20.686598 0.469208 -0.164128 -3.110558 -0.264987 1.495673
    6 0.016516 -11.367848 70.181595 0.000000 0.000000 0.000000
    7 26.847315 6.445414 78.520195 2.876405 -0.019503 -0.071313
    8 4.313085 -13.578558 -57.058857 0.000000 0.000000 0.000000
    9 38.013966 0.147198 0.193553 3.141593 0.000000 3.141593
    10 20.605600 0.473753 0.167817 -0.024410 0.265136 1.494187
    11 26.690825 9.982033 -63.178242 0.007043 -0.265136 -1.647406
    12 9.429615 20.728470 -11.982518 -1.570796 -1.570796 0.000000
    13 -16.873423 9.784609 52.968449 0.000000 0.000000 0.000000
    14 0.020790 5.827109 -0.224471 -1.570796 -1.570796 0.000000
    15 -8.438861 0.038662 0.559093 1.570796 0.000000 1.570796
    16 5.664327 9.038126 28.830690 -1.230457 0.000000 0.000000
    17 -34.710712 -15.133160 78.859528 0.000000 0.000000 0.000000
    18 0.000000 0.217954 -0.009629 0.000000 0.000000 0.000000
    19 -6.579208 0.000000 -0.000001 0.000000 0.000000 0.000000
    20 -14.319741 -15.458982 88.923607 -1.655486 0.445705 -2.888000
    21 11.574886 -2.180909 1.427974 -1.940707 -0.171070 2.830508
    22 34.710712 -15.133160 78.859528 3.141593 0.000000 3.141593
    23 -0.000001 0.217956 0.009627 0.000000 0.000000 0.000000
    24 -6.579209 0.000000 0.000000 0.000000 0.000000 0.000000
    25 14.319743 -15.458982 88.923607 -0.057762 0.445706 -0.253592
    26 11.620371 -2.905373 2.149562 -0.263171 -0.211841 0.098316
    27 8.930669 9.895990 16.516956 -1.178097 0.000000 0.000000
    28 -10.478000 3.596270 -57.675583 0.000000 0.000000 1.811119
    29 20.682631 -0.459138 0.000005 0.000000 0.000000 0.155235
  time 11
    0 -35.481688 0.000000 34.046600 1.570796 0.000000 1.570796
    1 -26.737438 9.978985 -63.177887 0.007403 -0.264986 -1.495672
    2 -26.847315 6.445414 78.520195 0.268794 0.005691 -3.065482
    3 -4.313085 -13.578558 -57.058857 3.141593 0.000000 3.141593
    4 38.013969 0.147198 -0.193551 3.141593 0.000000 -3.141593
    5 20.686598 0.469208 -0.164128 -3.110558 -0.264987 1.495673
    6 0.016516 -11.367848 70.181595 0.000000 0.000000 0.000000
    7 26.847315 6.445414 78.520195 2.876405 -0.019503 -0.071313
    8 4.313085 -13.578558 -57.058857 0.000000 0.000000 0.000000
    9 38.013966 0.147198 0.193553 3.141593 0.000000 3.141593
    10 20.605600 0.473753 0.167817 -0.024410 0.265136 1.494187
    11 26.690825 9.982033 -63.178242 0.007043 -0.265136 -1.647406
    12 9.429615 20.728470 -11.982518 -1.570796 -1.570796 0.000000
    13 -16.873423 9.784609 52.968449 0.000000 0.000000 0.000000
    14 0.020790 5.827109 -0.224471 -1.570796 -1.570796 0.000000
    15 -8.438861 0.038662 0.559093 1.570796 0.000000 1.570796
    16 5.664327 9.038126 28.830690 -1.230457 0.000000 0.000000
    17 -34.710712 -15.133160 78.859528 0.000000 0.000000 0.000000
    18 0.000000 0.217954 -0.009629 0.000000 0.000000 0.000000
    19 -6.579208 0.000000 -0.000001 0.000000 0.000000 0.000000
    20 -14.319741 -15.458982 88.923607 -1.655486 0.445705 -2.888000
    21 11.574886 -2.180909 1.427974 -1.940707 -0.171070 2.830508
    22 34.710712 -15.133160 78.859528 3.141593 0.000000 3.141593
    23 -0.000001 0.217956 0.009627 0.000000 0.000000 0.000000
    24 -6.579209 0.000000 0.000000 0.000000 0.000000 0.000000
    25 14.319743 -15.458982 88.923607 -0.057762 0.445706 -0.253592
    26 11.620371 -2.905373 2.149562 -0.263171 -0.211841 0.098316
    27 8.930669 9.895990 16.516956 -1.178097 0.000000 0.000000
    28 -10.478000 3.596270 -57.675583 0.000000 0.000000 1.795753
    29 20.682631 -0.459138 0.000005 0.000000 0.000000 -0.289685
  time 12
    0 -35.481688 0.000000 34.046600 1.570796 0.000000 1.570796
    1 -26.737438 9.978985 -63.177887 0.007403 -0.264986 -1.495672
    2 -26.847315 6.445414 78.520195 0.268794 0.005691 -3.065482
    3 -4.313085 -13.578558 -57.058857 3.141593 0.000000 3.141593
    4 38.013969 0.147198 -0.193551 3.141593 0.000000 -3.141593
    5 20.686598 0.469208 -0.164128 -3.110558 -0.264987 1.495673
    6 0.016516 -11.367848 70.181595 0.000000 0.000000 0.000000
    7 26.847315 6.445414 78.520195 2.876405 -0.019503 -0.071313
    8 4.313085 -13.578558 -57.058857 0.000000 0.000000 0.000000
    9 38.013966 0.147198 0.193553 3.141593 0.000000 3.141593
    10 20.605600 0.473753 0.167817 -0.024410 0.265136 1.494187
    11 26.690825 9.982033 -63.178242 0.007043 -0.265136 -1.647406
    12 9.429615 20.728470 -11.982518 -1.570796 -1.570796 0.000000
    13 -16.873423 9.784609 52.968449 0.000000 0.000000 0.000000
    14 0.020790 5.827109 -0.224471 -1.570796 -1.570796 0.000000
    15 -8.438861 0.038662 0.559093 1.570796 0.000000 1.570796
    16 5.664327 9.038126 28.830690 -1.230457 0.000000 0.000000
    17 -34.710712 -15.133160 78.859528 0.000000 0.000000 0.000000
    18 0.000000 0.217954 -0.009629 0.000000 0.000000 0.000000
    19 -6.579208 0.000000 -0.000001 0.000000 0.000000 0.000000
    20 -14.319741 -15.458982 88.923607 -1.655486 0.445705 -2.888000
    21 11.574886 -2.180909 1.427974 -1.940707 -0.171070 2.830508
    22 34.710712 -15.133160 78.859528 3.141593 0.000000 3.141593
    23 -0.000001 0.217956 0.009627 0.000000 0.000000 0.000000
    24 -6.579209 0.000000 0.000000 0.000000 0.000000 0.000000
    25 14.319743 -15.458982 88.923607 -0.057762 0.445706 -0.253592
    26 11.620371 -2.905373 2.149562 -0.263171 -0.211841 0.098316
    27 8.930669 9.895990 16.516956 -1.178097 0.000000 0.000000
    28 -10.478000 3.596270 -57.675583 0.000000 0.000000 1.776130
    29 20.682631 -0.459138 0.000005 0.000000 0.000000 -0.743969
  time 13
    0 -35.481688 0.000000 34.046600 1.570796 0.000000 1.570796
    1 -26.737438 9.978985 -63.177887 0.007403 -0.264986 -1.495672
    2 -26.847315 6.445414 78.520195 0.268794 0.005691 -3.065482
    3 -4.313085 -13.578558 -57.058857 3.141593 0.000000 3.141593
    4 38.013969 0.147198 -0.193551 3.141593 0.000000 -3.141593
    5 20.686598 0.469208 -0.164128 -3.110558 -0.264987 1.495673
    6 0.016516 -11.367848 70.181595 0.000000 0.000000 0.000000
    7 26.847315 6.445414 78.520195 2.876405 -0.019503 -0.071313
    8 4.313085 -13.578558 -57.058857 0.000000 0.000000 0.000000
    9 38.013966 0.147198 0.193553 3.141593 0.000000 3.141593
    10 20.605600 0.473753 0.167817 -0.024410 0.265136 1.494187
    11 26.690825 9.982033 -63.178242 0.007043 -0.265136 -1.647406
    12 9.429615 20.728470 -11.982518 -1.570796 -1.570796 0.000000
    13 -16.873423 9.784609 52.968449 0.000000 0.000000 0.000000
    14 0.020790 5.827109 -0.224471 -1.570796 -1.570796 0.000000
    15 -8.438861 0.038662 0.559093 1.570796 0.000000 1.570796
    16 5.664327 9.038126 28.830690 -1.230457 0.000000 0.000000
    17 -34.710712 -15.133160 78.859528 0.000000 0.000000 0.000000
    18 0.000000 0.217954 -0.009629 0.000000 0.000000 0.000000
    19 -6.579208 0.000000 -0.000001 0.000000 0.000000 0.000000
    20 -14.319741 -15.458982 88.923607 -1.655486 0.445705 -2.888000
    21 11.574886 -2.180909 1.427974 -1.940707 -0.171070 2.830508
    22 34.710712 -15.133160 78.859528 3.141593 0.000000 3.141593
    23 -0.000001 0.217956 0.009627 0.000000 0.000000 0.000000
    24 -6.579209 0.000000 0.000000 0.000000 0.000000 0.000000
    25 14.319743 -15.458982 88.923607 -0.057762 0.445706 -0.253592
    26 11.620371 -2.905373 2.149562 -0.263171 -0.211841 0.098316
    27 8.930669 9.895990 16.516956 -1.178097 0.000000 0.000000
    28 -10.478000 3.596270 -57.675583 0.000000 0.000000 1.766015
    29 20.682631 -0.459138 0.000005 0.000000 0.000000 -1.182935
  time 14
    0 -35.481688 0.000000 34.046600 1.570796 0.000000 1.570796
    1 -26.737438 9.978985 -63.177887 0.007403 -0.264986 -1.495672
    2 -26.847315 6.445414 78.520195 0.268794 0.005691 -3.065482
    3 -4.313085 -13.578558 -57.058857 3.141593 0.000000 3.141593
    4 38.013969 0.147198 -0.193551 3.141593 0.000000 -3.141593
    5 20.686598 0.469208 -0.164128 -3.110558 -0.264987 1.495673
    6 0.016516 -11.367848 70.181595 0.000000 0.000000 0.000000
    7 26.847315 6.445414 78.520195 2.876405 -0.019503 -0.071313
    8 4.313085 -13.578558 -57.058857 0.000000 0.000000 0.000000
    9 38.013966 0.147198 0.193553 3.141593 0.000000 3.141593
    10 20.605600 0.473753 0.167817 -0.024410 0.265136 1.494187
    11 26.690825 9.982033 -63.178242 0.007043 -0.265136 -1.647406
    12 9.429615 20.728470 -11.982518 -1.570796 -1.570796 0.000000
    13 -16.873423 9.784609 52.968449 0.000000 0.000000 0.000000
    14 0.020790 5.827109 -0.224471 -1.570796 -1.570796 0.000000
    15 -8.438861 0.038662 0.559093 1.570796 0.000000 1.570796
    16 5.664327 9.038126 28.830690 -1.230457 0.000000 0.000000
    17 -34.710712 -15.133160 78.859528 0.000000 0.000000 0.000000
    18 0.000000 0.217954 -0.009629 0.000000 0.000000 0.000000
    19 -6.579208 0.000000 -0.000001 0.000000 0.000000 0.000000
    20 -14.319741 -15.458982 88.923607 -1.655486 0.445705 -2.888000
    21 11.574886 -2.180909 1.427974 -1.940707 -0.171070 2.830508
    22 34.710712 -15.133160 78.859528 3.141593 0.000000 3.141593
    23 -0.000001 0.217956 0.009627 0.000000 0.000000 0.000000
    24 -6.579209 0.000000 0.000000 0.000000 0.000000 0.000000
    25 14.319743 -15.458982 88.923607 -0.057762 0.445706 -0.253592
    26 11.620371 -2.905373 2.149562 -0.263171 -0.211841 0.098316
    27 8.930669 9.895990 16.516956 -1.178097 0.000000 0.000000
    28 -10.478000 3.596270 -57.675583 0.000000 0.000000 1.777678
    29 20.682631 -0.459138 0.000005 0.000000 0.000000 -1.564798
  time 15
    0 -35.481688 0.000000 34.046600 1.570796 0.000000 1.570796
    1 -26.737438 9.978985 -63.177887 0.007403 -0.264986 -1.495672
    2 -26.847315 6.445414 78.520195 0.268794 0.005691 -3.065482
    3 -4.313085 -13.578558 -57.058857 3.141593 0.000000 3.141593
    4 38.013969 0.147198 -0.193551 3.141593 0.000000 -3.141593
    5 20.686598 0.469208 -0.164128 -3.110558 -0.264987 1.495673
    6 0.016516 -11.367848 70.181595 0.000000 0.000000 0.000000
    7 26.847315 6.445414 78.520195 2.876405 -0.019503 -0.071313
    8 4.313085 -13.578558 -57.058857 0.000000 0.000000 0.000000
    9 38.013966 0.147198 0.193553 3.141593 0.000000 3.141593
    10 20.605600 0.473753 0.167817 -0.024410 0.265136 1.494187
    11 26.690825 9.982033 -63.178242 0.007043 -0.265136 -1.647406
    12 9.429615 20.728470 -11.982518 -1.570796 -1.570796 0.000000
    13 -16.873423 9.784609 52.968449 0.000000 0.000000 0.000000
    14 0.020790 5.827109 -0.224471 -1.570796 -1.570796 0.000000
    15 -8.438861 0.038662 0.559093 1.570796 0.000000 1.570796
    16 5.664327 9.038126 28.830690 -1.230457 0.000000 0.000000
    17 -34.710712 -15.133160 78.859528 0.000000 0.000000 0.000000
    18 0.000000 0.217954 -0.009629 0.000000 0.000000 0.000000
    19 -6.579208 0.000000 -0.000001 0.000000 0.000000 0.000000
    20 -14.319741 -15.458982 88.923607 -1.655486 0.445705 -2.888000
    21 11.574886 -2.180909 1.427974 -1.940707 -0.171070 2.830508
    22 34.710712 -15.133160 78.859528 3.141593 0.000000 3.141593
    23 -0.000001 0.217956 0.009627 0.000000 0.000000 0.000000
    24 -6.579209 0.000000 0.000000 0.000000 0.000000 0.000000
    25 14.319743 -15.458982 88.923607 -0.057762 0.445706 -0.253592
    26 11.620371 -2.905373 2.149562 -0.263171 -0.211841 0.098316
    27 8.930669 9.895990 16.516956 -1.178097 0.000000 0.000000
    28 -10.478000 3.596270 -57.675583 0.000000 0.000000 1.799456
    29 20.682631 -0.459138 0.000005 0.000000 0.000000 -1.773618
  time 16
    0 -35.481688 0.000000 34.046600 1.570796 0.000000 1.570796
    1 -26.737438 9.978985 -63.177887 0.007403 -0.264986 -1.495672
    2 -26.847315 6.445414 78.520195 0.268794 0.005691 -3.065482
    3 -4.313085 -13.578558 -57.058857 3.141593 0.000000 3.141593
    4 38.013969 0.147198 -0.193551 3.141593 0.000000 -3.141593
    5 20.686598 0.469208 -0.164128 -3.110558 -0.264987 1.495673
    6 0.016516 -11.367848 70.181595 0.000000 0.000000 0.000000
    7 26.847315 6.445414 78.520195 2.876405 -0.019503 -0.071313
    8 4.313085 -13.578558 -57.058857 0.000000 0.000000 0.000000
    9 38.013966 0.147198 0.193553 3.141593 0.000000 3.141593
    10 20.605600 0.473753 0.167817 -0.024410 0.265136 1.494187
    11 26.690825 9.982033 -63.178242 0.007043 -0.265136 -1.647406
    12 9.429615 20.728470 -11.982518 -1.570796 -1.570796 0.000000
    13 -16.873423 9.784609 52.968449 0.000000 0.000000 0.000000
    14 0.020790 5.827109 -0.224471 -1.570796 -1.570796 0.000000
    15 -8.438861 0.038662 0.559093 1.570796 0.000000 1.570796
    16 5.664327 9.038126 28.830690 -1.230457 0.000000 0.000000
    17 -34.710712 -15.133160 78.859528 0.000000 0.000000 0.000000
    18 0.000000 0.217954 -0.009629 0.000000 0.000000 0.000000
    19 -6.579208 0.000000 -0.000001 0.000000 0.000000 0.000000
    20 -14.319741 -15.458982 88.923607 -1.655486 0.445705 -2.888000
    21 11.574886 -2.180909 1.427974 -1.940707 -0.171070 2.830508
    22 34.710712 -15.133160 78.859528 3.141593 0.000000 3.141593
    23 -0.000001 0.217956 0.009627 0.000000 0.000000 0.000000
    24 -6.579209 0.000000 0.000000 0.000000 0.000000 0.000000
    25 14.319743 -15.458982 88.923607 -0.057762 0.445706 -0.253592
    26 11.620371 -2.905373 2.149562 -0.263171 -0.211841 0.098316
    27 8.930669 9.895990 16.516956 -1.178097 0.000000 0.000000
    28 -10.478000 3.596270 -57.675583 0.000000 0.000000 1.811119
    29 20.682631 -0.459138 0.000005 0.000000 0.000000 -1.711102
  time 17
    0 -35.481688 0.000000 34.046600 1.570796 0.000000 1.570796
    1 -26.737438 9.978985 -63.177887 0.007403 -0.264986 -1.495672
    2 -26.847315 6.445414 78.520195 0.268794 0.005691 -3.065482
    3 -4.313085 -13.578558 -57.058857 3.141593 0.000000 3.141593
    4 38.013969 0.147198 -0.193551 3.141593 0.000000 -3.141593
    5 20.686598 0.469208 -0.164128 -3.110558 -0.264987 1.495673
    6 0.016516 -11.367848 70.181595 0.000000 0.000000 0.000000
    7 26.847315 6.445414 78.520195 2.876405 -0.019503 -0.071313
    8 4.313085 -13.578558 -57.058857 0.000000 0.000000 0.000000
    9 38.013966 0.147198 0.193553 3.141593 0.000000 3.141593
    10 20.605600 0.473753 0.167817 -0.024410 0.265136 1.494187
    11 26.690825 9.982033 -63.178242 0.007043 -0.265136 -1.647406
    12 9.429615 20.728470 -11.982518 -1.570796 -1.570796 0.000000
    13 -16.873423 9.784609 52.968449 0.000000 0.000000 0.000000
    14 0.020790 5.827109 -0.224471 -1.570796 -1.570796 0.000000
    15 -8.438861 0.038662 0.559093 1.570796 0.000000 1.570796
    16 5.664327 9.038126 28.830690 -1.230457 0.000000 0.000000
    17 -34.710712 -15.133160 78.859528 0.000000 0.000000 0.000000
    18 0.000000 0.217954 -0.009629 0.000000 0.000000 0.000000
    19 -6.579208 0.000000 -0.000001 0.000000 0.000000 0.000000
    20 -14.319741 -15.458982 88.923607 -1.655486 0.445705 -2.888000
    21 11.574886 -2.180909 1.427974 -1.940707 -0.171070 2.830508
    22 34.710712 -15.133160 78.859528 3.141593 0.000000 3.141593
    23 -0.000001 0.217956 0.009627 0.000000 0.000000 0.000000
    24 -6.579209 0.000000 0.000000 0.000000 0.000000 0.000000
    25 14.319743 -15.458982 88.923607 -0.057762 0.445706 -0.253592
    26 11.620371 -2.905373 2.149562 -0.263171 -0.211841 0.098316
    27 8.930669 9.895990 16.516956 -1.178097 0.000000 0.000000
    28 -10.478000 3.596270 -57.675583 0.000000 0.000000 1.811119
    29 20.682631 -0.459138 0.000005 0.000000 0.000000 -1.583959
  time 18
    0 -35.481688 0.000000 34.046600 1.570796 0.000000 1.570796
    1 -26.737438 9.978985 -63.177887 0.007403 -0.264986 -1.495672
    2 -26.847315 6.445414 78.520195 0.268794 0.005691 -3.065482
    3 -4.313085 -13.578558 -57.058857 3.141593 0.000000 3.141593
    4 38.013969 0.147198 -0.193551 3.141593 0.000000 -3.141593
    5 20.686598 0.469208 -0.164128 -3.110558 -0.264987 1.495673
    6 0.016516 -11.367848 70.181595 0.000000 0.000000 0.000000
    7 26.847315 6.445414 78.520195 2.876405 -0.019503 -0.071313
    8 4.313085 -13.578558 -57.058857 0.000000 0.000000 0.000000
    9 38.013966 0.147198 0.193553 3.141593 0.000000 3.141593
    10 20.605600 0.473753 0.167817 -0.024410 0.265136 1.494187
    11 26.690825 9.982033 -63.178242 0.007043 -0.265136 -1.647406
    12 9.429615 20.728470 -11.982518 -1.570796 -1.570796 0.000000
    13 -16.873423 9.784609 52.968449 0.000000 0.000000 0.000000
    14 0.020790 5.827109 -0.224471 -1.570796 -1.570796 0.000000
    15 -8.438861 0.038662 0.559093 1.570796 0.000000 1.570796
    16 5.664327 9.038126 28.830690 -1.230457 0.000000 0.000000
    17 -34.710712 -15.133160 78.859528 0.000000 0.000000 0.000000
    18 0.000000 0.217954 -0.009629 0.000000 0.000000 0.000000
    19 -6.579208 0.000000 -0.000001 0.000000 0.000000 0.000000
    20 -14.319741 -15.458982 88.923607 -1.655486 0.445705 -2.888000
    21 11.574886 -2.180909 1.427974 -1.940707 -0.171070 2.830508
    22 34.710712 -15.133160 78.859528 3.141593 0.000000 3.141593
    23 -0.000001 0.217956 0.009627 0.000000 0.000000 0.000000
    24 -6.579209 0.000000 0.000000 0.000000 0.000000 0.000000
    25 14.319743 -15.458982 88.923607 -0.057762 0.445706 -0.253592
    26 11.620371 -2.905373 2.149562 -0.263171 -0.211841 0.098316
    27 8.930669 9.895990 16.516956 -1.178097 0.000000 0.000000
    28 -10.478000 3.596270 -57.675583 0.000000 0.000000 1.811119
    29 20.682631 -0.459138 0.000005 0.000000 0.000000 -1.514406
  time 19
    0 -35.481688 0.000000 34.046600 1.570796 0.000000 1.570796
    1 -26.737438 9.978985 -63.177887 0.007403 -0.264986 -1.495672
    2 -26.847315 6.445414 78.520195 0.268794 0.005691 -3.065482
    3 -4.313085 -13.578558 -57.058857 3.141593 0.000000 3.141593
    4 38.013969 0.147198 -0.193551 3.141593 0.000000 -3.141593
    5 20.686598 0.469208 -0.164128 -3.110558 -0.264987 1.495673
    6 0.016516 -11.367848 70.181595 0.000000 0.000000 0.000000
    7 26.847315 6.445414 78.520195 2.876405 -0.019503 -0.071313
    8 4.313085 -13.578558 -57.058857 0.000000 0.000000 0.000000
    9 38.013966 0.147198 0.193553 3.141593 0.000000 3.141593
    10 20.605600 0.473753 0.167817 -0.024410 0.265136 1.494187
    11 26.690825 9.982033 -63.178242 0.007043 -0.265136 -1.647406
    12 9.429615 20.728470 -11.982518 -1.570796 -1.570796 0.000000
    13 -16.873423 9.784609 52.968449 0.000000 0.000000 0.000000
    14 0.020790 5.827109 -0.224471 -1.570796 -1.570796 0.000000
    15 -8.438861 0.038662 0.559093 1.570796 0.000000 1.570796
    16 5.664327 9.038126 28.830690 -1.230457 0.000000 0.000000
    17 -34.710712 -15.133160 78.859528 0.000000 0.000000 0.000000
    18 0.000000 0.217954 -0.009629 0.000000 0.000000 0.000000
    19 -6.579208 0.000000 -0.000001 0.000000 0.000000 0.000000
    20 -14.319741 -15.458982 88.923607 -1.655486 0.445705 -2.888000
    21 11.574886 -2.180909 1.427974 -1.940707 -0.171070 2.830508
    22 34.710712 -15.133160 78.859528 3.141593 0.000000 3.141593
    23 -0.000001 0.217956 0.009627 0.000000 0.000000 0.000000
    24 -6.579209 0.000000 0.000000 0.000000 0.000000 0.000000
    25 14.319743 -15.458982 88.923607 -0.057762 0.445706 -0.253592
    26 11.620371 -2.905373 2.149562 -0.263171 -0.211841 0.098316
    27 8.930669 9.895990 16.516956 -1.178097 0.000000 0.000000
    28 -10.478000 3.596270 -57.675583 0.000000 0.000000 1.811119
    29 20.682631 -0.459138 0.000005 0.000000 0.000000 -1.556083
  time 20
    0 -35.481688 0.000000 34.046600 1.570796 0.000000 1.570796
    1 -26.737438 9.978985 -63.177887 0.007403 -0.264986 -1.495672
    2 -26.847315 6.445414 78.520195 0.268794 0.005691 -3.065482
    3 -4.313085 -13.578558 -57.058857 3.141593 0.000000 3.141593
    4 38.013969 0.147198 -0.193551 3.141593 0.000000 -3.141593
    5 20.686598 0.469208 -0.164128 -3.110558 -0.264987 1.495673
    6 0.016516 -11.367848 70.181595 0.000000 0.000000 0.000000
    7 26.847315 6.445414 78.520195 2.876405 -0.019503 -0.071313
    8 4.313085 -13.578558 -57.058857 0.000000 0.000000 0.000000
    9 38.013966 0.147198 0.193553 3.141593 0.000000 3.141593
    10 20.605600 0.473753 0.167817 -0.024410 0.265136 1.494187
    11 26.690825 9.982033 -63.178242 0.007043 -0.265136 -1.647406
    12 9.429615 20.728470 -11.982518 -1.570796 -1.570796 0.000000
    13 -16.873423 9.784609 52.968449 0.000000 0.000000 0.000000
    14 0.020790 5.827109 -0.224471 -1.570796 -1.570796 0.000000
    15 -8.438861 0.038662 0.559093 1.570796 0.000000 1.570796
    16 5.664327 9.038126 28.830690 -1.230457 0.000000 0.000000
    17 -34.710712 -15.133160 78.859528 0.000000 0.000000 0.000000
    18 0.000000 0.217954 -0.009629 0.000000 0.000000 0.000000
    19 -6.579208 0.000000 -0.000001 0.000000 0.000000 0.000000
    20 -14.319741 -15.458982 88.923607 -1.655486 0.445705 -2.888000
    21 11.574886 -2.180909 1.427974 -1.940707 -0.171070 2.830508
    22 34.710712 -15.133160 78.859528 3.141593 0.000000 3.141593
    23 -0.000001 0.217956 0.009627 0.000000 0.000000 0.000000
    24 -6.579209 0.000000 0.000000 0.000000 0.000000 0.000000
    25 14.319743 -15.458982 88.923607 -0.057762 0.445706 -0.253592
    26 11.620371 -2.905373 2.149562 -0.263171 -0.211841 0.098316
    27 8.930669 9.895990 16.516956 -1.178097 0.000000 0.000000
    28 -10.478000 3.596270 -57.675583 0.000000 0.000000 1.811119
    29 20.682631 -0.459138 0.000005 0.000000 0.000000 -1.650264
  time 21
    0 -35.481688 0.000000 34.046600 1.570796 0.000000 1.570796
    1 -26.737438 9.978985 -63.177887 0.007403 -0.264986 -1.495672
    2 -26.847315 6.445414 78.520195 0.268794 0.005691 -3.065482
    3 -4.313085 -13.578558 -57.058857 3.141593 0.000000 3.141593
    4 38.013969 0.147198 -0.193551 3.141593 0.000000 -3.141593
    5 20.686598 0.469208 -0.164128 -3.110558 -0.264987 1.495673
    6 0.016516 -11.367848 70.181595 0.000000 0.000000 0.000000
    7 26.847315 6.445414 78.520195 2.876405 -0.019503 -0.071313
    8 4.313085 -13.578558 -57.058857 0.000000 0.000000 0.000000
    9 38.013966 0.147198 0.193553 3.141593 0.000000 3.141593
    10 20.605600 0.473753 0.167817 -0.024410 0.265136 1.494187
    11 26.690825 9.982033 -63.178242 0.007043 -0.265136 -1.647406
    12 9.429615 20.728470 -11.982518 -1.570796 -1.570796 0.000000
    13 -16.873423 9.784609 52.968449 0.000000 0.000000 0.000000
    14 0.020790 5.827109 -0.224471 -1.570796 -1.570796 0.000000
    15 -8.438861 0.038662 0.559093 1.570796 0.000000 1.570796
    16 5.664327 9.038126 28.830690 -1.230457 0.000000 0.000000
    17 -34.710712 -15.133160 78.859528 0.000000 0.000000 0.000000
    18 0.000000 0.217954 -0.009629 0.000000 0.000000 0.000000
    19 -6.579208 0.000000 -0.000001 0.000000 0.000000 0.000000
    20 -14.319741 -15.458982 88.923607 -1.655486 0.445705 -2.888000
    21 11.574886 -2.180909 1.427974 -1.940707 -0.171070 2.830508
    22 34.710712 -15.133160 78.859528 3.141593 0.000000 3.141593
    23 -0.000001 0.217956 0.009627 0.000000 0.000000 0.000000
    24 -6.579209 0.000000 0.000000 0.000000 0.000000 0.000000
    25 14.319743 -15.458982 88.923607 -0.057762 0.445706 -0.253592
    26 11.620371 -2.905373 2.149562 -0.263171 -0.211841 0.098316
    27 8.930669 9.895990 16.516956 -1.178097 0.000000 0.000000
    28 -10.478000 3.596270 -57.675583 0.000000 0.000000 1.811119
    29 20.682631 -0.459138 0.000005 0.000000 0.000000 -1.735567
  time 22
    0 -35.481688 0.000000 34.046600 1.570796 0.000000 1.570796
    1 -26.737438 9.978985 -63.177887 0.007403 -0.264986 -1.495672
    2 -26.847315 6.445414 78.520195 0.268794 0.005691 -3.065482
    3 -4.313085 -13.578558 -57.058857 3.141593 0.000000 3.141593
    4 38.013969 0.147198 -0.193551 3.141593 0.000000 -3.141593
    5 20.686598 0.469208 -0.164128 -3.110558 -0.264987 1.495673
    6 0.016516 -11.367848 70.181595 0.000000 0.000000 0.000000
    7 26.847315 6.445414 78.520195 2.876405 -0.019503 -0.071313
    8 4.313085 -13.578558 -57.058857 0.000000 0.000000 0.000000
    9 38.013966 0.147198 0.193553 3.141593 0.000000 3.141593
    10 20.605600 0.473753 0.167817 -0.024410 0.265136 1.494187
    11 26.690825 9.982033 -63.178242 0.007043 -0.265136 -1.647406
    12 9.429615 20.728470 -11.982518 -1.570796 -1.570796 0.000000
    13 -16.873423 9.784609 52.968449 0.000000 0.000000 0.000000
    14 0.020790 5.827109 -0.224471 -1.570796 -1.570796 0.000000
    15 -8.438861 0.038662 0.559093 1.570796 0.000000 1.570796
    16 5.664327 9.038126 28.830690 -1.230457 0.000000 0.000000
    17 -34.710712 -15.133160 78.859528 0.000000 0.000000 0.000000
    18 0.000000 0.217954 -0.009629 0.000000 0.000000 0.000000
    19 -6.579208 0.000000 -0.000001 0.000000 0.000000 0.000000
    20 -14.319741 -15.458982 88.923607 -1.655486 0.445705 -2.888000
    21 11.574886 -2.180909 1.427974 -1.940707 -0.171070 2.830508
    22 34.710712 -15.133160 78.859528 3.141593 0.000000 3.141593
    23 -0.000001 0.217956 0.009627 0.000000 0.000000 0.000000
    24 -6.579209 0.000000 0.000000 0.000000 0.000000 0.000000
    25 14.319743 -15.458982 88.923607 -0.057762 0.445706 -0.253592
    26 11.620371 -2.905373 2.149562 -0.263171 -0.211841 0.098316
    27 8.930669 9.895990 16.516956 -1.178097 0.000000 0.000000
    28 -10.478000 3.596270 -57.675583 0.000000 0.000000 1.811119
    29 20.682631 -0.459138 0.000005 0.000000 0.000000 -1.773618
end
