version 1
nodes
  0 "Rig_Buggy.Frame" -1
  1 "Rig_Buggy.Shock_RR_Sleeve" 0
  2 "Rig_Buggy.Shock_FR_Sleeve" 0
  3 "Rig_Buggy.Axel_RR" 0
  4 "Rig_Buggy.Wheel_RR" 3
  5 "Rig_Buggy.Shock_RR_Piston" 3
  6 "Rig_Buggy.Steer_Arm" 0
  7 "Rig_Buggy.Shock_FL_Sleeve" 0
  8 "Rig_Buggy.Axel_RL" 0
  9 "Rig_Buggy.Wheel_RL" 8
  10 "Rig_Buggy.Shock_RL_Piston" 8
  11 "Rig_Buggy.Shock_RL_Sleeve" 0
  12 "Rig_Buggy.view" 0
  13 "Rig_Buggy.Gun_Base" 0
  14 "Rig_Buggy.Gun" 13
  15 "Rig_Buggy.gun_cylinders" 14
  16 "Rig_Buggy.Speedo" 0
  17 "Rig_Buggy.Wheel_FR_Turn_parent" 0
  18 "Rig_Buggy.Wheel_FR_Turn" 17
  19 "Rig_Buggy.Wheel_FR_Rotate" 18
  20 "Rig_Buggy.Axel_FR" 0
  21 "Rig_Buggy.Shock_FR_Piston" 20
  22 "Rig_Buggy.Wheel_FL_Turn_parent" 0
  23 "Rig_Buggy.Wheel_FL_Turn" 22
  24 "Rig_Buggy.Wheel_FL_Rotate" 23
  25 "Rig_Buggy.Axel_FL" 0
  26 "Rig_Buggy.Shock_FL_Piston" 25
  27 "Rig_Buggy.Steer_Wheel" 0
  28 "Rig_Buggy.lid" 0
  29 "Rig_Buggy.latch" 28
end
skeleton
  time 0
    0 -35.481688 0.000000 34.046600 1.570796 0.000000 1.570796
    1 -26.737438 9.978985 -63.177887 0.007343 -0.264986 -1.495672
    2 -26.847315 6.445414 78.520195 0.268794 0.005643 -3.065482
    3 -4.313085 -13.578558 -57.058857 3.141593 0.000000 3.141593
    4 38.013969 0.147198 -0.193551 3.141593 0.000000 -3.141593
    5 20.686598 0.469208 -0.164128 -3.110653 -0.264987 1.495673
    6 0.016516 -11.367848 70.181595 0.000000 0.000000 0.000000
    7 26.847315 6.445414 78.520195 2.876405 -0.019551 -0.071301
    8 4.313085 -13.578558 -57.058857 0.000000 0.000000 0.000000
    9 38.013966 0.147198 0.193553 3.141593 0.000000 3.141593
    10 20.605600 0.473753 0.167817 -0.024242 0.265136 1.494187
    11 26.690825 9.982033 -63.178242 0.007103 -0.265136 -1.647406
    12 69.427540 19.955009 -1.986120 1.570796 -0.000024 -3.141544
    13 -16.873423 9.784609 52.968449 0.000000 0.000000 0.000000
    14 0.020790 5.827109 -0.224471 -1.570796 -1.570796 0.000000
    15 -8.438861 0.038662 0.559093 1.570796 0.000000 1.570796
    16 5.664327 9.038126 28.830690 -1.230457 0.000000 0.000000
    17 -34.710712 -15.133160 78.859528 0.000000 0.000000 0.000000
    18 0.000000 0.217954 -0.009629 0.000000 0.000000 0.000000
    19 -6.579208 0.000000 -0.000001 0.000000 0.000000 0.000000
    20 -14.319741 -15.458982 88.923607 -1.655486 0.445705 -2.888000
    21 11.574886 -2.180909 1.427974 -1.940707 -0.170962 2.830789
    22 34.710712 -15.133160 78.859528 3.141593 0.000000 3.141593
    23 -0.000001 0.217956 0.009627 0.000000 0.000000 0.000000
    24 -6.579209 0.000000 0.000000 0.000000 0.000000 0.000000
    25 14.319743 -15.458982 88.923607 -0.057762 0.445706 -0.253592
    26 11.620371 -2.905373 2.149562 -0.263159 -0.211577 0.098244
    27 8.930669 9.895990 16.516956 -1.178097 0.000000 0.000000
    28 -10.478000 3.596270 -57.675583 0.000000 0.000000 0.000000
    29 20.682631 -0.459138 -0.000003 0.000000 0.000000 0.000000
  time 1
    0 -35.481688 0.000000 34.046600 1.570796 0.000000 1.570796
    1 -26.737438 9.978985 -63.177887 0.007343 -0.264986 -1.495672
    2 -26.847315 6.445414 78.520195 0.268794 0.005643 -3.065482
    3 -4.313085 -13.578558 -57.058857 3.141593 0.000000 3.141593
    4 38.013969 0.147198 -0.193551 3.141593 0.000000 -3.141593
    5 20.686598 0.469208 -0.164128 -3.110653 -0.264987 1.495673
    6 0.016516 -11.367848 70.181595 0.000000 0.000000 0.000000
    7 26.847315 6.445414 78.520195 2.876405 -0.019551 -0.071301
    8 4.313085 -13.578558 -57.058857 0.000000 0.000000 0.000000
    9 38.013966 0.147198 0.193553 3.141593 0.000000 3.141593
    10 20.605600 0.473753 0.167817 -0.024242 0.265136 1.494187
    11 26.690825 9.982033 -63.178242 0.007103 -0.265136 -1.647406
    12 69.212689 19.958915 -1.990027 1.570700 -0.002348 -3.139435
    13 -16.873423 9.784609 52.968449 0.000000 0.000000 0.000000
    14 0.020790 5.827109 -0.224471 -1.570796 -1.570796 0.000000
    15 -8.438861 0.038662 0.559093 1.570796 0.000000 1.570796
    16 5.664327 9.038126 28.830690 -1.230457 0.000000 0.000000
    17 -34.710712 -15.133160 78.859528 0.000000 0.000000 0.000000
    18 0.000000 0.217954 -0.009629 0.000000 0.000000 0.000000
    19 -6.579208 0.000000 -0.000001 0.000000 0.000000 0.000000
    20 -14.319741 -15.458982 88.923607 -1.655486 0.445705 -2.888000
    21 11.574886 -2.180909 1.427974 -1.940707 -0.170962 2.830789
    22 34.710712 -15.133160 78.859528 3.141593 0.000000 3.141593
    23 -0.000001 0.217956 0.009627 0.000000 0.000000 0.000000
    24 -6.579209 0.000000 0.000000 0.000000 0.000000 0.000000
    25 14.319743 -15.458982 88.923607 -0.057762 0.445706 -0.253592
    26 11.620371 -2.905373 2.149562 -0.263159 -0.211577 0.098244
    27 8.930669 9.895990 16.516956 -1.178097 0.000000 0.000000
    28 -10.478000 3.596270 -57.675583 0.000000 0.000000 0.000000
    29 20.682631 -0.459138 -0.000003 0.000000 0.000000 0.000000
  time 2
    0 -35.481688 0.000000 34.046600 1.570796 0.000000 1.570796
    1 -26.737438 9.978985 -63.177887 0.007343 -0.264986 -1.495672
    2 -26.847315 6.445414 78.520195 0.268794 0.005643 -3.065482
    3 -4.313085 -13.578558 -57.058857 3.141593 0.000000 3.141593
    4 38.013969 0.147198 -0.193551 3.141593 0.000000 -3.141593
    5 20.686598 0.469208 -0.164128 -3.110653 -0.264987 1.495673
    6 0.016516 -11.367848 70.181595 0.000000 0.000000 0.000000
    7 26.847315 6.445414 78.520195 2.876405 -0.019551 -0.071301
    8 4.313085 -13.578558 -57.058857 0.000000 0.000000 0.000000
    9 38.013966 0.147198 0.193553 3.141593 0.000000 3.141593
    10 20.605600 0.473753 0.167817 -0.024242 0.265136 1.494187
    11 26.690825 9.982033 -63.178242 0.007103 -0.265136 -1.647406
    12 68.587670 19.966728 -2.001746 1.570700 -0.009010 -3.133587
    13 -16.873423 9.784609 52.968449 0.000000 0.000000 0.000000
    14 0.020790 5.827109 -0.224471 -1.570796 -1.570796 0.000000
    15 -8.438861 0.038662 0.559093 1.570796 0.000000 1.570796
    16 5.664327 9.038126 28.830690 -1.230457 0.000000 0.000000
    17 -34.710712 -15.133160 78.859528 0.000000 0.000000 0.000000
    18 0.000000 0.217954 -0.009629 0.000000 0.000000 0.000000
    19 -6.579208 0.000000 -0.000001 0.000000 0.000000 0.000000
    20 -14.319741 -15.458982 88.923607 -1.655486 0.445705 -2.888000
    21 11.574886 -2.180909 1.427974 -1.940707 -0.170962 2.830789
    22 34.710712 -15.133160 78.859528 3.141593 0.000000 3.141593
    23 -0.000001 0.217956 0.009627 0.000000 0.000000 0.000000
    24 -6.579209 0.000000 0.000000 0.000000 0.000000 0.000000
    25 14.319743 -15.458982 88.923607 -0.057762 0.445706 -0.253592
    26 11.620371 -2.905373 2.149562 -0.263159 -0.211577 0.098244
    27 8.930669 9.895990 16.516956 -1.178097 0.000000 0.000000
    28 -10.478000 3.596270 -57.675583 0.000000 0.000000 0.000000
    29 20.682631 -0.459138 -0.000003 0.000000 0.000000 0.000000
  time 3
    0 -35.481688 0.000000 34.046600 1.570796 0.000000 1.570796
    1 -26.737438 9.978985 -63.177887 0.007343 -0.264986 -1.495672
    2 -26.847315 6.445414 78.520195 0.268794 0.005643 -3.065482
    3 -4.313085 -13.578558 -57.058857 3.141593 0.000000 3.141593
    4 38.013969 0.147198 -0.193551 3.141593 0.000000 -3.141593
    5 20.686598 0.469208 -0.164128 -3.110653 -0.264987 1.495673
    6 0.016516 -11.367848 70.181595 0.000000 0.000000 0.000000
    7 26.847315 6.445414 78.520195 2.876405 -0.019551 -0.071301
    8 4.313085 -13.578558 -57.058857 0.000000 0.000000 0.000000
    9 38.013966 0.147198 0.193553 3.141593 0.000000 3.141593
    10 20.605600 0.473753 0.167817 -0.024242 0.265136 1.494187
    11 26.690825 9.982033 -63.178242 0.007103 -0.265136 -1.647406
    12 67.595453 19.978447 -2.025184 1.570413 -0.019701 -3.124287
    13 -16.873423 9.784609 52.968449 0.000000 0.000000 0.000000
    14 0.020790 5.827109 -0.224471 -1.570796 -1.570796 0.000000
    15 -8.438861 0.038662 0.559093 1.570796 0.000000 1.570796
    16 5.664327 9.038126 28.830690 -1.230457 0.000000 0.000000
    17 -34.710712 -15.133160 78.859528 0.000000 0.000000 0.000000
    18 0.000000 0.217954 -0.009629 0.000000 0.000000 0.000000
    19 -6.579208 0.000000 -0.000001 0.000000 0.000000 0.000000
    20 -14.319741 -15.458982 88.923607 -1.655486 0.445705 -2.888000
    21 11.574886 -2.180909 1.427974 -1.940707 -0.170962 2.830789
    22 34.710712 -15.133160 78.859528 3.141593 0.000000 3.141593
    23 -0.000001 0.217956 0.009627 0.000000 0.000000 0.000000
    24 -6.579209 0.000000 0.000000 0.000000 0.000000 0.000000
    25 14.319743 -15.458982 88.923607 -0.057762 0.445706 -0.253592
    26 11.620371 -2.905373 2.149562 -0.263159 -0.211577 0.098244
    27 8.930669 9.895990 16.516956 -1.178097 0.000000 0.000000
    28 -10.478000 3.596270 -57.675583 0.000000 0.000000 0.000000
    29 20.682631 -0.459138 -0.000003 0.000000 0.000000 0.000000
  time 4
    0 -35.481688 0.000000 34.046600 1.570796 0.000000 1.570796
    1 -26.737438 9.978985 -63.177887 0.007343 -0.264986 -1.495672
    2 -26.847315 6.445414 78.520195 0.268794 0.005643 -3.065482
    3 -4.313085 -13.578558 -57.058857 3.141593 0.000000 3.141593
    4 38.013969 0.147198 -0.193551 3.141593 0.000000 -3.141593
    5 20.686598 0.469208 -0.164128 -3.110653 -0.264987 1.495673
    6 0.016516 -11.367848 70.181595 0.000000 0.000000 0.000000
    7 26.847315 6.445414 78.520195 2.876405 -0.019551 -0.071301
    8 4.313085 -13.578558 -57.058857 0.000000 0.000000 0.000000
    9 38.013966 0.147198 0.193553 3.141593 0.000000 3.141593
    10 20.605600 0.473753 0.167817 -0.024242 0.265136 1.494187
    11 26.690825 9.982033 -63.178242 0.007103 -0.265136 -1.647406
    12 66.271193 19.997979 -2.060341 1.569742 -0.034266 -3.112110
    13 -16.873423 9.784609 52.968449 0.000000 0.000000 0.000000
    14 0.020790 5.827109 -0.224471 -1.570796 -1.570796 0.000000
    15 -8.438861 0.038662 0.559093 1.570796 0.000000 1.570796
    16 5.664327 9.038126 28.830690 -1.230457 0.000000 0.000000
    17 -34.710712 -15.133160 78.859528 0.000000 0.000000 0.000000
    18 0.000000 0.217954 -0.009629 0.000000 0.000000 0.000000
    19 -6.579208 0.000000 -0.000001 0.000000 0.000000 0.000000
    20 -14.319741 -15.458982 88.923607 -1.655486 0.445705 -2.888000
    21 11.574886 -2.180909 1.427974 -1.940707 -0.170962 2.830789
    22 34.710712 -15.133160 78.859528 3.141593 0.000000 3.141593
    23 -0.000001 0.217956 0.009627 0.000000 0.000000 0.000000
    24 -6.579209 0.000000 0.000000 0.000000 0.000000 0.000000
    25 14.319743 -15.458982 88.923607 -0.057762 0.445706 -0.253592
    26 11.620371 -2.905373 2.149562 -0.263159 -0.211577 0.098244
    27 8.930669 9.895990 16.516956 -1.178097 0.000000 0.000000
    28 -10.478000 3.596270 -57.675583 0.000000 0.000000 0.000000
    29 20.682631 -0.459138 -0.000003 0.000000 0.000000 0.000000
  time 5
    0 -35.481688 0.000000 34.046600 1.570796 0.000000 1.570796
    1 -26.737438 9.978985 -63.177887 0.007343 -0.264986 -1.495672
    2 -26.847315 6.445414 78.520195 0.268794 0.005643 -3.065482
    3 -4.313085 -13.578558 -57.058857 3.141593 0.000000 3.141593
    4 38.013969 0.147198 -0.193551 3.141593 0.000000 -3.141593
    5 20.686598 0.469208 -0.164128 -3.110653 -0.264987 1.495673
    6 0.016516 -11.367848 70.181595 0.000000 0.000000 0.000000
    7 26.847315 6.445414 78.520195 2.876405 -0.019551 -0.071301
    8 4.313085 -13.578558 -57.058857 0.000000 0.000000 0.000000
    9 38.013966 0.147198 0.193553 3.141593 0.000000 3.141593
    10 20.605600 0.473753 0.167817 -0.024242 0.265136 1.494187
    11 26.690825 9.982033 -63.178242 0.007103 -0.265136 -1.647406
    12 64.650050 20.017511 -2.103311 1.568399 -0.052393 -3.097345
    13 -16.873423 9.784609 52.968449 0.000000 0.000000 0.000000
    14 0.020790 5.827109 -0.224471 -1.570796 -1.570796 0.000000
    15 -8.438861 0.038662 0.559093 1.570796 0.000000 1.570796
    16 5.664327 9.038126 28.830690 -1.230457 0.000000 0.000000
    17 -34.710712 -15.133160 78.859528 0.000000 0.000000 0.000000
    18 0.000000 0.217954 -0.009629 0.000000 0.000000 0.000000
    19 -6.579208 0.000000 -0.000001 0.000000 0.000000 0.000000
    20 -14.319741 -15.458982 88.923607 -1.655486 0.445705 -2.888000
    21 11.574886 -2.180909 1.427974 -1.940707 -0.170962 2.830789
    22 34.710712 -15.133160 78.859528 3.141593 0.000000 3.141593
    23 -0.000001 0.217956 0.009627 0.000000 0.000000 0.000000
    24 -6.579209 0.000000 0.000000 0.000000 0.000000 0.000000
    25 14.319743 -15.458982 88.923607 -0.057762 0.445706 -0.253592
    26 11.620371 -2.905373 2.149562 -0.263159 -0.211577 0.098244
    27 8.930669 9.895990 16.516956 -1.178097 0.000000 0.000000
    28 -10.478000 3.596270 -57.675583 0.000000 0.000000 0.000000
    29 20.682631 -0.459138 -0.000003 0.000000 0.000000 0.000000
  time 6
    0 -35.481688 0.000000 34.046600 1.570796 0.000000 1.570796
    1 -26.737438 9.978985 -63.177887 0.007343 -0.264986 -1.495672
    2 -26.847315 6.445414 78.520195 0.268794 0.005643 -3.065482
    3 -4.313085 -13.578558 -57.058857 3.141593 0.000000 3.141593
    4 38.013969 0.147198 -0.193551 3.141593 0.000000 -3.141593
    5 20.686598 0.469208 -0.164128 -3.110653 -0.264987 1.495673
    6 0.016516 -11.367848 70.181595 0.000000 0.000000 0.000000
    7 26.847315 6.445414 78.520195 2.876405 -0.019551 -0.071301
    8 4.313085 -13.578558 -57.058857 0.000000 0.000000 0.000000
    9 38.013966 0.147198 0.193553 3.141593 0.000000 3.141593
    10 20.605600 0.473753 0.167817 -0.024242 0.265136 1.494187
    11 26.690825 9.982033 -63.178242 0.007103 -0.265136 -1.647406
    12 62.778899 20.040949 -2.158001 1.566290 -0.073698 -3.080471
    13 -16.873423 9.784609 52.968449 0.000000 0.000000 0.000000
    14 0.020790 5.827109 -0.224471 -1.570796 -1.570796 0.000000
    15 -8.438861 0.038662 0.559093 1.570796 0.000000 1.570796
    16 5.664327 9.038126 28.830690 -1.230457 0.000000 0.000000
    17 -34.710712 -15.133160 78.859528 0.000000 0.000000 0.000000
    18 0.000000 0.217954 -0.009629 0.000000 0.000000 0.000000
    19 -6.579208 0.000000 -0.000001 0.000000 0.000000 0.000000
    20 -14.319741 -15.458982 88.923607 -1.655486 0.445705 -2.888000
    21 11.574886 -2.180909 1.427974 -1.940707 -0.170962 2.830789
    22 34.710712 -15.133160 78.859528 3.141593 0.000000 3.141593
    23 -0.000001 0.217956 0.009627 0.000000 0.000000 0.000000
    24 -6.579209 0.000000 0.000000 0.000000 0.000000 0.000000
    25 14.319743 -15.458982 88.923607 -0.057762 0.445706 -0.253592
    26 11.620371 -2.905373 2.149562 -0.263159 -0.211577 0.098244
    27 8.930669 9.895990 16.516956 -1.178097 0.000000 0.000000
    28 -10.478000 3.596270 -57.675583 0.000000 0.000000 0.000000
    29 20.682631 -0.459138 -0.000003 0.000000 0.000000 0.000000
  time 7
    0 -35.481688 0.000000 34.046600 1.570796 0.000000 1.570796
    1 -26.737438 9.978985 -63.177887 0.007343 -0.264986 -1.495672
    2 -26.847315 6.445414 78.520195 0.268794 0.005643 -3.065482
    3 -4.313085 -13.578558 -57.058857 3.141593 0.000000 3.141593
    4 38.013969 0.147198 -0.193551 3.141593 0.000000 -3.141593
    5 20.686598 0.469208 -0.164128 -3.110653 -0.264987 1.495673
    6 0.016516 -11.367848 70.181595 0.000000 0.000000 0.000000
    7 26.847315 6.445414 78.520195 2.876405 -0.019551 -0.071301
    8 4.313085 -13.578558 -57.058857 0.000000 0.000000 0.000000
    9 38.013966 0.147198 0.193553 3.141593 0.000000 3.141593
    10 20.605600 0.473753 0.167817 -0.024242 0.265136 1.494187
    11 26.690825 9.982033 -63.178242 0.007103 -0.265136 -1.647406
    12 60.688992 20.068293 -2.220502 1.562935 -0.097868 -3.061967
    13 -16.873423 9.784609 52.968449 0.000000 0.000000 0.000000
    14 0.020790 5.827109 -0.224471 -1.570796 -1.570796 0.000000
    15 -8.438861 0.038662 0.559093 1.570796 0.000000 1.570796
    16 5.664327 9.038126 28.830690 -1.230457 0.000000 0.000000
    17 -34.710712 -15.133160 78.859528 0.000000 0.000000 0.000000
    18 0.000000 0.217954 -0.009629 0.000000 0.000000 0.000000
    19 -6.579208 0.000000 -0.000001 0.000000 0.000000 0.000000
    20 -14.319741 -15.458982 88.923607 -1.655486 0.445705 -2.888000
    21 11.574886 -2.180909 1.427974 -1.940707 -0.170962 2.830789
    22 34.710712 -15.133160 78.859528 3.141593 0.000000 3.141593
    23 -0.000001 0.217956 0.009627 0.000000 0.000000 0.000000
    24 -6.579209 0.000000 0.000000 0.000000 0.000000 0.000000
    25 14.319743 -15.458982 88.923607 -0.057762 0.445706 -0.253592
    26 11.620371 -2.905373 2.149562 -0.263159 -0.211577 0.098244
    27 8.930669 9.895990 16.516956 -1.178097 0.000000 0.000000
    28 -10.478000 3.596270 -57.675583 0.000000 0.000000 0.000000
    29 20.682631 -0.459138 -0.000003 0.000000 0.000000 0.000000
  time 8
    0 -35.481688 0.000000 34.046600 1.570796 0.000000 1.570796
    1 -26.737438 9.978985 -63.177887 0.007343 -0.264986 -1.495672
    2 -26.847315 6.445414 78.520195 0.268794 0.005643 -3.065482
    3 -4.313085 -13.578558 -57.058857 3.141593 0.000000 3.141593
    4 38.013969 0.147198 -0.193551 3.141593 0.000000 -3.141593
    5 20.686598 0.469208 -0.164128 -3.110653 -0.264987 1.495673
    6 0.016516 -11.367848 70.181595 0.000000 0.000000 0.000000
    7 26.847315 6.445414 78.520195 2.876405 -0.019551 -0.071301
    8 4.313085 -13.578558 -57.058857 0.000000 0.000000 0.000000
    9 38.013966 0.147198 0.193553 3.141593 0.000000 3.141593
    10 20.605600 0.473753 0.167817 -0.024242 0.265136 1.494187
    11 26.690825 9.982033 -63.178242 0.007103 -0.265136 -1.647406
    12 58.415485 20.099544 -2.294724 1.558333 -0.124672 -3.042216
    13 -16.873423 9.784609 52.968449 0.000000 0.000000 0.000000
    14 0.020790 5.827109 -0.224471 -1.570796 -1.570796 0.000000
    15 -8.438861 0.038662 0.559093 1.570796 0.000000 1.570796
    16 5.664327 9.038126 28.830690 -1.230457 0.000000 0.000000
    17 -34.710712 -15.133160 78.859528 0.000000 0.000000 0.000000
    18 0.000000 0.217954 -0.009629 0.000000 0.000000 0.000000
    19 -6.579208 0.000000 -0.000001 0.000000 0.000000 0.000000
    20 -14.319741 -15.458982 88.923607 -1.655486 0.445705 -2.888000
    21 11.574886 -2.180909 1.427974 -1.940707 -0.170962 2.830789
    22 34.710712 -15.133160 78.859528 3.141593 0.000000 3.141593
    23 -0.000001 0.217956 0.009627 0.000000 0.000000 0.000000
    24 -6.579209 0.000000 0.000000 0.000000 0.000000 0.000000
    25 14.319743 -15.458982 88.923607 -0.057762 0.445706 -0.253592
    26 11.620371 -2.905373 2.149562 -0.263159 -0.211577 0.098244
    27 8.930669 9.895990 16.516956 -1.178097 0.000000 0.000000
    28 -10.478000 3.596270 -57.675583 0.000000 0.000000 0.000000
    29 20.682631 -0.459138 -0.000003 0.000000 0.000000 0.000000
  time 9
    0 -35.481688 0.000000 34.046600 1.570796 0.000000 1.570796
    1 -26.737438 9.978985 -63.177887 0.007343 -0.264986 -1.495672
    2 -26.847315 6.445414 78.520195 0.268794 0.005643 -3.065482
    3 -4.313085 -13.578558 -57.058857 3.141593 0.000000 3.141593
    4 38.013969 0.147198 -0.193551 3.141593 0.000000 -3.141593
    5 20.686598 0.469208 -0.164128 -3.110653 -0.264987 1.495673
    6 0.016516 -11.367848 70.181595 0.000000 0.000000 0.000000
    7 26.847315 6.445414 78.520195 2.876405 -0.019551 -0.071301
    8 4.313085 -13.578558 -57.058857 0.000000 0.000000 0.000000
    9 38.013966 0.147198 0.193553 3.141593 0.000000 3.141593
    10 20.605600 0.473753 0.167817 -0.024242 0.265136 1.494187
    11 26.690825 9.982033 -63.178242 0.007103 -0.265136 -1.647406
    12 56.005255 20.130795 -2.380664 1.552293 -0.153646 -3.021411
    13 -16.873423 9.784609 52.968449 0.000000 0.000000 0.000000
    14 0.020790 5.827109 -0.224471 -1.570796 -1.570796 0.000000
    15 -8.438861 0.038662 0.559093 1.570796 0.000000 1.570796
    16 5.664327 9.038126 28.830690 -1.230457 0.000000 0.000000
    17 -34.710712 -15.133160 78.859528 0.000000 0.000000 0.000000
    18 0.000000 0.217954 -0.009629 0.000000 0.000000 0.000000
    19 -6.579208 0.000000 -0.000001 0.000000 0.000000 0.000000
    20 -14.319741 -15.458982 88.923607 -1.655486 0.445705 -2.888000
    21 11.574886 -2.180909 1.427974 -1.940707 -0.170962 2.830789
    22 34.710712 -15.133160 78.859528 3.141593 0.000000 3.141593
    23 -0.000001 0.217956 0.009627 0.000000 0.000000 0.000000
    24 -6.579209 0.000000 0.000000 0.000000 0.000000 0.000000
    25 14.319743 -15.458982 88.923607 -0.057762 0.445706 -0.253592
    26 11.620371 -2.905373 2.149562 -0.263159 -0.211577 0.098244
    27 8.930669 9.895990 16.516956 -1.178097 0.000000 0.000000
    28 -10.478000 3.596270 -57.675583 0.000000 0.000000 0.000000
    29 20.682631 -0.459138 -0.000003 0.000000 0.000000 0.000000
  time 10
    0 -35.481688 0.000000 34.046600 1.570796 0.000000 1.570796
    1 -26.737438 9.978985 -63.177887 0.007343 -0.264986 -1.495672
    2 -26.847315 6.445414 78.520195 0.268794 0.005643 -3.065482
    3 -4.313085 -13.578558 -57.058857 3.141593 0.000000 3.141593
    4 38.013969 0.147198 -0.193551 3.141593 0.000000 -3.141593
    5 20.686598 0.469208 -0.164128 -3.110653 -0.264987 1.495673
    6 0.016516 -11.367848 70.181595 0.000000 0.000000 0.000000
    7 26.847315 6.445414 78.520195 2.876405 -0.019551 -0.071301
    8 4.313085 -13.578558 -57.058857 0.000000 0.000000 0.000000
    9 38.013966 0.147198 0.193553 3.141593 0.000000 3.141593
    10 20.605600 0.473753 0.167817 -0.024242 0.265136 1.494187
    11 26.690825 9.982033 -63.178242 0.007103 -0.265136 -1.647406
    12 53.489553 20.162046 -2.474416 1.544623 -0.184634 -3.000126
    13 -16.873423 9.784609 52.968449 0.000000 0.000000 0.000000
    14 0.020790 5.827109 -0.224471 -1.570796 -1.570796 0.000000
    15 -8.438861 0.038662 0.559093 1.570796 0.000000 1.570796
    16 5.664327 9.038126 28.830690 -1.230457 0.000000 0.000000
    17 -34.710712 -15.133160 78.859528 0.000000 0.000000 0.000000
    18 0.000000 0.217954 -0.009629 0.000000 0.000000 0.000000
    19 -6.579208 0.000000 -0.000001 0.000000 0.000000 0.000000
    20 -14.319741 -15.458982 88.923607 -1.655486 0.445705 -2.888000
    21 11.574886 -2.180909 1.427974 -1.940707 -0.170962 2.830789
    22 34.710712 -15.133160 78.859528 3.141593 0.000000 3.141593
    23 -0.000001 0.217956 0.009627 0.000000 0.000000 0.000000
    24 -6.579209 0.000000 0.000000 0.000000 0.000000 0.000000
    25 14.319743 -15.458982 88.923607 -0.057762 0.445706 -0.253592
    26 11.620371 -2.905373 2.149562 -0.263159 -0.211577 0.098244
    27 8.930669 9.895990 16.516956 -1.178097 0.000000 0.000000
    28 -10.478000 3.596270 -57.675583 0.000000 0.000000 0.000000
    29 20.682631 -0.459138 -0.000003 0.000000 0.000000 0.000000
  time 11
    0 -35.481688 0.000000 34.046600 1.570796 0.000000 1.570796
    1 -26.737438 9.978985 -63.177887 0.007343 -0.264986 -1.495672
    2 -26.847315 6.445414 78.520195 0.268794 0.005643 -3.065482
    3 -4.313085 -13.578558 -57.058857 3.141593 0.000000 3.141593
    4 38.013969 0.147198 -0.193551 3.141593 0.000000 -3.141593
    5 20.686598 0.469208 -0.164128 -3.110653 -0.264987 1.495673
    6 0.016516 -11.367848 70.181595 0.000000 0.000000 0.000000
    7 26.847315 6.445414 78.520195 2.876405 -0.019551 -0.071301
    8 4.313085 -13.578558 -57.058857 0.000000 0.000000 0.000000
    9 38.013966 0.147198 0.193553 3.141593 0.000000 3.141593
    10 20.605600 0.473753 0.167817 -0.024242 0.265136 1.494187
    11 26.690825 9.982033 -63.178242 0.007103 -0.265136 -1.647406
    12 50.911350 20.193297 -2.579888 1.535323 -0.217171 -2.978554
    13 -16.873423 9.784609 52.968449 0.000000 0.000000 0.000000
    14 0.020790 5.827109 -0.224471 -1.570796 -1.570796 0.000000
    15 -8.438861 0.038662 0.559093 1.570796 0.000000 1.570796
    16 5.664327 9.038126 28.830690 -1.230457 0.000000 0.000000
    17 -34.710712 -15.133160 78.859528 0.000000 0.000000 0.000000
    18 0.000000 0.217954 -0.009629 0.000000 0.000000 0.000000
    19 -6.579208 0.000000 -0.000001 0.000000 0.000000 0.000000
    20 -14.319741 -15.458982 88.923607 -1.655486 0.445705 -2.888000
    21 11.574886 -2.180909 1.427974 -1.940707 -0.170962 2.830789
    22 34.710712 -15.133160 78.859528 3.141593 0.000000 3.141593
    23 -0.000001 0.217956 0.009627 0.000000 0.000000 0.000000
    24 -6.579209 0.000000 0.000000 0.000000 0.000000 0.000000
    25 14.319743 -15.458982 88.923607 -0.057762 0.445706 -0.253592
    26 11.620371 -2.905373 2.149562 -0.263159 -0.211577 0.098244
    27 8.930669 9.895990 16.516956 -1.178097 0.000000 0.000000
    28 -10.478000 3.596270 -57.675583 0.000000 0.000000 0.000000
    29 20.682631 -0.459138 -0.000003 0.000000 0.000000 0.000000
  time 12
    0 -35.481688 0.000000 34.046600 1.570796 0.000000 1.570796
    1 -26.737438 9.978985 -63.177887 0.007343 -0.264986 -1.495672
    2 -26.847315 6.445414 78.520195 0.268794 0.005643 -3.065482
    3 -4.313085 -13.578558 -57.058857 3.141593 0.000000 3.141593
    4 38.013969 0.147198 -0.193551 3.141593 0.000000 -3.141593
    5 20.686598 0.469208 -0.164128 -3.110653 -0.264987 1.495673
    6 0.016516 -11.367848 70.181595 0.000000 0.000000 0.000000
    7 26.847315 6.445414 78.520195 2.876405 -0.019551 -0.071301
    8 4.313085 -13.578558 -57.058857 0.000000 0.000000 0.000000
    9 38.013966 0.147198 0.193553 3.141593 0.000000 3.141593
    10 20.605600 0.473753 0.167817 -0.024242 0.265136 1.494187
    11 26.690825 9.982033 -63.178242 0.007103 -0.265136 -1.647406
    12 48.305801 20.228455 -2.697080 1.524489 -0.250948 -2.957173
    13 -16.873423 9.784609 52.968449 0.000000 0.000000 0.000000
    14 0.020790 5.827109 -0.224471 -1.570796 -1.570796 0.000000
    15 -8.438861 0.038662 0.559093 1.570796 0.000000 1.570796
    16 5.664327 9.038126 28.830690 -1.230457 0.000000 0.000000
    17 -34.710712 -15.133160 78.859528 0.000000 0.000000 0.000000
    18 0.000000 0.217954 -0.009629 0.000000 0.000000 0.000000
    19 -6.579208 0.000000 -0.000001 0.000000 0.000000 0.000000
    20 -14.319741 -15.458982 88.923607 -1.655486 0.445705 -2.888000
    21 11.574886 -2.180909 1.427974 -1.940707 -0.170962 2.830789
    22 34.710712 -15.133160 78.859528 3.141593 0.000000 3.141593
    23 -0.000001 0.217956 0.009627 0.000000 0.000000 0.000000
    24 -6.579209 0.000000 0.000000 0.000000 0.000000 0.000000
    25 14.319743 -15.458982 88.923607 -0.057762 0.445706 -0.253592
    26 11.620371 -2.905373 2.149562 -0.263159 -0.211577 0.098244
    27 8.930669 9.895990 16.516956 -1.178097 0.000000 0.000000
    28 -10.478000 3.596270 -57.675583 0.000000 0.000000 0.000000
    29 20.682631 -0.459138 -0.000003 0.000000 0.000000 0.000000
  time 13
    0 -35.481688 0.000000 34.046600 1.570796 0.000000 1.570796
    1 -26.737438 9.978985 -63.177887 0.007343 -0.264986 -1.495672
    2 -26.847315 6.445414 78.520195 0.268794 0.005643 -3.065482
    3 -4.313085 -13.578558 -57.058857 3.141593 0.000000 3.141593
    4 38.013969 0.147198 -0.193551 3.141593 0.000000 -3.141593
    5 20.686598 0.469208 -0.164128 -3.110653 -0.264987 1.495673
    6 0.016516 -11.367848 70.181595 0.000000 0.000000 0.000000
    7 26.847315 6.445414 78.520195 2.876405 -0.019551 -0.071301
    8 4.313085 -13.578558 -57.058857 0.000000 0.000000 0.000000
    9 38.013966 0.147198 0.193553 3.141593 0.000000 3.141593
    10 20.605600 0.473753 0.167817 -0.024242 0.265136 1.494187
    11 26.690825 9.982033 -63.178242 0.007103 -0.265136 -1.647406
    12 45.708066 20.263612 -2.822083 1.512121 -0.285809 -2.936272
    13 -16.873423 9.784609 52.968449 0.000000 0.000000 0.000000
    14 0.020790 5.827109 -0.224471 -1.570796 -1.570796 0.000000
    15 -8.438861 0.038662 0.559093 1.570796 0.000000 1.570796
    16 5.664327 9.038126 28.830690 -1.230457 0.000000 0.000000
    17 -34.710712 -15.133160 78.859528 0.000000 0.000000 0.000000
    18 0.000000 0.217954 -0.009629 0.000000 0.000000 0.000000
    19 -6.579208 0.000000 -0.000001 0.000000 0.000000 0.000000
    20 -14.319741 -15.458982 88.923607 -1.655486 0.445705 -2.888000
    21 11.574886 -2.180909 1.427974 -1.940707 -0.170962 2.830789
    22 34.710712 -15.133160 78.859528 3.141593 0.000000 3.141593
    23 -0.000001 0.217956 0.009627 0.000000 0.000000 0.000000
    24 -6.579209 0.000000 0.000000 0.000000 0.000000 0.000000
    25 14.319743 -15.458982 88.923607 -0.057762 0.445706 -0.253592
    26 11.620371 -2.905373 2.149562 -0.263159 -0.211577 0.098244
    27 8.930669 9.895990 16.516956 -1.178097 0.000000 0.000000
    28 -10.478000 3.596270 -57.675583 0.000000 0.000000 0.000000
    29 20.682631 -0.459138 -0.000003 0.000000 0.000000 0.000000
  time 14
    0 -35.481688 0.000000 34.046600 1.570796 0.000000 1.570796
    1 -26.737438 9.978985 -63.177887 0.007343 -0.264986 -1.495672
    2 -26.847315 6.445414 78.520195 0.268794 0.005643 -3.065482
    3 -4.313085 -13.578558 -57.058857 3.141593 0.000000 3.141593
    4 38.013969 0.147198 -0.193551 3.141593 0.000000 -3.141593
    5 20.686598 0.469208 -0.164128 -3.110653 -0.264987 1.495673
    6 0.016516 -11.367848 70.181595 0.000000 0.000000 0.000000
    7 26.847315 6.445414 78.520195 2.876405 -0.019551 -0.071301
    8 4.313085 -13.578558 -57.058857 0.000000 0.000000 0.000000
    9 38.013966 0.147198 0.193553 3.141593 0.000000 3.141593
    10 20.605600 0.473753 0.167817 -0.024242 0.265136 1.494187
    11 26.690825 9.982033 -63.178242 0.007103 -0.265136 -1.647406
    12 43.161113 20.294863 -2.962713 1.498507 -0.321368 -2.916234
    13 -16.873423 9.784609 52.968449 0.000000 0.000000 0.000000
    14 0.020790 5.827109 -0.224471 -1.570796 -1.570796 0.000000
    15 -8.438861 0.038662 0.559093 1.570796 0.000000 1.570796
    16 5.664327 9.038126 28.830690 -1.230457 0.000000 0.000000
    17 -34.710712 -15.133160 78.859528 0.000000 0.000000 0.000000
    18 0.000000 0.217954 -0.009629 0.000000 0.000000 0.000000
    19 -6.579208 0.000000 -0.000001 0.000000 0.000000 0.000000
    20 -14.319741 -15.458982 88.923607 -1.655486 0.445705 -2.888000
    21 11.574886 -2.180909 1.427974 -1.940707 -0.170962 2.830789
    22 34.710712 -15.133160 78.859528 3.141593 0.000000 3.141593
    23 -0.000001 0.217956 0.009627 0.000000 0.000000 0.000000
    24 -6.579209 0.000000 0.000000 0.000000 0.000000 0.000000
    25 14.319743 -15.458982 88.923607 -0.057762 0.445706 -0.253592
    26 11.620371 -2.905373 2.149562 -0.263159 -0.211577 0.098244
    27 8.930669 9.895990 16.516956 -1.178097 0.000000 0.000000
    28 -10.478000 3.596270 -57.675583 0.000000 0.000000 0.000000
    29 20.682631 -0.459138 -0.000003 0.000000 0.000000 0.000000
  time 15
    0 -35.481688 0.000000 34.046600 1.570796 0.000000 1.570796
    1 -26.737438 9.978985 -63.177887 0.007343 -0.264986 -1.495672
    2 -26.847315 6.445414 78.520195 0.268794 0.005643 -3.065482
    3 -4.313085 -13.578558 -57.058857 3.141593 0.000000 3.141593
    4 38.013969 0.147198 -0.193551 3.141593 0.000000 -3.141593
    5 20.686598 0.469208 -0.164128 -3.110653 -0.264987 1.495673
    6 0.016516 -11.367848 70.181595 0.000000 0.000000 0.000000
    7 26.847315 6.445414 78.520195 2.876405 -0.019551 -0.071301
    8 4.313085 -13.578558 -57.058857 0.000000 0.000000 0.000000
    9 38.013966 0.147198 0.193553 3.141593 0.000000 3.141593
    10 20.605600 0.473753 0.167817 -0.024242 0.265136 1.494187
    11 26.690825 9.982033 -63.178242 0.007103 -0.265136 -1.647406
    12 40.700101 20.326114 -3.111155 1.483935 -0.357391 -2.897634
    13 -16.873423 9.784609 52.968449 0.000000 0.000000 0.000000
    14 0.020790 5.827109 -0.224471 -1.570796 -1.570796 0.000000
    15 -8.438861 0.038662 0.559093 1.570796 0.000000 1.570796
    16 5.664327 9.038126 28.830690 -1.230457 0.000000 0.000000
    17 -34.710712 -15.133160 78.859528 0.000000 0.000000 0.000000
    18 0.000000 0.217954 -0.009629 0.000000 0.000000 0.000000
    19 -6.579208 0.000000 -0.000001 0.000000 0.000000 0.000000
    20 -14.319741 -15.458982 88.923607 -1.655486 0.445705 -2.888000
    21 11.574886 -2.180909 1.427974 -1.940707 -0.170962 2.830789
    22 34.710712 -15.133160 78.859528 3.141593 0.000000 3.141593
    23 -0.000001 0.217956 0.009627 0.000000 0.000000 0.000000
    24 -6.579209 0.000000 0.000000 0.000000 0.000000 0.000000
    25 14.319743 -15.458982 88.923607 -0.057762 0.445706 -0.253592
    26 11.620371 -2.905373 2.149562 -0.263159 -0.211577 0.098244
    27 8.930669 9.895990 16.516956 -1.178097 0.000000 0.000000
    28 -10.478000 3.596270 -57.675583 0.000000 0.000000 0.000000
    29 20.682631 -0.459138 -0.000003 0.000000 0.000000 0.000000
  time 16
    0 -35.481688 0.000000 34.046600 1.570796 0.000000 1.570796
    1 -26.737438 9.978985 -63.177887 0.007343 -0.264986 -1.495672
    2 -26.847315 6.445414 78.520195 0.268794 0.005643 -3.065482
    3 -4.313085 -13.578558 -57.058857 3.141593 0.000000 3.141593
    4 38.013969 0.147198 -0.193551 3.141593 0.000000 -3.141593
    5 20.686598 0.469208 -0.164128 -3.110653 -0.264987 1.495673
    6 0.016516 -11.367848 70.181595 0.000000 0.000000 0.000000
    7 26.847315 6.445414 78.520195 2.876405 -0.019551 -0.071301
    8 4.313085 -13.578558 -57.058857 0.000000 0.000000 0.000000
    9 38.013966 0.147198 0.193553 3.141593 0.000000 3.141593
    10 20.605600 0.473753 0.167817 -0.024242 0.265136 1.494187
    11 26.690825 9.982033 -63.178242 0.007103 -0.265136 -1.647406
    12 38.364092 20.357365 -3.271316 1.468691 -0.393802 -2.880664
    13 -16.873423 9.784609 52.968449 0.000000 0.000000 0.000000
    14 0.020790 5.827109 -0.224471 -1.570796 -1.570796 0.000000
    15 -8.438861 0.038662 0.559093 1.570796 0.000000 1.570796
    16 5.664327 9.038126 28.830690 -1.230457 0.000000 0.000000
    17 -34.710712 -15.133160 78.859528 0.000000 0.000000 0.000000
    18 0.000000 0.217954 -0.009629 0.000000 0.000000 0.000000
    19 -6.579208 0.000000 -0.000001 0.000000 0.000000 0.000000
    20 -14.319741 -15.458982 88.923607 -1.655486 0.445705 -2.888000
    21 11.574886 -2.180909 1.427974 -1.940707 -0.170962 2.830789
    22 34.710712 -15.133160 78.859528 3.141593 0.000000 3.141593
    23 -0.000001 0.217956 0.009627 0.000000 0.000000 0.000000
    24 -6.579209 0.000000 0.000000 0.000000 0.000000 0.000000
    25 14.319743 -15.458982 88.923607 -0.057762 0.445706 -0.253592
    26 11.620371 -2.905373 2.149562 -0.263159 -0.211577 0.098244
    27 8.930669 9.895990 16.516956 -1.178097 0.000000 0.000000
    28 -10.478000 3.596270 -57.675583 0.000000 0.000000 0.000000
    29 20.682631 -0.459138 -0.000003 0.000000 0.000000 0.000000
  time 17
    0 -35.481688 0.000000 34.046600 1.570796 0.000000 1.570796
    1 -26.737438 9.978985 -63.177887 0.007343 -0.264986 -1.495672
    2 -26.847315 6.445414 78.520195 0.268794 0.005643 -3.065482
    3 -4.313085 -13.578558 -57.058857 3.141593 0.000000 3.141593
    4 38.013969 0.147198 -0.193551 3.141593 0.000000 -3.141593
    5 20.686598 0.469208 -0.164128 -3.110653 -0.264987 1.495673
    6 0.016516 -11.367848 70.181595 0.000000 0.000000 0.000000
    7 26.847315 6.445414 78.520195 2.876405 -0.019551 -0.071301
    8 4.313085 -13.578558 -57.058857 0.000000 0.000000 0.000000
    9 38.013966 0.147198 0.193553 3.141593 0.000000 3.141593
    10 20.605600 0.473753 0.167817 -0.024242 0.265136 1.494187
    11 26.690825 9.982033 -63.178242 0.007103 -0.265136 -1.647406
    12 36.188244 20.384709 -3.443196 1.453351 -0.430367 -2.866090
    13 -16.873423 9.784609 52.968449 0.000000 0.000000 0.000000
    14 0.020790 5.827109 -0.224471 -1.570796 -1.570796 0.000000
    15 -8.438861 0.038662 0.559093 1.570796 0.000000 1.570796
    16 5.664327 9.038126 28.830690 -1.230457 0.000000 0.000000
    17 -34.710712 -15.133160 78.859528 0.000000 0.000000 0.000000
    18 0.000000 0.217954 -0.009629 0.000000 0.000000 0.000000
    19 -6.579208 0.000000 -0.000001 0.000000 0.000000 0.000000
    20 -14.319741 -15.458982 88.923607 -1.655486 0.445705 -2.888000
    21 11.574886 -2.180909 1.427974 -1.940707 -0.170962 2.830789
    22 34.710712 -15.133160 78.859528 3.141593 0.000000 3.141593
    23 -0.000001 0.217956 0.009627 0.000000 0.000000 0.000000
    24 -6.579209 0.000000 0.000000 0.000000 0.000000 0.000000
    25 14.319743 -15.458982 88.923607 -0.057762 0.445706 -0.253592
    26 11.620371 -2.905373 2.149562 -0.263159 -0.211577 0.098244
    27 8.930669 9.895990 16.516956 -1.178097 0.000000 0.000000
    28 -10.478000 3.596270 -57.675583 0.000000 0.000000 0.000000
    29 20.682631 -0.459138 -0.000003 0.000000 0.000000 0.000000
  time 18
    0 -35.481688 0.000000 34.046600 1.570796 0.000000 1.570796
    1 -26.737438 9.978985 -63.177887 0.007343 -0.264986 -1.495672
    2 -26.847315 6.445414 78.520195 0.268794 0.005643 -3.065482
    3 -4.313085 -13.578558 -57.058857 3.141593 0.000000 3.141593
    4 38.013969 0.147198 -0.193551 3.141593 0.000000 -3.141593
    5 20.686598 0.469208 -0.164128 -3.110653 -0.264987 1.495673
    6 0.016516 -11.367848 70.181595 0.000000 0.000000 0.000000
    7 26.847315 6.445414 78.520195 2.876405 -0.019551 -0.071301
    8 4.313085 -13.578558 -57.058857 0.000000 0.000000 0.000000
    9 38.013966 0.147198 0.193553 3.141593 0.000000 3.141593
    10 20.605600 0.473753 0.167817 -0.024242 0.265136 1.494187
    11 26.690825 9.982033 -63.178242 0.007103 -0.265136 -1.647406
    12 34.219434 20.412054 -3.630702 1.438586 -0.467088 -2.854394
    13 -16.873423 9.784609 52.968449 0.000000 0.000000 0.000000
    14 0.020790 5.827109 -0.224471 -1.570796 -1.570796 0.000000
    15 -8.438861 0.038662 0.559093 1.570796 0.000000 1.570796
    16 5.664327 9.038126 28.830690 -1.230457 0.000000 0.000000
    17 -34.710712 -15.133160 78.859528 0.000000 0.000000 0.000000
    18 0.000000 0.217954 -0.009629 0.000000 0.000000 0.000000
    19 -6.579208 0.000000 -0.000001 0.000000 0.000000 0.000000
    20 -14.319741 -15.458982 88.923607 -1.655486 0.445705 -2.888000
    21 11.574886 -2.180909 1.427974 -1.940707 -0.170962 2.830789
    22 34.710712 -15.133160 78.859528 3.141593 0.000000 3.141593
    23 -0.000001 0.217956 0.009627 0.000000 0.000000 0.000000
    24 -6.579209 0.000000 0.000000 0.000000 0.000000 0.000000
    25 14.319743 -15.458982 88.923607 -0.057762 0.445706 -0.253592
    26 11.620371 -2.905373 2.149562 -0.263159 -0.211577 0.098244
    27 8.930669 9.895990 16.516956 -1.178097 0.000000 0.000000
    28 -10.478000 3.596270 -57.675583 0.000000 0.000000 0.000000
    29 20.682631 -0.459138 -0.000003 0.000000 0.000000 0.000000
  time 19
    0 -35.481688 0.000000 34.046600 1.570796 0.000000 1.570796
    1 -26.737438 9.978985 -63.177887 0.007343 -0.264986 -1.495672
    2 -26.847315 6.445414 78.520195 0.268794 0.005643 -3.065482
    3 -4.313085 -13.578558 -57.058857 3.141593 0.000000 3.141593
    4 38.013969 0.147198 -0.193551 3.141593 0.000000 -3.141593
    5 20.686598 0.469208 -0.164128 -3.110653 -0.264987 1.495673
    6 0.016516 -11.367848 70.181595 0.000000 0.000000 0.000000
    7 26.847315 6.445414 78.520195 2.876405 -0.019551 -0.071301
    8 4.313085 -13.578558 -57.058857 0.000000 0.000000 0.000000
    9 38.013966 0.147198 0.193553 3.141593 0.000000 3.141593
    10 20.605600 0.473753 0.167817 -0.024242 0.265136 1.494187
    11 26.690825 9.982033 -63.178242 0.007103 -0.265136 -1.647406
    12 32.485006 20.431586 -3.826020 1.424972 -0.503731 -2.846244
    13 -16.873423 9.784609 52.968449 0.000000 0.000000 0.000000
    14 0.020790 5.827109 -0.224471 -1.570796 -1.570796 0.000000
    15 -8.438861 0.038662 0.559093 1.570796 0.000000 1.570796
    16 5.664327 9.038126 28.830690 -1.230457 0.000000 0.000000
    17 -34.710712 -15.133160 78.859528 0.000000 0.000000 0.000000
    18 0.000000 0.217954 -0.009629 0.000000 0.000000 0.000000
    19 -6.579208 0.000000 -0.000001 0.000000 0.000000 0.000000
    20 -14.319741 -15.458982 88.923607 -1.655486 0.445705 -2.888000
    21 11.574886 -2.180909 1.427974 -1.940707 -0.170962 2.830789
    22 34.710712 -15.133160 78.859528 3.141593 0.000000 3.141593
    23 -0.000001 0.217956 0.009627 0.000000 0.000000 0.000000
    24 -6.579209 0.000000 0.000000 0.000000 0.000000 0.000000
    25 14.319743 -15.458982 88.923607 -0.057762 0.445706 -0.253592
    26 11.620371 -2.905373 2.149562 -0.263159 -0.211577 0.098244
    27 8.930669 9.895990 16.516956 -1.178097 0.000000 0.000000
    28 -10.478000 3.596270 -57.675583 0.000000 0.000000 0.000000
    29 20.682631 -0.459138 -0.000003 0.000000 0.000000 0.000000
  time 20
    0 -35.481688 0.000000 34.046600 1.570796 0.000000 1.570796
    1 -26.737438 9.978985 -63.177887 0.007343 -0.264986 -1.495672
    2 -26.847315 6.445414 78.520195 0.268794 0.005643 -3.065482
    3 -4.313085 -13.578558 -57.058857 3.141593 0.000000 3.141593
    4 38.013969 0.147198 -0.193551 3.141593 0.000000 -3.141593
    5 20.686598 0.469208 -0.164128 -3.110653 -0.264987 1.495673
    6 0.016516 -11.367848 70.181595 0.000000 0.000000 0.000000
    7 26.847315 6.445414 78.520195 2.876405 -0.019551 -0.071301
    8 4.313085 -13.578558 -57.058857 0.000000 0.000000 0.000000
    9 38.013966 0.147198 0.193553 3.141593 0.000000 3.141593
    10 20.605600 0.473753 0.167817 -0.024242 0.265136 1.494187
    11 26.690825 9.982033 -63.178242 0.007103 -0.265136 -1.647406
    12 30.914646 20.451118 -4.040871 1.411933 -0.543318 -2.841067
    13 -16.873423 9.784609 52.968449 0.000000 0.000000 0.000000
    14 0.020790 5.827109 -0.224471 -1.570796 -1.570796 0.000000
    15 -8.438861 0.038662 0.559093 1.570796 0.000000 1.570796
    16 5.664327 9.038126 28.830690 -1.230457 0.000000 0.000000
    17 -34.710712 -15.133160 78.859528 0.000000 0.000000 0.000000
    18 0.000000 0.217954 -0.009629 0.000000 0.000000 0.000000
    19 -6.579208 0.000000 -0.000001 0.000000 0.000000 0.000000
    20 -14.319741 -15.458982 88.923607 -1.655486 0.445705 -2.888000
    21 11.574886 -2.180909 1.427974 -1.940707 -0.170962 2.830789
    22 34.710712 -15.133160 78.859528 3.141593 0.000000 3.141593
    23 -0.000001 0.217956 0.009627 0.000000 0.000000 0.000000
    24 -6.579209 0.000000 0.000000 0.000000 0.000000 0.000000
    25 14.319743 -15.458982 88.923607 -0.057762 0.445706 -0.253592
    26 11.620371 -2.905373 2.149562 -0.263159 -0.211577 0.098244
    27 8.930669 9.895990 16.516956 -1.178097 0.000000 0.000000
    28 -10.478000 3.596270 -57.675583 0.000000 0.000000 0.000000
    29 20.682631 -0.459138 -0.000003 0.000000 0.000000 0.000000
  time 21
    0 -35.481688 0.000000 34.046600 1.570796 0.000000 1.570796
    1 -26.737438 9.978985 -63.177887 0.007343 -0.264986 -1.495672
    2 -26.847315 6.445414 78.520195 0.268794 0.005643 -3.065482
    3 -4.313085 -13.578558 -57.058857 3.141593 0.000000 3.141593
    4 38.013969 0.147198 -0.193551 3.141593 0.000000 -3.141593
    5 20.686598 0.469208 -0.164128 -3.110653 -0.264987 1.495673
    6 0.016516 -11.367848 70.181595 0.000000 0.000000 0.000000
    7 26.847315 6.445414 78.520195 2.876405 -0.019551 -0.071301
    8 4.313085 -13.578558 -57.058857 0.000000 0.000000 0.000000
    9 38.013966 0.147198 0.193553 3.141593 0.000000 3.141593
    10 20.605600 0.473753 0.167817 -0.024242 0.265136 1.494187
    11 26.690825 9.982033 -63.178242 0.007103 -0.265136 -1.647406
    12 29.406787 20.470649 -4.290878 1.398319 -0.588482 -2.837423
    13 -16.873423 9.784609 52.968449 0.000000 0.000000 0.000000
    14 0.020790 5.827109 -0.224471 -1.570796 -1.570796 0.000000
    15 -8.438861 0.038662 0.559093 1.570796 0.000000 1.570796
    16 5.664327 9.038126 28.830690 -1.230457 0.000000 0.000000
    17 -34.710712 -15.133160 78.859528 0.000000 0.000000 0.000000
    18 0.000000 0.217954 -0.009629 0.000000 0.000000 0.000000
    19 -6.579208 0.000000 -0.000001 0.000000 0.000000 0.000000
    20 -14.319741 -15.458982 88.923607 -1.655486 0.445705 -2.888000
    21 11.574886 -2.180909 1.427974 -1.940707 -0.170962 2.830789
    22 34.710712 -15.133160 78.859528 3.141593 0.000000 3.141593
    23 -0.000001 0.217956 0.009627 0.000000 0.000000 0.000000
    24 -6.579209 0.000000 0.000000 0.000000 0.000000 0.000000
    25 14.319743 -15.458982 88.923607 -0.057762 0.445706 -0.253592
    26 11.620371 -2.905373 2.149562 -0.263159 -0.211577 0.098244
    27 8.930669 9.895990 16.516956 -1.178097 0.000000 0.000000
    28 -10.478000 3.596270 -57.675583 0.000000 0.000000 0.000000
    29 20.682631 -0.459138 -0.000003 0.000000 0.000000 0.000000
  time 22
    0 -35.481688 0.000000 34.046600 1.570796 0.000000 1.570796
    1 -26.737438 9.978985 -63.177887 0.007343 -0.264986 -1.495672
    2 -26.847315 6.445414 78.520195 0.268794 0.005643 -3.065482
    3 -4.313085 -13.578558 -57.058857 3.141593 0.000000 3.141593
    4 38.013969 0.147198 -0.193551 3.141593 0.000000 -3.141593
    5 20.686598 0.469208 -0.164128 -3.110653 -0.264987 1.495673
    6 0.016516 -11.367848 70.181595 0.000000 0.000000 0.000000
    7 26.847315 6.445414 78.520195 2.876405 -0.019551 -0.071301
    8 4.313085 -13.578558 -57.058857 0.000000 0.000000 0.000000
    9 38.013966 0.147198 0.193553 3.141593 0.000000 3.141593
    10 20.605600 0.473753 0.167817 -0.024242 0.265136 1.494187
    11 26.690825 9.982033 -63.178242 0.007103 -0.265136 -1.647406
    12 27.953618 20.490181 -4.564324 1.384418 -0.638528 -2.835122
    13 -16.873423 9.784609 52.968449 0.000000 0.000000 0.000000
    14 0.020790 5.827109 -0.224471 -1.570796 -1.570796 0.000000
    15 -8.438861 0.038662 0.559093 1.570796 0.000000 1.570796
    16 5.664327 9.038126 28.830690 -1.230457 0.000000 0.000000
    17 -34.710712 -15.133160 78.859528 0.000000 0.000000 0.000000
    18 0.000000 0.217954 -0.009629 0.000000 0.000000 0.000000
    19 -6.579208 0.000000 -0.000001 0.000000 0.000000 0.000000
    20 -14.319741 -15.458982 88.923607 -1.655486 0.445705 -2.888000
    21 11.574886 -2.180909 1.427974 -1.940707 -0.170962 2.830789
    22 34.710712 -15.133160 78.859528 3.141593 0.000000 3.141593
    23 -0.000001 0.217956 0.009627 0.000000 0.000000 0.000000
    24 -6.579209 0.000000 0.000000 0.000000 0.000000 0.000000
    25 14.319743 -15.458982 88.923607 -0.057762 0.445706 -0.253592
    26 11.620371 -2.905373 2.149562 -0.263159 -0.211577 0.098244
    27 8.930669 9.895990 16.516956 -1.178097 0.000000 0.000000
    28 -10.478000 3.596270 -57.675583 0.000000 0.000000 0.000000
    29 20.682631 -0.459138 -0.000003 0.000000 0.000000 0.000000
  time 23
    0 -35.481688 0.000000 34.046600 1.570796 0.000000 1.570796
    1 -26.737438 9.978985 -63.177887 0.007343 -0.264986 -1.495672
    2 -26.847315 6.445414 78.520195 0.268794 0.005643 -3.065482
    3 -4.313085 -13.578558 -57.058857 3.141593 0.000000 3.141593
    4 38.013969 0.147198 -0.193551 3.141593 0.000000 -3.141593
    5 20.686598 0.469208 -0.164128 -3.110653 -0.264987 1.495673
    6 0.016516 -11.367848 70.181595 0.000000 0.000000 0.000000
    7 26.847315 6.445414 78.520195 2.876405 -0.019551 -0.071301
    8 4.313085 -13.578558 -57.058857 0.000000 0.000000 0.000000
    9 38.013966 0.147198 0.193553 3.141593 0.000000 3.141593
    10 20.605600 0.473753 0.167817 -0.024242 0.265136 1.494187
    11 26.690825 9.982033 -63.178242 0.007103 -0.265136 -1.647406
    12 26.562950 20.505807 -4.861208 1.370420 -0.692834 -2.833780
    13 -16.873423 9.784609 52.968449 0.000000 0.000000 0.000000
    14 0.020790 5.827109 -0.224471 -1.570796 -1.570796 0.000000
    15 -8.438861 0.038662 0.559093 1.570796 0.000000 1.570796
    16 5.664327 9.038126 28.830690 -1.230457 0.000000 0.000000
    17 -34.710712 -15.133160 78.859528 0.000000 0.000000 0.000000
    18 0.000000 0.217954 -0.009629 0.000000 0.000000 0.000000
    19 -6.579208 0.000000 -0.000001 0.000000 0.000000 0.000000
    20 -14.319741 -15.458982 88.923607 -1.655486 0.445705 -2.888000
    21 11.574886 -2.180909 1.427974 -1.940707 -0.170962 2.830789
    22 34.710712 -15.133160 78.859528 3.141593 0.000000 3.141593
    23 -0.000001 0.217956 0.009627 0.000000 0.000000 0.000000
    24 -6.579209 0.000000 0.000000 0.000000 0.000000 0.000000
    25 14.319743 -15.458982 88.923607 -0.057762 0.445706 -0.253592
    26 11.620371 -2.905373 2.149562 -0.263159 -0.211577 0.098244
    27 8.930669 9.895990 16.516956 -1.178097 0.000000 0.000000
    28 -10.478000 3.596270 -57.675583 0.000000 0.000000 0.000000
    29 20.682631 -0.459138 -0.000003 0.000000 0.000000 0.000000
  time 24
    0 -35.481688 0.000000 34.046600 1.570796 0.000000 1.570796
    1 -26.737438 9.978985 -63.177887 0.007343 -0.264986 -1.495672
    2 -26.847315 6.445414 78.520195 0.268794 0.005643 -3.065482
    3 -4.313085 -13.578558 -57.058857 3.141593 0.000000 3.141593
    4 38.013969 0.147198 -0.193551 3.141593 0.000000 -3.141593
    5 20.686598 0.469208 -0.164128 -3.110653 -0.264987 1.495673
    6 0.016516 -11.367848 70.181595 0.000000 0.000000 0.000000
    7 26.847315 6.445414 78.520195 2.876405 -0.019551 -0.071301
    8 4.313085 -13.578558 -57.058857 0.000000 0.000000 0.000000
    9 38.013966 0.147198 0.193553 3.141593 0.000000 3.141593
    10 20.605600 0.473753 0.167817 -0.024242 0.265136 1.494187
    11 26.690825 9.982033 -63.178242 0.007103 -0.265136 -1.647406
    12 25.223066 20.525339 -5.177624 1.356806 -0.750704 -2.833109
    13 -16.873423 9.784609 52.968449 0.000000 0.000000 0.000000
    14 0.020790 5.827109 -0.224471 -1.570796 -1.570796 0.000000
    15 -8.438861 0.038662 0.559093 1.570796 0.000000 1.570796
    16 5.664327 9.038126 28.830690 -1.230457 0.000000 0.000000
    17 -34.710712 -15.133160 78.859528 0.000000 0.000000 0.000000
    18 0.000000 0.217954 -0.009629 0.000000 0.000000 0.000000
    19 -6.579208 0.000000 -0.000001 0.000000 0.000000 0.000000
    20 -14.319741 -15.458982 88.923607 -1.655486 0.445705 -2.888000
    21 11.574886 -2.180909 1.427974 -1.940707 -0.170962 2.830789
    22 34.710712 -15.133160 78.859528 3.141593 0.000000 3.141593
    23 -0.000001 0.217956 0.009627 0.000000 0.000000 0.000000
    24 -6.579209 0.000000 0.000000 0.000000 0.000000 0.000000
    25 14.319743 -15.458982 88.923607 -0.057762 0.445706 -0.253592
    26 11.620371 -2.905373 2.149562 -0.263159 -0.211577 0.098244
    27 8.930669 9.895990 16.516956 -1.178097 0.000000 0.000000
    28 -10.478000 3.596270 -57.675583 0.000000 0.000000 0.000000
    29 20.682631 -0.459138 -0.000003 0.000000 0.000000 0.000000
  time 25
    0 -35.481688 0.000000 34.046600 1.570796 0.000000 1.570796
    1 -26.737438 9.978985 -63.177887 0.007343 -0.264986 -1.495672
    2 -26.847315 6.445414 78.520195 0.268794 0.005643 -3.065482
    3 -4.313085 -13.578558 -57.058857 3.141593 0.000000 3.141593
    4 38.013969 0.147198 -0.193551 3.141593 0.000000 -3.141593
    5 20.686598 0.469208 -0.164128 -3.110653 -0.264987 1.495673
    6 0.016516 -11.367848 70.181595 0.000000 0.000000 0.000000
    7 26.847315 6.445414 78.520195 2.876405 -0.019551 -0.071301
    8 4.313085 -13.578558 -57.058857 0.000000 0.000000 0.000000
    9 38.013966 0.147198 0.193553 3.141593 0.000000 3.141593
    10 20.605600 0.473753 0.167817 -0.024242 0.265136 1.494187
    11 26.690825 9.982033 -63.178242 0.007103 -0.265136 -1.647406
    12 23.933964 20.540964 -5.509665 1.343575 -0.811440 -2.832917
    13 -16.873423 9.784609 52.968449 0.000000 0.000000 0.000000
    14 0.020790 5.827109 -0.224471 -1.570796 -1.570796 0.000000
    15 -8.438861 0.038662 0.559093 1.570796 0.000000 1.570796
    16 5.664327 9.038126 28.830690 -1.230457 0.000000 0.000000
    17 -34.710712 -15.133160 78.859528 0.000000 0.000000 0.000000
    18 0.000000 0.217954 -0.009629 0.000000 0.000000 0.000000
    19 -6.579208 0.000000 -0.000001 0.000000 0.000000 0.000000
    20 -14.319741 -15.458982 88.923607 -1.655486 0.445705 -2.888000
    21 11.574886 -2.180909 1.427974 -1.940707 -0.170962 2.830789
    22 34.710712 -15.133160 78.859528 3.141593 0.000000 3.141593
    23 -0.000001 0.217956 0.009627 0.000000 0.000000 0.000000
    24 -6.579209 0.000000 0.000000 0.000000 0.000000 0.000000
    25 14.319743 -15.458982 88.923607 -0.057762 0.445706 -0.253592
    26 11.620371 -2.905373 2.149562 -0.263159 -0.211577 0.098244
    27 8.930669 9.895990 16.516956 -1.178097 0.000000 0.000000
    28 -10.478000 3.596270 -57.675583 0.000000 0.000000 0.000000
    29 20.682631 -0.459138 -0.000003 0.000000 0.000000 0.000000
  time 26
    0 -35.481688 0.000000 34.046600 1.570796 0.000000 1.570796
    1 -26.737438 9.978985 -63.177887 0.007343 -0.264986 -1.495672
    2 -26.847315 6.445414 78.520195 0.268794 0.005643 -3.065482
    3 -4.313085 -13.578558 -57.058857 3.141593 0.000000 3.141593
    4 38.013969 0.147198 -0.193551 3.141593 0.000000 -3.141593
    5 20.686598 0.469208 -0.164128 -3.110653 -0.264987 1.495673
    6 0.016516 -11.367848 70.181595 0.000000 0.000000 0.000000
    7 26.847315 6.445414 78.520195 2.876405 -0.019551 -0.071301
    8 4.313085 -13.578558 -57.058857 0.000000 0.000000 0.000000
    9 38.013966 0.147198 0.193553 3.141593 0.000000 3.141593
    10 20.605600 0.473753 0.167817 -0.024242 0.265136 1.494187
    11 26.690825 9.982033 -63.178242 0.007103 -0.265136 -1.647406
    12 22.695645 20.556590 -5.853426 1.330920 -0.874422 -2.833013
    13 -16.873423 9.784609 52.968449 0.000000 0.000000 0.000000
    14 0.020790 5.827109 -0.224471 -1.570796 -1.570796 0.000000
    15 -8.438861 0.038662 0.559093 1.570796 0.000000 1.570796
    16 5.664327 9.038126 28.830690 -1.230457 0.000000 0.000000
    17 -34.710712 -15.133160 78.859528 0.000000 0.000000 0.000000
    18 0.000000 0.217954 -0.009629 0.000000 0.000000 0.000000
    19 -6.579208 0.000000 -0.000001 0.000000 0.000000 0.000000
    20 -14.319741 -15.458982 88.923607 -1.655486 0.445705 -2.888000
    21 11.574886 -2.180909 1.427974 -1.940707 -0.170962 2.830789
    22 34.710712 -15.133160 78.859528 3.141593 0.000000 3.141593
    23 -0.000001 0.217956 0.009627 0.000000 0.000000 0.000000
    24 -6.579209 0.000000 0.000000 0.000000 0.000000 0.000000
    25 14.319743 -15.458982 88.923607 -0.057762 0.445706 -0.253592
    26 11.620371 -2.905373 2.149562 -0.263159 -0.211577 0.098244
    27 8.930669 9.895990 16.516956 -1.178097 0.000000 0.000000
    28 -10.478000 3.596270 -57.675583 0.000000 0.000000 0.000000
    29 20.682631 -0.459138 -0.000003 0.000000 0.000000 0.000000
  time 27
    0 -35.481688 0.000000 34.046600 1.570796 0.000000 1.570796
    1 -26.737438 9.978985 -63.177887 0.007343 -0.264986 -1.495672
    2 -26.847315 6.445414 78.520195 0.268794 0.005643 -3.065482
    3 -4.313085 -13.578558 -57.058857 3.141593 0.000000 3.141593
    4 38.013969 0.147198 -0.193551 3.141593 0.000000 -3.141593
    5 20.686598 0.469208 -0.164128 -3.110653 -0.264987 1.495673
    6 0.016516 -11.367848 70.181595 0.000000 0.000000 0.000000
    7 26.847315 6.445414 78.520195 2.876405 -0.019551 -0.071301
    8 4.313085 -13.578558 -57.058857 0.000000 0.000000 0.000000
    9 38.013966 0.147198 0.193553 3.141593 0.000000 3.141593
    10 20.605600 0.473753 0.167817 -0.024242 0.265136 1.494187
    11 26.690825 9.982033 -63.178242 0.007103 -0.265136 -1.647406
    12 21.504202 20.572215 -6.212812 1.319128 -0.938877 -2.833205
    13 -16.873423 9.784609 52.968449 0.000000 0.000000 0.000000
    14 0.020790 5.827109 -0.224471 -1.570796 -1.570796 0.000000
    15 -8.438861 0.038662 0.559093 1.570796 0.000000 1.570796
    16 5.664327 9.038126 28.830690 -1.230457 0.000000 0.000000
    17 -34.710712 -15.133160 78.859528 0.000000 0.000000 0.000000
    18 0.000000 0.217954 -0.009629 0.000000 0.000000 0.000000
    19 -6.579208 0.000000 -0.000001 0.000000 0.000000 0.000000
    20 -14.319741 -15.458982 88.923607 -1.655486 0.445705 -2.888000
    21 11.574886 -2.180909 1.427974 -1.940707 -0.170962 2.830789
    22 34.710712 -15.133160 78.859528 3.141593 0.000000 3.141593
    23 -0.000001 0.217956 0.009627 0.000000 0.000000 0.000000
    24 -6.579209 0.000000 0.000000 0.000000 0.000000 0.000000
    25 14.319743 -15.458982 88.923607 -0.057762 0.445706 -0.253592
    26 11.620371 -2.905373 2.149562 -0.263159 -0.211577 0.098244
    27 8.930669 9.895990 16.516956 -1.178097 0.000000 0.000000
    28 -10.478000 3.596270 -57.675583 0.000000 0.000000 0.000000
    29 20.682631 -0.459138 -0.000003 0.000000 0.000000 0.000000
  time 28
    0 -35.481688 0.000000 34.046600 1.570796 0.000000 1.570796
    1 -26.737438 9.978985 -63.177887 0.007343 -0.264986 -1.495672
    2 -26.847315 6.445414 78.520195 0.268794 0.005643 -3.065482
    3 -4.313085 -13.578558 -57.058857 3.141593 0.000000 3.141593
    4 38.013969 0.147198 -0.193551 3.141593 0.000000 -3.141593
    5 20.686598 0.469208 -0.164128 -3.110653 -0.264987 1.495673
    6 0.016516 -11.367848 70.181595 0.000000 0.000000 0.000000
    7 26.847315 6.445414 78.520195 2.876405 -0.019551 -0.071301
    8 4.313085 -13.578558 -57.058857 0.000000 0.000000 0.000000
    9 38.013966 0.147198 0.193553 3.141593 0.000000 3.141593
    10 20.605600 0.473753 0.167817 -0.024242 0.265136 1.494187
    11 26.690825 9.982033 -63.178242 0.007103 -0.265136 -1.647406
    12 20.355730 20.583934 -6.576104 1.308294 -1.004106 -2.833301
    13 -16.873423 9.784609 52.968449 0.000000 0.000000 0.000000
    14 0.020790 5.827109 -0.224471 -1.570796 -1.570796 0.000000
    15 -8.438861 0.038662 0.559093 1.570796 0.000000 1.570796
    16 5.664327 9.038126 28.830690 -1.230457 0.000000 0.000000
    17 -34.710712 -15.133160 78.859528 0.000000 0.000000 0.000000
    18 0.000000 0.217954 -0.009629 0.000000 0.000000 0.000000
    19 -6.579208 0.000000 -0.000001 0.000000 0.000000 0.000000
    20 -14.319741 -15.458982 88.923607 -1.655486 0.445705 -2.888000
    21 11.574886 -2.180909 1.427974 -1.940707 -0.170962 2.830789
    22 34.710712 -15.133160 78.859528 3.141593 0.000000 3.141593
    23 -0.000001 0.217956 0.009627 0.000000 0.000000 0.000000
    24 -6.579209 0.000000 0.000000 0.000000 0.000000 0.000000
    25 14.319743 -15.458982 88.923607 -0.057762 0.445706 -0.253592
    26 11.620371 -2.905373 2.149562 -0.263159 -0.211577 0.098244
    27 8.930669 9.895990 16.516956 -1.178097 0.000000 0.000000
    28 -10.478000 3.596270 -57.675583 0.000000 0.000000 0.000000
    29 20.682631 -0.459138 -0.000003 0.000000 0.000000 0.000000
  time 29
    0 -35.481688 0.000000 34.046600 1.570796 0.000000 1.570796
    1 -26.737438 9.978985 -63.177887 0.007343 -0.264986 -1.495672
    2 -26.847315 6.445414 78.520195 0.268794 0.005643 -3.065482
    3 -4.313085 -13.578558 -57.058857 3.141593 0.000000 3.141593
    4 38.013969 0.147198 -0.193551 3.141593 0.000000 -3.141593
    5 20.686598 0.469208 -0.164128 -3.110653 -0.264987 1.495673
    6 0.016516 -11.367848 70.181595 0.000000 0.000000 0.000000
    7 26.847315 6.445414 78.520195 2.876405 -0.019551 -0.071301
    8 4.313085 -13.578558 -57.058857 0.000000 0.000000 0.000000
    9 38.013966 0.147198 0.193553 3.141593 0.000000 3.141593
    10 20.605600 0.473753 0.167817 -0.024242 0.265136 1.494187
    11 26.690825 9.982033 -63.178242 0.007103 -0.265136 -1.647406
    12 19.254134 20.599560 -6.943303 1.298419 -1.069336 -2.833301
    13 -16.873423 9.784609 52.968449 0.000000 0.000000 0.000000
    14 0.020790 5.827109 -0.224471 -1.570796 -1.570796 0.000000
    15 -8.438861 0.038662 0.559093 1.570796 0.000000 1.570796
    16 5.664327 9.038126 28.830690 -1.230457 0.000000 0.000000
    17 -34.710712 -15.133160 78.859528 0.000000 0.000000 0.000000
    18 0.000000 0.217954 -0.009629 0.000000 0.000000 0.000000
    19 -6.579208 0.000000 -0.000001 0.000000 0.000000 0.000000
    20 -14.319741 -15.458982 88.923607 -1.655486 0.445705 -2.888000
    21 11.574886 -2.180909 1.427974 -1.940707 -0.170962 2.830789
    22 34.710712 -15.133160 78.859528 3.141593 0.000000 3.141593
    23 -0.000001 0.217956 0.009627 0.000000 0.000000 0.000000
    24 -6.579209 0.000000 0.000000 0.000000 0.000000 0.000000
    25 14.319743 -15.458982 88.923607 -0.057762 0.445706 -0.253592
    26 11.620371 -2.905373 2.149562 -0.263159 -0.211577 0.098244
    27 8.930669 9.895990 16.516956 -1.178097 0.000000 0.000000
    28 -10.478000 3.596270 -57.675583 0.000000 0.000000 0.000000
    29 20.682631 -0.459138 -0.000003 0.000000 0.000000 0.000000
  time 30
    0 -35.481688 0.000000 34.046600 1.570796 0.000000 1.570796
    1 -26.737438 9.978985 -63.177887 0.007343 -0.264986 -1.495672
    2 -26.847315 6.445414 78.520195 0.268794 0.005643 -3.065482
    3 -4.313085 -13.578558 -57.058857 3.141593 0.000000 3.141593
    4 38.013969 0.147198 -0.193551 3.141593 0.000000 -3.141593
    5 20.686598 0.469208 -0.164128 -3.110653 -0.264987 1.495673
    6 0.016516 -11.367848 70.181595 0.000000 0.000000 0.000000
    7 26.847315 6.445414 78.520195 2.876405 -0.019551 -0.071301
    8 4.313085 -13.578558 -57.058857 0.000000 0.000000 0.000000
    9 38.013966 0.147198 0.193553 3.141593 0.000000 3.141593
    10 20.605600 0.473753 0.167817 -0.024242 0.265136 1.494187
    11 26.690825 9.982033 -63.178242 0.007103 -0.265136 -1.647406
    12 18.187695 20.611279 -7.310502 1.289694 -1.133868 -2.833013
    13 -16.873423 9.784609 52.968449 0.000000 0.000000 0.000000
    14 0.020790 5.827109 -0.224471 -1.570796 -1.570796 0.000000
    15 -8.438861 0.038662 0.559093 1.570796 0.000000 1.570796
    16 5.664327 9.038126 28.830690 -1.230457 0.000000 0.000000
    17 -34.710712 -15.133160 78.859528 0.000000 0.000000 0.000000
    18 0.000000 0.217954 -0.009629 0.000000 0.000000 0.000000
    19 -6.579208 0.000000 -0.000001 0.000000 0.000000 0.000000
    20 -14.319741 -15.458982 88.923607 -1.655486 0.445705 -2.888000
    21 11.574886 -2.180909 1.427974 -1.940707 -0.170962 2.830789
    22 34.710712 -15.133160 78.859528 3.141593 0.000000 3.141593
    23 -0.000001 0.217956 0.009627 0.000000 0.000000 0.000000
    24 -6.579209 0.000000 0.000000 0.000000 0.000000 0.000000
    25 14.319743 -15.458982 88.923607 -0.057762 0.445706 -0.253592
    26 11.620371 -2.905373 2.149562 -0.263159 -0.211577 0.098244
    27 8.930669 9.895990 16.516956 -1.178097 0.000000 0.000000
    28 -10.478000 3.596270 -57.675583 0.000000 0.000000 0.000000
    29 20.682631 -0.459138 -0.000003 0.000000 0.000000 0.000000
  time 31
    0 -35.481688 0.000000 34.046600 1.570796 0.000000 1.570796
    1 -26.737438 9.978985 -63.177887 0.007343 -0.264986 -1.495672
    2 -26.847315 6.445414 78.520195 0.268794 0.005643 -3.065482
    3 -4.313085 -13.578558 -57.058857 3.141593 0.000000 3.141593
    4 38.013969 0.147198 -0.193551 3.141593 0.000000 -3.141593
    5 20.686598 0.469208 -0.164128 -3.110653 -0.264987 1.495673
    6 0.016516 -11.367848 70.181595 0.000000 0.000000 0.000000
    7 26.847315 6.445414 78.520195 2.876405 -0.019551 -0.071301
    8 4.313085 -13.578558 -57.058857 0.000000 0.000000 0.000000
    9 38.013966 0.147198 0.193553 3.141593 0.000000 3.141593
    10 20.605600 0.473753 0.167817 -0.024242 0.265136 1.494187
    11 26.690825 9.982033 -63.178242 0.007103 -0.265136 -1.647406
    12 17.160320 20.622998 -7.677700 1.281929 -1.196773 -2.832534
    13 -16.873423 9.784609 52.968449 0.000000 0.000000 0.000000
    14 0.020790 5.827109 -0.224471 -1.570796 -1.570796 0.000000
    15 -8.438861 0.038662 0.559093 1.570796 0.000000 1.570796
    16 5.664327 9.038126 28.830690 -1.230457 0.000000 0.000000
    17 -34.710712 -15.133160 78.859528 0.000000 0.000000 0.000000
    18 0.000000 0.217954 -0.009629 0.000000 0.000000 0.000000
    19 -6.579208 0.000000 -0.000001 0.000000 0.000000 0.000000
    20 -14.319741 -15.458982 88.923607 -1.655486 0.445705 -2.888000
    21 11.574886 -2.180909 1.427974 -1.940707 -0.170962 2.830789
    22 34.710712 -15.133160 78.859528 3.141593 0.000000 3.141593
    23 -0.000001 0.217956 0.009627 0.000000 0.000000 0.000000
    24 -6.579209 0.000000 0.000000 0.000000 0.000000 0.000000
    25 14.319743 -15.458982 88.923607 -0.057762 0.445706 -0.253592
    26 11.620371 -2.905373 2.149562 -0.263159 -0.211577 0.098244
    27 8.930669 9.895990 16.516956 -1.178097 0.000000 0.000000
    28 -10.478000 3.596270 -57.675583 0.000000 0.000000 0.000000
    29 20.682631 -0.459138 -0.000003 0.000000 0.000000 0.000000
  time 32
    0 -35.481688 0.000000 34.046600 1.570796 0.000000 1.570796
    1 -26.737438 9.978985 -63.177887 0.007343 -0.264986 -1.495672
    2 -26.847315 6.445414 78.520195 0.268794 0.005643 -3.065482
    3 -4.313085 -13.578558 -57.058857 3.141593 0.000000 3.141593
    4 38.013969 0.147198 -0.193551 3.141593 0.000000 -3.141593
    5 20.686598 0.469208 -0.164128 -3.110653 -0.264987 1.495673
    6 0.016516 -11.367848 70.181595 0.000000 0.000000 0.000000
    7 26.847315 6.445414 78.520195 2.876405 -0.019551 -0.071301
    8 4.313085 -13.578558 -57.058857 0.000000 0.000000 0.000000
    9 38.013966 0.147198 0.193553 3.141593 0.000000 3.141593
    10 20.605600 0.473753 0.167817 -0.024242 0.265136 1.494187
    11 26.690825 9.982033 -63.178242 0.007103 -0.265136 -1.647406
    12 16.168102 20.638623 -8.037086 1.275217 -1.257432 -2.831863
    13 -16.873423 9.784609 52.968449 0.000000 0.000000 0.000000
    14 0.020790 5.827109 -0.224471 -1.570796 -1.570796 0.000000
    15 -8.438861 0.038662 0.559093 1.570796 0.000000 1.570796
    16 5.664327 9.038126 28.830690 -1.230457 0.000000 0.000000
    17 -34.710712 -15.133160 78.859528 0.000000 0.000000 0.000000
    18 0.000000 0.217954 -0.009629 0.000000 0.000000 0.000000
    19 -6.579208 0.000000 -0.000001 0.000000 0.000000 0.000000
    20 -14.319741 -15.458982 88.923607 -1.655486 0.445705 -2.888000
    21 11.574886 -2.180909 1.427974 -1.940707 -0.170962 2.830789
    22 34.710712 -15.133160 78.859528 3.141593 0.000000 3.141593
    23 -0.000001 0.217956 0.009627 0.000000 0.000000 0.000000
    24 -6.579209 0.000000 0.000000 0.000000 0.000000 0.000000
    25 14.319743 -15.458982 88.923607 -0.057762 0.445706 -0.253592
    26 11.620371 -2.905373 2.149562 -0.263159 -0.211577 0.098244
    27 8.930669 9.895990 16.516956 -1.178097 0.000000 0.000000
    28 -10.478000 3.596270 -57.675583 0.000000 0.000000 0.000000
    29 20.682631 -0.459138 -0.000003 0.000000 0.000000 0.000000
  time 33
    0 -35.481688 0.000000 34.046600 1.570796 0.000000 1.570796
    1 -26.737438 9.978985 -63.177887 0.007343 -0.264986 -1.495672
    2 -26.847315 6.445414 78.520195 0.268794 0.005643 -3.065482
    3 -4.313085 -13.578558 -57.058857 3.141593 0.000000 3.141593
    4 38.013969 0.147198 -0.193551 3.141593 0.000000 -3.141593
    5 20.686598 0.469208 -0.164128 -3.110653 -0.264987 1.495673
    6 0.016516 -11.367848 70.181595 0.000000 0.000000 0.000000
    7 26.847315 6.445414 78.520195 2.876405 -0.019551 -0.071301
    8 4.313085 -13.578558 -57.058857 0.000000 0.000000 0.000000
    9 38.013966 0.147198 0.193553 3.141593 0.000000 3.141593
    10 20.605600 0.473753 0.167817 -0.024242 0.265136 1.494187
    11 26.690825 9.982033 -63.178242 0.007103 -0.265136 -1.647406
    12 15.211041 20.650342 -8.388659 1.269561 -1.314992 -2.830808
    13 -16.873423 9.784609 52.968449 0.000000 0.000000 0.000000
    14 0.020790 5.827109 -0.224471 -1.570796 -1.570796 0.000000
    15 -8.438861 0.038662 0.559093 1.570796 0.000000 1.570796
    16 5.664327 9.038126 28.830690 -1.230457 0.000000 0.000000
    17 -34.710712 -15.133160 78.859528 0.000000 0.000000 0.000000
    18 0.000000 0.217954 -0.009629 0.000000 0.000000 0.000000
    19 -6.579208 0.000000 -0.000001 0.000000 0.000000 0.000000
    20 -14.319741 -15.458982 88.923607 -1.655486 0.445705 -2.888000
    21 11.574886 -2.180909 1.427974 -1.940707 -0.170962 2.830789
    22 34.710712 -15.133160 78.859528 3.141593 0.000000 3.141593
    23 -0.000001 0.217956 0.009627 0.000000 0.000000 0.000000
    24 -6.579209 0.000000 0.000000 0.000000 0.000000 0.000000
    25 14.319743 -15.458982 88.923607 -0.057762 0.445706 -0.253592
    26 11.620371 -2.905373 2.149562 -0.263159 -0.211577 0.098244
    27 8.930669 9.895990 16.516956 -1.178097 0.000000 0.000000
    28 -10.478000 3.596270 -57.675583 0.000000 0.000000 0.000000
    29 20.682631 -0.459138 -0.000003 0.000000 0.000000 0.000000
  time 34
    0 -35.481688 0.000000 34.046600 1.570796 0.000000 1.570796
    1 -26.737438 9.978985 -63.177887 0.007343 -0.264986 -1.495672
    2 -26.847315 6.445414 78.520195 0.268794 0.005643 -3.065482
    3 -4.313085 -13.578558 -57.058857 3.141593 0.000000 3.141593
    4 38.013969 0.147198 -0.193551 3.141593 0.000000 -3.141593
    5 20.686598 0.469208 -0.164128 -3.110653 -0.264987 1.495673
    6 0.016516 -11.367848 70.181595 0.000000 0.000000 0.000000
    7 26.847315 6.445414 78.520195 2.876405 -0.019551 -0.071301
    8 4.313085 -13.578558 -57.058857 0.000000 0.000000 0.000000
    9 38.013966 0.147198 0.193553 3.141593 0.000000 3.141593
    10 20.605600 0.473753 0.167817 -0.024242 0.265136 1.494187
    11 26.690825 9.982033 -63.178242 0.007103 -0.265136 -1.647406
    12 14.281326 20.662062 -8.724607 1.264767 -1.368678 -2.829561
    13 -16.873423 9.784609 52.968449 0.000000 0.000000 0.000000
    14 0.020790 5.827109 -0.224471 -1.570796 -1.570796 0.000000
    15 -8.438861 0.038662 0.559093 1.570796 0.000000 1.570796
    16 5.664327 9.038126 28.830690 -1.230457 0.000000 0.000000
    17 -34.710712 -15.133160 78.859528 0.000000 0.000000 0.000000
    18 0.000000 0.217954 -0.009629 0.000000 0.000000 0.000000
    19 -6.579208 0.000000 -0.000001 0.000000 0.000000 0.000000
    20 -14.319741 -15.458982 88.923607 -1.655486 0.445705 -2.888000
    21 11.574886 -2.180909 1.427974 -1.940707 -0.170962 2.830789
    22 34.710712 -15.133160 78.859528 3.141593 0.000000 3.141593
    23 -0.000001 0.217956 0.009627 0.000000 0.000000 0.000000
    24 -6.579209 0.000000 0.000000 0.000000 0.000000 0.000000
    25 14.319743 -15.458982 88.923607 -0.057762 0.445706 -0.253592
    26 11.620371 -2.905373 2.149562 -0.263159 -0.211577 0.098244
    27 8.930669 9.895990 16.516956 -1.178097 0.000000 0.000000
    28 -10.478000 3.596270 -57.675583 0.000000 0.000000 0.000000
    29 20.682631 -0.459138 -0.000003 0.000000 0.000000 0.000000
  time 35
    0 -35.481688 0.000000 34.046600 1.570796 0.000000 1.570796
    1 -26.737438 9.978985 -63.177887 0.007343 -0.264986 -1.495672
    2 -26.847315 6.445414 78.520195 0.268794 0.005643 -3.065482
    3 -4.313085 -13.578558 -57.058857 3.141593 0.000000 3.141593
    4 38.013969 0.147198 -0.193551 3.141593 0.000000 -3.141593
    5 20.686598 0.469208 -0.164128 -3.110653 -0.264987 1.495673
    6 0.016516 -11.367848 70.181595 0.000000 0.000000 0.000000
    7 26.847315 6.445414 78.520195 2.876405 -0.019551 -0.071301
    8 4.313085 -13.578558 -57.058857 0.000000 0.000000 0.000000
    9 38.013966 0.147198 0.193553 3.141593 0.000000 3.141593
    10 20.605600 0.473753 0.167817 -0.024242 0.265136 1.494187
    11 26.690825 9.982033 -63.178242 0.007103 -0.265136 -1.647406
    12 13.382861 20.673781 -9.048836 1.260740 -1.417716 -2.828123
    13 -16.873423 9.784609 52.968449 0.000000 0.000000 0.000000
    14 0.020790 5.827109 -0.224471 -1.570796 -1.570796 0.000000
    15 -8.438861 0.038662 0.559093 1.570796 0.000000 1.570796
    16 5.664327 9.038126 28.830690 -1.230457 0.000000 0.000000
    17 -34.710712 -15.133160 78.859528 0.000000 0.000000 0.000000
    18 0.000000 0.217954 -0.009629 0.000000 0.000000 0.000000
    19 -6.579208 0.000000 -0.000001 0.000000 0.000000 0.000000
    20 -14.319741 -15.458982 88.923607 -1.655486 0.445705 -2.888000
    21 11.574886 -2.180909 1.427974 -1.940707 -0.170962 2.830789
    22 34.710712 -15.133160 78.859528 3.141593 0.000000 3.141593
    23 -0.000001 0.217956 0.009627 0.000000 0.000000 0.000000
    24 -6.579209 0.000000 0.000000 0.000000 0.000000 0.000000
    25 14.319743 -15.458982 88.923607 -0.057762 0.445706 -0.253592
    26 11.620371 -2.905373 2.149562 -0.263159 -0.211577 0.098244
    27 8.930669 9.895990 16.516956 -1.178097 0.000000 0.000000
    28 -10.478000 3.596270 -57.675583 0.000000 0.000000 0.000000
    29 20.682631 -0.459138 -0.000003 0.000000 0.000000 0.000000
  time 36
    0 -35.481688 0.000000 34.046600 1.570796 0.000000 1.570796
    1 -26.737438 9.978985 -63.177887 0.007343 -0.264986 -1.495672
    2 -26.847315 6.445414 78.520195 0.268794 0.005643 -3.065482
    3 -4.313085 -13.578558 -57.058857 3.141593 0.000000 3.141593
    4 38.013969 0.147198 -0.193551 3.141593 0.000000 -3.141593
    5 20.686598 0.469208 -0.164128 -3.110653 -0.264987 1.495673
    6 0.016516 -11.367848 70.181595 0.000000 0.000000 0.000000
    7 26.847315 6.445414 78.520195 2.876405 -0.019551 -0.071301
    8 4.313085 -13.578558 -57.058857 0.000000 0.000000 0.000000
    9 38.013966 0.147198 0.193553 3.141593 0.000000 3.141593
    10 20.605600 0.473753 0.167817 -0.024242 0.265136 1.494187
    11 26.690825 9.982033 -63.178242 0.007103 -0.265136 -1.647406
    12 12.554710 20.685500 -9.384784 1.257385 -1.461332 -2.826398
    13 -16.873423 9.784609 52.968449 0.000000 0.000000 0.000000
    14 0.020790 5.827109 -0.224471 -1.570796 -1.570796 0.000000
    15 -8.438861 0.038662 0.559093 1.570796 0.000000 1.570796
    16 5.664327 9.038126 28.830690 -1.230457 0.000000 0.000000
    17 -34.710712 -15.133160 78.859528 0.000000 0.000000 0.000000
    18 0.000000 0.217954 -0.009629 0.000000 0.000000 0.000000
    19 -6.579208 0.000000 -0.000001 0.000000 0.000000 0.000000
    20 -14.319741 -15.458982 88.923607 -1.655486 0.445705 -2.888000
    21 11.574886 -2.180909 1.427974 -1.940707 -0.170962 2.830789
    22 34.710712 -15.133160 78.859528 3.141593 0.000000 3.141593
    23 -0.000001 0.217956 0.009627 0.000000 0.000000 0.000000
    24 -6.579209 0.000000 0.000000 0.000000 0.000000 0.000000
    25 14.319743 -15.458982 88.923607 -0.057762 0.445706 -0.253592
    26 11.620371 -2.905373 2.149562 -0.263159 -0.211577 0.098244
    27 8.930669 9.895990 16.516956 -1.178097 0.000000 0.000000
    28 -10.478000 3.596270 -57.675583 0.000000 0.000000 0.000000
    29 20.682631 -0.459138 -0.000003 0.000000 0.000000 0.000000
  time 37
    0 -35.481688 0.000000 34.046600 1.570796 0.000000 1.570796
    1 -26.737438 9.978985 -63.177887 0.007343 -0.264986 -1.495672
    2 -26.847315 6.445414 78.520195 0.268794 0.005643 -3.065482
    3 -4.313085 -13.578558 -57.058857 3.141593 0.000000 3.141593
    4 38.013969 0.147198 -0.193551 3.141593 0.000000 -3.141593
    5 20.686598 0.469208 -0.164128 -3.110653 -0.264987 1.495673
    6 0.016516 -11.367848 70.181595 0.000000 0.000000 0.000000
    7 26.847315 6.445414 78.520195 2.876405 -0.019551 -0.071301
    8 4.313085 -13.578558 -57.058857 0.000000 0.000000 0.000000
    9 38.013966 0.147198 0.193553 3.141593 0.000000 3.141593
    10 20.605600 0.473753 0.167817 -0.024242 0.265136 1.494187
    11 26.690825 9.982033 -63.178242 0.007103 -0.265136 -1.647406
    12 11.835938 20.693313 -9.755889 1.254604 -1.498672 -2.824672
    13 -16.873423 9.784609 52.968449 0.000000 0.000000 0.000000
    14 0.020790 5.827109 -0.224471 -1.570796 -1.570796 0.000000
    15 -8.438861 0.038662 0.559093 1.570796 0.000000 1.570796
    16 5.664327 9.038126 28.830690 -1.230457 0.000000 0.000000
    17 -34.710712 -15.133160 78.859528 0.000000 0.000000 0.000000
    18 0.000000 0.217954 -0.009629 0.000000 0.000000 0.000000
    19 -6.579208 0.000000 -0.000001 0.000000 0.000000 0.000000
    20 -14.319741 -15.458982 88.923607 -1.655486 0.445705 -2.888000
    21 11.574886 -2.180909 1.427974 -1.940707 -0.170962 2.830789
    22 34.710712 -15.133160 78.859528 3.141593 0.000000 3.141593
    23 -0.000001 0.217956 0.009627 0.000000 0.000000 0.000000
    24 -6.579209 0.000000 0.000000 0.000000 0.000000 0.000000
    25 14.319743 -15.458982 88.923607 -0.057762 0.445706 -0.253592
    26 11.620371 -2.905373 2.149562 -0.263159 -0.211577 0.098244
    27 8.930669 9.895990 16.516956 -1.178097 0.000000 0.000000
    28 -10.478000 3.596270 -57.675583 0.000000 0.000000 0.000000
    29 20.682631 -0.459138 -0.000003 0.000000 0.000000 0.000000
  time 38
    0 -35.481688 0.000000 34.046600 1.570796 0.000000 1.570796
    1 -26.737438 9.978985 -63.177887 0.007343 -0.264986 -1.495672
    2 -26.847315 6.445414 78.520195 0.268794 0.005643 -3.065482
    3 -4.313085 -13.578558 -57.058857 3.141593 0.000000 3.141593
    4 38.013969 0.147198 -0.193551 3.141593 0.000000 -3.141593
    5 20.686598 0.469208 -0.164128 -3.110653 -0.264987 1.495673
    6 0.016516 -11.367848 70.181595 0.000000 0.000000 0.000000
    7 26.847315 6.445414 78.520195 2.876405 -0.019551 -0.071301
    8 4.313085 -13.578558 -57.058857 0.000000 0.000000 0.000000
    9 38.013966 0.147198 0.193553 3.141593 0.000000 3.141593
    10 20.605600 0.473753 0.167817 -0.024242 0.265136 1.494187
    11 26.690825 9.982033 -63.178242 0.007103 -0.265136 -1.647406
    12 11.226545 20.701125 -10.142619 1.252304 -1.529117 -2.822850
    13 -16.873423 9.784609 52.968449 0.000000 0.000000 0.000000
    14 0.020790 5.827109 -0.224471 -1.570796 -1.570796 0.000000
    15 -8.438861 0.038662 0.559093 1.570796 0.000000 1.570796
    16 5.664327 9.038126 28.830690 -1.230457 0.000000 0.000000
    17 -34.710712 -15.133160 78.859528 0.000000 0.000000 0.000000
    18 0.000000 0.217954 -0.009629 0.000000 0.000000 0.000000
    19 -6.579208 0.000000 -0.000001 0.000000 0.000000 0.000000
    20 -14.319741 -15.458982 88.923607 -1.655486 0.445705 -2.888000
    21 11.574886 -2.180909 1.427974 -1.940707 -0.170962 2.830789
    22 34.710712 -15.133160 78.859528 3.141593 0.000000 3.141593
    23 -0.000001 0.217956 0.009627 0.000000 0.000000 0.000000
    24 -6.579209 0.000000 0.000000 0.000000 0.000000 0.000000
    25 14.319743 -15.458982 88.923607 -0.057762 0.445706 -0.253592
    26 11.620371 -2.905373 2.149562 -0.263159 -0.211577 0.098244
    27 8.930669 9.895990 16.516956 -1.178097 0.000000 0.000000
    28 -10.478000 3.596270 -57.675583 0.000000 0.000000 0.000000
    29 20.682631 -0.459138 -0.000003 0.000000 0.000000 0.000000
  time 39
    0 -35.481688 0.000000 34.046600 1.570796 0.000000 1.570796
    1 -26.737438 9.978985 -63.177887 0.007343 -0.264986 -1.495672
    2 -26.847315 6.445414 78.520195 0.268794 0.005643 -3.065482
    3 -4.313085 -13.578558 -57.058857 3.141593 0.000000 3.141593
    4 38.013969 0.147198 -0.193551 3.141593 0.000000 -3.141593
    5 20.686598 0.469208 -0.164128 -3.110653 -0.264987 1.495673
    6 0.016516 -11.367848 70.181595 0.000000 0.000000 0.000000
    7 26.847315 6.445414 78.520195 2.876405 -0.019551 -0.071301
    8 4.313085 -13.578558 -57.058857 0.000000 0.000000 0.000000
    9 38.013966 0.147198 0.193553 3.141593 0.000000 3.141593
    10 20.605600 0.473753 0.167817 -0.024242 0.265136 1.494187
    11 26.690825 9.982033 -63.178242 0.007103 -0.265136 -1.647406
    12 10.714810 20.708938 -10.533256 1.250290 -1.551816 -2.821028
    13 -16.873423 9.784609 52.968449 0.000000 0.000000 0.000000
    14 0.020790 5.827109 -0.224471 -1.570796 -1.570796 0.000000
    15 -8.438861 0.038662 0.559093 1.570796 0.000000 1.570796
    16 5.664327 9.038126 28.830690 -1.230457 0.000000 0.000000
    17 -34.710712 -15.133160 78.859528 0.000000 0.000000 0.000000
    18 0.000000 0.217954 -0.009629 0.000000 0.000000 0.000000
    19 -6.579208 0.000000 -0.000001 0.000000 0.000000 0.000000
    20 -14.319741 -15.458982 88.923607 -1.655486 0.445705 -2.888000
    21 11.574886 -2.180909 1.427974 -1.940707 -0.170962 2.830789
    22 34.710712 -15.133160 78.859528 3.141593 0.000000 3.141593
    23 -0.000001 0.217956 0.009627 0.000000 0.000000 0.000000
    24 -6.579209 0.000000 0.000000 0.000000 0.000000 0.000000
    25 14.319743 -15.458982 88.923607 -0.057762 0.445706 -0.253592
    26 11.620371 -2.905373 2.149562 -0.263159 -0.211577 0.098244
    27 8.930669 9.895990 16.516956 -1.178097 0.000000 0.000000
    28 -10.478000 3.596270 -57.675583 0.000000 0.000000 0.000000
    29 20.682631 -0.459138 -0.000003 0.000000 0.000000 0.000000
  time 40
    0 -35.481688 0.000000 34.046600 1.570796 0.000000 1.570796
    1 -26.737438 9.978985 -63.177887 0.007343 -0.264986 -1.495672
    2 -26.847315 6.445414 78.520195 0.268794 0.005643 -3.065482
    3 -4.313085 -13.578558 -57.058857 3.141593 0.000000 3.141593
    4 38.013969 0.147198 -0.193551 3.141593 0.000000 -3.141593
    5 20.686598 0.469208 -0.164128 -3.110653 -0.264987 1.495673
    6 0.016516 -11.367848 70.181595 0.000000 0.000000 0.000000
    7 26.847315 6.445414 78.520195 2.876405 -0.019551 -0.071301
    8 4.313085 -13.578558 -57.058857 0.000000 0.000000 0.000000
    9 38.013966 0.147198 0.193553 3.141593 0.000000 3.141593
    10 20.605600 0.473753 0.167817 -0.024242 0.265136 1.494187
    11 26.690825 9.982033 -63.178242 0.007103 -0.265136 -1.647406
    12 10.296829 20.716751 -10.908268 1.248373 -1.565915 -2.819207
    13 -16.873423 9.784609 52.968449 0.000000 0.000000 0.000000
    14 0.020790 5.827109 -0.224471 -1.570796 -1.570796 0.000000
    15 -8.438861 0.038662 0.559093 1.570796 0.000000 1.570796
    16 5.664327 9.038126 28.830690 -1.230457 0.000000 0.000000
    17 -34.710712 -15.133160 78.859528 0.000000 0.000000 0.000000
    18 0.000000 0.217954 -0.009629 0.000000 0.000000 0.000000
    19 -6.579208 0.000000 -0.000001 0.000000 0.000000 0.000000
    20 -14.319741 -15.458982 88.923607 -1.655486 0.445705 -2.888000
    21 11.574886 -2.180909 1.427974 -1.940707 -0.170962 2.830789
    22 34.710712 -15.133160 78.859528 3.141593 0.000000 3.141593
    23 -0.000001 0.217956 0.009627 0.000000 0.000000 0.000000
    24 -6.579209 0.000000 0.000000 0.000000 0.000000 0.000000
    25 14.319743 -15.458982 88.923607 -0.057762 0.445706 -0.253592
    26 11.620371 -2.905373 2.149562 -0.263159 -0.211577 0.098244
    27 8.930669 9.895990 16.516956 -1.178097 0.000000 0.000000
    28 -10.478000 3.596270 -57.675583 0.000000 0.000000 0.000000
    29 20.682631 -0.459138 -0.000003 0.000000 0.000000 0.000000
  time 41
    0 -35.481688 0.000000 34.046600 1.570796 0.000000 1.570796
    1 -26.737438 9.978985 -63.177887 0.007343 -0.264986 -1.495672
    2 -26.847315 6.445414 78.520195 0.268794 0.005643 -3.065482
    3 -4.313085 -13.578558 -57.058857 3.141593 0.000000 3.141593
    4 38.013969 0.147198 -0.193551 3.141593 0.000000 -3.141593
    5 20.686598 0.469208 -0.164128 -3.110653 -0.264987 1.495673
    6 0.016516 -11.367848 70.181595 0.000000 0.000000 0.000000
    7 26.847315 6.445414 78.520195 2.876405 -0.019551 -0.071301
    8 4.313085 -13.578558 -57.058857 0.000000 0.000000 0.000000
    9 38.013966 0.147198 0.193553 3.141593 0.000000 3.141593
    10 20.605600 0.473753 0.167817 -0.024242 0.265136 1.494187
    11 26.690825 9.982033 -63.178242 0.007103 -0.265136 -1.647406
    12 9.968694 20.720657 -11.252028 0.000000 -1.570796 -1.570796
    13 -16.873423 9.784609 52.968449 0.000000 0.000000 0.000000
    14 0.020790 5.827109 -0.224471 -1.570796 -1.570796 0.000000
    15 -8.438861 0.038662 0.559093 1.570796 0.000000 1.570796
    16 5.664327 9.038126 28.830690 -1.230457 0.000000 0.000000
    17 -34.710712 -15.133160 78.859528 0.000000 0.000000 0.000000
    18 0.000000 0.217954 -0.009629 0.000000 0.000000 0.000000
    19 -6.579208 0.000000 -0.000001 0.000000 0.000000 0.000000
    20 -14.319741 -15.458982 88.923607 -1.655486 0.445705 -2.888000
    21 11.574886 -2.180909 1.427974 -1.940707 -0.170962 2.830789
    22 34.710712 -15.133160 78.859528 3.141593 0.000000 3.141593
    23 -0.000001 0.217956 0.009627 0.000000 0.000000 0.000000
    24 -6.579209 0.000000 0.000000 0.000000 0.000000 0.000000
    25 14.319743 -15.458982 88.923607 -0.057762 0.445706 -0.253592
    26 11.620371 -2.905373 2.149562 -0.263159 -0.211577 0.098244
    27 8.930669 9.895990 16.516956 -1.178097 0.000000 0.000000
    28 -10.478000 3.596270 -57.675583 0.000000 0.000000 0.000000
    29 20.682631 -0.459138 -0.000003 0.000000 0.000000 0.000000
  time 42
    0 -35.481688 0.000000 34.046600 1.570796 0.000000 1.570796
    1 -26.737438 9.978985 -63.177887 0.007343 -0.264986 -1.495672
    2 -26.847315 6.445414 78.520195 0.268794 0.005643 -3.065482
    3 -4.313085 -13.578558 -57.058857 3.141593 0.000000 3.141593
    4 38.013969 0.147198 -0.193551 3.141593 0.000000 -3.141593
    5 20.686598 0.469208 -0.164128 -3.110653 -0.264987 1.495673
    6 0.016516 -11.367848 70.181595 0.000000 0.000000 0.000000
    7 26.847315 6.445414 78.520195 2.876405 -0.019551 -0.071301
    8 4.313085 -13.578558 -57.058857 0.000000 0.000000 0.000000
    9 38.013966 0.147198 0.193553 3.141593 0.000000 3.141593
    10 20.605600 0.473753 0.167817 -0.024242 0.265136 1.494187
    11 26.690825 9.982033 -63.178242 0.007103 -0.265136 -1.647406
    12 9.722593 20.724563 -11.548912 0.000000 -1.570796 -1.570796
    13 -16.873423 9.784609 52.968449 0.000000 0.000000 0.000000
    14 0.020790 5.827109 -0.224471 -1.570796 -1.570796 0.000000
    15 -8.438861 0.038662 0.559093 1.570796 0.000000 1.570796
    16 5.664327 9.038126 28.830690 -1.230457 0.000000 0.000000
    17 -34.710712 -15.133160 78.859528 0.000000 0.000000 0.000000
    18 0.000000 0.217954 -0.009629 0.000000 0.000000 0.000000
    19 -6.579208 0.000000 -0.000001 0.000000 0.000000 0.000000
    20 -14.319741 -15.458982 88.923607 -1.655486 0.445705 -2.888000
    21 11.574886 -2.180909 1.427974 -1.940707 -0.170962 2.830789
    22 34.710712 -15.133160 78.859528 3.141593 0.000000 3.141593
    23 -0.000001 0.217956 0.009627 0.000000 0.000000 0.000000
    24 -6.579209 0.000000 0.000000 0.000000 0.000000 0.000000
    25 14.319743 -15.458982 88.923607 -0.057762 0.445706 -0.253592
    26 11.620371 -2.905373 2.149562 -0.263159 -0.211577 0.098244
    27 8.930669 9.895990 16.516956 -1.178097 0.000000 0.000000
    28 -10.478000 3.596270 -57.675583 0.000000 0.000000 0.000000
    29 20.682631 -0.459138 -0.000003 0.000000 0.000000 0.000000
  time 43
    0 -35.481688 0.000000 34.046600 1.570796 0.000000 1.570796
    1 -26.737438 9.978985 -63.177887 0.007343 -0.264986 -1.495672
    2 -26.847315 6.445414 78.520195 0.268794 0.005643 -3.065482
    3 -4.313085 -13.578558 -57.058857 3.141593 0.000000 3.141593
    4 38.013969 0.147198 -0.193551 3.141593 0.000000 -3.141593
    5 20.686598 0.469208 -0.164128 -3.110653 -0.264987 1.495673
    6 0.016516 -11.367848 70.181595 0.000000 0.000000 0.000000
    7 26.847315 6.445414 78.520195 2.876405 -0.019551 -0.071301
    8 4.313085 -13.578558 -57.058857 0.000000 0.000000 0.000000
    9 38.013966 0.147198 0.193553 3.141593 0.000000 3.141593
    10 20.605600 0.473753 0.167817 -0.024242 0.265136 1.494187
    11 26.690825 9.982033 -63.178242 0.007103 -0.265136 -1.647406
    12 9.554619 20.728470 -11.779388 0.000000 -1.570796 -1.570796
    13 -16.873423 9.784609 52.968449 0.000000 0.000000 0.000000
    14 0.020790 5.827109 -0.224471 -1.570796 -1.570796 0.000000
    15 -8.438861 0.038662 0.559093 1.570796 0.000000 1.570796
    16 5.664327 9.038126 28.830690 -1.230457 0.000000 0.000000
    17 -34.710712 -15.133160 78.859528 0.000000 0.000000 0.000000
    18 0.000000 0.217954 -0.009629 0.000000 0.000000 0.000000
    19 -6.579208 0.000000 -0.000001 0.000000 0.000000 0.000000
    20 -14.319741 -15.458982 88.923607 -1.655486 0.445705 -2.888000
    21 11.574886 -2.180909 1.427974 -1.940707 -0.170962 2.830789
    22 34.710712 -15.133160 78.859528 3.141593 0.000000 3.141593
    23 -0.000001 0.217956 0.009627 0.000000 0.000000 0.000000
    24 -6.579209 0.000000 0.000000 0.000000 0.000000 0.000000
    25 14.319743 -15.458982 88.923607 -0.057762 0.445706 -0.253592
    26 11.620371 -2.905373 2.149562 -0.263159 -0.211577 0.098244
    27 8.930669 9.895990 16.516956 -1.178097 0.000000 0.000000
    28 -10.478000 3.596270 -57.675583 0.000000 0.000000 0.000000
    29 20.682631 -0.459138 -0.000003 0.000000 0.000000 0.000000
  time 44
    0 -35.481688 0.000000 34.046600 1.570796 0.000000 1.570796
    1 -26.737438 9.978985 -63.177887 0.007343 -0.264986 -1.495672
    2 -26.847315 6.445414 78.520195 0.268794 0.005643 -3.065482
    3 -4.313085 -13.578558 -57.058857 3.141593 0.000000 3.141593
    4 38.013969 0.147198 -0.193551 3.141593 0.000000 -3.141593
    5 20.686598 0.469208 -0.164128 -3.110653 -0.264987 1.495673
    6 0.016516 -11.367848 70.181595 0.000000 0.000000 0.000000
    7 26.847315 6.445414 78.520195 2.876405 -0.019551 -0.071301
    8 4.313085 -13.578558 -57.058857 0.000000 0.000000 0.000000
    9 38.013966 0.147198 0.193553 3.141593 0.000000 3.141593
    10 20.605600 0.473753 0.167817 -0.024242 0.265136 1.494187
    11 26.690825 9.982033 -63.178242 0.007103 -0.265136 -1.647406
    12 9.456960 20.728470 -11.931736 0.000000 -1.570796 -1.570796
    13 -16.873423 9.784609 52.968449 0.000000 0.000000 0.000000
    14 0.020790 5.827109 -0.224471 -1.570796 -1.570796 0.000000
    15 -8.438861 0.038662 0.559093 1.570796 0.000000 1.570796
    16 5.664327 9.038126 28.830690 -1.230457 0.000000 0.000000
    17 -34.710712 -15.133160 78.859528 0.000000 0.000000 0.000000
    18 0.000000 0.217954 -0.009629 0.000000 0.000000 0.000000
    19 -6.579208 0.000000 -0.000001 0.000000 0.000000 0.000000
    20 -14.319741 -15.458982 88.923607 -1.655486 0.445705 -2.888000
    21 11.574886 -2.180909 1.427974 -1.940707 -0.170962 2.830789
    22 34.710712 -15.133160 78.859528 3.141593 0.000000 3.141593
    23 -0.000001 0.217956 0.009627 0.000000 0.000000 0.000000
    24 -6.579209 0.000000 0.000000 0.000000 0.000000 0.000000
    25 14.319743 -15.458982 88.923607 -0.057762 0.445706 -0.253592
    26 11.620371 -2.905373 2.149562 -0.263159 -0.211577 0.098244
    27 8.930669 9.895990 16.516956 -1.178097 0.000000 0.000000
    28 -10.478000 3.596270 -57.675583 0.000000 0.000000 0.000000
    29 20.682631 -0.459138 -0.000003 0.000000 0.000000 0.000000
  time 45
    0 -35.481688 0.000000 34.046600 1.570796 0.000000 1.570796
    1 -26.737438 9.978985 -63.177887 0.007343 -0.264986 -1.495672
    2 -26.847315 6.445414 78.520195 0.268794 0.005643 -3.065482
    3 -4.313085 -13.578558 -57.058857 3.141593 0.000000 3.141593
    4 38.013969 0.147198 -0.193551 3.141593 0.000000 -3.141593
    5 20.686598 0.469208 -0.164128 -3.110653 -0.264987 1.495673
    6 0.016516 -11.367848 70.181595 0.000000 0.000000 0.000000
    7 26.847315 6.445414 78.520195 2.876405 -0.019551 -0.071301
    8 4.313085 -13.578558 -57.058857 0.000000 0.000000 0.000000
    9 38.013966 0.147198 0.193553 3.141593 0.000000 3.141593
    10 20.605600 0.473753 0.167817 -0.024242 0.265136 1.494187
    11 26.690825 9.982033 -63.178242 0.007103 -0.265136 -1.647406
    12 9.429615 20.728470 -11.982519 0.000000 -1.570796 -1.570796
    13 -16.873423 9.784609 52.968449 0.000000 0.000000 0.000000
    14 0.020790 5.827109 -0.224471 -1.570796 -1.570796 0.000000
    15 -8.438861 0.038662 0.559093 1.570796 0.000000 1.570796
    16 5.664327 9.038126 28.830690 -1.230457 0.000000 0.000000
    17 -34.710712 -15.133160 78.859528 0.000000 0.000000 0.000000
    18 0.000000 0.217954 -0.009629 0.000000 0.000000 0.000000
    19 -6.579208 0.000000 -0.000001 0.000000 0.000000 0.000000
    20 -14.319741 -15.458982 88.923607 -1.655486 0.445705 -2.888000
    21 11.574886 -2.180909 1.427974 -1.940707 -0.170962 2.830789
    22 34.710712 -15.133160 78.859528 3.141593 0.000000 3.141593
    23 -0.000001 0.217956 0.009627 0.000000 0.000000 0.000000
    24 -6.579209 0.000000 0.000000 0.000000 0.000000 0.000000
    25 14.319743 -15.458982 88.923607 -0.057762 0.445706 -0.253592
    26 11.620371 -2.905373 2.149562 -0.263159 -0.211577 0.098244
    27 8.930669 9.895990 16.516956 -1.178097 0.000000 0.000000
    28 -10.478000 3.596270 -57.675583 0.000000 0.000000 0.000000
    29 20.682631 -0.459138 -0.000003 0.000000 0.000000 0.000000
end
