version 1
nodes
  0 "Rig_Buggy.Frame" -1
  1 "Rig_Buggy.Shock_RR_Sleeve" 0
  2 "Rig_Buggy.Shock_FR_Sleeve" 0
  3 "Rig_Buggy.Axel_RR" 0
  4 "Rig_Buggy.Wheel_RR" 3
  5 "Rig_Buggy.Shock_RR_Piston" 3
  6 "Rig_Buggy.Steer_Arm" 0
  7 "Rig_Buggy.Shock_FL_Sleeve" 0
  8 "Rig_Buggy.Axel_RL" 0
  9 "Rig_Buggy.Wheel_RL" 8
  10 "Rig_Buggy.Shock_RL_Piston" 8
  11 "Rig_Buggy.Shock_RL_Sleeve" 0
  12 "Rig_Buggy.view" 0
  13 "Rig_Buggy.Gun_Base" 0
  14 "Rig_Buggy.Gun" 13
  15 "Rig_Buggy.gun_cylinders" 14
  16 "Rig_Buggy.Speedo" 0
  17 "Rig_Buggy.Wheel_FR_Turn_parent" 0
  18 "Rig_Buggy.Wheel_FR_Turn" 17
  19 "Rig_Buggy.Wheel_FR_Rotate" 18
  20 "Rig_Buggy.Axel_FR" 0
  21 "Rig_Buggy.Shock_FR_Piston" 20
  22 "Rig_Buggy.Wheel_FL_Turn_parent" 0
  23 "Rig_Buggy.Wheel_FL_Turn" 22
  24 "Rig_Buggy.Wheel_FL_Rotate" 23
  25 "Rig_Buggy.Axel_FL" 0
  26 "Rig_Buggy.Shock_FL_Piston" 25
  27 "Rig_Buggy.Steer_Wheel" 0
  28 "Rig_Buggy.lid" 0
  29 "Rig_Buggy.latch" 28
end
skeleton
  time 0
    0 -35.481688 0.000000 34.046600 1.570796 0.000000 1.570796
    1 -26.737438 9.978985 -63.177887 0.007343 -0.264986 -1.495672
    2 -26.847315 6.445414 78.520195 0.268794 0.005643 -3.065482
    3 -4.313085 -13.578558 -57.058857 3.141593 0.000000 3.141593
    4 38.013969 0.147198 -0.193551 3.141593 0.000000 -3.141593
    5 20.686598 0.469208 -0.164128 -3.110653 -0.264987 1.495673
    6 0.016516 -11.367848 70.181595 0.000000 0.000000 0.000000
    7 26.847315 6.445414 78.520195 2.876405 -0.019551 -0.071301
    8 4.313085 -13.578558 -57.058857 0.000000 0.000000 0.000000
    9 38.013966 0.147198 0.193553 3.141593 0.000000 3.141593
    10 20.605600 0.473753 0.167817 -0.024242 0.265136 1.494187
    11 26.690825 9.982033 -63.178242 0.007103 -0.265136 -1.647406
    12 9.429615 20.728470 -11.982519 0.000000 -1.570796 -1.570796
    13 -16.873423 9.784609 52.968449 0.000000 0.000000 0.000000
    14 0.020790 5.827109 -0.224471 -1.570796 -1.570796 0.000000
    15 -8.438861 0.038662 0.559093 1.570796 0.000000 1.570796
    16 5.664327 9.038126 28.830690 -1.230457 0.000000 0.000000
    17 -34.710712 -15.133160 78.859528 0.000000 0.000000 0.000000
    18 0.000000 0.217954 -0.009629 0.000000 0.000000 0.000000
    19 -6.579208 0.000000 -0.000001 0.000000 0.000000 0.000000
    20 -14.319741 -15.458982 88.923607 -1.655486 0.445705 -2.888000
    21 11.574886 -2.180909 1.427974 -1.940707 -0.170962 2.830789
    22 34.710712 -15.133160 78.859528 3.141593 0.000000 3.141593
    23 -0.000001 0.217956 0.009627 0.000000 0.000000 0.000000
    24 -6.579209 0.000000 0.000000 0.000000 0.000000 0.000000
    25 14.319743 -15.458982 88.923607 -0.057762 0.445706 -0.253592
    26 11.620371 -2.905373 2.149562 -0.263159 -0.211577 0.098244
    27 8.930669 9.895990 16.516956 -1.178097 0.000000 0.000000
    28 -10.478000 3.596270 -57.675583 0.000000 0.000000 0.000000
    29 20.682631 -0.459138 -0.000003 0.000000 0.000000 0.000000
  time 1
    0 -35.481688 0.000000 34.046600 1.570796 0.000000 1.570796
    1 -26.737438 9.978985 -63.177887 0.007343 -0.264986 -1.495672
    2 -26.847315 6.445414 78.520195 0.268794 0.005643 -3.065482
    3 -4.313085 -13.578558 -57.058857 3.141593 0.000000 3.141593
    4 38.013969 0.147198 -0.193551 3.141593 0.000000 -3.141593
    5 20.686598 0.469208 -0.164128 -3.110653 -0.264987 1.495673
    6 0.016516 -11.367848 70.181595 0.000000 0.000000 0.000000
    7 26.847315 6.445414 78.520195 2.876405 -0.019551 -0.071301
    8 4.313085 -13.578558 -57.058857 0.000000 0.000000 0.000000
    9 38.013966 0.147198 0.193553 3.141593 0.000000 3.141593
    10 20.605600 0.473753 0.167817 -0.024242 0.265136 1.494187
    11 26.690825 9.982033 -63.178242 0.007103 -0.265136 -1.647406
    12 9.371019 20.763627 -11.892673 0.272282 -1.568085 -1.843086
    13 -16.873423 9.784609 52.968449 0.000000 0.000000 0.000000
    14 0.020790 5.827109 -0.224471 -1.570796 -1.570796 0.000000
    15 -8.438861 0.038662 0.559093 1.570796 0.000000 1.570796
    16 5.664327 9.038126 28.830690 -1.230457 0.000000 0.000000
    17 -34.710712 -15.133160 78.859528 0.000000 0.000000 0.000000
    18 0.000000 0.217954 -0.009629 0.000000 0.000000 0.000000
    19 -6.579208 0.000000 -0.000001 0.000000 0.000000 0.000000
    20 -14.319741 -15.458982 88.923607 -1.655486 0.445705 -2.888000
    21 11.574886 -2.180909 1.427974 -1.940707 -0.170962 2.830789
    22 34.710712 -15.133160 78.859528 3.141593 0.000000 3.141593
    23 -0.000001 0.217956 0.009627 0.000000 0.000000 0.000000
    24 -6.579209 0.000000 0.000000 0.000000 0.000000 0.000000
    25 14.319743 -15.458982 88.923607 -0.057762 0.445706 -0.253592
    26 11.620371 -2.905373 2.149562 -0.263159 -0.211577 0.098244
    27 8.930669 9.895990 16.516956 -1.178097 0.000000 0.000000
    28 -10.478000 3.596270 -57.675583 0.000000 0.000000 0.000000
    29 20.682631 -0.459138 -0.000003 0.000000 0.000000 0.000000
  time 2
    0 -35.481688 0.000000 34.046600 1.570796 0.000000 1.570796
    1 -26.737438 9.978985 -63.177887 0.007343 -0.264986 -1.495672
    2 -26.847315 6.445414 78.520195 0.268794 0.005643 -3.065482
    3 -4.313085 -13.578558 -57.058857 3.141593 0.000000 3.141593
    4 38.013969 0.147198 -0.193551 3.141593 0.000000 -3.141593
    5 20.686598 0.469208 -0.164128 -3.110653 -0.264987 1.495673
    6 0.016516 -11.367848 70.181595 0.000000 0.000000 0.000000
    7 26.847315 6.445414 78.520195 2.876405 -0.019551 -0.071301
    8 4.313085 -13.578558 -57.058857 0.000000 0.000000 0.000000
    9 38.013966 0.147198 0.193553 3.141593 0.000000 3.141593
    10 20.605600 0.473753 0.167817 -0.024242 0.265136 1.494187
    11 26.690825 9.982033 -63.178242 0.007103 -0.265136 -1.647406
    12 9.203046 20.880818 -11.630946 0.272282 -1.560338 -1.843086
    13 -16.873423 9.784609 52.968449 0.000000 0.000000 0.000000
    14 0.020790 5.827109 -0.224471 -1.570796 -1.570796 0.000000
    15 -8.438861 0.038662 0.559093 1.570796 0.000000 1.570796
    16 5.664327 9.038126 28.830690 -1.230457 0.000000 0.000000
    17 -34.710712 -15.133160 78.859528 0.000000 0.000000 0.000000
    18 0.000000 0.217954 -0.009629 0.000000 0.000000 0.000000
    19 -6.579208 0.000000 -0.000001 0.000000 0.000000 0.000000
    20 -14.319741 -15.458982 88.923607 -1.655486 0.445705 -2.888000
    21 11.574886 -2.180909 1.427974 -1.940707 -0.170962 2.830789
    22 34.710712 -15.133160 78.859528 3.141593 0.000000 3.141593
    23 -0.000001 0.217956 0.009627 0.000000 0.000000 0.000000
    24 -6.579209 0.000000 0.000000 0.000000 0.000000 0.000000
    25 14.319743 -15.458982 88.923607 -0.057762 0.445706 -0.253592
    26 11.620371 -2.905373 2.149562 -0.263159 -0.211577 0.098244
    27 8.930669 9.895990 16.516956 -1.178097 0.000000 0.000000
    28 -10.478000 3.596270 -57.675583 0.000000 0.000000 0.000000
    29 20.682631 -0.459138 -0.000003 0.000000 0.000000 0.000000
  time 3
    0 -35.481688 0.000000 34.046600 1.570796 0.000000 1.570796
    1 -26.737438 9.978985 -63.177887 0.007343 -0.264986 -1.495672
    2 -26.847315 6.445414 78.520195 0.268794 0.005643 -3.065482
    3 -4.313085 -13.578558 -57.058857 3.141593 0.000000 3.141593
    4 38.013969 0.147198 -0.193551 3.141593 0.000000 -3.141593
    5 20.686598 0.469208 -0.164128 -3.110653 -0.264987 1.495673
    6 0.016516 -11.367848 70.181595 0.000000 0.000000 0.000000
    7 26.847315 6.445414 78.520195 2.876405 -0.019551 -0.071301
    8 4.313085 -13.578558 -57.058857 0.000000 0.000000 0.000000
    9 38.013966 0.147198 0.193553 3.141593 0.000000 3.141593
    10 20.605600 0.473753 0.167817 -0.024242 0.265136 1.494187
    11 26.690825 9.982033 -63.178242 0.007103 -0.265136 -1.647406
    12 8.941319 21.068324 -11.205152 0.272282 -1.547943 -1.843086
    13 -16.873423 9.784609 52.968449 0.000000 0.000000 0.000000
    14 0.020790 5.827109 -0.224471 -1.570796 -1.570796 0.000000
    15 -8.438861 0.038662 0.559093 1.570796 0.000000 1.570796
    16 5.664327 9.038126 28.830690 -1.230457 0.000000 0.000000
    17 -34.710712 -15.133160 78.859528 0.000000 0.000000 0.000000
    18 0.000000 0.217954 -0.009629 0.000000 0.000000 0.000000
    19 -6.579208 0.000000 -0.000001 0.000000 0.000000 0.000000
    20 -14.319741 -15.458982 88.923607 -1.655486 0.445705 -2.888000
    21 11.574886 -2.180909 1.427974 -1.940707 -0.170962 2.830789
    22 34.710712 -15.133160 78.859528 3.141593 0.000000 3.141593
    23 -0.000001 0.217956 0.009627 0.000000 0.000000 0.000000
    24 -6.579209 0.000000 0.000000 0.000000 0.000000 0.000000
    25 14.319743 -15.458982 88.923607 -0.057762 0.445706 -0.253592
    26 11.620371 -2.905373 2.149562 -0.263159 -0.211577 0.098244
    27 8.930669 9.895990 16.516956 -1.178097 0.000000 0.000000
    28 -10.478000 3.596270 -57.675583 0.000000 0.000000 0.000000
    29 20.682631 -0.459138 -0.000003 0.000000 0.000000 0.000000
  time 4
    0 -35.481688 0.000000 34.046600 1.570796 0.000000 1.570796
    1 -26.737438 9.978985 -63.177887 0.007343 -0.264986 -1.495672
    2 -26.847315 6.445414 78.520195 0.268794 0.005643 -3.065482
    3 -4.313085 -13.578558 -57.058857 3.141593 0.000000 3.141593
    4 38.013969 0.147198 -0.193551 3.141593 0.000000 -3.141593
    5 20.686598 0.469208 -0.164128 -3.110653 -0.264987 1.495673
    6 0.016516 -11.367848 70.181595 0.000000 0.000000 0.000000
    7 26.847315 6.445414 78.520195 2.876405 -0.019551 -0.071301
    8 4.313085 -13.578558 -57.058857 0.000000 0.000000 0.000000
    9 38.013966 0.147198 0.193553 3.141593 0.000000 3.141593
    10 20.605600 0.473753 0.167817 -0.024242 0.265136 1.494187
    11 26.690825 9.982033 -63.178242 0.007103 -0.265136 -1.647406
    12 8.605371 21.322238 -10.630915 0.272377 -1.531519 -1.842990
    13 -16.873423 9.784609 52.968449 0.000000 0.000000 0.000000
    14 0.020790 5.827109 -0.224471 -1.570796 -1.570796 0.000000
    15 -8.438861 0.038662 0.559093 1.570796 0.000000 1.570796
    16 5.664327 9.038126 28.830690 -1.230457 0.000000 0.000000
    17 -34.710712 -15.133160 78.859528 0.000000 0.000000 0.000000
    18 0.000000 0.217954 -0.009629 0.000000 0.000000 0.000000
    19 -6.579208 0.000000 -0.000001 0.000000 0.000000 0.000000
    20 -14.319741 -15.458982 88.923607 -1.655486 0.445705 -2.888000
    21 11.574886 -2.180909 1.427974 -1.940707 -0.170962 2.830789
    22 34.710712 -15.133160 78.859528 3.141593 0.000000 3.141593
    23 -0.000001 0.217956 0.009627 0.000000 0.000000 0.000000
    24 -6.579209 0.000000 0.000000 0.000000 0.000000 0.000000
    25 14.319743 -15.458982 88.923607 -0.057762 0.445706 -0.253592
    26 11.620371 -2.905373 2.149562 -0.263159 -0.211577 0.098244
    27 8.930669 9.895990 16.516956 -1.178097 0.000000 0.000000
    28 -10.478000 3.596270 -57.675583 0.000000 0.000000 0.000000
    29 20.682631 -0.459138 -0.000003 0.000000 0.000000 0.000000
  time 5
    0 -35.481688 0.000000 34.046600 1.570796 0.000000 1.570796
    1 -26.737438 9.978985 -63.177887 0.007343 -0.264986 -1.495672
    2 -26.847315 6.445414 78.520195 0.268794 0.005643 -3.065482
    3 -4.313085 -13.578558 -57.058857 3.141593 0.000000 3.141593
    4 38.013969 0.147198 -0.193551 3.141593 0.000000 -3.141593
    5 20.686598 0.469208 -0.164128 -3.110653 -0.264987 1.495673
    6 0.016516 -11.367848 70.181595 0.000000 0.000000 0.000000
    7 26.847315 6.445414 78.520195 2.876405 -0.019551 -0.071301
    8 4.313085 -13.578558 -57.058857 0.000000 0.000000 0.000000
    9 38.013966 0.147198 0.193553 3.141593 0.000000 3.141593
    10 20.605600 0.473753 0.167817 -0.024242 0.265136 1.494187
    11 26.690825 9.982033 -63.178242 0.007103 -0.265136 -1.647406
    12 8.210828 21.642560 -9.912143 0.272473 -1.511454 -1.842798
    13 -16.873423 9.784609 52.968449 0.000000 0.000000 0.000000
    14 0.020790 5.827109 -0.224471 -1.570796 -1.570796 0.000000
    15 -8.438861 0.038662 0.559093 1.570796 0.000000 1.570796
    16 5.664327 9.038126 28.830690 -1.230457 0.000000 0.000000
    17 -34.710712 -15.133160 78.859528 0.000000 0.000000 0.000000
    18 0.000000 0.217954 -0.009629 0.000000 0.000000 0.000000
    19 -6.579208 0.000000 -0.000001 0.000000 0.000000 0.000000
    20 -14.319741 -15.458982 88.923607 -1.655486 0.445705 -2.888000
    21 11.574886 -2.180909 1.427974 -1.940707 -0.170962 2.830789
    22 34.710712 -15.133160 78.859528 3.141593 0.000000 3.141593
    23 -0.000001 0.217956 0.009627 0.000000 0.000000 0.000000
    24 -6.579209 0.000000 0.000000 0.000000 0.000000 0.000000
    25 14.319743 -15.458982 88.923607 -0.057762 0.445706 -0.253592
    26 11.620371 -2.905373 2.149562 -0.263159 -0.211577 0.098244
    27 8.930669 9.895990 16.516956 -1.178097 0.000000 0.000000
    28 -10.478000 3.596270 -57.675583 0.000000 0.000000 0.000000
    29 20.682631 -0.459138 -0.000003 0.000000 0.000000 0.000000
  time 6
    0 -35.481688 0.000000 34.046600 1.570796 0.000000 1.570796
    1 -26.737438 9.978985 -63.177887 0.007343 -0.264986 -1.495672
    2 -26.847315 6.445414 78.520195 0.268794 0.005643 -3.065482
    3 -4.313085 -13.578558 -57.058857 3.141593 0.000000 3.141593
    4 38.013969 0.147198 -0.193551 3.141593 0.000000 -3.141593
    5 20.686598 0.469208 -0.164128 -3.110653 -0.264987 1.495673
    6 0.016516 -11.367848 70.181595 0.000000 0.000000 0.000000
    7 26.847315 6.445414 78.520195 2.876405 -0.019551 -0.071301
    8 4.313085 -13.578558 -57.058857 0.000000 0.000000 0.000000
    9 38.013966 0.147198 0.193553 3.141593 0.000000 3.141593
    10 20.605600 0.473753 0.167817 -0.024242 0.265136 1.494187
    11 26.690825 9.982033 -63.178242 0.007103 -0.265136 -1.647406
    12 7.773314 22.025384 -9.068368 0.272665 -1.488446 -1.842511
    13 -16.873423 9.784609 52.968449 0.000000 0.000000 0.000000
    14 0.020790 5.827109 -0.224471 -1.570796 -1.570796 0.000000
    15 -8.438861 0.038662 0.559093 1.570796 0.000000 1.570796
    16 5.664327 9.038126 28.830690 -1.230457 0.000000 0.000000
    17 -34.710712 -15.133160 78.859528 0.000000 0.000000 0.000000
    18 0.000000 0.217954 -0.009629 0.000000 0.000000 0.000000
    19 -6.579208 0.000000 -0.000001 0.000000 0.000000 0.000000
    20 -14.319741 -15.458982 88.923607 -1.655486 0.445705 -2.888000
    21 11.574886 -2.180909 1.427974 -1.940707 -0.170962 2.830789
    22 34.710712 -15.133160 78.859528 3.141593 0.000000 3.141593
    23 -0.000001 0.217956 0.009627 0.000000 0.000000 0.000000
    24 -6.579209 0.000000 0.000000 0.000000 0.000000 0.000000
    25 14.319743 -15.458982 88.923607 -0.057762 0.445706 -0.253592
    26 11.620371 -2.905373 2.149562 -0.263159 -0.211577 0.098244
    27 8.930669 9.895990 16.516956 -1.178097 0.000000 0.000000
    28 -10.478000 3.596270 -57.675583 0.000000 0.000000 0.000000
    29 20.682631 -0.459138 -0.000003 0.000000 0.000000 0.000000
  time 7
    0 -35.481688 0.000000 34.046600 1.570796 0.000000 1.570796
    1 -26.737438 9.978985 -63.177887 0.007343 -0.264986 -1.495672
    2 -26.847315 6.445414 78.520195 0.268794 0.005643 -3.065482
    3 -4.313085 -13.578558 -57.058857 3.141593 0.000000 3.141593
    4 38.013969 0.147198 -0.193551 3.141593 0.000000 -3.141593
    5 20.686598 0.469208 -0.164128 -3.110653 -0.264987 1.495673
    6 0.016516 -11.367848 70.181595 0.000000 0.000000 0.000000
    7 26.847315 6.445414 78.520195 2.876405 -0.019551 -0.071301
    8 4.313085 -13.578558 -57.058857 0.000000 0.000000 0.000000
    9 38.013966 0.147198 0.193553 3.141593 0.000000 3.141593
    10 20.605600 0.473753 0.167817 -0.024242 0.265136 1.494187
    11 26.690825 9.982033 -63.178242 0.007103 -0.265136 -1.647406
    12 7.308457 22.462898 -8.103495 0.272857 -1.462803 -1.842127
    13 -16.873423 9.784609 52.968449 0.000000 0.000000 0.000000
    14 0.020790 5.827109 -0.224471 -1.570796 -1.570796 0.000000
    15 -8.438861 0.038662 0.559093 1.570796 0.000000 1.570796
    16 5.664327 9.038126 28.830690 -1.230457 0.000000 0.000000
    17 -34.710712 -15.133160 78.859528 0.000000 0.000000 0.000000
    18 0.000000 0.217954 -0.009629 0.000000 0.000000 0.000000
    19 -6.579208 0.000000 -0.000001 0.000000 0.000000 0.000000
    20 -14.319741 -15.458982 88.923607 -1.655486 0.445705 -2.888000
    21 11.574886 -2.180909 1.427974 -1.940707 -0.170962 2.830789
    22 34.710712 -15.133160 78.859528 3.141593 0.000000 3.141593
    23 -0.000001 0.217956 0.009627 0.000000 0.000000 0.000000
    24 -6.579209 0.000000 0.000000 0.000000 0.000000 0.000000
    25 14.319743 -15.458982 88.923607 -0.057762 0.445706 -0.253592
    26 11.620371 -2.905373 2.149562 -0.263159 -0.211577 0.098244
    27 8.930669 9.895990 16.516956 -1.178097 0.000000 0.000000
    28 -10.478000 3.596270 -57.675583 0.000000 0.000000 0.000000
    29 20.682631 -0.459138 -0.000003 0.000000 0.000000 0.000000
  time 8
    0 -35.481688 0.000000 34.046600 1.570796 0.000000 1.570796
    1 -26.737438 9.978985 -63.177887 0.007343 -0.264986 -1.495672
    2 -26.847315 6.445414 78.520195 0.268794 0.005643 -3.065482
    3 -4.313085 -13.578558 -57.058857 3.141593 0.000000 3.141593
    4 38.013969 0.147198 -0.193551 3.141593 0.000000 -3.141593
    5 20.686598 0.469208 -0.164128 -3.110653 -0.264987 1.495673
    6 0.016516 -11.367848 70.181595 0.000000 0.000000 0.000000
    7 26.847315 6.445414 78.520195 2.876405 -0.019551 -0.071301
    8 4.313085 -13.578558 -57.058857 0.000000 0.000000 0.000000
    9 38.013966 0.147198 0.193553 3.141593 0.000000 3.141593
    10 20.605600 0.473753 0.167817 -0.024242 0.265136 1.494187
    11 26.690825 9.982033 -63.178242 0.007103 -0.265136 -1.647406
    12 6.831879 22.959007 -7.033149 0.273144 -1.435224 -1.841552
    13 -16.873423 9.784609 52.968449 0.000000 0.000000 0.000000
    14 0.020790 5.827109 -0.224471 -1.570796 -1.570796 0.000000
    15 -8.438861 0.038662 0.559093 1.570796 0.000000 1.570796
    16 5.664327 9.038126 28.830690 -1.230457 0.000000 0.000000
    17 -34.710712 -15.133160 78.859528 0.000000 0.000000 0.000000
    18 0.000000 0.217954 -0.009629 0.000000 0.000000 0.000000
    19 -6.579208 0.000000 -0.000001 0.000000 0.000000 0.000000
    20 -14.319741 -15.458982 88.923607 -1.655486 0.445705 -2.888000
    21 11.574886 -2.180909 1.427974 -1.940707 -0.170962 2.830789
    22 34.710712 -15.133160 78.859528 3.141593 0.000000 3.141593
    23 -0.000001 0.217956 0.009627 0.000000 0.000000 0.000000
    24 -6.579209 0.000000 0.000000 0.000000 0.000000 0.000000
    25 14.319743 -15.458982 88.923607 -0.057762 0.445706 -0.253592
    26 11.620371 -2.905373 2.149562 -0.263159 -0.211577 0.098244
    27 8.930669 9.895990 16.516956 -1.178097 0.000000 0.000000
    28 -10.478000 3.596270 -57.675583 0.000000 0.000000 0.000000
    29 20.682631 -0.459138 -0.000003 0.000000 0.000000 0.000000
  time 9
    0 -35.481688 0.000000 34.046600 1.570796 0.000000 1.570796
    1 -26.737438 9.978985 -63.177887 0.007343 -0.264986 -1.495672
    2 -26.847315 6.445414 78.520195 0.268794 0.005643 -3.065482
    3 -4.313085 -13.578558 -57.058857 3.141593 0.000000 3.141593
    4 38.013969 0.147198 -0.193551 3.141593 0.000000 -3.141593
    5 20.686598 0.469208 -0.164128 -3.110653 -0.264987 1.495673
    6 0.016516 -11.367848 70.181595 0.000000 0.000000 0.000000
    7 26.847315 6.445414 78.520195 2.876405 -0.019551 -0.071301
    8 4.313085 -13.578558 -57.058857 0.000000 0.000000 0.000000
    9 38.013966 0.147198 0.193553 3.141593 0.000000 3.141593
    10 20.605600 0.473753 0.167817 -0.024242 0.265136 1.494187
    11 26.690825 9.982033 -63.178242 0.007103 -0.265136 -1.647406
    12 6.363115 23.505898 -5.869051 0.273528 -1.406096 -1.840881
    13 -16.873423 9.784609 52.968449 0.000000 0.000000 0.000000
    14 0.020790 5.827109 -0.224471 -1.570796 -1.570796 0.000000
    15 -8.438861 0.038662 0.559093 1.570796 0.000000 1.570796
    16 5.664327 9.038126 28.830690 -1.230457 0.000000 0.000000
    17 -34.710712 -15.133160 78.859528 0.000000 0.000000 0.000000
    18 0.000000 0.217954 -0.009629 0.000000 0.000000 0.000000
    19 -6.579208 0.000000 -0.000001 0.000000 0.000000 0.000000
    20 -14.319741 -15.458982 88.923607 -1.655486 0.445705 -2.888000
    21 11.574886 -2.180909 1.427974 -1.940707 -0.170962 2.830789
    22 34.710712 -15.133160 78.859528 3.141593 0.000000 3.141593
    23 -0.000001 0.217956 0.009627 0.000000 0.000000 0.000000
    24 -6.579209 0.000000 0.000000 0.000000 0.000000 0.000000
    25 14.319743 -15.458982 88.923607 -0.057762 0.445706 -0.253592
    26 11.620371 -2.905373 2.149562 -0.263159 -0.211577 0.098244
    27 8.930669 9.895990 16.516956 -1.178097 0.000000 0.000000
    28 -10.478000 3.596270 -57.675583 0.000000 0.000000 0.000000
    29 20.682631 -0.459138 -0.000003 0.000000 0.000000 0.000000
  time 10
    0 -35.481688 0.000000 34.046600 1.570796 0.000000 1.570796
    1 -26.737438 9.978985 -63.177887 0.007343 -0.264986 -1.495672
    2 -26.847315 6.445414 78.520195 0.268794 0.005643 -3.065482
    3 -4.313085 -13.578558 -57.058857 3.141593 0.000000 3.141593
    4 38.013969 0.147198 -0.193551 3.141593 0.000000 -3.141593
    5 20.686598 0.469208 -0.164128 -3.110653 -0.264987 1.495673
    6 0.016516 -11.367848 70.181595 0.000000 0.000000 0.000000
    7 26.847315 6.445414 78.520195 2.876405 -0.019551 -0.071301
    8 4.313085 -13.578558 -57.058857 0.000000 0.000000 0.000000
    9 38.013966 0.147198 0.193553 3.141593 0.000000 3.141593
    10 20.605600 0.473753 0.167817 -0.024242 0.265136 1.494187
    11 26.690825 9.982033 -63.178242 0.007103 -0.265136 -1.647406
    12 5.917789 24.099666 -4.619013 0.274103 -1.375883 -1.839922
    13 -16.873423 9.784609 52.968449 0.000000 0.000000 0.000000
    14 0.020790 5.827109 -0.224471 -1.570796 -1.570796 0.000000
    15 -8.438861 0.038662 0.559093 1.570796 0.000000 1.570796
    16 5.664327 9.038126 28.830690 -1.230457 0.000000 0.000000
    17 -34.710712 -15.133160 78.859528 0.000000 0.000000 0.000000
    18 0.000000 0.217954 -0.009629 0.000000 0.000000 0.000000
    19 -6.579208 0.000000 -0.000001 0.000000 0.000000 0.000000
    20 -14.319741 -15.458982 88.923607 -1.655486 0.445705 -2.888000
    21 11.574886 -2.180909 1.427974 -1.940707 -0.170962 2.830789
    22 34.710712 -15.133160 78.859528 3.141593 0.000000 3.141593
    23 -0.000001 0.217956 0.009627 0.000000 0.000000 0.000000
    24 -6.579209 0.000000 0.000000 0.000000 0.000000 0.000000
    25 14.319743 -15.458982 88.923607 -0.057762 0.445706 -0.253592
    26 11.620371 -2.905373 2.149562 -0.263159 -0.211577 0.098244
    27 8.930669 9.895990 16.516956 -1.178097 0.000000 0.000000
    28 -10.478000 3.596270 -57.675583 0.000000 0.000000 0.000000
    29 20.682631 -0.459138 -0.000003 0.000000 0.000000 0.000000
  time 11
    0 -35.481688 0.000000 34.046600 1.570796 0.000000 1.570796
    1 -26.737438 9.978985 -63.177887 0.007343 -0.264986 -1.495672
    2 -26.847315 6.445414 78.520195 0.268794 0.005643 -3.065482
    3 -4.313085 -13.578558 -57.058857 3.141593 0.000000 3.141593
    4 38.013969 0.147198 -0.193551 3.141593 0.000000 -3.141593
    5 20.686598 0.469208 -0.164128 -3.110653 -0.264987 1.495673
    6 0.016516 -11.367848 70.181595 0.000000 0.000000 0.000000
    7 26.847315 6.445414 78.520195 2.876405 -0.019551 -0.071301
    8 4.313085 -13.578558 -57.058857 0.000000 0.000000 0.000000
    9 38.013966 0.147198 0.193553 3.141593 0.000000 3.141593
    10 20.605600 0.473753 0.167817 -0.024242 0.265136 1.494187
    11 26.690825 9.982033 -63.178242 0.007103 -0.265136 -1.647406
    12 5.511527 24.736405 -3.294754 0.274678 -1.345282 -1.838867
    13 -16.873423 9.784609 52.968449 0.000000 0.000000 0.000000
    14 0.020790 5.827109 -0.224471 -1.570796 -1.570796 0.000000
    15 -8.438861 0.038662 0.559093 1.570796 0.000000 1.570796
    16 5.664327 9.038126 28.830690 -1.230457 0.000000 0.000000
    17 -34.710712 -15.133160 78.859528 0.000000 0.000000 0.000000
    18 0.000000 0.217954 -0.009629 0.000000 0.000000 0.000000
    19 -6.579208 0.000000 -0.000001 0.000000 0.000000 0.000000
    20 -14.319741 -15.458982 88.923607 -1.655486 0.445705 -2.888000
    21 11.574886 -2.180909 1.427974 -1.940707 -0.170962 2.830789
    22 34.710712 -15.133160 78.859528 3.141593 0.000000 3.141593
    23 -0.000001 0.217956 0.009627 0.000000 0.000000 0.000000
    24 -6.579209 0.000000 0.000000 0.000000 0.000000 0.000000
    25 14.319743 -15.458982 88.923607 -0.057762 0.445706 -0.253592
    26 11.620371 -2.905373 2.149562 -0.263159 -0.211577 0.098244
    27 8.930669 9.895990 16.516956 -1.178097 0.000000 0.000000
    28 -10.478000 3.596270 -57.675583 0.000000 0.000000 0.000000
    29 20.682631 -0.459138 -0.000003 0.000000 0.000000 0.000000
  time 12
    0 -35.481688 0.000000 34.046600 1.570796 0.000000 1.570796
    1 -26.737438 9.978985 -63.177887 0.007343 -0.264986 -1.495672
    2 -26.847315 6.445414 78.520195 0.268794 0.005643 -3.065482
    3 -4.313085 -13.578558 -57.058857 3.141593 0.000000 3.141593
    4 38.013969 0.147198 -0.193551 3.141593 0.000000 -3.141593
    5 20.686598 0.469208 -0.164128 -3.110653 -0.264987 1.495673
    6 0.016516 -11.367848 70.181595 0.000000 0.000000 0.000000
    7 26.847315 6.445414 78.520195 2.876405 -0.019551 -0.071301
    8 4.313085 -13.578558 -57.058857 0.000000 0.000000 0.000000
    9 38.013966 0.147198 0.193553 3.141593 0.000000 3.141593
    10 20.605600 0.473753 0.167817 -0.024242 0.265136 1.494187
    11 26.690825 9.982033 -63.178242 0.007103 -0.265136 -1.647406
    12 5.156047 25.416113 -1.907993 0.275350 -1.314604 -1.837621
    13 -16.873423 9.784609 52.968449 0.000000 0.000000 0.000000
    14 0.020790 5.827109 -0.224471 -1.570796 -1.570796 0.000000
    15 -8.438861 0.038662 0.559093 1.570796 0.000000 1.570796
    16 5.664327 9.038126 28.830690 -1.230457 0.000000 0.000000
    17 -34.710712 -15.133160 78.859528 0.000000 0.000000 0.000000
    18 0.000000 0.217954 -0.009629 0.000000 0.000000 0.000000
    19 -6.579208 0.000000 -0.000001 0.000000 0.000000 0.000000
    20 -14.319741 -15.458982 88.923607 -1.655486 0.445705 -2.888000
    21 11.574886 -2.180909 1.427974 -1.940707 -0.170962 2.830789
    22 34.710712 -15.133160 78.859528 3.141593 0.000000 3.141593
    23 -0.000001 0.217956 0.009627 0.000000 0.000000 0.000000
    24 -6.579209 0.000000 0.000000 0.000000 0.000000 0.000000
    25 14.319743 -15.458982 88.923607 -0.057762 0.445706 -0.253592
    26 11.620371 -2.905373 2.149562 -0.263159 -0.211577 0.098244
    27 8.930669 9.895990 16.516956 -1.178097 0.000000 0.000000
    28 -10.478000 3.596270 -57.675583 0.000000 0.000000 0.000000
    29 20.682631 -0.459138 -0.000003 0.000000 0.000000 0.000000
  time 13
    0 -35.481688 0.000000 34.046600 1.570796 0.000000 1.570796
    1 -26.737438 9.978985 -63.177887 0.007343 -0.264986 -1.495672
    2 -26.847315 6.445414 78.520195 0.268794 0.005643 -3.065482
    3 -4.313085 -13.578558 -57.058857 3.141593 0.000000 3.141593
    4 38.013969 0.147198 -0.193551 3.141593 0.000000 -3.141593
    5 20.686598 0.469208 -0.164128 -3.110653 -0.264987 1.495673
    6 0.016516 -11.367848 70.181595 0.000000 0.000000 0.000000
    7 26.847315 6.445414 78.520195 2.876405 -0.019551 -0.071301
    8 4.313085 -13.578558 -57.058857 0.000000 0.000000 0.000000
    9 38.013966 0.147198 0.193553 3.141593 0.000000 3.141593
    10 20.605600 0.473753 0.167817 -0.024242 0.265136 1.494187
    11 26.690825 9.982033 -63.178242 0.007103 -0.265136 -1.647406
    12 4.878695 26.130978 -0.466543 0.276117 -1.284546 -1.836183
    13 -16.873423 9.784609 52.968449 0.000000 0.000000 0.000000
    14 0.020790 5.827109 -0.224471 -1.570796 -1.570796 0.000000
    15 -8.438861 0.038662 0.559093 1.570796 0.000000 1.570796
    16 5.664327 9.038126 28.830690 -1.230457 0.000000 0.000000
    17 -34.710712 -15.133160 78.859528 0.000000 0.000000 0.000000
    18 0.000000 0.217954 -0.009629 0.000000 0.000000 0.000000
    19 -6.579208 0.000000 -0.000001 0.000000 0.000000 0.000000
    20 -14.319741 -15.458982 88.923607 -1.655486 0.445705 -2.888000
    21 11.574886 -2.180909 1.427974 -1.940707 -0.170962 2.830789
    22 34.710712 -15.133160 78.859528 3.141593 0.000000 3.141593
    23 -0.000001 0.217956 0.009627 0.000000 0.000000 0.000000
    24 -6.579209 0.000000 0.000000 0.000000 0.000000 0.000000
    25 14.319743 -15.458982 88.923607 -0.057762 0.445706 -0.253592
    26 11.620371 -2.905373 2.149562 -0.263159 -0.211577 0.098244
    27 8.930669 9.895990 16.516956 -1.178097 0.000000 0.000000
    28 -10.478000 3.596270 -57.675583 0.000000 0.000000 0.000000
    29 20.682631 -0.459138 -0.000003 0.000000 0.000000 0.000000
  time 14
    0 -35.481688 0.000000 34.046600 1.570796 0.000000 1.570796
    1 -26.737438 9.978985 -63.177887 0.007343 -0.264986 -1.495672
    2 -26.847315 6.445414 78.520195 0.268794 0.005643 -3.065482
    3 -4.313085 -13.578558 -57.058857 3.141593 0.000000 3.141593
    4 38.013969 0.147198 -0.193551 3.141593 0.000000 -3.141593
    5 20.686598 0.469208 -0.164128 -3.110653 -0.264987 1.495673
    6 0.016516 -11.367848 70.181595 0.000000 0.000000 0.000000
    7 26.847315 6.445414 78.520195 2.876405 -0.019551 -0.071301
    8 4.313085 -13.578558 -57.058857 0.000000 0.000000 0.000000
    9 38.013966 0.147198 0.193553 3.141593 0.000000 3.141593
    10 20.605600 0.473753 0.167817 -0.024242 0.265136 1.494187
    11 26.690825 9.982033 -63.178242 0.007103 -0.265136 -1.647406
    12 4.659938 26.881001 1.010065 0.276979 -1.255418 -1.834745
    13 -16.873423 9.784609 52.968449 0.000000 0.000000 0.000000
    14 0.020790 5.827109 -0.224471 -1.570796 -1.570796 0.000000
    15 -8.438861 0.038662 0.559093 1.570796 0.000000 1.570796
    16 5.664327 9.038126 28.830690 -1.230457 0.000000 0.000000
    17 -34.710712 -15.133160 78.859528 0.000000 0.000000 0.000000
    18 0.000000 0.217954 -0.009629 0.000000 0.000000 0.000000
    19 -6.579208 0.000000 -0.000001 0.000000 0.000000 0.000000
    20 -14.319741 -15.458982 88.923607 -1.655486 0.445705 -2.888000
    21 11.574886 -2.180909 1.427974 -1.940707 -0.170962 2.830789
    22 34.710712 -15.133160 78.859528 3.141593 0.000000 3.141593
    23 -0.000001 0.217956 0.009627 0.000000 0.000000 0.000000
    24 -6.579209 0.000000 0.000000 0.000000 0.000000 0.000000
    25 14.319743 -15.458982 88.923607 -0.057762 0.445706 -0.253592
    26 11.620371 -2.905373 2.149562 -0.263159 -0.211577 0.098244
    27 8.930669 9.895990 16.516956 -1.178097 0.000000 0.000000
    28 -10.478000 3.596270 -57.675583 0.000000 0.000000 0.000000
    29 20.682631 -0.459138 -0.000003 0.000000 0.000000 0.000000
  time 15
    0 -35.481688 0.000000 34.046600 1.570796 0.000000 1.570796
    1 -26.737438 9.978985 -63.177887 0.007343 -0.264986 -1.495672
    2 -26.847315 6.445414 78.520195 0.268794 0.005643 -3.065482
    3 -4.313085 -13.578558 -57.058857 3.141593 0.000000 3.141593
    4 38.013969 0.147198 -0.193551 3.141593 0.000000 -3.141593
    5 20.686598 0.469208 -0.164128 -3.110653 -0.264987 1.495673
    6 0.016516 -11.367848 70.181595 0.000000 0.000000 0.000000
    7 26.847315 6.445414 78.520195 2.876405 -0.019551 -0.071301
    8 4.313085 -13.578558 -57.058857 0.000000 0.000000 0.000000
    9 38.013966 0.147198 0.193553 3.141593 0.000000 3.141593
    10 20.605600 0.473753 0.167817 -0.024242 0.265136 1.494187
    11 26.690825 9.982033 -63.178242 0.007103 -0.265136 -1.647406
    12 4.484152 27.662275 2.521830 0.277842 -1.227916 -1.833211
    13 -16.873423 9.784609 52.968449 0.000000 0.000000 0.000000
    14 0.020790 5.827109 -0.224471 -1.570796 -1.570796 0.000000
    15 -8.438861 0.038662 0.559093 1.570796 0.000000 1.570796
    16 5.664327 9.038126 28.830690 -1.230457 0.000000 0.000000
    17 -34.710712 -15.133160 78.859528 0.000000 0.000000 0.000000
    18 0.000000 0.217954 -0.009629 0.000000 0.000000 0.000000
    19 -6.579208 0.000000 -0.000001 0.000000 0.000000 0.000000
    20 -14.319741 -15.458982 88.923607 -1.655486 0.445705 -2.888000
    21 11.574886 -2.180909 1.427974 -1.940707 -0.170962 2.830789
    22 34.710712 -15.133160 78.859528 3.141593 0.000000 3.141593
    23 -0.000001 0.217956 0.009627 0.000000 0.000000 0.000000
    24 -6.579209 0.000000 0.000000 0.000000 0.000000 0.000000
    25 14.319743 -15.458982 88.923607 -0.057762 0.445706 -0.253592
    26 11.620371 -2.905373 2.149562 -0.263159 -0.211577 0.098244
    27 8.930669 9.895990 16.516956 -1.178097 0.000000 0.000000
    28 -10.478000 3.596270 -57.675583 0.000000 0.000000 0.000000
    29 20.682631 -0.459138 -0.000003 0.000000 0.000000 0.000000
  time 16
    0 -35.481688 0.000000 34.046600 1.570796 0.000000 1.570796
    1 -26.737438 9.978985 -63.177887 0.007343 -0.264986 -1.495672
    2 -26.847315 6.445414 78.520195 0.268794 0.005643 -3.065482
    3 -4.313085 -13.578558 -57.058857 3.141593 0.000000 3.141593
    4 38.013969 0.147198 -0.193551 3.141593 0.000000 -3.141593
    5 20.686598 0.469208 -0.164128 -3.110653 -0.264987 1.495673
    6 0.016516 -11.367848 70.181595 0.000000 0.000000 0.000000
    7 26.847315 6.445414 78.520195 2.876405 -0.019551 -0.071301
    8 4.313085 -13.578558 -57.058857 0.000000 0.000000 0.000000
    9 38.013966 0.147198 0.193553 3.141593 0.000000 3.141593
    10 20.605600 0.473753 0.167817 -0.024242 0.265136 1.494187
    11 26.690825 9.982033 -63.178242 0.007103 -0.265136 -1.647406
    12 4.351335 28.470894 4.049220 0.278705 -1.202428 -1.831677
    13 -16.873423 9.784609 52.968449 0.000000 0.000000 0.000000
    14 0.020790 5.827109 -0.224471 -1.570796 -1.570796 0.000000
    15 -8.438861 0.038662 0.559093 1.570796 0.000000 1.570796
    16 5.664327 9.038126 28.830690 -1.230457 0.000000 0.000000
    17 -34.710712 -15.133160 78.859528 0.000000 0.000000 0.000000
    18 0.000000 0.217954 -0.009629 0.000000 0.000000 0.000000
    19 -6.579208 0.000000 -0.000001 0.000000 0.000000 0.000000
    20 -14.319741 -15.458982 88.923607 -1.655486 0.445705 -2.888000
    21 11.574886 -2.180909 1.427974 -1.940707 -0.170962 2.830789
    22 34.710712 -15.133160 78.859528 3.141593 0.000000 3.141593
    23 -0.000001 0.217956 0.009627 0.000000 0.000000 0.000000
    24 -6.579209 0.000000 0.000000 0.000000 0.000000 0.000000
    25 14.319743 -15.458982 88.923607 -0.057762 0.445706 -0.253592
    26 11.620371 -2.905373 2.149562 -0.263159 -0.211577 0.098244
    27 8.930669 9.895990 16.516956 -1.178097 0.000000 0.000000
    28 -10.478000 3.596270 -57.675583 0.000000 0.000000 0.000000
    29 20.682631 -0.459138 -0.000003 0.000000 0.000000 0.000000
  time 17
    0 -35.481688 0.000000 34.046600 1.570796 0.000000 1.570796
    1 -26.737438 9.978985 -63.177887 0.007343 -0.264986 -1.495672
    2 -26.847315 6.445414 78.520195 0.268794 0.005643 -3.065482
    3 -4.313085 -13.578558 -57.058857 3.141593 0.000000 3.141593
    4 38.013969 0.147198 -0.193551 3.141593 0.000000 -3.141593
    5 20.686598 0.469208 -0.164128 -3.110653 -0.264987 1.495673
    6 0.016516 -11.367848 70.181595 0.000000 0.000000 0.000000
    7 26.847315 6.445414 78.520195 2.876405 -0.019551 -0.071301
    8 4.313085 -13.578558 -57.058857 0.000000 0.000000 0.000000
    9 38.013966 0.147198 0.193553 3.141593 0.000000 3.141593
    10 20.605600 0.473753 0.167817 -0.024242 0.265136 1.494187
    11 26.690825 9.982033 -63.178242 0.007103 -0.265136 -1.647406
    12 4.257582 29.302950 5.584423 0.279568 -1.179497 -1.830143
    13 -16.873423 9.784609 52.968449 0.000000 0.000000 0.000000
    14 0.020790 5.827109 -0.224471 -1.570796 -1.570796 0.000000
    15 -8.438861 0.038662 0.559093 1.570796 0.000000 1.570796
    16 5.664327 9.038126 28.830690 -1.230457 0.000000 0.000000
    17 -34.710712 -15.133160 78.859528 0.000000 0.000000 0.000000
    18 0.000000 0.217954 -0.009629 0.000000 0.000000 0.000000
    19 -6.579208 0.000000 -0.000001 0.000000 0.000000 0.000000
    20 -14.319741 -15.458982 88.923607 -1.655486 0.445705 -2.888000
    21 11.574886 -2.180909 1.427974 -1.940707 -0.170962 2.830789
    22 34.710712 -15.133160 78.859528 3.141593 0.000000 3.141593
    23 -0.000001 0.217956 0.009627 0.000000 0.000000 0.000000
    24 -6.579209 0.000000 0.000000 0.000000 0.000000 0.000000
    25 14.319743 -15.458982 88.923607 -0.057762 0.445706 -0.253592
    26 11.620371 -2.905373 2.149562 -0.263159 -0.211577 0.098244
    27 8.930669 9.895990 16.516956 -1.178097 0.000000 0.000000
    28 -10.478000 3.596270 -57.675583 0.000000 0.000000 0.000000
    29 20.682631 -0.459138 -0.000003 0.000000 0.000000 0.000000
  time 18
    0 -35.481688 0.000000 34.046600 1.570796 0.000000 1.570796
    1 -26.737438 9.978985 -63.177887 0.007343 -0.264986 -1.495672
    2 -26.847315 6.445414 78.520195 0.268794 0.005643 -3.065482
    3 -4.313085 -13.578558 -57.058857 3.141593 0.000000 3.141593
    4 38.013969 0.147198 -0.193551 3.141593 0.000000 -3.141593
    5 20.686598 0.469208 -0.164128 -3.110653 -0.264987 1.495673
    6 0.016516 -11.367848 70.181595 0.000000 0.000000 0.000000
    7 26.847315 6.445414 78.520195 2.876405 -0.019551 -0.071301
    8 4.313085 -13.578558 -57.058857 0.000000 0.000000 0.000000
    9 38.013966 0.147198 0.193553 3.141593 0.000000 3.141593
    10 20.605600 0.473753 0.167817 -0.024242 0.265136 1.494187
    11 26.690825 9.982033 -63.178242 0.007103 -0.265136 -1.647406
    12 4.195080 30.154539 7.115720 0.280335 -1.159588 -1.828800
    13 -16.873423 9.784609 52.968449 0.000000 0.000000 0.000000
    14 0.020790 5.827109 -0.224471 -1.570796 -1.570796 0.000000
    15 -8.438861 0.038662 0.559093 1.570796 0.000000 1.570796
    16 5.664327 9.038126 28.830690 -1.230457 0.000000 0.000000
    17 -34.710712 -15.133160 78.859528 0.000000 0.000000 0.000000
    18 0.000000 0.217954 -0.009629 0.000000 0.000000 0.000000
    19 -6.579208 0.000000 -0.000001 0.000000 0.000000 0.000000
    20 -14.319741 -15.458982 88.923607 -1.655486 0.445705 -2.888000
    21 11.574886 -2.180909 1.427974 -1.940707 -0.170962 2.830789
    22 34.710712 -15.133160 78.859528 3.141593 0.000000 3.141593
    23 -0.000001 0.217956 0.009627 0.000000 0.000000 0.000000
    24 -6.579209 0.000000 0.000000 0.000000 0.000000 0.000000
    25 14.319743 -15.458982 88.923607 -0.057762 0.445706 -0.253592
    26 11.620371 -2.905373 2.149562 -0.263159 -0.211577 0.098244
    27 8.930669 9.895990 16.516956 -1.178097 0.000000 0.000000
    28 -10.478000 3.596270 -57.675583 0.000000 0.000000 0.000000
    29 20.682631 -0.459138 -0.000003 0.000000 0.000000 0.000000
  time 19
    0 -35.481688 0.000000 34.046600 1.570796 0.000000 1.570796
    1 -26.737438 9.978985 -63.177887 0.007343 -0.264986 -1.495672
    2 -26.847315 6.445414 78.520195 0.268794 0.005643 -3.065482
    3 -4.313085 -13.578558 -57.058857 3.141593 0.000000 3.141593
    4 38.013969 0.147198 -0.193551 3.141593 0.000000 -3.141593
    5 20.686598 0.469208 -0.164128 -3.110653 -0.264987 1.495673
    6 0.016516 -11.367848 70.181595 0.000000 0.000000 0.000000
    7 26.847315 6.445414 78.520195 2.876405 -0.019551 -0.071301
    8 4.313085 -13.578558 -57.058857 0.000000 0.000000 0.000000
    9 38.013966 0.147198 0.193553 3.141593 0.000000 3.141593
    10 20.605600 0.473753 0.167817 -0.024242 0.265136 1.494187
    11 26.690825 9.982033 -63.178242 0.007103 -0.265136 -1.647406
    12 4.159923 31.021753 8.635298 0.281006 -1.143242 -1.827650
    13 -16.873423 9.784609 52.968449 0.000000 0.000000 0.000000
    14 0.020790 5.827109 -0.224471 -1.570796 -1.570796 0.000000
    15 -8.438861 0.038662 0.559093 1.570796 0.000000 1.570796
    16 5.664327 9.038126 28.830690 -1.230457 0.000000 0.000000
    17 -34.710712 -15.133160 78.859528 0.000000 0.000000 0.000000
    18 0.000000 0.217954 -0.009629 0.000000 0.000000 0.000000
    19 -6.579208 0.000000 -0.000001 0.000000 0.000000 0.000000
    20 -14.319741 -15.458982 88.923607 -1.655486 0.445705 -2.888000
    21 11.574886 -2.180909 1.427974 -1.940707 -0.170962 2.830789
    22 34.710712 -15.133160 78.859528 3.141593 0.000000 3.141593
    23 -0.000001 0.217956 0.009627 0.000000 0.000000 0.000000
    24 -6.579209 0.000000 0.000000 0.000000 0.000000 0.000000
    25 14.319743 -15.458982 88.923607 -0.057762 0.445706 -0.253592
    26 11.620371 -2.905373 2.149562 -0.263159 -0.211577 0.098244
    27 8.930669 9.895990 16.516956 -1.178097 0.000000 0.000000
    28 -10.478000 3.596270 -57.675583 0.000000 0.000000 0.000000
    29 20.682631 -0.459138 -0.000003 0.000000 0.000000 0.000000
  time 20
    0 -35.481688 0.000000 34.046600 1.570796 0.000000 1.570796
    1 -26.737438 9.978985 -63.177887 0.007343 -0.264986 -1.495672
    2 -26.847315 6.445414 78.520195 0.268794 0.005643 -3.065482
    3 -4.313085 -13.578558 -57.058857 3.141593 0.000000 3.141593
    4 38.013969 0.147198 -0.193551 3.141593 0.000000 -3.141593
    5 20.686598 0.469208 -0.164128 -3.110653 -0.264987 1.495673
    6 0.016516 -11.367848 70.181595 0.000000 0.000000 0.000000
    7 26.847315 6.445414 78.520195 2.876405 -0.019551 -0.071301
    8 4.313085 -13.578558 -57.058857 0.000000 0.000000 0.000000
    9 38.013966 0.147198 0.193553 3.141593 0.000000 3.141593
    10 20.605600 0.473753 0.167817 -0.024242 0.265136 1.494187
    11 26.690825 9.982033 -63.178242 0.007103 -0.265136 -1.647406
    12 4.148204 31.900686 10.127531 0.281485 -1.130924 -1.826691
    13 -16.873423 9.784609 52.968449 0.000000 0.000000 0.000000
    14 0.020790 5.827109 -0.224471 -1.570796 -1.570796 0.000000
    15 -8.438861 0.038662 0.559093 1.570796 0.000000 1.570796
    16 5.664327 9.038126 28.830690 -1.230457 0.000000 0.000000
    17 -34.710712 -15.133160 78.859528 0.000000 0.000000 0.000000
    18 0.000000 0.217954 -0.009629 0.000000 0.000000 0.000000
    19 -6.579208 0.000000 -0.000001 0.000000 0.000000 0.000000
    20 -14.319741 -15.458982 88.923607 -1.655486 0.445705 -2.888000
    21 11.574886 -2.180909 1.427974 -1.940707 -0.170962 2.830789
    22 34.710712 -15.133160 78.859528 3.141593 0.000000 3.141593
    23 -0.000001 0.217956 0.009627 0.000000 0.000000 0.000000
    24 -6.579209 0.000000 0.000000 0.000000 0.000000 0.000000
    25 14.319743 -15.458982 88.923607 -0.057762 0.445706 -0.253592
    26 11.620371 -2.905373 2.149562 -0.263159 -0.211577 0.098244
    27 8.930669 9.895990 16.516956 -1.178097 0.000000 0.000000
    28 -10.478000 3.596270 -57.675583 0.000000 0.000000 0.000000
    29 20.682631 -0.459138 -0.000003 0.000000 0.000000 0.000000
  time 21
    0 -35.481688 0.000000 34.046600 1.570796 0.000000 1.570796
    1 -26.737438 9.978985 -63.177887 0.007343 -0.264986 -1.495672
    2 -26.847315 6.445414 78.520195 0.268794 0.005643 -3.065482
    3 -4.313085 -13.578558 -57.058857 3.141593 0.000000 3.141593
    4 38.013969 0.147198 -0.193551 3.141593 0.000000 -3.141593
    5 20.686598 0.469208 -0.164128 -3.110653 -0.264987 1.495673
    6 0.016516 -11.367848 70.181595 0.000000 0.000000 0.000000
    7 26.847315 6.445414 78.520195 2.876405 -0.019551 -0.071301
    8 4.313085 -13.578558 -57.058857 0.000000 0.000000 0.000000
    9 38.013966 0.147198 0.193553 3.141593 0.000000 3.141593
    10 20.605600 0.473753 0.167817 -0.024242 0.265136 1.494187
    11 26.690825 9.982033 -63.178242 0.007103 -0.265136 -1.647406
    12 4.156017 32.791338 11.584606 0.281869 -1.123177 -1.826116
    13 -16.873423 9.784609 52.968449 0.000000 0.000000 0.000000
    14 0.020790 5.827109 -0.224471 -1.570796 -1.570796 0.000000
    15 -8.438861 0.038662 0.559093 1.570796 0.000000 1.570796
    16 5.664327 9.038126 28.830690 -1.230457 0.000000 0.000000
    17 -34.710712 -15.133160 78.859528 0.000000 0.000000 0.000000
    18 0.000000 0.217954 -0.009629 0.000000 0.000000 0.000000
    19 -6.579208 0.000000 -0.000001 0.000000 0.000000 0.000000
    20 -14.319741 -15.458982 88.923607 -1.655486 0.445705 -2.888000
    21 11.574886 -2.180909 1.427974 -1.940707 -0.170962 2.830789
    22 34.710712 -15.133160 78.859528 3.141593 0.000000 3.141593
    23 -0.000001 0.217956 0.009627 0.000000 0.000000 0.000000
    24 -6.579209 0.000000 0.000000 0.000000 0.000000 0.000000
    25 14.319743 -15.458982 88.923607 -0.057762 0.445706 -0.253592
    26 11.620371 -2.905373 2.149562 -0.263159 -0.211577 0.098244
    27 8.930669 9.895990 16.516956 -1.178097 0.000000 0.000000
    28 -10.478000 3.596270 -57.675583 0.000000 0.000000 0.000000
    29 20.682631 -0.459138 -0.000003 0.000000 0.000000 0.000000
  time 22
    0 -35.481688 0.000000 34.046600 1.570796 0.000000 1.570796
    1 -26.737438 9.978985 -63.177887 0.007343 -0.264986 -1.495672
    2 -26.847315 6.445414 78.520195 0.268794 0.005643 -3.065482
    3 -4.313085 -13.578558 -57.058857 3.141593 0.000000 3.141593
    4 38.013969 0.147198 -0.193551 3.141593 0.000000 -3.141593
    5 20.686598 0.469208 -0.164128 -3.110653 -0.264987 1.495673
    6 0.016516 -11.367848 70.181595 0.000000 0.000000 0.000000
    7 26.847315 6.445414 78.520195 2.876405 -0.019551 -0.071301
    8 4.313085 -13.578558 -57.058857 0.000000 0.000000 0.000000
    9 38.013966 0.147198 0.193553 3.141593 0.000000 3.141593
    10 20.605600 0.473753 0.167817 -0.024242 0.265136 1.494187
    11 26.690825 9.982033 -63.178242 0.007103 -0.265136 -1.647406
    12 4.171642 33.689803 12.990899 0.281965 -1.120466 -1.825924
    13 -16.873423 9.784609 52.968449 0.000000 0.000000 0.000000
    14 0.020790 5.827109 -0.224471 -1.570796 -1.570796 0.000000
    15 -8.438861 0.038662 0.559093 1.570796 0.000000 1.570796
    16 5.664327 9.038126 28.830690 -1.230457 0.000000 0.000000
    17 -34.710712 -15.133160 78.859528 0.000000 0.000000 0.000000
    18 0.000000 0.217954 -0.009629 0.000000 0.000000 0.000000
    19 -6.579208 0.000000 -0.000001 0.000000 0.000000 0.000000
    20 -14.319741 -15.458982 88.923607 -1.655486 0.445705 -2.888000
    21 11.574886 -2.180909 1.427974 -1.940707 -0.170962 2.830789
    22 34.710712 -15.133160 78.859528 3.141593 0.000000 3.141593
    23 -0.000001 0.217956 0.009627 0.000000 0.000000 0.000000
    24 -6.579209 0.000000 0.000000 0.000000 0.000000 0.000000
    25 14.319743 -15.458982 88.923607 -0.057762 0.445706 -0.253592
    26 11.620371 -2.905373 2.149562 -0.263159 -0.211577 0.098244
    27 8.930669 9.895990 16.516956 -1.178097 0.000000 0.000000
    28 -10.478000 3.596270 -57.675583 0.000000 0.000000 0.000000
    29 20.682631 -0.459138 -0.000003 0.000000 0.000000 0.000000
  time 23
    0 -35.481688 0.000000 34.046600 1.570796 0.000000 1.570796
    1 -26.737438 9.978985 -63.177887 0.007343 -0.264986 -1.495672
    2 -26.847315 6.445414 78.520195 0.268794 0.005643 -3.065482
    3 -4.313085 -13.578558 -57.058857 3.141593 0.000000 3.141593
    4 38.013969 0.147198 -0.193551 3.141593 0.000000 -3.141593
    5 20.686598 0.469208 -0.164128 -3.110653 -0.264987 1.495673
    6 0.016516 -11.367848 70.181595 0.000000 0.000000 0.000000
    7 26.847315 6.445414 78.520195 2.876405 -0.019551 -0.071301
    8 4.313085 -13.578558 -57.058857 0.000000 0.000000 0.000000
    9 38.013966 0.147198 0.193553 3.141593 0.000000 3.141593
    10 20.605600 0.473753 0.167817 -0.024242 0.265136 1.494187
    11 26.690825 9.982033 -63.178242 0.007103 -0.265136 -1.647406
    12 4.198987 34.650770 14.451881 0.281869 -1.122557 -1.826020
    13 -16.873423 9.784609 52.968449 0.000000 0.000000 0.000000
    14 0.020790 5.827109 -0.224471 -1.570796 -1.570796 0.000000
    15 -8.438861 0.038662 0.559093 1.570796 0.000000 1.570796
    16 5.664327 9.038126 28.830690 -1.230457 0.000000 0.000000
    17 -34.710712 -15.133160 78.859528 0.000000 0.000000 0.000000
    18 0.000000 0.217954 -0.009629 0.000000 0.000000 0.000000
    19 -6.579208 0.000000 -0.000001 0.000000 0.000000 0.000000
    20 -14.319741 -15.458982 88.923607 -1.655486 0.445705 -2.888000
    21 11.574886 -2.180909 1.427974 -1.940707 -0.170962 2.830789
    22 34.710712 -15.133160 78.859528 3.141593 0.000000 3.141593
    23 -0.000001 0.217956 0.009627 0.000000 0.000000 0.000000
    24 -6.579209 0.000000 0.000000 0.000000 0.000000 0.000000
    25 14.319743 -15.458982 88.923607 -0.057762 0.445706 -0.253592
    26 11.620371 -2.905373 2.149562 -0.263159 -0.211577 0.098244
    27 8.930669 9.895990 16.516956 -1.178097 0.000000 0.000000
    28 -10.478000 3.596270 -57.675583 0.000000 0.000000 0.000000
    29 20.682631 -0.459138 -0.000003 0.000000 0.000000 0.000000
  time 24
    0 -35.481688 0.000000 34.046600 1.570796 0.000000 1.570796
    1 -26.737438 9.978985 -63.177887 0.007343 -0.264986 -1.495672
    2 -26.847315 6.445414 78.520195 0.268794 0.005643 -3.065482
    3 -4.313085 -13.578558 -57.058857 3.141593 0.000000 3.141593
    4 38.013969 0.147198 -0.193551 3.141593 0.000000 -3.141593
    5 20.686598 0.469208 -0.164128 -3.110653 -0.264987 1.495673
    6 0.016516 -11.367848 70.181595 0.000000 0.000000 0.000000
    7 26.847315 6.445414 78.520195 2.876405 -0.019551 -0.071301
    8 4.313085 -13.578558 -57.058857 0.000000 0.000000 0.000000
    9 38.013966 0.147198 0.193553 3.141593 0.000000 3.141593
    10 20.605600 0.473753 0.167817 -0.024242 0.265136 1.494187
    11 26.690825 9.982033 -63.178242 0.007103 -0.265136 -1.647406
    12 4.234144 35.740647 16.057399 0.281581 -1.128600 -1.826499
    13 -16.873423 9.784609 52.968449 0.000000 0.000000 0.000000
    14 0.020790 5.827109 -0.224471 -1.570796 -1.570796 0.000000
    15 -8.438861 0.038662 0.559093 1.570796 0.000000 1.570796
    16 5.664327 9.038126 28.830690 -1.230457 0.000000 0.000000
    17 -34.710712 -15.133160 78.859528 0.000000 0.000000 0.000000
    18 0.000000 0.217954 -0.009629 0.000000 0.000000 0.000000
    19 -6.579208 0.000000 -0.000001 0.000000 0.000000 0.000000
    20 -14.319741 -15.458982 88.923607 -1.655486 0.445705 -2.888000
    21 11.574886 -2.180909 1.427974 -1.940707 -0.170962 2.830789
    22 34.710712 -15.133160 78.859528 3.141593 0.000000 3.141593
    23 -0.000001 0.217956 0.009627 0.000000 0.000000 0.000000
    24 -6.579209 0.000000 0.000000 0.000000 0.000000 0.000000
    25 14.319743 -15.458982 88.923607 -0.057762 0.445706 -0.253592
    26 11.620371 -2.905373 2.149562 -0.263159 -0.211577 0.098244
    27 8.930669 9.895990 16.516956 -1.178097 0.000000 0.000000
    28 -10.478000 3.596270 -57.675583 0.000000 0.000000 0.000000
    29 20.682631 -0.459138 -0.000003 0.000000 0.000000 0.000000
  time 25
    0 -35.481688 0.000000 34.046600 1.570796 0.000000 1.570796
    1 -26.737438 9.978985 -63.177887 0.007343 -0.264986 -1.495672
    2 -26.847315 6.445414 78.520195 0.268794 0.005643 -3.065482
    3 -4.313085 -13.578558 -57.058857 3.141593 0.000000 3.141593
    4 38.013969 0.147198 -0.193551 3.141593 0.000000 -3.141593
    5 20.686598 0.469208 -0.164128 -3.110653 -0.264987 1.495673
    6 0.016516 -11.367848 70.181595 0.000000 0.000000 0.000000
    7 26.847315 6.445414 78.520195 2.876405 -0.019551 -0.071301
    8 4.313085 -13.578558 -57.058857 0.000000 0.000000 0.000000
    9 38.013966 0.147198 0.193553 3.141593 0.000000 3.141593
    10 20.605600 0.473753 0.167817 -0.024242 0.265136 1.494187
    11 26.690825 9.982033 -63.178242 0.007103 -0.265136 -1.647406
    12 4.277114 36.935996 17.787921 0.281198 -1.138284 -1.827266
    13 -16.873423 9.784609 52.968449 0.000000 0.000000 0.000000
    14 0.020790 5.827109 -0.224471 -1.570796 -1.570796 0.000000
    15 -8.438861 0.038662 0.559093 1.570796 0.000000 1.570796
    16 5.664327 9.038126 28.830690 -1.230457 0.000000 0.000000
    17 -34.710712 -15.133160 78.859528 0.000000 0.000000 0.000000
    18 0.000000 0.217954 -0.009629 0.000000 0.000000 0.000000
    19 -6.579208 0.000000 -0.000001 0.000000 0.000000 0.000000
    20 -14.319741 -15.458982 88.923607 -1.655486 0.445705 -2.888000
    21 11.574886 -2.180909 1.427974 -1.940707 -0.170962 2.830789
    22 34.710712 -15.133160 78.859528 3.141593 0.000000 3.141593
    23 -0.000001 0.217956 0.009627 0.000000 0.000000 0.000000
    24 -6.579209 0.000000 0.000000 0.000000 0.000000 0.000000
    25 14.319743 -15.458982 88.923607 -0.057762 0.445706 -0.253592
    26 11.620371 -2.905373 2.149562 -0.263159 -0.211577 0.098244
    27 8.930669 9.895990 16.516956 -1.178097 0.000000 0.000000
    28 -10.478000 3.596270 -57.675583 0.000000 0.000000 0.000000
    29 20.682631 -0.459138 -0.000003 0.000000 0.000000 0.000000
  time 26
    0 -35.481688 0.000000 34.046600 1.570796 0.000000 1.570796
    1 -26.737438 9.978985 -63.177887 0.007343 -0.264986 -1.495672
    2 -26.847315 6.445414 78.520195 0.268794 0.005643 -3.065482
    3 -4.313085 -13.578558 -57.058857 3.141593 0.000000 3.141593
    4 38.013969 0.147198 -0.193551 3.141593 0.000000 -3.141593
    5 20.686598 0.469208 -0.164128 -3.110653 -0.264987 1.495673
    6 0.016516 -11.367848 70.181595 0.000000 0.000000 0.000000
    7 26.847315 6.445414 78.520195 2.876405 -0.019551 -0.071301
    8 4.313085 -13.578558 -57.058857 0.000000 0.000000 0.000000
    9 38.013966 0.147198 0.193553 3.141593 0.000000 3.141593
    10 20.605600 0.473753 0.167817 -0.024242 0.265136 1.494187
    11 26.690825 9.982033 -63.178242 0.007103 -0.265136 -1.647406
    12 4.331803 38.229004 19.627820 0.280623 -1.151221 -1.828225
    13 -16.873423 9.784609 52.968449 0.000000 0.000000 0.000000
    14 0.020790 5.827109 -0.224471 -1.570796 -1.570796 0.000000
    15 -8.438861 0.038662 0.559093 1.570796 0.000000 1.570796
    16 5.664327 9.038126 28.830690 -1.230457 0.000000 0.000000
    17 -34.710712 -15.133160 78.859528 0.000000 0.000000 0.000000
    18 0.000000 0.217954 -0.009629 0.000000 0.000000 0.000000
    19 -6.579208 0.000000 -0.000001 0.000000 0.000000 0.000000
    20 -14.319741 -15.458982 88.923607 -1.655486 0.445705 -2.888000
    21 11.574886 -2.180909 1.427974 -1.940707 -0.170962 2.830789
    22 34.710712 -15.133160 78.859528 3.141593 0.000000 3.141593
    23 -0.000001 0.217956 0.009627 0.000000 0.000000 0.000000
    24 -6.579209 0.000000 0.000000 0.000000 0.000000 0.000000
    25 14.319743 -15.458982 88.923607 -0.057762 0.445706 -0.253592
    26 11.620371 -2.905373 2.149562 -0.263159 -0.211577 0.098244
    27 8.930669 9.895990 16.516956 -1.178097 0.000000 0.000000
    28 -10.478000 3.596270 -57.675583 0.000000 0.000000 0.000000
    29 20.682631 -0.459138 -0.000003 0.000000 0.000000 0.000000
  time 27
    0 -35.481688 0.000000 34.046600 1.570796 0.000000 1.570796
    1 -26.737438 9.978985 -63.177887 0.007343 -0.264986 -1.495672
    2 -26.847315 6.445414 78.520195 0.268794 0.005643 -3.065482
    3 -4.313085 -13.578558 -57.058857 3.141593 0.000000 3.141593
    4 38.013969 0.147198 -0.193551 3.141593 0.000000 -3.141593
    5 20.686598 0.469208 -0.164128 -3.110653 -0.264987 1.495673
    6 0.016516 -11.367848 70.181595 0.000000 0.000000 0.000000
    7 26.847315 6.445414 78.520195 2.876405 -0.019551 -0.071301
    8 4.313085 -13.578558 -57.058857 0.000000 0.000000 0.000000
    9 38.013966 0.147198 0.193553 3.141593 0.000000 3.141593
    10 20.605600 0.473753 0.167817 -0.024242 0.265136 1.494187
    11 26.690825 9.982033 -63.178242 0.007103 -0.265136 -1.647406
    12 4.390399 39.604046 21.565380 0.280047 -1.167102 -1.829280
    13 -16.873423 9.784609 52.968449 0.000000 0.000000 0.000000
    14 0.020790 5.827109 -0.224471 -1.570796 -1.570796 0.000000
    15 -8.438861 0.038662 0.559093 1.570796 0.000000 1.570796
    16 5.664327 9.038126 28.830690 -1.230457 0.000000 0.000000
    17 -34.710712 -15.133160 78.859528 0.000000 0.000000 0.000000
    18 0.000000 0.217954 -0.009629 0.000000 0.000000 0.000000
    19 -6.579208 0.000000 -0.000001 0.000000 0.000000 0.000000
    20 -14.319741 -15.458982 88.923607 -1.655486 0.445705 -2.888000
    21 11.574886 -2.180909 1.427974 -1.940707 -0.170962 2.830789
    22 34.710712 -15.133160 78.859528 3.141593 0.000000 3.141593
    23 -0.000001 0.217956 0.009627 0.000000 0.000000 0.000000
    24 -6.579209 0.000000 0.000000 0.000000 0.000000 0.000000
    25 14.319743 -15.458982 88.923607 -0.057762 0.445706 -0.253592
    26 11.620371 -2.905373 2.149562 -0.263159 -0.211577 0.098244
    27 8.930669 9.895990 16.516956 -1.178097 0.000000 0.000000
    28 -10.478000 3.596270 -57.675583 0.000000 0.000000 0.000000
    29 20.682631 -0.459138 -0.000003 0.000000 0.000000 0.000000
  time 28
    0 -35.481688 0.000000 34.046600 1.570796 0.000000 1.570796
    1 -26.737438 9.978985 -63.177887 0.007343 -0.264986 -1.495672
    2 -26.847315 6.445414 78.520195 0.268794 0.005643 -3.065482
    3 -4.313085 -13.578558 -57.058857 3.141593 0.000000 3.141593
    4 38.013969 0.147198 -0.193551 3.141593 0.000000 -3.141593
    5 20.686598 0.469208 -0.164128 -3.110653 -0.264987 1.495673
    6 0.016516 -11.367848 70.181595 0.000000 0.000000 0.000000
    7 26.847315 6.445414 78.520195 2.876405 -0.019551 -0.071301
    8 4.313085 -13.578558 -57.058857 0.000000 0.000000 0.000000
    9 38.013966 0.147198 0.193553 3.141593 0.000000 3.141593
    10 20.605600 0.473753 0.167817 -0.024242 0.265136 1.494187
    11 26.690825 9.982033 -63.178242 0.007103 -0.265136 -1.647406
    12 4.456807 41.049402 23.573253 0.279280 -1.185618 -1.830622
    13 -16.873423 9.784609 52.968449 0.000000 0.000000 0.000000
    14 0.020790 5.827109 -0.224471 -1.570796 -1.570796 0.000000
    15 -8.438861 0.038662 0.559093 1.570796 0.000000 1.570796
    16 5.664327 9.038126 28.830690 -1.230457 0.000000 0.000000
    17 -34.710712 -15.133160 78.859528 0.000000 0.000000 0.000000
    18 0.000000 0.217954 -0.009629 0.000000 0.000000 0.000000
    19 -6.579208 0.000000 -0.000001 0.000000 0.000000 0.000000
    20 -14.319741 -15.458982 88.923607 -1.655486 0.445705 -2.888000
    21 11.574886 -2.180909 1.427974 -1.940707 -0.170962 2.830789
    22 34.710712 -15.133160 78.859528 3.141593 0.000000 3.141593
    23 -0.000001 0.217956 0.009627 0.000000 0.000000 0.000000
    24 -6.579209 0.000000 0.000000 0.000000 0.000000 0.000000
    25 14.319743 -15.458982 88.923607 -0.057762 0.445706 -0.253592
    26 11.620371 -2.905373 2.149562 -0.263159 -0.211577 0.098244
    27 8.930669 9.895990 16.516956 -1.178097 0.000000 0.000000
    28 -10.478000 3.596270 -57.675583 0.000000 0.000000 0.000000
    29 20.682631 -0.459138 -0.000003 0.000000 0.000000 0.000000
  time 29
    0 -35.481688 0.000000 34.046600 1.570796 0.000000 1.570796
    1 -26.737438 9.978985 -63.177887 0.007343 -0.264986 -1.495672
    2 -26.847315 6.445414 78.520195 0.268794 0.005643 -3.065482
    3 -4.313085 -13.578558 -57.058857 3.141593 0.000000 3.141593
    4 38.013969 0.147198 -0.193551 3.141593 0.000000 -3.141593
    5 20.686598 0.469208 -0.164128 -3.110653 -0.264987 1.495673
    6 0.016516 -11.367848 70.181595 0.000000 0.000000 0.000000
    7 26.847315 6.445414 78.520195 2.876405 -0.019551 -0.071301
    8 4.313085 -13.578558 -57.058857 0.000000 0.000000 0.000000
    9 38.013966 0.147198 0.193553 3.141593 0.000000 3.141593
    10 20.605600 0.473753 0.167817 -0.024242 0.265136 1.494187
    11 26.690825 9.982033 -63.178242 0.007103 -0.265136 -1.647406
    12 4.527122 42.545542 25.643629 0.278609 -1.206302 -1.831868
    13 -16.873423 9.784609 52.968449 0.000000 0.000000 0.000000
    14 0.020790 5.827109 -0.224471 -1.570796 -1.570796 0.000000
    15 -8.438861 0.038662 0.559093 1.570796 0.000000 1.570796
    16 5.664327 9.038126 28.830690 -1.230457 0.000000 0.000000
    17 -34.710712 -15.133160 78.859528 0.000000 0.000000 0.000000
    18 0.000000 0.217954 -0.009629 0.000000 0.000000 0.000000
    19 -6.579208 0.000000 -0.000001 0.000000 0.000000 0.000000
    20 -14.319741 -15.458982 88.923607 -1.655486 0.445705 -2.888000
    21 11.574886 -2.180909 1.427974 -1.940707 -0.170962 2.830789
    22 34.710712 -15.133160 78.859528 3.141593 0.000000 3.141593
    23 -0.000001 0.217956 0.009627 0.000000 0.000000 0.000000
    24 -6.579209 0.000000 0.000000 0.000000 0.000000 0.000000
    25 14.319743 -15.458982 88.923607 -0.057762 0.445706 -0.253592
    26 11.620371 -2.905373 2.149562 -0.263159 -0.211577 0.098244
    27 8.930669 9.895990 16.516956 -1.178097 0.000000 0.000000
    28 -10.478000 3.596270 -57.675583 0.000000 0.000000 0.000000
    29 20.682631 -0.459138 -0.000003 0.000000 0.000000 0.000000
  time 30
    0 -35.481688 0.000000 34.046600 1.570796 0.000000 1.570796
    1 -26.737438 9.978985 -63.177887 0.007343 -0.264986 -1.495672
    2 -26.847315 6.445414 78.520195 0.268794 0.005643 -3.065482
    3 -4.313085 -13.578558 -57.058857 3.141593 0.000000 3.141593
    4 38.013969 0.147198 -0.193551 3.141593 0.000000 -3.141593
    5 20.686598 0.469208 -0.164128 -3.110653 -0.264987 1.495673
    6 0.016516 -11.367848 70.181595 0.000000 0.000000 0.000000
    7 26.847315 6.445414 78.520195 2.876405 -0.019551 -0.071301
    8 4.313085 -13.578558 -57.058857 0.000000 0.000000 0.000000
    9 38.013966 0.147198 0.193553 3.141593 0.000000 3.141593
    10 20.605600 0.473753 0.167817 -0.024242 0.265136 1.494187
    11 26.690825 9.982033 -63.178242 0.007103 -0.265136 -1.647406
    12 4.601343 44.080745 27.753068 0.277842 -1.229000 -1.833306
    13 -16.873423 9.784609 52.968449 0.000000 0.000000 0.000000
    14 0.020790 5.827109 -0.224471 -1.570796 -1.570796 0.000000
    15 -8.438861 0.038662 0.559093 1.570796 0.000000 1.570796
    16 5.664327 9.038126 28.830690 -1.230457 0.000000 0.000000
    17 -34.710712 -15.133160 78.859528 0.000000 0.000000 0.000000
    18 0.000000 0.217954 -0.009629 0.000000 0.000000 0.000000
    19 -6.579208 0.000000 -0.000001 0.000000 0.000000 0.000000
    20 -14.319741 -15.458982 88.923607 -1.655486 0.445705 -2.888000
    21 11.574886 -2.180909 1.427974 -1.940707 -0.170962 2.830789
    22 34.710712 -15.133160 78.859528 3.141593 0.000000 3.141593
    23 -0.000001 0.217956 0.009627 0.000000 0.000000 0.000000
    24 -6.579209 0.000000 0.000000 0.000000 0.000000 0.000000
    25 14.319743 -15.458982 88.923607 -0.057762 0.445706 -0.253592
    26 11.620371 -2.905373 2.149562 -0.263159 -0.211577 0.098244
    27 8.930669 9.895990 16.516956 -1.178097 0.000000 0.000000
    28 -10.478000 3.596270 -57.675583 0.000000 0.000000 0.000000
    29 20.682631 -0.459138 -0.000003 0.000000 0.000000 0.000000
  time 31
    0 -35.481688 0.000000 34.046600 1.570796 0.000000 1.570796
    1 -26.737438 9.978985 -63.177887 0.007343 -0.264986 -1.495672
    2 -26.847315 6.445414 78.520195 0.268794 0.005643 -3.065482
    3 -4.313085 -13.578558 -57.058857 3.141593 0.000000 3.141593
    4 38.013969 0.147198 -0.193551 3.141593 0.000000 -3.141593
    5 20.686598 0.469208 -0.164128 -3.110653 -0.264987 1.495673
    6 0.016516 -11.367848 70.181595 0.000000 0.000000 0.000000
    7 26.847315 6.445414 78.520195 2.876405 -0.019551 -0.071301
    8 4.313085 -13.578558 -57.058857 0.000000 0.000000 0.000000
    9 38.013966 0.147198 0.193553 3.141593 0.000000 3.141593
    10 20.605600 0.473753 0.167817 -0.024242 0.265136 1.494187
    11 26.690825 9.982033 -63.178242 0.007103 -0.265136 -1.647406
    12 4.675564 45.647199 29.882040 0.277075 -1.253171 -1.834649
    13 -16.873423 9.784609 52.968449 0.000000 0.000000 0.000000
    14 0.020790 5.827109 -0.224471 -1.570796 -1.570796 0.000000
    15 -8.438861 0.038662 0.559093 1.570796 0.000000 1.570796
    16 5.664327 9.038126 28.830690 -1.230457 0.000000 0.000000
    17 -34.710712 -15.133160 78.859528 0.000000 0.000000 0.000000
    18 0.000000 0.217954 -0.009629 0.000000 0.000000 0.000000
    19 -6.579208 0.000000 -0.000001 0.000000 0.000000 0.000000
    20 -14.319741 -15.458982 88.923607 -1.655486 0.445705 -2.888000
    21 11.574886 -2.180909 1.427974 -1.940707 -0.170962 2.830789
    22 34.710712 -15.133160 78.859528 3.141593 0.000000 3.141593
    23 -0.000001 0.217956 0.009627 0.000000 0.000000 0.000000
    24 -6.579209 0.000000 0.000000 0.000000 0.000000 0.000000
    25 14.319743 -15.458982 88.923607 -0.057762 0.445706 -0.253592
    26 11.620371 -2.905373 2.149562 -0.263159 -0.211577 0.098244
    27 8.930669 9.895990 16.516956 -1.178097 0.000000 0.000000
    28 -10.478000 3.596270 -57.675583 0.000000 0.000000 0.000000
    29 20.682631 -0.459138 -0.000003 0.000000 0.000000 0.000000
  time 32
    0 -35.481688 0.000000 34.046600 1.570796 0.000000 1.570796
    1 -26.737438 9.978985 -63.177887 0.007343 -0.264986 -1.495672
    2 -26.847315 6.445414 78.520195 0.268794 0.005643 -3.065482
    3 -4.313085 -13.578558 -57.058857 3.141593 0.000000 3.141593
    4 38.013969 0.147198 -0.193551 3.141593 0.000000 -3.141593
    5 20.686598 0.469208 -0.164128 -3.110653 -0.264987 1.495673
    6 0.016516 -11.367848 70.181595 0.000000 0.000000 0.000000
    7 26.847315 6.445414 78.520195 2.876405 -0.019551 -0.071301
    8 4.313085 -13.578558 -57.058857 0.000000 0.000000 0.000000
    9 38.013966 0.147198 0.193553 3.141593 0.000000 3.141593
    10 20.605600 0.473753 0.167817 -0.024242 0.265136 1.494187
    11 26.690825 9.982033 -63.178242 0.007103 -0.265136 -1.647406
    12 4.757597 47.221466 32.018824 0.276308 -1.278581 -1.835895
    13 -16.873423 9.784609 52.968449 0.000000 0.000000 0.000000
    14 0.020790 5.827109 -0.224471 -1.570796 -1.570796 0.000000
    15 -8.438861 0.038662 0.559093 1.570796 0.000000 1.570796
    16 5.664327 9.038126 28.830690 -1.230457 0.000000 0.000000
    17 -34.710712 -15.133160 78.859528 0.000000 0.000000 0.000000
    18 0.000000 0.217954 -0.009629 0.000000 0.000000 0.000000
    19 -6.579208 0.000000 -0.000001 0.000000 0.000000 0.000000
    20 -14.319741 -15.458982 88.923607 -1.655486 0.445705 -2.888000
    21 11.574886 -2.180909 1.427974 -1.940707 -0.170962 2.830789
    22 34.710712 -15.133160 78.859528 3.141593 0.000000 3.141593
    23 -0.000001 0.217956 0.009627 0.000000 0.000000 0.000000
    24 -6.579209 0.000000 0.000000 0.000000 0.000000 0.000000
    25 14.319743 -15.458982 88.923607 -0.057762 0.445706 -0.253592
    26 11.620371 -2.905373 2.149562 -0.263159 -0.211577 0.098244
    27 8.930669 9.895990 16.516956 -1.178097 0.000000 0.000000
    28 -10.478000 3.596270 -57.675583 0.000000 0.000000 0.000000
    29 20.682631 -0.459138 -0.000003 0.000000 0.000000 0.000000
  time 33
    0 -35.481688 0.000000 34.046600 1.570796 0.000000 1.570796
    1 -26.737438 9.978985 -63.177887 0.007343 -0.264986 -1.495672
    2 -26.847315 6.445414 78.520195 0.268794 0.005643 -3.065482
    3 -4.313085 -13.578558 -57.058857 3.141593 0.000000 3.141593
    4 38.013969 0.147198 -0.193551 3.141593 0.000000 -3.141593
    5 20.686598 0.469208 -0.164128 -3.110653 -0.264987 1.495673
    6 0.016516 -11.367848 70.181595 0.000000 0.000000 0.000000
    7 26.847315 6.445414 78.520195 2.876405 -0.019551 -0.071301
    8 4.313085 -13.578558 -57.058857 0.000000 0.000000 0.000000
    9 38.013966 0.147198 0.193553 3.141593 0.000000 3.141593
    10 20.605600 0.473753 0.167817 -0.024242 0.265136 1.494187
    11 26.690825 9.982033 -63.178242 0.007103 -0.265136 -1.647406
    12 4.835725 48.795733 34.143888 0.275637 -1.304921 -1.837142
    13 -16.873423 9.784609 52.968449 0.000000 0.000000 0.000000
    14 0.020790 5.827109 -0.224471 -1.570796 -1.570796 0.000000
    15 -8.438861 0.038662 0.559093 1.570796 0.000000 1.570796
    16 5.664327 9.038126 28.830690 -1.230457 0.000000 0.000000
    17 -34.710712 -15.133160 78.859528 0.000000 0.000000 0.000000
    18 0.000000 0.217954 -0.009629 0.000000 0.000000 0.000000
    19 -6.579208 0.000000 -0.000001 0.000000 0.000000 0.000000
    20 -14.319741 -15.458982 88.923607 -1.655486 0.445705 -2.888000
    21 11.574886 -2.180909 1.427974 -1.940707 -0.170962 2.830789
    22 34.710712 -15.133160 78.859528 3.141593 0.000000 3.141593
    23 -0.000001 0.217956 0.009627 0.000000 0.000000 0.000000
    24 -6.579209 0.000000 0.000000 0.000000 0.000000 0.000000
    25 14.319743 -15.458982 88.923607 -0.057762 0.445706 -0.253592
    26 11.620371 -2.905373 2.149562 -0.263159 -0.211577 0.098244
    27 8.930669 9.895990 16.516956 -1.178097 0.000000 0.000000
    28 -10.478000 3.596270 -57.675583 0.000000 0.000000 0.000000
    29 20.682631 -0.459138 -0.000003 0.000000 0.000000 0.000000
  time 34
    0 -35.481688 0.000000 34.046600 1.570796 0.000000 1.570796
    1 -26.737438 9.978985 -63.177887 0.007343 -0.264986 -1.495672
    2 -26.847315 6.445414 78.520195 0.268794 0.005643 -3.065482
    3 -4.313085 -13.578558 -57.058857 3.141593 0.000000 3.141593
    4 38.013969 0.147198 -0.193551 3.141593 0.000000 -3.141593
    5 20.686598 0.469208 -0.164128 -3.110653 -0.264987 1.495673
    6 0.016516 -11.367848 70.181595 0.000000 0.000000 0.000000
    7 26.847315 6.445414 78.520195 2.876405 -0.019551 -0.071301
    8 4.313085 -13.578558 -57.058857 0.000000 0.000000 0.000000
    9 38.013966 0.147198 0.193553 3.141593 0.000000 3.141593
    10 20.605600 0.473753 0.167817 -0.024242 0.265136 1.494187
    11 26.690825 9.982033 -63.178242 0.007103 -0.265136 -1.647406
    12 4.917759 50.354374 36.241609 0.274966 -1.331725 -1.838292
    13 -16.873423 9.784609 52.968449 0.000000 0.000000 0.000000
    14 0.020790 5.827109 -0.224471 -1.570796 -1.570796 0.000000
    15 -8.438861 0.038662 0.559093 1.570796 0.000000 1.570796
    16 5.664327 9.038126 28.830690 -1.230457 0.000000 0.000000
    17 -34.710712 -15.133160 78.859528 0.000000 0.000000 0.000000
    18 0.000000 0.217954 -0.009629 0.000000 0.000000 0.000000
    19 -6.579208 0.000000 -0.000001 0.000000 0.000000 0.000000
    20 -14.319741 -15.458982 88.923607 -1.655486 0.445705 -2.888000
    21 11.574886 -2.180909 1.427974 -1.940707 -0.170962 2.830789
    22 34.710712 -15.133160 78.859528 3.141593 0.000000 3.141593
    23 -0.000001 0.217956 0.009627 0.000000 0.000000 0.000000
    24 -6.579209 0.000000 0.000000 0.000000 0.000000 0.000000
    25 14.319743 -15.458982 88.923607 -0.057762 0.445706 -0.253592
    26 11.620371 -2.905373 2.149562 -0.263159 -0.211577 0.098244
    27 8.930669 9.895990 16.516956 -1.178097 0.000000 0.000000
    28 -10.478000 3.596270 -57.675583 0.000000 0.000000 0.000000
    29 20.682631 -0.459138 -0.000003 0.000000 0.000000 0.000000
  time 35
    0 -35.481688 0.000000 34.046600 1.570796 0.000000 1.570796
    1 -26.737438 9.978985 -63.177887 0.007343 -0.264986 -1.495672
    2 -26.847315 6.445414 78.520195 0.268794 0.005643 -3.065482
    3 -4.313085 -13.578558 -57.058857 3.141593 0.000000 3.141593
    4 38.013969 0.147198 -0.193551 3.141593 0.000000 -3.141593
    5 20.686598 0.469208 -0.164128 -3.110653 -0.264987 1.495673
    6 0.016516 -11.367848 70.181595 0.000000 0.000000 0.000000
    7 26.847315 6.445414 78.520195 2.876405 -0.019551 -0.071301
    8 4.313085 -13.578558 -57.058857 0.000000 0.000000 0.000000
    9 38.013966 0.147198 0.193553 3.141593 0.000000 3.141593
    10 20.605600 0.473753 0.167817 -0.024242 0.265136 1.494187
    11 26.690825 9.982033 -63.178242 0.007103 -0.265136 -1.647406
    12 4.999792 51.885671 38.292453 0.274391 -1.358762 -1.839347
    13 -16.873423 9.784609 52.968449 0.000000 0.000000 0.000000
    14 0.020790 5.827109 -0.224471 -1.570796 -1.570796 0.000000
    15 -8.438861 0.038662 0.559093 1.570796 0.000000 1.570796
    16 5.664327 9.038126 28.830690 -1.230457 0.000000 0.000000
    17 -34.710712 -15.133160 78.859528 0.000000 0.000000 0.000000
    18 0.000000 0.217954 -0.009629 0.000000 0.000000 0.000000
    19 -6.579208 0.000000 -0.000001 0.000000 0.000000 0.000000
    20 -14.319741 -15.458982 88.923607 -1.655486 0.445705 -2.888000
    21 11.574886 -2.180909 1.427974 -1.940707 -0.170962 2.830789
    22 34.710712 -15.133160 78.859528 3.141593 0.000000 3.141593
    23 -0.000001 0.217956 0.009627 0.000000 0.000000 0.000000
    24 -6.579209 0.000000 0.000000 0.000000 0.000000 0.000000
    25 14.319743 -15.458982 88.923607 -0.057762 0.445706 -0.253592
    26 11.620371 -2.905373 2.149562 -0.263159 -0.211577 0.098244
    27 8.930669 9.895990 16.516956 -1.178097 0.000000 0.000000
    28 -10.478000 3.596270 -57.675583 0.000000 0.000000 0.000000
    29 20.682631 -0.459138 -0.000003 0.000000 0.000000 0.000000
  time 36
    0 -35.481688 0.000000 34.046600 1.570796 0.000000 1.570796
    1 -26.737438 9.978985 -63.177887 0.007343 -0.264986 -1.495672
    2 -26.847315 6.445414 78.520195 0.268794 0.005643 -3.065482
    3 -4.313085 -13.578558 -57.058857 3.141593 0.000000 3.141593
    4 38.013969 0.147198 -0.193551 3.141593 0.000000 -3.141593
    5 20.686598 0.469208 -0.164128 -3.110653 -0.264987 1.495673
    6 0.016516 -11.367848 70.181595 0.000000 0.000000 0.000000
    7 26.847315 6.445414 78.520195 2.876405 -0.019551 -0.071301
    8 4.313085 -13.578558 -57.058857 0.000000 0.000000 0.000000
    9 38.013966 0.147198 0.193553 3.141593 0.000000 3.141593
    10 20.605600 0.473753 0.167817 -0.024242 0.265136 1.494187
    11 26.690825 9.982033 -63.178242 0.007103 -0.265136 -1.647406
    12 5.077920 53.373997 40.276888 0.273911 -1.385644 -1.840210
    13 -16.873423 9.784609 52.968449 0.000000 0.000000 0.000000
    14 0.020790 5.827109 -0.224471 -1.570796 -1.570796 0.000000
    15 -8.438861 0.038662 0.559093 1.570796 0.000000 1.570796
    16 5.664327 9.038126 28.830690 -1.230457 0.000000 0.000000
    17 -34.710712 -15.133160 78.859528 0.000000 0.000000 0.000000
    18 0.000000 0.217954 -0.009629 0.000000 0.000000 0.000000
    19 -6.579208 0.000000 -0.000001 0.000000 0.000000 0.000000
    20 -14.319741 -15.458982 88.923607 -1.655486 0.445705 -2.888000
    21 11.574886 -2.180909 1.427974 -1.940707 -0.170962 2.830789
    22 34.710712 -15.133160 78.859528 3.141593 0.000000 3.141593
    23 -0.000001 0.217956 0.009627 0.000000 0.000000 0.000000
    24 -6.579209 0.000000 0.000000 0.000000 0.000000 0.000000
    25 14.319743 -15.458982 88.923607 -0.057762 0.445706 -0.253592
    26 11.620371 -2.905373 2.149562 -0.263159 -0.211577 0.098244
    27 8.930669 9.895990 16.516956 -1.178097 0.000000 0.000000
    28 -10.478000 3.596270 -57.675583 0.000000 0.000000 0.000000
    29 20.682631 -0.459138 -0.000003 0.000000 0.000000 0.000000
  time 37
    0 -35.481688 0.000000 34.046600 1.570796 0.000000 1.570796
    1 -26.737438 9.978985 -63.177887 0.007343 -0.264986 -1.495672
    2 -26.847315 6.445414 78.520195 0.268794 0.005643 -3.065482
    3 -4.313085 -13.578558 -57.058857 3.141593 0.000000 3.141593
    4 38.013969 0.147198 -0.193551 3.141593 0.000000 -3.141593
    5 20.686598 0.469208 -0.164128 -3.110653 -0.264987 1.495673
    6 0.016516 -11.367848 70.181595 0.000000 0.000000 0.000000
    7 26.847315 6.445414 78.520195 2.876405 -0.019551 -0.071301
    8 4.313085 -13.578558 -57.058857 0.000000 0.000000 0.000000
    9 38.013966 0.147198 0.193553 3.141593 0.000000 3.141593
    10 20.605600 0.473753 0.167817 -0.024242 0.265136 1.494187
    11 26.690825 9.982033 -63.178242 0.007103 -0.265136 -1.647406
    12 5.156047 54.803728 42.183196 0.273432 -1.411983 -1.840977
    13 -16.873423 9.784609 52.968449 0.000000 0.000000 0.000000
    14 0.020790 5.827109 -0.224471 -1.570796 -1.570796 0.000000
    15 -8.438861 0.038662 0.559093 1.570796 0.000000 1.570796
    16 5.664327 9.038126 28.830690 -1.230457 0.000000 0.000000
    17 -34.710712 -15.133160 78.859528 0.000000 0.000000 0.000000
    18 0.000000 0.217954 -0.009629 0.000000 0.000000 0.000000
    19 -6.579208 0.000000 -0.000001 0.000000 0.000000 0.000000
    20 -14.319741 -15.458982 88.923607 -1.655486 0.445705 -2.888000
    21 11.574886 -2.180909 1.427974 -1.940707 -0.170962 2.830789
    22 34.710712 -15.133160 78.859528 3.141593 0.000000 3.141593
    23 -0.000001 0.217956 0.009627 0.000000 0.000000 0.000000
    24 -6.579209 0.000000 0.000000 0.000000 0.000000 0.000000
    25 14.319743 -15.458982 88.923607 -0.057762 0.445706 -0.253592
    26 11.620371 -2.905373 2.149562 -0.263159 -0.211577 0.098244
    27 8.930669 9.895990 16.516956 -1.178097 0.000000 0.000000
    28 -10.478000 3.596270 -57.675583 0.000000 0.000000 0.000000
    29 20.682631 -0.459138 -0.000003 0.000000 0.000000 0.000000
  time 38
    0 -35.481688 0.000000 34.046600 1.570796 0.000000 1.570796
    1 -26.737438 9.978985 -63.177887 0.007343 -0.264986 -1.495672
    2 -26.847315 6.445414 78.520195 0.268794 0.005643 -3.065482
    3 -4.313085 -13.578558 -57.058857 3.141593 0.000000 3.141593
    4 38.013969 0.147198 -0.193551 3.141593 0.000000 -3.141593
    5 20.686598 0.469208 -0.164128 -3.110653 -0.264987 1.495673
    6 0.016516 -11.367848 70.181595 0.000000 0.000000 0.000000
    7 26.847315 6.445414 78.520195 2.876405 -0.019551 -0.071301
    8 4.313085 -13.578558 -57.058857 0.000000 0.000000 0.000000
    9 38.013966 0.147198 0.193553 3.141593 0.000000 3.141593
    10 20.605600 0.473753 0.167817 -0.024242 0.265136 1.494187
    11 26.690825 9.982033 -63.178242 0.007103 -0.265136 -1.647406
    12 5.230268 56.163145 43.987939 0.273144 -1.437471 -1.841648
    13 -16.873423 9.784609 52.968449 0.000000 0.000000 0.000000
    14 0.020790 5.827109 -0.224471 -1.570796 -1.570796 0.000000
    15 -8.438861 0.038662 0.559093 1.570796 0.000000 1.570796
    16 5.664327 9.038126 28.830690 -1.230457 0.000000 0.000000
    17 -34.710712 -15.133160 78.859528 0.000000 0.000000 0.000000
    18 0.000000 0.217954 -0.009629 0.000000 0.000000 0.000000
    19 -6.579208 0.000000 -0.000001 0.000000 0.000000 0.000000
    20 -14.319741 -15.458982 88.923607 -1.655486 0.445705 -2.888000
    21 11.574886 -2.180909 1.427974 -1.940707 -0.170962 2.830789
    22 34.710712 -15.133160 78.859528 3.141593 0.000000 3.141593
    23 -0.000001 0.217956 0.009627 0.000000 0.000000 0.000000
    24 -6.579209 0.000000 0.000000 0.000000 0.000000 0.000000
    25 14.319743 -15.458982 88.923607 -0.057762 0.445706 -0.253592
    26 11.620371 -2.905373 2.149562 -0.263159 -0.211577 0.098244
    27 8.930669 9.895990 16.516956 -1.178097 0.000000 0.000000
    28 -10.478000 3.596270 -57.675583 0.000000 0.000000 0.000000
    29 20.682631 -0.459138 -0.000003 0.000000 0.000000 0.000000
  time 39
    0 -35.481688 0.000000 34.046600 1.570796 0.000000 1.570796
    1 -26.737438 9.978985 -63.177887 0.007343 -0.264986 -1.495672
    2 -26.847315 6.445414 78.520195 0.268794 0.005643 -3.065482
    3 -4.313085 -13.578558 -57.058857 3.141593 0.000000 3.141593
    4 38.013969 0.147198 -0.193551 3.141593 0.000000 -3.141593
    5 20.686598 0.469208 -0.164128 -3.110653 -0.264987 1.495673
    6 0.016516 -11.367848 70.181595 0.000000 0.000000 0.000000
    7 26.847315 6.445414 78.520195 2.876405 -0.019551 -0.071301
    8 4.313085 -13.578558 -57.058857 0.000000 0.000000 0.000000
    9 38.013966 0.147198 0.193553 3.141593 0.000000 3.141593
    10 20.605600 0.473753 0.167817 -0.024242 0.265136 1.494187
    11 26.690825 9.982033 -63.178242 0.007103 -0.265136 -1.647406
    12 5.300583 57.440528 45.679397 0.272857 -1.461796 -1.842127
    13 -16.873423 9.784609 52.968449 0.000000 0.000000 0.000000
    14 0.020790 5.827109 -0.224471 -1.570796 -1.570796 0.000000
    15 -8.438861 0.038662 0.559093 1.570796 0.000000 1.570796
    16 5.664327 9.038126 28.830690 -1.230457 0.000000 0.000000
    17 -34.710712 -15.133160 78.859528 0.000000 0.000000 0.000000
    18 0.000000 0.217954 -0.009629 0.000000 0.000000 0.000000
    19 -6.579208 0.000000 -0.000001 0.000000 0.000000 0.000000
    20 -14.319741 -15.458982 88.923607 -1.655486 0.445705 -2.888000
    21 11.574886 -2.180909 1.427974 -1.940707 -0.170962 2.830789
    22 34.710712 -15.133160 78.859528 3.141593 0.000000 3.141593
    23 -0.000001 0.217956 0.009627 0.000000 0.000000 0.000000
    24 -6.579209 0.000000 0.000000 0.000000 0.000000 0.000000
    25 14.319743 -15.458982 88.923607 -0.057762 0.445706 -0.253592
    26 11.620371 -2.905373 2.149562 -0.263159 -0.211577 0.098244
    27 8.930669 9.895990 16.516956 -1.178097 0.000000 0.000000
    28 -10.478000 3.596270 -57.675583 0.000000 0.000000 0.000000
    29 20.682631 -0.459138 -0.000003 0.000000 0.000000 0.000000
  time 40
    0 -35.481688 0.000000 34.046600 1.570796 0.000000 1.570796
    1 -26.737438 9.978985 -63.177887 0.007343 -0.264986 -1.495672
    2 -26.847315 6.445414 78.520195 0.268794 0.005643 -3.065482
    3 -4.313085 -13.578558 -57.058857 3.141593 0.000000 3.141593
    4 38.013969 0.147198 -0.193551 3.141593 0.000000 -3.141593
    5 20.686598 0.469208 -0.164128 -3.110653 -0.264987 1.495673
    6 0.016516 -11.367848 70.181595 0.000000 0.000000 0.000000
    7 26.847315 6.445414 78.520195 2.876405 -0.019551 -0.071301
    8 4.313085 -13.578558 -57.058857 0.000000 0.000000 0.000000
    9 38.013966 0.147198 0.193553 3.141593 0.000000 3.141593
    10 20.605600 0.473753 0.167817 -0.024242 0.265136 1.494187
    11 26.690825 9.982033 -63.178242 0.007103 -0.265136 -1.647406
    12 5.366991 58.616345 47.234132 0.272665 -1.484495 -1.842511
    13 -16.873423 9.784609 52.968449 0.000000 0.000000 0.000000
    14 0.020790 5.827109 -0.224471 -1.570796 -1.570796 0.000000
    15 -8.438861 0.038662 0.559093 1.570796 0.000000 1.570796
    16 5.664327 9.038126 28.830690 -1.230457 0.000000 0.000000
    17 -34.710712 -15.133160 78.859528 0.000000 0.000000 0.000000
    18 0.000000 0.217954 -0.009629 0.000000 0.000000 0.000000
    19 -6.579208 0.000000 -0.000001 0.000000 0.000000 0.000000
    20 -14.319741 -15.458982 88.923607 -1.655486 0.445705 -2.888000
    21 11.574886 -2.180909 1.427974 -1.940707 -0.170962 2.830789
    22 34.710712 -15.133160 78.859528 3.141593 0.000000 3.141593
    23 -0.000001 0.217956 0.009627 0.000000 0.000000 0.000000
    24 -6.579209 0.000000 0.000000 0.000000 0.000000 0.000000
    25 14.319743 -15.458982 88.923607 -0.057762 0.445706 -0.253592
    26 11.620371 -2.905373 2.149562 -0.263159 -0.211577 0.098244
    27 8.930669 9.895990 16.516956 -1.178097 0.000000 0.000000
    28 -10.478000 3.596270 -57.675583 0.000000 0.000000 0.000000
    29 20.682631 -0.459138 -0.000003 0.000000 0.000000 0.000000
  time 41
    0 -35.481688 0.000000 34.046600 1.570796 0.000000 1.570796
    1 -26.737438 9.978985 -63.177887 0.007343 -0.264986 -1.495672
    2 -26.847315 6.445414 78.520195 0.268794 0.005643 -3.065482
    3 -4.313085 -13.578558 -57.058857 3.141593 0.000000 3.141593
    4 38.013969 0.147198 -0.193551 3.141593 0.000000 -3.141593
    5 20.686598 0.469208 -0.164128 -3.110653 -0.264987 1.495673
    6 0.016516 -11.367848 70.181595 0.000000 0.000000 0.000000
    7 26.847315 6.445414 78.520195 2.876405 -0.019551 -0.071301
    8 4.313085 -13.578558 -57.058857 0.000000 0.000000 0.000000
    9 38.013966 0.147198 0.193553 3.141593 0.000000 3.141593
    10 20.605600 0.473753 0.167817 -0.024242 0.265136 1.494187
    11 26.690825 9.982033 -63.178242 0.007103 -0.265136 -1.647406
    12 5.425587 59.682784 48.640425 0.272473 -1.505334 -1.842702
    13 -16.873423 9.784609 52.968449 0.000000 0.000000 0.000000
    14 0.020790 5.827109 -0.224471 -1.570796 -1.570796 0.000000
    15 -8.438861 0.038662 0.559093 1.570796 0.000000 1.570796
    16 5.664327 9.038126 28.830690 -1.230457 0.000000 0.000000
    17 -34.710712 -15.133160 78.859528 0.000000 0.000000 0.000000
    18 0.000000 0.217954 -0.009629 0.000000 0.000000 0.000000
    19 -6.579208 0.000000 -0.000001 0.000000 0.000000 0.000000
    20 -14.319741 -15.458982 88.923607 -1.655486 0.445705 -2.888000
    21 11.574886 -2.180909 1.427974 -1.940707 -0.170962 2.830789
    22 34.710712 -15.133160 78.859528 3.141593 0.000000 3.141593
    23 -0.000001 0.217956 0.009627 0.000000 0.000000 0.000000
    24 -6.579209 0.000000 0.000000 0.000000 0.000000 0.000000
    25 14.319743 -15.458982 88.923607 -0.057762 0.445706 -0.253592
    26 11.620371 -2.905373 2.149562 -0.263159 -0.211577 0.098244
    27 8.930669 9.895990 16.516956 -1.178097 0.000000 0.000000
    28 -10.478000 3.596270 -57.675583 0.000000 0.000000 0.000000
    29 20.682631 -0.459138 -0.000003 0.000000 0.000000 0.000000
  time 42
    0 -35.481688 0.000000 34.046600 1.570796 0.000000 1.570796
    1 -26.737438 9.978985 -63.177887 0.007343 -0.264986 -1.495672
    2 -26.847315 6.445414 78.520195 0.268794 0.005643 -3.065482
    3 -4.313085 -13.578558 -57.058857 3.141593 0.000000 3.141593
    4 38.013969 0.147198 -0.193551 3.141593 0.000000 -3.141593
    5 20.686598 0.469208 -0.164128 -3.110653 -0.264987 1.495673
    6 0.016516 -11.367848 70.181595 0.000000 0.000000 0.000000
    7 26.847315 6.445414 78.520195 2.876405 -0.019551 -0.071301
    8 4.313085 -13.578558 -57.058857 0.000000 0.000000 0.000000
    9 38.013966 0.147198 0.193553 3.141593 0.000000 3.141593
    10 20.605600 0.473753 0.167817 -0.024242 0.265136 1.494187
    11 26.690825 9.982033 -63.178242 0.007103 -0.265136 -1.647406
    12 5.480276 60.624219 49.874837 0.272377 -1.523927 -1.842894
    13 -16.873423 9.784609 52.968449 0.000000 0.000000 0.000000
    14 0.020790 5.827109 -0.224471 -1.570796 -1.570796 0.000000
    15 -8.438861 0.038662 0.559093 1.570796 0.000000 1.570796
    16 5.664327 9.038126 28.830690 -1.230457 0.000000 0.000000
    17 -34.710712 -15.133160 78.859528 0.000000 0.000000 0.000000
    18 0.000000 0.217954 -0.009629 0.000000 0.000000 0.000000
    19 -6.579208 0.000000 -0.000001 0.000000 0.000000 0.000000
    20 -14.319741 -15.458982 88.923607 -1.655486 0.445705 -2.888000
    21 11.574886 -2.180909 1.427974 -1.940707 -0.170962 2.830789
    22 34.710712 -15.133160 78.859528 3.141593 0.000000 3.141593
    23 -0.000001 0.217956 0.009627 0.000000 0.000000 0.000000
    24 -6.579209 0.000000 0.000000 0.000000 0.000000 0.000000
    25 14.319743 -15.458982 88.923607 -0.057762 0.445706 -0.253592
    26 11.620371 -2.905373 2.149562 -0.263159 -0.211577 0.098244
    27 8.930669 9.895990 16.516956 -1.178097 0.000000 0.000000
    28 -10.478000 3.596270 -57.675583 0.000000 0.000000 0.000000
    29 20.682631 -0.459138 -0.000003 0.000000 0.000000 0.000000
  time 43
    0 -35.481688 0.000000 34.046600 1.570796 0.000000 1.570796
    1 -26.737438 9.978985 -63.177887 0.007343 -0.264986 -1.495672
    2 -26.847315 6.445414 78.520195 0.268794 0.005643 -3.065482
    3 -4.313085 -13.578558 -57.058857 3.141593 0.000000 3.141593
    4 38.013969 0.147198 -0.193551 3.141593 0.000000 -3.141593
    5 20.686598 0.469208 -0.164128 -3.110653 -0.264987 1.495673
    6 0.016516 -11.367848 70.181595 0.000000 0.000000 0.000000
    7 26.847315 6.445414 78.520195 2.876405 -0.019551 -0.071301
    8 4.313085 -13.578558 -57.058857 0.000000 0.000000 0.000000
    9 38.013966 0.147198 0.193553 3.141593 0.000000 3.141593
    10 20.605600 0.473753 0.167817 -0.024242 0.265136 1.494187
    11 26.690825 9.982033 -63.178242 0.007103 -0.265136 -1.647406
    12 5.527152 61.421118 50.925651 0.272377 -1.539886 -1.842990
    13 -16.873423 9.784609 52.968449 0.000000 0.000000 0.000000
    14 0.020790 5.827109 -0.224471 -1.570796 -1.570796 0.000000
    15 -8.438861 0.038662 0.559093 1.570796 0.000000 1.570796
    16 5.664327 9.038126 28.830690 -1.230457 0.000000 0.000000
    17 -34.710712 -15.133160 78.859528 0.000000 0.000000 0.000000
    18 0.000000 0.217954 -0.009629 0.000000 0.000000 0.000000
    19 -6.579208 0.000000 -0.000001 0.000000 0.000000 0.000000
    20 -14.319741 -15.458982 88.923607 -1.655486 0.445705 -2.888000
    21 11.574886 -2.180909 1.427974 -1.940707 -0.170962 2.830789
    22 34.710712 -15.133160 78.859528 3.141593 0.000000 3.141593
    23 -0.000001 0.217956 0.009627 0.000000 0.000000 0.000000
    24 -6.579209 0.000000 0.000000 0.000000 0.000000 0.000000
    25 14.319743 -15.458982 88.923607 -0.057762 0.445706 -0.253592
    26 11.620371 -2.905373 2.149562 -0.263159 -0.211577 0.098244
    27 8.930669 9.895990 16.516956 -1.178097 0.000000 0.000000
    28 -10.478000 3.596270 -57.675583 0.000000 0.000000 0.000000
    29 20.682631 -0.459138 -0.000003 0.000000 0.000000 0.000000
  time 44
    0 -35.481688 0.000000 34.046600 1.570796 0.000000 1.570796
    1 -26.737438 9.978985 -63.177887 0.007343 -0.264986 -1.495672
    2 -26.847315 6.445414 78.520195 0.268794 0.005643 -3.065482
    3 -4.313085 -13.578558 -57.058857 3.141593 0.000000 3.141593
    4 38.013969 0.147198 -0.193551 3.141593 0.000000 -3.141593
    5 20.686598 0.469208 -0.164128 -3.110653 -0.264987 1.495673
    6 0.016516 -11.367848 70.181595 0.000000 0.000000 0.000000
    7 26.847315 6.445414 78.520195 2.876405 -0.019551 -0.071301
    8 4.313085 -13.578558 -57.058857 0.000000 0.000000 0.000000
    9 38.013966 0.147198 0.193553 3.141593 0.000000 3.141593
    10 20.605600 0.473753 0.167817 -0.024242 0.265136 1.494187
    11 26.690825 9.982033 -63.178242 0.007103 -0.265136 -1.647406
    12 5.562310 62.069575 51.773333 0.272282 -1.552901 -1.843086
    13 -16.873423 9.784609 52.968449 0.000000 0.000000 0.000000
    14 0.020790 5.827109 -0.224471 -1.570796 -1.570796 0.000000
    15 -8.438861 0.038662 0.559093 1.570796 0.000000 1.570796
    16 5.664327 9.038126 28.830690 -1.230457 0.000000 0.000000
    17 -34.710712 -15.133160 78.859528 0.000000 0.000000 0.000000
    18 0.000000 0.217954 -0.009629 0.000000 0.000000 0.000000
    19 -6.579208 0.000000 -0.000001 0.000000 0.000000 0.000000
    20 -14.319741 -15.458982 88.923607 -1.655486 0.445705 -2.888000
    21 11.574886 -2.180909 1.427974 -1.940707 -0.170962 2.830789
    22 34.710712 -15.133160 78.859528 3.141593 0.000000 3.141593
    23 -0.000001 0.217956 0.009627 0.000000 0.000000 0.000000
    24 -6.579209 0.000000 0.000000 0.000000 0.000000 0.000000
    25 14.319743 -15.458982 88.923607 -0.057762 0.445706 -0.253592
    26 11.620371 -2.905373 2.149562 -0.263159 -0.211577 0.098244
    27 8.930669 9.895990 16.516956 -1.178097 0.000000 0.000000
    28 -10.478000 3.596270 -57.675583 0.000000 0.000000 0.000000
    29 20.682631 -0.459138 -0.000003 0.000000 0.000000 0.000000
  time 45
    0 -35.481688 0.000000 34.046600 1.570796 0.000000 1.570796
    1 -26.737438 9.978985 -63.177887 0.007343 -0.264986 -1.495672
    2 -26.847315 6.445414 78.520195 0.268794 0.005643 -3.065482
    3 -4.313085 -13.578558 -57.058857 3.141593 0.000000 3.141593
    4 38.013969 0.147198 -0.193551 3.141593 0.000000 -3.141593
    5 20.686598 0.469208 -0.164128 -3.110653 -0.264987 1.495673
    6 0.016516 -11.367848 70.181595 0.000000 0.000000 0.000000
    7 26.847315 6.445414 78.520195 2.876405 -0.019551 -0.071301
    8 4.313085 -13.578558 -57.058857 0.000000 0.000000 0.000000
    9 38.013966 0.147198 0.193553 3.141593 0.000000 3.141593
    10 20.605600 0.473753 0.167817 -0.024242 0.265136 1.494187
    11 26.690825 9.982033 -63.178242 0.007103 -0.265136 -1.647406
    12 5.589654 62.546152 52.402258 0.272282 -1.562662 -1.843086
    13 -16.873423 9.784609 52.968449 0.000000 0.000000 0.000000
    14 0.020790 5.827109 -0.224471 -1.570796 -1.570796 0.000000
    15 -8.438861 0.038662 0.559093 1.570796 0.000000 1.570796
    16 5.664327 9.038126 28.830690 -1.230457 0.000000 0.000000
    17 -34.710712 -15.133160 78.859528 0.000000 0.000000 0.000000
    18 0.000000 0.217954 -0.009629 0.000000 0.000000 0.000000
    19 -6.579208 0.000000 -0.000001 0.000000 0.000000 0.000000
    20 -14.319741 -15.458982 88.923607 -1.655486 0.445705 -2.888000
    21 11.574886 -2.180909 1.427974 -1.940707 -0.170962 2.830789
    22 34.710712 -15.133160 78.859528 3.141593 0.000000 3.141593
    23 -0.000001 0.217956 0.009627 0.000000 0.000000 0.000000
    24 -6.579209 0.000000 0.000000 0.000000 0.000000 0.000000
    25 14.319743 -15.458982 88.923607 -0.057762 0.445706 -0.253592
    26 11.620371 -2.905373 2.149562 -0.263159 -0.211577 0.098244
    27 8.930669 9.895990 16.516956 -1.178097 0.000000 0.000000
    28 -10.478000 3.596270 -57.675583 0.000000 0.000000 0.000000
    29 20.682631 -0.459138 -0.000003 0.000000 0.000000 0.000000
  time 46
    0 -35.481688 0.000000 34.046600 1.570796 0.000000 1.570796
    1 -26.737438 9.978985 -63.177887 0.007343 -0.264986 -1.495672
    2 -26.847315 6.445414 78.520195 0.268794 0.005643 -3.065482
    3 -4.313085 -13.578558 -57.058857 3.141593 0.000000 3.141593
    4 38.013969 0.147198 -0.193551 3.141593 0.000000 -3.141593
    5 20.686598 0.469208 -0.164128 -3.110653 -0.264987 1.495673
    6 0.016516 -11.367848 70.181595 0.000000 0.000000 0.000000
    7 26.847315 6.445414 78.520195 2.876405 -0.019551 -0.071301
    8 4.313085 -13.578558 -57.058857 0.000000 0.000000 0.000000
    9 38.013966 0.147198 0.193553 3.141593 0.000000 3.141593
    10 20.605600 0.473753 0.167817 -0.024242 0.265136 1.494187
    11 26.690825 9.982033 -63.178242 0.007103 -0.265136 -1.647406
    12 5.605280 62.846943 52.792895 0.272282 -1.568704 -1.843086
    13 -16.873423 9.784609 52.968449 0.000000 0.000000 0.000000
    14 0.020790 5.827109 -0.224471 -1.570796 -1.570796 0.000000
    15 -8.438861 0.038662 0.559093 1.570796 0.000000 1.570796
    16 5.664327 9.038126 28.830690 -1.230457 0.000000 0.000000
    17 -34.710712 -15.133160 78.859528 0.000000 0.000000 0.000000
    18 0.000000 0.217954 -0.009629 0.000000 0.000000 0.000000
    19 -6.579208 0.000000 -0.000001 0.000000 0.000000 0.000000
    20 -14.319741 -15.458982 88.923607 -1.655486 0.445705 -2.888000
    21 11.574886 -2.180909 1.427974 -1.940707 -0.170962 2.830789
    22 34.710712 -15.133160 78.859528 3.141593 0.000000 3.141593
    23 -0.000001 0.217956 0.009627 0.000000 0.000000 0.000000
    24 -6.579209 0.000000 0.000000 0.000000 0.000000 0.000000
    25 14.319743 -15.458982 88.923607 -0.057762 0.445706 -0.253592
    26 11.620371 -2.905373 2.149562 -0.263159 -0.211577 0.098244
    27 8.930669 9.895990 16.516956 -1.178097 0.000000 0.000000
    28 -10.478000 3.596270 -57.675583 0.000000 0.000000 0.000000
    29 20.682631 -0.459138 -0.000003 0.000000 0.000000 0.000000
  time 47
    0 -35.481688 0.000000 34.046600 1.570796 0.000000 1.570796
    1 -26.737438 9.978985 -63.177887 0.007343 -0.264986 -1.495672
    2 -26.847315 6.445414 78.520195 0.268794 0.005643 -3.065482
    3 -4.313085 -13.578558 -57.058857 3.141593 0.000000 3.141593
    4 38.013969 0.147198 -0.193551 3.141593 0.000000 -3.141593
    5 20.686598 0.469208 -0.164128 -3.110653 -0.264987 1.495673
    6 0.016516 -11.367848 70.181595 0.000000 0.000000 0.000000
    7 26.847315 6.445414 78.520195 2.876405 -0.019551 -0.071301
    8 4.313085 -13.578558 -57.058857 0.000000 0.000000 0.000000
    9 38.013966 0.147198 0.193553 3.141593 0.000000 3.141593
    10 20.605600 0.473753 0.167817 -0.024242 0.265136 1.494187
    11 26.690825 9.982033 -63.178242 0.007103 -0.265136 -1.647406
    12 5.613092 62.948508 52.925712 0.000000 -1.570796 -1.570796
    13 -16.873423 9.784609 52.968449 0.000000 0.000000 0.000000
    14 0.020790 5.827109 -0.224471 -1.570796 -1.570796 0.000000
    15 -8.438861 0.038662 0.559093 1.570796 0.000000 1.570796
    16 5.664327 9.038126 28.830690 -1.230457 0.000000 0.000000
    17 -34.710712 -15.133160 78.859528 0.000000 0.000000 0.000000
    18 0.000000 0.217954 -0.009629 0.000000 0.000000 0.000000
    19 -6.579208 0.000000 -0.000001 0.000000 0.000000 0.000000
    20 -14.319741 -15.458982 88.923607 -1.655486 0.445705 -2.888000
    21 11.574886 -2.180909 1.427974 -1.940707 -0.170962 2.830789
    22 34.710712 -15.133160 78.859528 3.141593 0.000000 3.141593
    23 -0.000001 0.217956 0.009627 0.000000 0.000000 0.000000
    24 -6.579209 0.000000 0.000000 0.000000 0.000000 0.000000
    25 14.319743 -15.458982 88.923607 -0.057762 0.445706 -0.253592
    26 11.620371 -2.905373 2.149562 -0.263159 -0.211577 0.098244
    27 8.930669 9.895990 16.516956 -1.178097 0.000000 0.000000
    28 -10.478000 3.596270 -57.675583 0.000000 0.000000 0.000000
    29 20.682631 -0.459138 -0.000003 0.000000 0.000000 0.000000
end
