version 1
nodes
  0 "Rig_Buggy.Frame" -1
  1 "Rig_Buggy.Shock_RR_Sleeve" 0
  2 "Rig_Buggy.Shock_FR_Sleeve" 0
  3 "Rig_Buggy.Axel_RR" 0
  4 "Rig_Buggy.Wheel_RR" 3
  5 "Rig_Buggy.Shock_RR_Piston" 3
  6 "Rig_Buggy.Steer_Arm" 0
  7 "Rig_Buggy.Shock_FL_Sleeve" 0
  8 "Rig_Buggy.Axel_RL" 0
  9 "Rig_Buggy.Wheel_RL" 8
  10 "Rig_Buggy.Shock_RL_Piston" 8
  11 "Rig_Buggy.Shock_RL_Sleeve" 0
  12 "Rig_Buggy.view" 0
  13 "Rig_Buggy.Gun_Base" 0
  14 "Rig_Buggy.Gun" 13
  15 "Rig_Buggy.gun_cylinders" 14
  16 "Rig_Buggy.Speedo" 0
  17 "Rig_Buggy.Wheel_FR_Turn_parent" 0
  18 "Rig_Buggy.Wheel_FR_Turn" 17
  19 "Rig_Buggy.Wheel_FR_Rotate" 18
  20 "Rig_Buggy.Axel_FR" 0
  21 "Rig_Buggy.Shock_FR_Piston" 20
  22 "Rig_Buggy.Wheel_FL_Turn_parent" 0
  23 "Rig_Buggy.Wheel_FL_Turn" 22
  24 "Rig_Buggy.Wheel_FL_Rotate" 23
  25 "Rig_Buggy.Axel_FL" 0
  26 "Rig_Buggy.Shock_FL_Piston" 25
  27 "Rig_Buggy.Steer_Wheel" 0
  28 "Rig_Buggy.lid" 0
  29 "Rig_Buggy.latch" 28
end
skeleton
  time 0
    0 0.000000 0.000000 8.069618 0.000000 0.000000 -1.570796
    1 0.000000 0.000000 0.000004 0.001371 0.037321 -0.000535
    2 0.000000 0.000000 0.000000 -0.002434 0.001130 0.045286
    3 0.000000 0.000000 0.000000 0.000000 0.000000 -0.191986
    4 -0.000004 -0.147199 0.193553 0.000000 0.000000 0.000000
    5 0.000000 0.000000 -0.000002 0.010087 -0.038384 -0.186248
    6 0.000000 0.000000 0.000000 0.000000 0.000000 0.000000
    7 0.000000 0.000000 0.000000 -0.004682 -0.000888 0.053194
    8 0.000000 0.000000 0.000000 0.000000 0.000000 -0.191986
    9 0.000000 -0.147199 -0.193550 0.000000 0.000000 0.000000
    10 0.000000 0.000000 0.000001 -0.009957 -0.037040 0.186739
    11 0.000000 0.000000 0.000004 -0.001366 0.037219 0.000249
    12 0.000000 0.000000 0.000003 0.000000 0.000000 0.000000
    13 0.000000 0.000000 0.000000 0.000000 0.000000 0.000000
    14 0.000000 0.000000 -0.000001 0.000000 0.000000 0.000000
    15 0.000001 0.000001 0.000002 0.000000 0.000000 0.000000
    16 0.000000 0.000000 0.000002 0.000000 0.000000 0.000000
    17 0.000000 -8.069618 0.000000 0.000000 0.000000 0.000000
    18 0.000000 -0.217955 0.009628 0.000000 0.000000 0.000000
    19 0.000000 0.000000 0.000000 0.000000 0.000000 0.000000
    20 0.000000 0.000000 0.000000 0.009077 -0.296692 -0.060721
    21 -0.000001 -0.000001 0.000000 0.100631 0.023140 -0.236096
    22 0.000000 -8.069618 0.000000 0.000000 0.000000 0.000000
    23 0.000000 -0.217957 -0.009628 0.000000 0.000000 0.000000
    24 0.000000 0.000000 0.000000 0.000000 0.000000 0.000000
    25 0.000000 0.000000 0.000000 0.002427 -0.015940 -0.302255
    26 0.000000 0.000001 -0.000004 0.068399 -0.018219 0.238165
    27 0.000000 0.000000 0.000002 0.000000 0.000000 0.000000
    28 0.000000 0.000000 0.000004 0.000000 0.000000 0.000000
    29 0.000000 0.000000 -0.000013 0.000000 0.000000 0.000000
end
