// Created by Crowbar 0.62

$modelname "props_borealis/handrail01_long_stairwell01.mdl"

$staticprop

$bodygroup "Body"
{
	studio "handrail01_long_stairwell01_reference.smd"
}

$surfaceprop "metalpanel"

$contents "solid"

$illumposition 0.237 0 12.884

$cdmaterials "models\props_borealis\"

$cbox 0 0 0 0 0 0

$bbox -0.723 -73.799 0 0.723 74.274 25.768

$animation "a_idle" "handrail01_long_stairwell01_anims\idle.smd" {
	fps 30
}

$sequence "idle" {
	"a_idle"
	fadein 0.2
	fadeout 0.2
}


$collisionmodel "handrail01_long_stairwell01_physics.smd"
{
	$mass 500
	$inertia 1
	$damping 0
	$rotdamping 0
	$rootbone " "
	$concave

}
