// Created by Crowbar 0.62
version 1
nodes
  0 "ValveBiped.Bip01_R_Hand" -1
  1 "ValveBiped.Weapon_bone" 0
end
skeleton
  time 0
    0 1.782077 -5.776037 -3.330453 -2.988847 0.080612 1.582255
    1 5.000000 -1.500000 -5.000000 0.000000 0.000000 0.000000
  time 1
    0 1.782077 -5.776037 -3.330453 -2.988847 0.080612 1.582255
    1 5.000000 -1.500000 -5.000000 0.000000 0.000000 0.000000
  time 2
    0 1.782077 -5.776037 -3.330453 -2.988847 0.080612 1.582255
    1 5.000000 -1.500000 -5.000000 0.000000 0.000000 0.000000
end
