// Created by Crowbar 0.62
version 1
nodes
  0 "ValveBiped.Bip01_R_Hand" -1
  1 "ValveBiped.baton_parent" 0
end
skeleton
  time 0
    0 -0.631686 -6.657914 -2.082507 -0.754884 -1.216441 2.363584
    1 3.969139 -2.149750 -5.963760 1.860104 0.001967 -2.001951
  time 1
    0 -0.631686 -6.657914 -2.082507 -0.754884 -1.216441 2.363584
    1 3.969139 -2.149750 -5.963760 1.860104 0.001967 -2.001951
end
