// Created by Crowbar 0.62
version 1
nodes
  0 "Base" -1
  1 "Leftright" 0
  2 "Gun" 1
  3 "Barrel" 2
  4 "cover" 2
end
skeleton
  time 0
    0 0.748472 0.238418 17.889942 1.570796 0.000000 0.000000
    1 0.332457 15.529396 -0.220379 0.000000 0.000000 0.000000
    2 2.006938 17.841654 7.452806 0.000000 0.000000 0.000000
    3 1.671227 1.473717 3.726596 0.000000 0.000000 0.000000
    4 2.516212 0.478182 -0.870788 0.000000 0.000000 0.000000
end
triangles
  phy
    0 0.811030 19.333845 -0.368380 NaN NaN NaN 0 0
    0 -0.332687 19.333845 -0.368380 NaN NaN NaN 0 0
    0 0.811030 20.977320 -0.027627 NaN NaN NaN 0 0
  phy
    0 0.811030 20.977320 -0.027627 NaN NaN NaN 0 0
    0 -0.332687 19.333845 -0.368380 NaN NaN NaN 0 0
    0 -0.332687 20.977320 -0.027627 NaN NaN NaN 0 0
  phy
    0 0.811030 20.977320 -0.027627 NaN NaN NaN 0 0
    0 -0.332687 20.977320 -0.027627 NaN NaN NaN 0 0
    0 -1.369101 5.426529 35.346179 NaN NaN NaN 0 0
  phy
    0 0.811030 20.977320 -0.027627 NaN NaN NaN 0 0
    0 -1.369101 5.426529 35.346179 NaN NaN NaN 0 0
    0 2.485240 5.426529 35.346179 NaN NaN NaN 0 0
  phy
    0 0.811030 20.977320 -0.027627 NaN NaN NaN 0 0
    0 2.485240 2.874982 30.007721 NaN NaN NaN 0 0
    0 0.811030 19.333845 -0.368380 NaN NaN NaN 0 0
  phy
    0 0.811030 20.977320 -0.027627 NaN NaN NaN 0 0
    0 2.485240 5.426529 35.346179 NaN NaN NaN 0 0
    0 2.485240 2.874982 30.007721 NaN NaN NaN 0 0
  phy
    0 0.811030 19.333845 -0.368380 NaN NaN NaN 0 0
    0 -1.369101 2.874982 30.007721 NaN NaN NaN 0 0
    0 -0.332687 19.333845 -0.368380 NaN NaN NaN 0 0
  phy
    0 -0.332687 19.333845 -0.368380 NaN NaN NaN 0 0
    0 -1.369101 2.874982 30.007721 NaN NaN NaN 0 0
    0 -0.332687 20.977320 -0.027627 NaN NaN NaN 0 0
  phy
    0 2.485240 2.874982 30.007721 NaN NaN NaN 0 0
    0 -1.369101 2.874982 30.007721 NaN NaN NaN 0 0
    0 0.811030 19.333845 -0.368380 NaN NaN NaN 0 0
  phy
    0 2.485240 5.426529 35.346179 NaN NaN NaN 0 0
    0 -1.369101 2.874982 30.007721 NaN NaN NaN 0 0
    0 2.485240 2.874982 30.007721 NaN NaN NaN 0 0
  phy
    0 -1.369101 5.426529 35.346179 NaN NaN NaN 0 0
    0 -1.369101 2.874982 30.007721 NaN NaN NaN 0 0
    0 2.485240 5.426529 35.346179 NaN NaN NaN 0 0
  phy
    0 -1.369101 2.874982 30.007721 NaN NaN NaN 0 0
    0 -1.369101 5.426529 35.346179 NaN NaN NaN 0 0
    0 -0.332687 20.977320 -0.027627 NaN NaN NaN 0 0
  phy
    0 -0.311218 -11.303039 33.825894 NaN NaN NaN 0 0
    0 2.467730 -9.977136 28.064828 NaN NaN NaN 0 0
    0 2.467730 -11.303039 33.825894 NaN NaN NaN 0 0
  phy
    0 -0.311218 -11.303039 33.825894 NaN NaN NaN 0 0
    0 -0.311219 -9.977136 28.064828 NaN NaN NaN 0 0
    0 2.467730 -9.977136 28.064828 NaN NaN NaN 0 0
  phy
    0 2.467730 -11.303039 33.825894 NaN NaN NaN 0 0
    0 3.537012 4.196598 26.862436 NaN NaN NaN 0 0
    0 3.537012 4.196598 34.862438 NaN NaN NaN 0 0
  phy
    0 2.467730 -9.977136 28.064828 NaN NaN NaN 0 0
    0 3.537012 4.196598 26.862436 NaN NaN NaN 0 0
    0 2.467730 -11.303039 33.825894 NaN NaN NaN 0 0
  phy
    0 3.537012 4.196598 34.862438 NaN NaN NaN 0 0
    0 -0.311218 -11.303039 33.825894 NaN NaN NaN 0 0
    0 2.467730 -11.303039 33.825894 NaN NaN NaN 0 0
  phy
    0 2.467730 -9.977136 28.064828 NaN NaN NaN 0 0
    0 -0.311219 -9.977136 28.064828 NaN NaN NaN 0 0
    0 -1.615518 4.196598 26.862436 NaN NaN NaN 0 0
  phy
    0 -1.615518 4.196598 26.862436 NaN NaN NaN 0 0
    0 -0.311219 -9.977136 28.064828 NaN NaN NaN 0 0
    0 -0.311218 -11.303039 33.825894 NaN NaN NaN 0 0
  phy
    0 -1.615518 4.196598 34.862438 NaN NaN NaN 0 0
    0 -0.311218 -11.303039 33.825894 NaN NaN NaN 0 0
    0 3.537012 4.196598 34.862438 NaN NaN NaN 0 0
  phy
    0 -1.615518 4.196598 34.862438 NaN NaN NaN 0 0
    0 3.537012 4.196598 34.862438 NaN NaN NaN 0 0
    0 3.537012 4.196598 26.862436 NaN NaN NaN 0 0
  phy
    0 2.467730 -9.977136 28.064828 NaN NaN NaN 0 0
    0 -1.615518 4.196598 26.862436 NaN NaN NaN 0 0
    0 3.537012 4.196598 26.862436 NaN NaN NaN 0 0
  phy
    0 -1.615518 4.196598 34.862438 NaN NaN NaN 0 0
    0 -1.615518 4.196598 26.862436 NaN NaN NaN 0 0
    0 -0.311218 -11.303039 33.825894 NaN NaN NaN 0 0
  phy
    0 -1.615518 4.196598 26.862436 NaN NaN NaN 0 0
    0 -1.615518 4.196598 34.862438 NaN NaN NaN 0 0
    0 3.537012 4.196598 26.862436 NaN NaN NaN 0 0
  phy
    0 -4.000000 -7.000338 60.107553 NaN NaN NaN 0 0
    0 4.000000 4.177925 60.107553 NaN NaN NaN 0 0
    0 -4.000001 4.177925 60.107553 NaN NaN NaN 0 0
  phy
    0 -4.000000 -7.000338 60.107553 NaN NaN NaN 0 0
    0 4.000001 -7.000338 60.107553 NaN NaN NaN 0 0
    0 4.000000 4.177925 60.107553 NaN NaN NaN 0 0
  phy
    0 -4.000000 -7.000338 60.107553 NaN NaN NaN 0 0
    0 -4.000000 -7.000338 57.293059 NaN NaN NaN 0 0
    0 4.000001 -7.000338 60.107553 NaN NaN NaN 0 0
  phy
    0 -4.000000 -7.000338 60.107553 NaN NaN NaN 0 0
    0 -4.000001 4.177925 60.107553 NaN NaN NaN 0 0
    0 -4.000000 -7.000338 57.293059 NaN NaN NaN 0 0
  phy
    0 4.000001 -7.000338 60.107553 NaN NaN NaN 0 0
    0 4.000000 4.177927 57.293059 NaN NaN NaN 0 0
    0 4.000000 4.177925 60.107553 NaN NaN NaN 0 0
  phy
    0 -4.000001 4.177925 60.107553 NaN NaN NaN 0 0
    0 4.000000 4.177925 60.107553 NaN NaN NaN 0 0
    0 4.000000 4.177927 57.293059 NaN NaN NaN 0 0
  phy
    0 4.000000 4.177927 57.293059 NaN NaN NaN 0 0
    0 4.000001 -7.000338 57.293059 NaN NaN NaN 0 0
    0 -4.000001 4.177926 57.293059 NaN NaN NaN 0 0
  phy
    0 -4.000001 4.177926 57.293059 NaN NaN NaN 0 0
    0 4.000001 -7.000338 57.293059 NaN NaN NaN 0 0
    0 -4.000000 -7.000338 57.293059 NaN NaN NaN 0 0
  phy
    0 4.000001 -7.000338 60.107553 NaN NaN NaN 0 0
    0 -4.000000 -7.000338 57.293059 NaN NaN NaN 0 0
    0 4.000001 -7.000338 57.293059 NaN NaN NaN 0 0
  phy
    0 4.000001 -7.000338 57.293059 NaN NaN NaN 0 0
    0 4.000000 4.177927 57.293059 NaN NaN NaN 0 0
    0 4.000001 -7.000338 60.107553 NaN NaN NaN 0 0
  phy
    0 -4.000001 4.177925 60.107553 NaN NaN NaN 0 0
    0 -4.000001 4.177926 57.293059 NaN NaN NaN 0 0
    0 -4.000000 -7.000338 57.293059 NaN NaN NaN 0 0
  phy
    0 -4.000001 4.177926 57.293059 NaN NaN NaN 0 0
    0 -4.000001 4.177925 60.107553 NaN NaN NaN 0 0
    0 4.000000 4.177927 57.293059 NaN NaN NaN 0 0
  phy
    0 7.348418 -17.111875 53.587199 NaN NaN NaN 0 0
    0 3.095455 -16.090290 49.449065 NaN NaN NaN 0 0
    0 7.348418 -16.090290 49.449065 NaN NaN NaN 0 0
  phy
    0 7.348418 -17.111875 53.587199 NaN NaN NaN 0 0
    0 3.095455 -17.111875 53.587199 NaN NaN NaN 0 0
    0 3.095455 -16.090290 49.449065 NaN NaN NaN 0 0
  phy
    0 7.348418 -16.090290 49.449065 NaN NaN NaN 0 0
    0 7.348417 4.055214 60.061503 NaN NaN NaN 0 0
    0 7.348418 -17.111875 53.587199 NaN NaN NaN 0 0
  phy
    0 7.348418 -16.090290 49.449065 NaN NaN NaN 0 0
    0 7.348417 4.509252 51.493584 NaN NaN NaN 0 0
    0 7.348417 4.055214 60.061503 NaN NaN NaN 0 0
  phy
    0 7.348418 -16.090290 49.449065 NaN NaN NaN 0 0
    0 3.095455 -16.090290 49.449065 NaN NaN NaN 0 0
    0 7.348417 4.509252 51.493584 NaN NaN NaN 0 0
  phy
    0 3.095455 -16.090290 49.449065 NaN NaN NaN 0 0
    0 3.095455 4.509252 51.493584 NaN NaN NaN 0 0
    0 7.348417 4.509252 51.493584 NaN NaN NaN 0 0
  phy
    0 3.095455 4.509252 51.493584 NaN NaN NaN 0 0
    0 3.095455 -16.090290 49.449065 NaN NaN NaN 0 0
    0 3.095455 -17.111875 53.587199 NaN NaN NaN 0 0
  phy
    0 7.348418 -17.111875 53.587199 NaN NaN NaN 0 0
    0 7.348417 4.055214 60.061503 NaN NaN NaN 0 0
    0 3.095455 4.055214 60.061503 NaN NaN NaN 0 0
  phy
    0 3.095455 4.055214 60.061503 NaN NaN NaN 0 0
    0 3.095455 -17.111875 53.587199 NaN NaN NaN 0 0
    0 7.348418 -17.111875 53.587199 NaN NaN NaN 0 0
  phy
    0 3.095455 4.509252 51.493584 NaN NaN NaN 0 0
    0 3.095455 4.055214 60.061503 NaN NaN NaN 0 0
    0 7.348417 4.055214 60.061503 NaN NaN NaN 0 0
  phy
    0 3.095455 4.055214 60.061503 NaN NaN NaN 0 0
    0 3.095455 4.509252 51.493584 NaN NaN NaN 0 0
    0 3.095455 -17.111875 53.587199 NaN NaN NaN 0 0
  phy
    0 3.095455 4.509252 51.493584 NaN NaN NaN 0 0
    0 7.348417 4.055214 60.061503 NaN NaN NaN 0 0
    0 7.348417 4.509252 51.493584 NaN NaN NaN 0 0
  phy
    0 -0.412410 2.742186 58.885752 NaN NaN NaN 0 0
    0 -0.412410 3.082716 33.848110 NaN NaN NaN 0 0
    0 -0.412410 -9.344150 34.302447 NaN NaN NaN 0 0
  phy
    0 -0.412410 3.082716 33.848110 NaN NaN NaN 0 0
    0 -0.412410 2.742186 58.885752 NaN NaN NaN 0 0
    0 2.485240 3.082716 33.848110 NaN NaN NaN 0 0
  phy
    0 2.485240 -9.344150 34.302447 NaN NaN NaN 0 0
    0 -0.412410 3.082716 33.848110 NaN NaN NaN 0 0
    0 2.485240 3.082716 33.848110 NaN NaN NaN 0 0
  phy
    0 -0.412410 -9.344150 34.302447 NaN NaN NaN 0 0
    0 -0.412410 3.082716 33.848110 NaN NaN NaN 0 0
    0 2.485240 -9.344150 34.302447 NaN NaN NaN 0 0
  phy
    0 -0.412410 -9.344150 34.302447 NaN NaN NaN 0 0
    0 2.485240 -8.322567 58.431414 NaN NaN NaN 0 0
    0 -0.412410 -8.322567 58.431414 NaN NaN NaN 0 0
  phy
    0 -0.412410 -9.344150 34.302447 NaN NaN NaN 0 0
    0 2.485240 -9.344150 34.302447 NaN NaN NaN 0 0
    0 2.485240 -8.322567 58.431414 NaN NaN NaN 0 0
  phy
    0 -0.412410 2.742186 58.885752 NaN NaN NaN 0 0
    0 -0.412410 -8.322567 58.431414 NaN NaN NaN 0 0
    0 2.485240 -8.322567 58.431414 NaN NaN NaN 0 0
  phy
    0 2.485240 -8.322567 58.431414 NaN NaN NaN 0 0
    0 2.485240 2.742186 58.885752 NaN NaN NaN 0 0
    0 -0.412410 2.742186 58.885752 NaN NaN NaN 0 0
  phy
    0 2.485240 -8.322567 58.431414 NaN NaN NaN 0 0
    0 2.485240 -9.344150 34.302447 NaN NaN NaN 0 0
    0 2.485240 2.742186 58.885752 NaN NaN NaN 0 0
  phy
    0 -0.412410 2.742186 58.885752 NaN NaN NaN 0 0
    0 -0.412410 -9.344150 34.302447 NaN NaN NaN 0 0
    0 -0.412410 -8.322567 58.431414 NaN NaN NaN 0 0
  phy
    0 -0.412410 2.742186 58.885752 NaN NaN NaN 0 0
    0 2.485240 2.742186 58.885752 NaN NaN NaN 0 0
    0 2.485240 3.082716 33.848110 NaN NaN NaN 0 0
  phy
    0 2.485240 -9.344150 34.302447 NaN NaN NaN 0 0
    0 2.485240 3.082716 33.848110 NaN NaN NaN 0 0
    0 2.485240 2.742186 58.885752 NaN NaN NaN 0 0
  phy
    0 -7.826761 -24.026745 0.426708 NaN NaN NaN 0 0
    0 -0.145659 -4.276110 21.829652 NaN NaN NaN 0 0
    0 -3.760827 -4.276110 21.829652 NaN NaN NaN 0 0
  phy
    0 -7.826761 -24.026745 0.426708 NaN NaN NaN 0 0
    0 -6.045250 -24.026745 0.426708 NaN NaN NaN 0 0
    0 -0.145659 -4.276110 21.829652 NaN NaN NaN 0 0
  phy
    0 -7.826761 -24.026745 0.426708 NaN NaN NaN 0 0
    0 -7.826761 -21.702215 -0.141213 NaN NaN NaN 0 0
    0 -6.045250 -24.026745 0.426708 NaN NaN NaN 0 0
  phy
    0 -7.826761 -24.026745 0.426708 NaN NaN NaN 0 0
    0 -3.760827 -4.276110 21.829652 NaN NaN NaN 0 0
    0 -3.760827 -0.475958 21.716068 NaN NaN NaN 0 0
  phy
    0 -7.826761 -21.702215 -0.141213 NaN NaN NaN 0 0
    0 -7.826761 -24.026745 0.426708 NaN NaN NaN 0 0
    0 -3.760827 -0.475958 21.716068 NaN NaN NaN 0 0
  phy
    0 -3.760827 -4.276110 21.829652 NaN NaN NaN 0 0
    0 -0.145659 -0.475958 21.716068 NaN NaN NaN 0 0
    0 -3.760827 -0.475958 21.716068 NaN NaN NaN 0 0
  phy
    0 -0.145659 -4.276110 21.829652 NaN NaN NaN 0 0
    0 -0.145659 -0.475958 21.716068 NaN NaN NaN 0 0
    0 -3.760827 -4.276110 21.829652 NaN NaN NaN 0 0
  phy
    0 -7.826761 -21.702215 -0.141213 NaN NaN NaN 0 0
    0 -6.045250 -21.702215 -0.141213 NaN NaN NaN 0 0
    0 -6.045250 -24.026745 0.426708 NaN NaN NaN 0 0
  phy
    0 -6.045250 -21.702215 -0.141213 NaN NaN NaN 0 0
    0 -7.826761 -21.702215 -0.141213 NaN NaN NaN 0 0
    0 -0.145659 -0.475958 21.716068 NaN NaN NaN 0 0
  phy
    0 -0.145659 -4.276110 21.829652 NaN NaN NaN 0 0
    0 -6.045250 -24.026745 0.426708 NaN NaN NaN 0 0
    0 -6.045250 -21.702215 -0.141213 NaN NaN NaN 0 0
  phy
    0 -6.045250 -21.702215 -0.141213 NaN NaN NaN 0 0
    0 -0.145659 -0.475958 21.716068 NaN NaN NaN 0 0
    0 -0.145659 -4.276110 21.829652 NaN NaN NaN 0 0
  phy
    0 -7.826761 -21.702215 -0.141213 NaN NaN NaN 0 0
    0 -3.760827 -0.475958 21.716068 NaN NaN NaN 0 0
    0 -0.145659 -0.475958 21.716068 NaN NaN NaN 0 0
  phy
    0 7.560012 -21.815722 -0.254798 NaN NaN NaN 0 0
    0 7.560012 -24.140254 0.313124 NaN NaN NaN 0 0
    0 1.660419 -3.935582 22.283990 NaN NaN NaN 0 0
  phy
    0 7.560012 -24.140254 0.313124 NaN NaN NaN 0 0
    0 7.560012 -21.815722 -0.254798 NaN NaN NaN 0 0
    0 9.979317 -24.140254 0.313124 NaN NaN NaN 0 0
  phy
    0 7.560012 -24.140254 0.313124 NaN NaN NaN 0 0
    0 9.979317 -24.140254 0.313124 NaN NaN NaN 0 0
    0 1.660419 -3.935582 22.283990 NaN NaN NaN 0 0
  phy
    0 7.560012 -21.815722 -0.254798 NaN NaN NaN 0 0
    0 9.979317 -21.815722 -0.254798 NaN NaN NaN 0 0
    0 9.979317 -24.140254 0.313124 NaN NaN NaN 0 0
  phy
    0 9.979317 -21.815722 -0.254798 NaN NaN NaN 0 0
    0 7.560012 -21.815722 -0.254798 NaN NaN NaN 0 0
    0 5.036415 -0.702977 21.602483 NaN NaN NaN 0 0
  phy
    0 9.979317 -21.815722 -0.254798 NaN NaN NaN 0 0
    0 5.036415 -0.702977 21.602483 NaN NaN NaN 0 0
    0 9.979317 -24.140254 0.313124 NaN NaN NaN 0 0
  phy
    0 1.660419 -3.935582 22.283990 NaN NaN NaN 0 0
    0 9.979317 -24.140254 0.313124 NaN NaN NaN 0 0
    0 5.036415 -3.935582 22.283990 NaN NaN NaN 0 0
  phy
    0 5.036415 -3.935582 22.283990 NaN NaN NaN 0 0
    0 5.036415 -0.702977 21.602483 NaN NaN NaN 0 0
    0 1.660419 -3.935582 22.283990 NaN NaN NaN 0 0
  phy
    0 9.979317 -24.140254 0.313124 NaN NaN NaN 0 0
    0 5.036415 -0.702977 21.602483 NaN NaN NaN 0 0
    0 5.036415 -3.935582 22.283990 NaN NaN NaN 0 0
  phy
    0 1.660419 -0.702977 21.602483 NaN NaN NaN 0 0
    0 7.560012 -21.815722 -0.254798 NaN NaN NaN 0 0
    0 1.660419 -3.935582 22.283990 NaN NaN NaN 0 0
  phy
    0 7.560012 -21.815722 -0.254798 NaN NaN NaN 0 0
    0 1.660419 -0.702977 21.602483 NaN NaN NaN 0 0
    0 5.036415 -0.702977 21.602483 NaN NaN NaN 0 0
  phy
    0 1.660419 -3.935582 22.283990 NaN NaN NaN 0 0
    0 5.036415 -0.702977 21.602483 NaN NaN NaN 0 0
    0 1.660419 -0.702977 21.602483 NaN NaN NaN 0 0
  phy
    0 2.246067 -3.822073 28.644709 NaN NaN NaN 0 0
    0 -0.571859 -3.708563 18.259439 NaN NaN NaN 0 0
    0 2.246067 -3.708563 18.259439 NaN NaN NaN 0 0
  phy
    0 2.246067 -3.822073 28.644709 NaN NaN NaN 0 0
    0 -0.571859 -3.822073 28.644709 NaN NaN NaN 0 0
    0 -0.571859 -3.708563 18.259439 NaN NaN NaN 0 0
  phy
    0 2.246067 -3.708563 18.259439 NaN NaN NaN 0 0
    0 -0.571859 -3.708563 18.259439 NaN NaN NaN 0 0
    0 -0.571859 0.205098 18.145855 NaN NaN NaN 0 0
  phy
    0 -0.571859 0.205098 18.145855 NaN NaN NaN 0 0
    0 -0.571859 -3.708563 18.259439 NaN NaN NaN 0 0
    0 -0.571859 -3.822073 28.644709 NaN NaN NaN 0 0
  phy
    0 -0.571859 0.205098 28.758293 NaN NaN NaN 0 0
    0 2.246067 0.205098 28.758293 NaN NaN NaN 0 0
    0 -0.571859 0.205098 18.145855 NaN NaN NaN 0 0
  phy
    0 -0.571859 0.205098 18.145855 NaN NaN NaN 0 0
    0 2.246067 0.205098 28.758293 NaN NaN NaN 0 0
    0 2.246067 0.205098 18.145855 NaN NaN NaN 0 0
  phy
    0 -0.571859 0.205098 28.758293 NaN NaN NaN 0 0
    0 -0.571859 -3.822073 28.644709 NaN NaN NaN 0 0
    0 2.246067 -3.822073 28.644709 NaN NaN NaN 0 0
  phy
    0 2.246067 -3.822073 28.644709 NaN NaN NaN 0 0
    0 2.246067 0.205098 28.758293 NaN NaN NaN 0 0
    0 -0.571859 0.205098 28.758293 NaN NaN NaN 0 0
  phy
    0 -0.571859 0.205098 28.758293 NaN NaN NaN 0 0
    0 -0.571859 0.205098 18.145855 NaN NaN NaN 0 0
    0 -0.571859 -3.822073 28.644709 NaN NaN NaN 0 0
  phy
    0 2.246067 -3.708563 18.259439 NaN NaN NaN 0 0
    0 -0.571859 0.205098 18.145855 NaN NaN NaN 0 0
    0 2.246067 0.205098 18.145855 NaN NaN NaN 0 0
  phy
    0 2.246067 -3.708563 18.259439 NaN NaN NaN 0 0
    0 2.246067 0.205098 28.758293 NaN NaN NaN 0 0
    0 2.246067 -3.822073 28.644709 NaN NaN NaN 0 0
  phy
    0 2.246067 0.205098 18.145855 NaN NaN NaN 0 0
    0 2.246067 0.205098 28.758293 NaN NaN NaN 0 0
    0 2.246067 -3.708563 18.259439 NaN NaN NaN 0 0
end
