// Created by Crowbar 0.62
version 1
nodes
  0 "static_prop" -1
end
skeleton
  time 0
    0 0.000000 0.000000 0.000000 0.000000 0.000000 0.000000
end
triangles
  phy
    0 -2.185799 -29.735201 1.096000 NaN NaN NaN 0 0
    0 -2.185799 -29.735201 4.306600 NaN NaN NaN 0 0
    0 -2.185801 30.702498 1.096000 NaN NaN NaN 0 0
  phy
    0 -2.185801 30.702498 1.096000 NaN NaN NaN 0 0
    0 -2.185799 -29.735201 4.306600 NaN NaN NaN 0 0
    0 -2.185801 30.702498 4.306600 NaN NaN NaN 0 0
  phy
    0 -2.185799 -29.735201 1.096000 NaN NaN NaN 0 0
    0 0.867701 -29.735201 0.103900 NaN NaN NaN 0 0
    0 -2.185799 -29.735201 4.306600 NaN NaN NaN 0 0
  phy
    0 0.867701 -29.735201 0.103900 NaN NaN NaN 0 0
    0 2.754801 -29.735201 2.701300 NaN NaN NaN 0 0
    0 -2.185799 -29.735201 4.306600 NaN NaN NaN 0 0
  phy
    0 2.754801 -29.735201 2.701300 NaN NaN NaN 0 0
    0 0.867701 -29.735201 5.298800 NaN NaN NaN 0 0
    0 -2.185799 -29.735201 4.306600 NaN NaN NaN 0 0
  phy
    0 -2.185799 -29.735201 1.096000 NaN NaN NaN 0 0
    0 0.867699 30.702498 0.103900 NaN NaN NaN 0 0
    0 0.867701 -29.735201 0.103900 NaN NaN NaN 0 0
  phy
    0 -2.185799 -29.735201 1.096000 NaN NaN NaN 0 0
    0 -2.185801 30.702498 1.096000 NaN NaN NaN 0 0
    0 0.867699 30.702498 0.103900 NaN NaN NaN 0 0
  phy
    0 0.867699 30.702498 0.103900 NaN NaN NaN 0 0
    0 -2.185801 30.702498 1.096000 NaN NaN NaN 0 0
    0 2.754798 30.702498 2.701300 NaN NaN NaN 0 0
  phy
    0 2.754798 30.702498 2.701300 NaN NaN NaN 0 0
    0 -2.185801 30.702498 1.096000 NaN NaN NaN 0 0
    0 -2.185801 30.702498 4.306600 NaN NaN NaN 0 0
  phy
    0 2.754798 30.702498 2.701300 NaN NaN NaN 0 0
    0 -2.185801 30.702498 4.306600 NaN NaN NaN 0 0
    0 0.867699 30.702498 5.298800 NaN NaN NaN 0 0
  phy
    0 -2.185801 30.702498 4.306600 NaN NaN NaN 0 0
    0 -2.185799 -29.735201 4.306600 NaN NaN NaN 0 0
    0 0.867699 30.702498 5.298800 NaN NaN NaN 0 0
  phy
    0 -2.185799 -29.735201 4.306600 NaN NaN NaN 0 0
    0 0.867701 -29.735201 5.298800 NaN NaN NaN 0 0
    0 0.867699 30.702498 5.298800 NaN NaN NaN 0 0
  phy
    0 0.867699 30.702498 5.298800 NaN NaN NaN 0 0
    0 0.867701 -29.735201 5.298800 NaN NaN NaN 0 0
    0 2.754798 30.702498 2.701300 NaN NaN NaN 0 0
  phy
    0 2.754801 -29.735201 2.701300 NaN NaN NaN 0 0
    0 0.867701 -29.735201 0.103900 NaN NaN NaN 0 0
    0 2.754798 30.702498 2.701300 NaN NaN NaN 0 0
  phy
    0 2.754798 30.702498 2.701300 NaN NaN NaN 0 0
    0 0.867701 -29.735201 5.298800 NaN NaN NaN 0 0
    0 2.754801 -29.735201 2.701300 NaN NaN NaN 0 0
  phy
    0 2.754798 30.702498 2.701300 NaN NaN NaN 0 0
    0 0.867701 -29.735201 0.103900 NaN NaN NaN 0 0
    0 0.867699 30.702498 0.103900 NaN NaN NaN 0 0
end
