// Created by Crowbar 0.62
version 1
nodes
  0 "Base" -1
  1 "Leftright" 0
  2 "Gun" 1
  3 "Barrel" 2
  4 "cover" 2
end
skeleton
  time 0
    0 0.000000 0.000000 0.000000 0.000000 0.000000 -1.570796
    1 0.000000 0.000000 0.000000 0.000000 1.047198 0.000000
    2 0.000000 0.000002 0.000000 0.000000 0.000000 0.000000
    3 0.000000 -0.000005 0.000000 0.000000 0.000000 0.000000
    4 0.000000 -0.000002 -0.000001 0.000000 0.000000 0.000000
end
