// Created by Crowbar 0.62
version 1
nodes
  0 "Base" -1
  1 "Leftright" 0
  2 "Gun" 1
  3 "Barrel" 2
  4 "cover" 2
end
skeleton
  time 0
    0 0.746246 0.235933 17.889942 1.562071 0.004362 0.000000
    1 0.332457 15.529396 -0.220379 0.000000 0.000000 0.000000
    2 2.006938 17.841654 7.304364 0.000000 0.000000 0.000000
    3 1.671227 1.473717 2.417962 0.000000 0.000000 0.000000
    4 2.516212 0.478182 -0.870788 0.000000 0.000000 0.000000
  time 1
    0 0.746246 0.235933 17.889942 1.566434 0.002181 0.000000
    1 0.332457 15.529396 -0.220379 0.000000 0.000000 0.000000
    2 2.006938 17.841654 7.378585 0.000000 0.000000 0.000000
    3 1.671227 1.473717 3.074232 0.000000 0.000000 0.000000
    4 2.516212 0.478182 -0.870788 0.000000 0.000000 0.000000
  time 2
    0 0.746246 0.235933 17.889942 1.570796 0.000000 0.000000
    1 0.332457 15.529396 -0.220379 0.000000 0.000000 0.000000
    2 2.006938 17.841654 7.452806 0.000000 0.000000 0.000000
    3 1.671227 1.473717 3.726596 0.000000 0.000000 0.000000
    4 2.516212 0.478182 -0.870788 0.000000 0.000000 0.000000
end
