// Created by Crowbar 0.62

$modelname "props_junk/Rock001a.mdl"

$staticprop

$bodygroup "Body"
{
	studio "Rock001a_reference.smd"
}


$surfaceprop "concrete"

$contents "solid"

$illumposition -0.888 0.332 1.254

$cdmaterials "models\props_junk\"

$cbox 0 0 0 0 0 0

$bbox -7.797 -7.149 -4.492 7.134 5.373 7

$animation "a_idle" "Rock001a_anims\idle.smd" {
	fps 30
}

$sequence "idle" {
	"a_idle"
	fadein 0.2
	fadeout 0.2
}


$collisionmodel "Rock001a_physics.smd"
{
	$mass 8
	$inertia 1
	$damping 0
	$rotdamping 0
	$rootbone " "
	$concave

}

$KeyValues
{
	prop_data 
	{
		"base" "Stone.Small"
	}
}
