// Created by Crowbar 0.62
version 1
nodes
  0 "ValveBiped.Bip01_R_Hand" -1
  1 "ValveBiped.Weapon_bone" 0
end
skeleton
  time 0
    0 0.267086 -10.171795 -2.589520 -3.076154 0.189877 1.614382
    1 5.000000 -1.500000 -5.000000 0.000000 0.000000 0.000000
end
triangles
  phy
    0 1.357867 8.647286 3.925544 NaN NaN NaN 0 0
    0 1.606729 7.693743 4.780686 NaN NaN NaN 0 0
    0 1.661052 8.664501 3.530179 NaN NaN NaN 0 0
  phy
    0 0.822621 8.628273 3.920522 NaN NaN NaN 0 0
    0 1.606729 7.693743 4.780686 NaN NaN NaN 0 0
    0 1.357867 8.647286 3.925544 NaN NaN NaN 0 0
  phy
    0 1.239677 9.065835 1.953443 NaN NaN NaN 0 0
    0 1.357867 8.647286 3.925544 NaN NaN NaN 0 0
    0 1.661052 8.664501 3.530179 NaN NaN NaN 0 0
  phy
    0 1.357867 8.647286 3.925544 NaN NaN NaN 0 0
    0 1.239677 9.065835 1.953443 NaN NaN NaN 0 0
    0 0.822621 8.628273 3.920522 NaN NaN NaN 0 0
  phy
    0 0.460162 8.935180 1.775622 NaN NaN NaN 0 0
    0 0.930428 9.054848 1.950541 NaN NaN NaN 0 0
    0 1.147615 9.577156 -5.026365 NaN NaN NaN 0 0
  phy
    0 0.077485 8.633647 1.832838 NaN NaN NaN 0 0
    0 0.460162 8.935180 1.775622 NaN NaN NaN 0 0
    0 1.147615 9.577156 -5.026365 NaN NaN NaN 0 0
  phy
    0 0.930428 9.054848 1.950541 NaN NaN NaN 0 0
    0 0.460162 8.935180 1.775622 NaN NaN NaN 0 0
    0 0.526443 8.624190 3.519530 NaN NaN NaN 0 0
  phy
    0 0.526443 8.624190 3.519530 NaN NaN NaN 0 0
    0 0.460162 8.935180 1.775622 NaN NaN NaN 0 0
    0 0.077485 8.633647 1.832838 NaN NaN NaN 0 0
  phy
    0 0.930428 9.054848 1.950541 NaN NaN NaN 0 0
    0 1.239677 9.065835 1.953443 NaN NaN NaN 0 0
    0 1.147615 9.577156 -5.026365 NaN NaN NaN 0 0
  phy
    0 1.239677 9.065835 1.953443 NaN NaN NaN 0 0
    0 1.694779 8.979036 1.787209 NaN NaN NaN 0 0
    0 1.147615 9.577156 -5.026365 NaN NaN NaN 0 0
  phy
    0 1.239677 9.065835 1.953443 NaN NaN NaN 0 0
    0 1.661052 8.664501 3.530179 NaN NaN NaN 0 0
    0 1.694779 8.979036 1.787209 NaN NaN NaN 0 0
  phy
    0 1.239677 9.065835 1.953443 NaN NaN NaN 0 0
    0 0.930428 9.054848 1.950541 NaN NaN NaN 0 0
    0 0.822621 8.628273 3.920522 NaN NaN NaN 0 0
  phy
    0 2.372899 -7.998654 -0.488541 NaN NaN NaN 0 0
    0 1.090963 -8.044193 -0.500572 NaN NaN NaN 0 0
    0 1.665621 -5.713079 -3.704968 NaN NaN NaN 0 0
  phy
    0 1.090963 -8.044193 -0.500572 NaN NaN NaN 0 0
    0 0.991993 -3.190707 -6.343502 NaN NaN NaN 0 0
    0 1.665621 -5.713079 -3.704968 NaN NaN NaN 0 0
  phy
    0 1.665621 -5.713079 -3.704968 NaN NaN NaN 0 0
    0 2.185366 -3.148314 -6.332301 NaN NaN NaN 0 0
    0 2.372899 -7.998654 -0.488541 NaN NaN NaN 0 0
  phy
    0 0.991993 -3.190707 -6.343502 NaN NaN NaN 0 0
    0 2.185366 -3.148314 -6.332301 NaN NaN NaN 0 0
    0 1.665621 -5.713079 -3.704968 NaN NaN NaN 0 0
  phy
    0 0.930428 9.054848 1.950541 NaN NaN NaN 0 0
    0 0.526443 8.624190 3.519530 NaN NaN NaN 0 0
    0 0.822621 8.628273 3.920522 NaN NaN NaN 0 0
  phy
    0 1.661052 8.664501 3.530179 NaN NaN NaN 0 0
    0 1.606729 7.693743 4.780686 NaN NaN NaN 0 0
    0 2.161547 8.583201 2.308656 NaN NaN NaN 0 0
  phy
    0 1.694779 8.979036 1.787209 NaN NaN NaN 0 0
    0 1.661052 8.664501 3.530179 NaN NaN NaN 0 0
    0 2.161547 8.583201 2.308656 NaN NaN NaN 0 0
  phy
    0 1.539404 6.180910 4.957329 NaN NaN NaN 0 0
    0 1.606729 7.693743 4.780686 NaN NaN NaN 0 0
    0 1.152134 6.564352 5.117653 NaN NaN NaN 0 0
  phy
    0 1.152134 6.564352 5.117653 NaN NaN NaN 0 0
    0 1.606729 7.693743 4.780686 NaN NaN NaN 0 0
    0 0.630442 7.659063 4.771525 NaN NaN NaN 0 0
  phy
    0 1.129717 -7.272902 4.925867 NaN NaN NaN 0 0
    0 1.633010 -7.259748 5.222821 NaN NaN NaN 0 0
    0 1.152134 6.564352 5.117653 NaN NaN NaN 0 0
  phy
    0 1.152134 6.564352 5.117653 NaN NaN NaN 0 0
    0 0.630442 7.659063 4.771525 NaN NaN NaN 0 0
    0 1.129717 -7.272902 4.925867 NaN NaN NaN 0 0
  phy
    0 1.152134 6.564352 5.117653 NaN NaN NaN 0 0
    0 1.633010 -7.259748 5.222821 NaN NaN NaN 0 0
    0 1.539404 6.180910 4.957329 NaN NaN NaN 0 0
  phy
    0 1.685791 -8.009266 3.076789 NaN NaN NaN 0 0
    0 2.643955 -8.019275 1.180926 NaN NaN NaN 0 0
    0 2.164474 -7.882453 4.924923 NaN NaN NaN 0 0
  phy
    0 2.164474 -7.882453 4.924923 NaN NaN NaN 0 0
    0 1.656038 -7.905240 5.212382 NaN NaN NaN 0 0
    0 1.685791 -8.009266 3.076789 NaN NaN NaN 0 0
  phy
    0 1.685791 -8.009266 3.076789 NaN NaN NaN 0 0
    0 1.656038 -7.905240 5.212382 NaN NaN NaN 0 0
    0 1.167544 -7.929212 4.907108 NaN NaN NaN 0 0
  phy
    0 1.167544 -7.929212 4.907108 NaN NaN NaN 0 0
    0 0.781894 -8.085518 1.163450 NaN NaN NaN 0 0
    0 1.685791 -8.009266 3.076789 NaN NaN NaN 0 0
  phy
    0 1.685791 -8.009266 3.076789 NaN NaN NaN 0 0
    0 0.781894 -8.085518 1.163450 NaN NaN NaN 0 0
    0 2.643955 -8.019275 1.180926 NaN NaN NaN 0 0
  phy
    0 2.643955 -8.019275 1.180926 NaN NaN NaN 0 0
    0 0.781894 -8.085518 1.163450 NaN NaN NaN 0 0
    0 2.372899 -7.998654 -0.488541 NaN NaN NaN 0 0
  phy
    0 2.372899 -7.998654 -0.488541 NaN NaN NaN 0 0
    0 0.781894 -8.085518 1.163450 NaN NaN NaN 0 0
    0 1.090963 -8.044193 -0.500572 NaN NaN NaN 0 0
  phy
    0 2.372899 -7.998654 -0.488541 NaN NaN NaN 0 0
    0 2.185366 -3.148314 -6.332301 NaN NaN NaN 0 0
    0 2.643955 -8.019275 1.180926 NaN NaN NaN 0 0
  phy
    0 2.164474 -7.882453 4.924923 NaN NaN NaN 0 0
    0 2.141446 -7.236961 4.935360 NaN NaN NaN 0 0
    0 1.633010 -7.259748 5.222821 NaN NaN NaN 0 0
  phy
    0 1.633010 -7.259748 5.222821 NaN NaN NaN 0 0
    0 1.656038 -7.905240 5.212382 NaN NaN NaN 0 0
    0 2.164474 -7.882453 4.924923 NaN NaN NaN 0 0
  phy
    0 2.643955 -8.019275 1.180926 NaN NaN NaN 0 0
    0 3.247396 -3.841802 3.627456 NaN NaN NaN 0 0
    0 2.164474 -7.882453 4.924923 NaN NaN NaN 0 0
  phy
    0 3.247396 -3.841802 3.627456 NaN NaN NaN 0 0
    0 2.141446 -7.236961 4.935360 NaN NaN NaN 0 0
    0 2.164474 -7.882453 4.924923 NaN NaN NaN 0 0
  phy
    0 1.167544 -7.929212 4.907108 NaN NaN NaN 0 0
    0 1.129717 -7.272902 4.925867 NaN NaN NaN 0 0
    0 0.653915 -7.019247 1.579215 NaN NaN NaN 0 0
  phy
    0 1.167544 -7.929212 4.907108 NaN NaN NaN 0 0
    0 0.653915 -7.019247 1.579215 NaN NaN NaN 0 0
    0 0.781894 -8.085518 1.163450 NaN NaN NaN 0 0
  phy
    0 1.167544 -7.929212 4.907108 NaN NaN NaN 0 0
    0 1.656038 -7.905240 5.212382 NaN NaN NaN 0 0
    0 1.129717 -7.272902 4.925867 NaN NaN NaN 0 0
  phy
    0 1.694779 8.979036 1.787209 NaN NaN NaN 0 0
    0 2.161547 8.583201 2.308656 NaN NaN NaN 0 0
    0 2.169610 8.598307 1.392353 NaN NaN NaN 0 0
  phy
    0 1.694779 8.979036 1.787209 NaN NaN NaN 0 0
    0 2.169610 8.598307 1.392353 NaN NaN NaN 0 0
    0 1.147615 9.577156 -5.026365 NaN NaN NaN 0 0
  phy
    0 0.822621 8.628273 3.920522 NaN NaN NaN 0 0
    0 0.526443 8.624190 3.519530 NaN NaN NaN 0 0
    0 0.630442 7.659063 4.771525 NaN NaN NaN 0 0
  phy
    0 0.630442 7.659063 4.771525 NaN NaN NaN 0 0
    0 0.526443 8.624190 3.519530 NaN NaN NaN 0 0
    0 0.077485 8.633647 1.832838 NaN NaN NaN 0 0
  phy
    0 1.539404 6.180910 4.957329 NaN NaN NaN 0 0
    0 2.141446 -7.236961 4.935360 NaN NaN NaN 0 0
    0 3.247396 -3.841802 3.627456 NaN NaN NaN 0 0
  phy
    0 3.247396 -3.841802 3.627456 NaN NaN NaN 0 0
    0 1.606729 7.693743 4.780686 NaN NaN NaN 0 0
    0 1.539404 6.180910 4.957329 NaN NaN NaN 0 0
  phy
    0 1.633010 -7.259748 5.222821 NaN NaN NaN 0 0
    0 2.141446 -7.236961 4.935360 NaN NaN NaN 0 0
    0 1.539404 6.180910 4.957329 NaN NaN NaN 0 0
  phy
    0 2.643955 -8.019275 1.180926 NaN NaN NaN 0 0
    0 3.295393 -3.327023 3.310653 NaN NaN NaN 0 0
    0 3.247396 -3.841802 3.627456 NaN NaN NaN 0 0
  phy
    0 2.185366 -3.148314 -6.332301 NaN NaN NaN 0 0
    0 3.295393 -3.327023 3.310653 NaN NaN NaN 0 0
    0 2.643955 -8.019275 1.180926 NaN NaN NaN 0 0
  phy
    0 0.640206 9.094396 -5.343462 NaN NaN NaN 0 0
    0 1.693851 9.131825 -5.333572 NaN NaN NaN 0 0
    0 1.794950 7.025919 -6.418519 NaN NaN NaN 0 0
  phy
    0 1.693851 9.131825 -5.333572 NaN NaN NaN 0 0
    0 0.640206 9.094396 -5.343462 NaN NaN NaN 0 0
    0 1.147615 9.577156 -5.026365 NaN NaN NaN 0 0
  phy
    0 2.285669 5.963495 -0.361917 NaN NaN NaN 0 0
    0 3.295393 -3.327023 3.310653 NaN NaN NaN 0 0
    0 1.693851 9.131825 -5.333572 NaN NaN NaN 0 0
  phy
    0 1.693851 9.131825 -5.333572 NaN NaN NaN 0 0
    0 3.295393 -3.327023 3.310653 NaN NaN NaN 0 0
    0 1.794950 7.025919 -6.418519 NaN NaN NaN 0 0
  phy
    0 2.169610 8.598307 1.392353 NaN NaN NaN 0 0
    0 1.693851 9.131825 -5.333572 NaN NaN NaN 0 0
    0 1.147615 9.577156 -5.026365 NaN NaN NaN 0 0
  phy
    0 1.693851 9.131825 -5.333572 NaN NaN NaN 0 0
    0 2.169610 8.598307 1.392353 NaN NaN NaN 0 0
    0 2.285669 5.963495 -0.361917 NaN NaN NaN 0 0
  phy
    0 0.709133 6.987349 -6.428709 NaN NaN NaN 0 0
    0 0.640206 9.094396 -5.343462 NaN NaN NaN 0 0
    0 1.794950 7.025919 -6.418519 NaN NaN NaN 0 0
  phy
    0 0.709133 6.987349 -6.428709 NaN NaN NaN 0 0
    0 1.794950 7.025919 -6.418519 NaN NaN NaN 0 0
    0 0.938553 -1.516256 -6.987362 NaN NaN NaN 0 0
  phy
    0 0.640206 9.094396 -5.343462 NaN NaN NaN 0 0
    0 0.709133 6.987349 -6.428709 NaN NaN NaN 0 0
    0 0.077485 8.633647 1.832838 NaN NaN NaN 0 0
  phy
    0 0.709133 6.987349 -6.428709 NaN NaN NaN 0 0
    0 0.938553 -1.516256 -6.987362 NaN NaN NaN 0 0
    0 0.077485 8.633647 1.832838 NaN NaN NaN 0 0
  phy
    0 1.129717 -7.272902 4.925867 NaN NaN NaN 0 0
    0 0.630442 7.659063 4.771525 NaN NaN NaN 0 0
    0 0.077485 8.633647 1.832838 NaN NaN NaN 0 0
  phy
    0 0.653915 -7.019247 1.579215 NaN NaN NaN 0 0
    0 1.129717 -7.272902 4.925867 NaN NaN NaN 0 0
    0 0.077485 8.633647 1.832838 NaN NaN NaN 0 0
  phy
    0 1.129717 -7.272902 4.925867 NaN NaN NaN 0 0
    0 1.656038 -7.905240 5.212382 NaN NaN NaN 0 0
    0 1.633010 -7.259748 5.222821 NaN NaN NaN 0 0
  phy
    0 0.630442 7.659063 4.771525 NaN NaN NaN 0 0
    0 1.606729 7.693743 4.780686 NaN NaN NaN 0 0
    0 0.822621 8.628273 3.920522 NaN NaN NaN 0 0
  phy
    0 0.991993 -3.190707 -6.343502 NaN NaN NaN 0 0
    0 1.090963 -8.044193 -0.500572 NaN NaN NaN 0 0
    0 0.781894 -8.085518 1.163450 NaN NaN NaN 0 0
  phy
    0 3.295393 -3.327023 3.310653 NaN NaN NaN 0 0
    0 1.606729 7.693743 4.780686 NaN NaN NaN 0 0
    0 3.247396 -3.841802 3.627456 NaN NaN NaN 0 0
  phy
    0 1.794950 7.025919 -6.418519 NaN NaN NaN 0 0
    0 3.295393 -3.327023 3.310653 NaN NaN NaN 0 0
    0 2.131927 -1.473863 -6.976162 NaN NaN NaN 0 0
  phy
    0 2.131927 -1.473863 -6.976162 NaN NaN NaN 0 0
    0 3.295393 -3.327023 3.310653 NaN NaN NaN 0 0
    0 2.185366 -3.148314 -6.332301 NaN NaN NaN 0 0
  phy
    0 2.131927 -1.473863 -6.976162 NaN NaN NaN 0 0
    0 0.991993 -3.190707 -6.343502 NaN NaN NaN 0 0
    0 0.938553 -1.516256 -6.987362 NaN NaN NaN 0 0
  phy
    0 0.991993 -3.190707 -6.343502 NaN NaN NaN 0 0
    0 2.131927 -1.473863 -6.976162 NaN NaN NaN 0 0
    0 2.185366 -3.148314 -6.332301 NaN NaN NaN 0 0
  phy
    0 1.794950 7.025919 -6.418519 NaN NaN NaN 0 0
    0 2.131927 -1.473863 -6.976162 NaN NaN NaN 0 0
    0 0.938553 -1.516256 -6.987362 NaN NaN NaN 0 0
  phy
    0 2.169610 8.598307 1.392353 NaN NaN NaN 0 0
    0 3.295393 -3.327023 3.310653 NaN NaN NaN 0 0
    0 2.285669 5.963495 -0.361917 NaN NaN NaN 0 0
  phy
    0 0.640206 9.094396 -5.343462 NaN NaN NaN 0 0
    0 0.077485 8.633647 1.832838 NaN NaN NaN 0 0
    0 1.147615 9.577156 -5.026365 NaN NaN NaN 0 0
  phy
    0 0.991993 -3.190707 -6.343502 NaN NaN NaN 0 0
    0 0.653915 -7.019247 1.579215 NaN NaN NaN 0 0
    0 0.938553 -1.516256 -6.987362 NaN NaN NaN 0 0
  phy
    0 0.653915 -7.019247 1.579215 NaN NaN NaN 0 0
    0 0.991993 -3.190707 -6.343502 NaN NaN NaN 0 0
    0 0.781894 -8.085518 1.163450 NaN NaN NaN 0 0
  phy
    0 0.938553 -1.516256 -6.987362 NaN NaN NaN 0 0
    0 0.653915 -7.019247 1.579215 NaN NaN NaN 0 0
    0 0.077485 8.633647 1.832838 NaN NaN NaN 0 0
  phy
    0 2.161547 8.583201 2.308656 NaN NaN NaN 0 0
    0 3.295393 -3.327023 3.310653 NaN NaN NaN 0 0
    0 2.169610 8.598307 1.392353 NaN NaN NaN 0 0
  phy
    0 2.161547 8.583201 2.308656 NaN NaN NaN 0 0
    0 1.606729 7.693743 4.780686 NaN NaN NaN 0 0
    0 3.295393 -3.327023 3.310653 NaN NaN NaN 0 0
end
