// Created by Crowbar 0.62
version 1
nodes
  0 "ValveBiped.Bip01_Pelvis" -1
  1 "ValveBiped.Bip01_L_Thigh" 0
  2 "ValveBiped.Bip01_L_Calf" 1
  3 "ValveBiped.Bip01_L_Foot" 2
  4 "ValveBiped.Bip01_L_Toe0" 3
  5 "ValveBiped.Bip01_R_Thigh" 0
  6 "ValveBiped.Bip01_R_Calf" 5
  7 "ValveBiped.Bip01_R_Foot" 6
  8 "ValveBiped.Bip01_R_Toe0" 7
  9 "ValveBiped.Bip01_Spine" 0
  10 "ValveBiped.Bip01_Spine1" 9
  11 "ValveBiped.Bip01_Spine2" 10
  12 "ValveBiped.Bip01_Spine4" 11
  13 "ValveBiped.Bip01_Neck1" 12
  14 "ValveBiped.Bip01_Head1" 13
  15 "ValveBiped.Bip01_L_Clavicle" 12
  16 "ValveBiped.Bip01_L_UpperArm" 15
  17 "ValveBiped.Bip01_L_Forearm" 16
  18 "ValveBiped.Bip01_L_Hand" 17
  19 "ValveBiped.Bip01_L_Finger4" 18
  20 "ValveBiped.Bip01_L_Finger41" 19
  21 "ValveBiped.Bip01_L_Finger42" 20
  22 "ValveBiped.Bip01_L_Finger3" 18
  23 "ValveBiped.Bip01_L_Finger31" 22
  24 "ValveBiped.Bip01_L_Finger32" 23
  25 "ValveBiped.Bip01_L_Finger2" 18
  26 "ValveBiped.Bip01_L_Finger21" 25
  27 "ValveBiped.Bip01_L_Finger22" 26
  28 "ValveBiped.Bip01_L_Finger1" 18
  29 "ValveBiped.Bip01_L_Finger11" 28
  30 "ValveBiped.Bip01_L_Finger12" 29
  31 "ValveBiped.Bip01_L_Finger0" 18
  32 "ValveBiped.Bip01_L_Finger01" 31
  33 "ValveBiped.Bip01_L_Finger02" 32
  34 "ValveBiped.Bip01_R_Clavicle" 12
  35 "ValveBiped.Bip01_R_UpperArm" 34
  36 "ValveBiped.Bip01_R_Forearm" 35
  37 "ValveBiped.Bip01_R_Hand" 36
  38 "ValveBiped.Bip01_R_Finger4" 37
  39 "ValveBiped.Bip01_R_Finger41" 38
  40 "ValveBiped.Bip01_R_Finger42" 39
  41 "ValveBiped.Bip01_R_Finger3" 37
  42 "ValveBiped.Bip01_R_Finger31" 41
  43 "ValveBiped.Bip01_R_Finger32" 42
  44 "ValveBiped.Bip01_R_Finger2" 37
  45 "ValveBiped.Bip01_R_Finger21" 44
  46 "ValveBiped.Bip01_R_Finger22" 45
  47 "ValveBiped.Bip01_R_Finger1" 37
  48 "ValveBiped.Bip01_R_Finger11" 47
  49 "ValveBiped.Bip01_R_Finger12" 48
  50 "ValveBiped.Bip01_R_Finger0" 37
  51 "ValveBiped.Bip01_R_Finger01" 50
  52 "ValveBiped.Bip01_R_Finger02" 51
end
skeleton
  time 0
    0 -0.002349 -0.531261 35.277755 1.746867 0.230411 0.044795
    1 3.890447 0.000001 0.000000 -2.497028 -0.515469 -1.012542
    2 17.848175 -0.000001 -0.000001 0.000000 0.000000 1.992131
    3 16.525255 0.000000 0.000000 -0.080474 -0.141707 -1.217958
    4 6.879454 0.000000 0.000000 -0.007299 -0.002951 -0.584373
    5 -3.890447 0.000001 0.000000 -1.901730 -0.376467 -1.545101
    6 17.848175 -0.000001 0.000000 0.000000 0.000000 0.514656
    7 16.525255 0.000000 0.000000 0.145849 -0.263077 -1.415523
    8 6.879456 0.000000 -0.000001 -0.081333 -0.002951 -0.584373
    9 0.000000 3.345131 -2.981898 1.588556 0.165133 1.730040
    10 3.998799 0.000000 0.000000 0.136744 0.126150 0.093434
    11 3.520302 0.000000 0.000000 0.132797 -0.007335 0.096709
    12 8.923110 0.000000 0.000000 0.088255 -0.022962 0.282063
    13 3.306360 0.000001 0.000000 3.083299 -0.074868 0.774248
    14 3.601524 -0.000001 0.000000 -0.352977 -0.075354 0.716043
    15 2.056784 0.981236 1.937661 1.852521 -1.053216 2.649686
    16 6.028143 0.000001 0.000001 -0.739831 0.764875 -0.203755
    17 11.692552 -0.000001 0.000001 0.000000 0.000000 -1.532809
    18 11.481671 0.000001 -0.000033 1.575617 -0.038497 -0.154178
    19 3.851893 0.123227 -1.223225 -0.469917 0.161694 -0.812367
    20 1.312564 0.000000 0.000000 0.000000 0.004679 -0.439781
    21 0.729362 0.000001 0.000000 0.000000 0.002406 -0.244325
    22 3.926701 0.316311 -0.458788 -0.150484 0.082976 -0.742886
    23 1.539101 -0.000001 0.000000 0.000000 0.002914 -0.247798
    24 1.196324 -0.000001 0.000000 0.000000 0.004796 -0.430833
    25 3.883690 0.211049 0.404099 0.087700 0.031633 -0.519958
    26 1.719580 -0.000001 -0.000001 0.000000 0.005013 -0.366479
    27 1.209176 0.000001 0.000000 0.000000 0.002808 -0.216399
    28 3.867673 0.115967 1.301215 0.352472 -0.032983 -0.463854
    29 1.719429 0.000000 -0.000002 0.000000 0.005105 -0.363009
    30 1.099660 0.000000 0.000001 0.000000 0.003243 -0.244330
    31 0.837298 -0.302045 1.313445 -1.251008 -0.669804 -0.720185
    32 1.789784 0.000000 -0.000001 0.000000 -0.002153 0.228622
    33 1.207004 -0.000001 0.000000 0.000000 -0.003294 0.363002
    34 2.056792 0.981240 -1.937609 -2.044988 1.008664 2.505735
    35 6.028139 0.000004 0.000001 1.767414 0.049934 -0.412370
    36 11.692554 0.000000 0.000002 0.000000 0.000000 -1.655706
    37 11.481697 -0.000001 0.000001 -1.555311 0.037092 0.159990
    38 3.851861 0.133065 1.220453 0.469816 -0.167713 -0.811412
    39 1.312561 0.000000 -0.000001 0.000000 -0.007097 -0.439763
    40 0.729364 -0.000001 0.000002 0.000000 -0.003653 -0.244305
    41 3.926669 0.319868 0.458388 0.150457 -0.088581 -0.742367
    42 1.539096 -0.000001 -0.000001 0.000000 -0.004404 -0.247771
    43 1.196323 0.000000 -0.000001 0.000000 -0.007266 -0.430795
    44 3.883656 0.207493 -0.403698 -0.087715 -0.035752 -0.519729
    45 1.719579 -0.000002 0.000000 0.000000 -0.007590 -0.366435
    46 1.209176 0.000000 0.000000 0.000000 -0.004245 -0.216376
    47 3.867642 0.104978 -1.303937 -0.352490 0.029267 -0.464081
    48 1.719430 -0.000001 0.000001 0.000000 -0.007728 -0.362970
    49 1.099663 0.000000 0.000000 0.000000 -0.004918 -0.244312
    50 0.837268 -0.312954 -1.310521 1.248005 0.664326 -0.725045
    51 1.789783 0.000002 0.000001 0.000000 0.003275 0.228615
    52 1.207003 -0.000002 -0.000002 0.000000 0.005003 0.362980
  time 1
    0 4.997651 -0.531261 36.078560 1.724254 0.206871 0.012641
    1 3.890447 0.000001 0.000000 -2.532679 -0.454290 -0.809179
    2 17.848175 -0.000001 -0.000001 0.000000 0.000000 1.822761
    3 16.525255 0.000000 0.000000 -0.120618 -0.090280 -1.125409
    4 6.879454 0.000000 0.000000 -0.007299 -0.002951 -0.584373
    5 -3.890447 0.000001 0.000000 -1.899703 -0.304526 -1.732332
    6 17.848175 -0.000001 0.000000 0.000000 0.000000 0.327594
    7 16.525255 0.000000 0.000000 0.203260 -0.233502 -1.115907
    8 6.879456 0.000000 -0.000001 -0.081333 -0.002951 -0.584373
    9 0.000000 3.345131 -2.981898 1.591036 0.165727 1.705927
    10 3.998799 0.000000 0.000000 0.130177 0.122063 0.123069
    11 3.520302 0.000000 0.000000 0.140052 -0.008593 0.096636
    12 8.923110 0.000000 0.000000 0.093564 -0.024341 0.281943
    13 3.306360 0.000001 0.000000 3.103432 -0.049017 0.749996
    14 3.601524 -0.000001 0.000000 -0.336722 -0.056064 0.691528
    15 2.056784 0.981236 1.937661 1.901744 -1.142460 2.609446
    16 6.028143 0.000001 0.000001 -0.680188 0.937984 -0.188151
    17 11.692552 -0.000001 0.000001 0.000000 0.000000 -1.412846
    18 11.481671 0.000001 -0.000033 1.575064 -0.038572 -0.140009
    19 3.851893 0.123227 -1.223225 -0.469917 0.161694 -0.812367
    20 1.312564 0.000000 0.000000 0.000000 0.004679 -0.439781
    21 0.729362 0.000001 0.000000 0.000000 0.002406 -0.244325
    22 3.926701 0.316311 -0.458788 -0.150484 0.082976 -0.742886
    23 1.539101 -0.000001 0.000000 0.000000 0.002914 -0.247798
    24 1.196324 -0.000001 0.000000 0.000000 0.004796 -0.430833
    25 3.883690 0.211049 0.404099 0.087700 0.031633 -0.519958
    26 1.719580 -0.000001 -0.000001 0.000000 0.005013 -0.366479
    27 1.209176 0.000001 0.000000 0.000000 0.002808 -0.216399
    28 3.867673 0.115967 1.301215 0.352472 -0.032983 -0.463854
    29 1.719429 0.000000 -0.000002 0.000000 0.005105 -0.363009
    30 1.099660 0.000000 0.000001 0.000000 0.003243 -0.244330
    31 0.837298 -0.302045 1.313445 -1.251008 -0.669804 -0.720185
    32 1.789784 0.000000 -0.000001 0.000000 -0.002153 0.228622
    33 1.207004 -0.000001 0.000000 0.000000 -0.003294 0.363002
    34 2.056792 0.981240 -1.937609 -2.158207 1.080787 2.401670
    35 6.028139 0.000004 0.000001 1.831913 0.203260 -0.352813
    36 11.692554 0.000000 0.000002 0.000000 0.000000 -1.821564
    37 11.481697 -0.000001 0.000001 -1.555455 0.037144 0.156202
    38 3.851861 0.133065 1.220453 0.469816 -0.167713 -0.811412
    39 1.312561 0.000000 -0.000001 0.000000 -0.007097 -0.439763
    40 0.729364 -0.000001 0.000002 0.000000 -0.003653 -0.244305
    41 3.926669 0.319868 0.458388 0.150457 -0.088581 -0.742367
    42 1.539096 -0.000001 -0.000001 0.000000 -0.004404 -0.247771
    43 1.196323 0.000000 -0.000001 0.000000 -0.007266 -0.430795
    44 3.883656 0.207493 -0.403698 -0.087715 -0.035752 -0.519729
    45 1.719579 -0.000002 0.000000 0.000000 -0.007590 -0.366435
    46 1.209176 0.000000 0.000000 0.000000 -0.004245 -0.216376
    47 3.867642 0.104978 -1.303937 -0.352490 0.029267 -0.464081
    48 1.719430 -0.000001 0.000001 0.000000 -0.007728 -0.362970
    49 1.099663 0.000000 0.000000 0.000000 -0.004918 -0.244312
    50 0.837268 -0.312954 -1.310521 1.248005 0.664326 -0.725045
    51 1.789783 0.000002 0.000001 0.000000 0.003275 0.228615
    52 1.207003 -0.000002 -0.000002 0.000000 0.005003 0.362980
  time 2
    0 9.997651 -0.531261 37.109842 1.729142 0.152766 0.000197
    1 3.890447 0.000001 0.000000 -2.504891 -0.387276 -0.821218
    2 17.848175 -0.000001 -0.000001 0.000000 0.000000 1.455176
    3 16.525255 0.000000 0.000000 -0.179729 -0.172241 -1.186273
    4 6.879454 0.000000 0.000000 -0.007299 -0.002951 -0.584373
    5 -3.890447 0.000001 0.000000 -1.864059 -0.312120 -1.908610
    6 17.848175 -0.000001 0.000000 0.000000 0.000000 0.217417
    7 16.525255 0.000000 0.000000 0.042085 -0.204953 -0.562370
    8 6.879456 0.000000 -0.000001 -0.081333 -0.002951 -0.584373
    9 0.000000 3.345131 -2.981898 1.584812 0.166691 1.651089
    10 3.998799 0.000000 0.000000 0.108245 0.109767 0.137978
    11 3.520302 0.000000 0.000000 0.133314 -0.009108 0.096709
    12 8.923110 0.000000 0.000000 0.088722 -0.023082 0.282051
    13 3.306360 0.000001 0.000000 3.127209 -0.018564 0.682591
    14 3.601524 -0.000001 0.000000 -0.282184 -0.030268 0.620491
    15 2.056784 0.981236 1.937661 2.012928 -1.243522 2.506354
    16 6.028143 0.000001 0.000001 -0.720237 1.068861 -0.285421
    17 11.692552 -0.000001 0.000001 0.000000 0.000000 -1.325764
    18 11.481671 0.000001 -0.000033 1.573958 -0.038683 -0.111275
    19 3.851893 0.123227 -1.223225 -0.469917 0.161694 -0.812367
    20 1.312564 0.000000 0.000000 0.000000 0.004679 -0.439781
    21 0.729362 0.000001 0.000000 0.000000 0.002406 -0.244325
    22 3.926701 0.316311 -0.458788 -0.150484 0.082976 -0.742886
    23 1.539101 -0.000001 0.000000 0.000000 0.002914 -0.247798
    24 1.196324 -0.000001 0.000000 0.000000 0.004796 -0.430833
    25 3.883690 0.211049 0.404099 0.087700 0.031633 -0.519958
    26 1.719580 -0.000001 -0.000001 0.000000 0.005013 -0.366479
    27 1.209176 0.000001 0.000000 0.000000 0.002808 -0.216399
    28 3.867673 0.115967 1.301215 0.352472 -0.032983 -0.463854
    29 1.719429 0.000000 -0.000002 0.000000 0.005105 -0.363009
    30 1.099660 0.000000 0.000001 0.000000 0.003243 -0.244330
    31 0.837298 -0.302045 1.313445 -1.251008 -0.669804 -0.720185
    32 1.789784 0.000000 -0.000001 0.000000 -0.002153 0.228622
    33 1.207004 -0.000001 0.000000 0.000000 -0.003294 0.363002
    34 2.056792 0.981240 -1.937609 -2.326529 1.161744 2.246168
    35 6.028139 0.000004 0.000001 1.887364 0.280353 -0.368378
    36 11.692554 0.000000 0.000002 0.000000 0.000000 -1.993377
    37 11.481697 -0.000001 0.000001 -1.555838 0.037298 0.146458
    38 3.851861 0.133065 1.220453 0.469816 -0.167713 -0.811412
    39 1.312561 0.000000 -0.000001 0.000000 -0.007097 -0.439763
    40 0.729364 -0.000001 0.000002 0.000000 -0.003653 -0.244305
    41 3.926669 0.319868 0.458388 0.150457 -0.088581 -0.742367
    42 1.539096 -0.000001 -0.000001 0.000000 -0.004404 -0.247771
    43 1.196323 0.000000 -0.000001 0.000000 -0.007266 -0.430795
    44 3.883656 0.207493 -0.403698 -0.087715 -0.035752 -0.519729
    45 1.719579 -0.000002 0.000000 0.000000 -0.007590 -0.366435
    46 1.209176 0.000000 0.000000 0.000000 -0.004245 -0.216376
    47 3.867642 0.104978 -1.303937 -0.352490 0.029267 -0.464081
    48 1.719430 -0.000001 0.000001 0.000000 -0.007728 -0.362970
    49 1.099663 0.000000 0.000000 0.000000 -0.004918 -0.244312
    50 0.837268 -0.312954 -1.310521 1.248005 0.664326 -0.725045
    51 1.789783 0.000002 0.000001 0.000000 0.003275 0.228615
    52 1.207003 -0.000002 -0.000002 0.000000 0.005003 0.362980
  time 3
    0 14.997651 -0.531261 37.609857 1.751813 0.092761 0.012136
    1 3.890447 0.000001 0.000000 -2.448858 -0.303250 -0.965692
    2 17.848175 -0.000001 -0.000001 0.000000 0.000000 0.998326
    3 16.525255 0.000000 0.000000 -0.133574 -0.271432 -1.296368
    4 6.879454 0.000000 0.000000 -0.007299 -0.002951 -0.584373
    5 -3.890447 0.000001 0.000000 -1.824783 -0.406131 -2.024212
    6 17.848175 -0.000001 0.000000 0.000000 0.000000 0.344999
    7 16.525255 0.000000 0.000000 -0.045194 -0.085537 -0.271695
    8 6.879456 0.000000 -0.000001 -0.081333 -0.002951 -0.584373
    9 0.000000 3.345131 -2.981898 1.572314 0.167189 1.590235
    10 3.998799 0.000000 0.000000 0.067773 0.089453 0.130491
    11 3.520302 0.000000 0.000000 0.111193 -0.006172 0.096883
    12 8.923110 0.000000 0.000000 0.072543 -0.018876 0.282398
    13 3.306360 0.000001 0.000000 3.132482 -0.011805 0.595759
    14 3.601524 -0.000001 0.000000 -0.197610 -0.002231 0.528413
    15 2.056784 0.981236 1.937661 2.119706 -1.294367 2.403262
    16 6.028143 0.000001 0.000001 -0.899835 1.165780 -0.482951
    17 11.692552 -0.000001 0.000001 0.000000 0.000000 -1.271113
    18 11.481671 0.000001 -0.000033 1.568373 -0.038720 0.033970
    19 3.851893 0.123227 -1.223225 -0.469917 0.161694 -0.812367
    20 1.312564 0.000000 0.000000 0.000000 0.004679 -0.439781
    21 0.729362 0.000001 0.000000 0.000000 0.002406 -0.244325
    22 3.926701 0.316311 -0.458788 -0.150484 0.082976 -0.742886
    23 1.539101 -0.000001 0.000000 0.000000 0.002914 -0.247798
    24 1.196324 -0.000001 0.000000 0.000000 0.004796 -0.430833
    25 3.883690 0.211049 0.404099 0.087700 0.031633 -0.519958
    26 1.719580 -0.000001 -0.000001 0.000000 0.005013 -0.366479
    27 1.209176 0.000001 0.000000 0.000000 0.002808 -0.216399
    28 3.867673 0.115967 1.301215 0.352472 -0.032983 -0.463854
    29 1.719429 0.000000 -0.000002 0.000000 0.005105 -0.363009
    30 1.099660 0.000000 0.000001 0.000000 0.003243 -0.244330
    31 0.837298 -0.302045 1.313445 -1.251008 -0.669804 -0.720185
    32 1.789784 0.000000 -0.000001 0.000000 -0.002153 0.228622
    33 1.207004 -0.000001 0.000000 0.000000 -0.003294 0.363002
    34 2.056792 0.981240 -1.937609 -2.440751 1.203283 2.139632
    35 6.028139 0.000004 0.000001 1.885146 0.274815 -0.355889
    36 11.692554 0.000000 0.000002 0.000000 0.000000 -2.144421
    37 11.481697 -0.000001 0.000001 -1.556652 0.037606 0.123925
    38 3.851861 0.133065 1.220453 0.469816 -0.167713 -0.811412
    39 1.312561 0.000000 -0.000001 0.000000 -0.007097 -0.439763
    40 0.729364 -0.000001 0.000002 0.000000 -0.003653 -0.244305
    41 3.926669 0.319868 0.458388 0.150457 -0.088581 -0.742367
    42 1.539096 -0.000001 -0.000001 0.000000 -0.004404 -0.247771
    43 1.196323 0.000000 -0.000001 0.000000 -0.007266 -0.430795
    44 3.883656 0.207493 -0.403698 -0.087715 -0.035752 -0.519729
    45 1.719579 -0.000002 0.000000 0.000000 -0.007590 -0.366435
    46 1.209176 0.000000 0.000000 0.000000 -0.004245 -0.216376
    47 3.867642 0.104978 -1.303937 -0.352490 0.029267 -0.464081
    48 1.719430 -0.000001 0.000001 0.000000 -0.007728 -0.362970
    49 1.099663 0.000000 0.000000 0.000000 -0.004918 -0.244312
    50 0.837268 -0.312954 -1.310521 1.248005 0.664326 -0.725045
    51 1.789783 0.000002 0.000001 0.000000 0.003275 0.228615
    52 1.207003 -0.000002 -0.000002 0.000000 0.005003 0.362980
  time 4
    0 19.997651 -0.531261 37.578606 1.781492 0.063838 0.043532
    1 3.890447 0.000001 0.000000 -2.394122 -0.223713 -1.083994
    2 17.848175 -0.000001 -0.000001 0.000000 0.000000 0.635737
    3 16.525255 0.000000 0.000000 -0.179655 -0.136647 -1.193934
    4 6.879454 0.000000 0.000000 -0.007299 -0.002951 -0.584373
    5 -3.890447 0.000001 0.000000 -1.813971 -0.601258 -2.021338
    6 17.848175 -0.000001 0.000000 0.000000 0.000000 0.741558
    7 16.525255 0.000000 0.000000 -0.142935 0.023101 -0.400500
    8 6.879456 0.000000 -0.000001 -0.081333 -0.002951 -0.584373
    9 0.000000 3.345131 -2.981898 1.561182 0.167205 1.561051
    10 3.998799 0.000000 0.000000 0.008437 0.061769 0.108941
    11 3.520302 0.000000 0.000000 0.070318 -0.002421 0.097146
    12 8.923110 0.000000 0.000000 0.042761 -0.011134 0.282842
    13 3.306360 0.000001 0.000000 3.130373 -0.014489 0.529198
    14 3.601524 -0.000001 0.000000 -0.092107 0.028384 0.457795
    15 2.056784 0.981236 1.937661 2.158108 -1.294014 2.364268
    16 6.028143 0.000001 0.000001 -1.121107 1.174690 -0.729536
    17 11.692552 -0.000001 0.000001 0.000000 0.000000 -1.248892
    18 11.481671 0.000001 -0.000033 1.563893 -0.038200 0.151163
    19 3.851893 0.123227 -1.223225 -0.469917 0.161694 -0.812367
    20 1.312564 0.000000 0.000000 0.000000 0.004679 -0.439781
    21 0.729362 0.000001 0.000000 0.000000 0.002406 -0.244325
    22 3.926701 0.316311 -0.458788 -0.150484 0.082976 -0.742886
    23 1.539101 -0.000001 0.000000 0.000000 0.002914 -0.247798
    24 1.196324 -0.000001 0.000000 0.000000 0.004796 -0.430833
    25 3.883690 0.211049 0.404099 0.087700 0.031633 -0.519958
    26 1.719580 -0.000001 -0.000001 0.000000 0.005013 -0.366479
    27 1.209176 0.000001 0.000000 0.000000 0.002808 -0.216399
    28 3.867673 0.115967 1.301215 0.352472 -0.032983 -0.463854
    29 1.719429 0.000000 -0.000002 0.000000 0.005105 -0.363009
    30 1.099660 0.000000 0.000001 0.000000 0.003243 -0.244330
    31 0.837298 -0.302045 1.313445 -1.251008 -0.669804 -0.720185
    32 1.789784 0.000000 -0.000001 0.000000 -0.002153 0.228622
    33 1.207004 -0.000001 0.000000 0.000000 -0.003294 0.363002
    34 2.056792 0.981240 -1.937609 -2.439291 1.212823 2.142652
    35 6.028139 0.000004 0.000001 1.807781 0.240875 -0.399042
    36 11.692554 0.000000 0.000002 0.000000 0.000000 -2.201063
    37 11.481697 -0.000001 0.000001 -1.563596 0.039535 -0.055081
    38 3.851861 0.133065 1.220453 0.469816 -0.167713 -0.811412
    39 1.312561 0.000000 -0.000001 0.000000 -0.007097 -0.439763
    40 0.729364 -0.000001 0.000002 0.000000 -0.003653 -0.244305
    41 3.926669 0.319868 0.458388 0.150457 -0.088581 -0.742367
    42 1.539096 -0.000001 -0.000001 0.000000 -0.004404 -0.247771
    43 1.196323 0.000000 -0.000001 0.000000 -0.007266 -0.430795
    44 3.883656 0.207493 -0.403698 -0.087715 -0.035752 -0.519729
    45 1.719579 -0.000002 0.000000 0.000000 -0.007590 -0.366435
    46 1.209176 0.000000 0.000000 0.000000 -0.004245 -0.216376
    47 3.867642 0.104978 -1.303937 -0.352490 0.029267 -0.464081
    48 1.719430 -0.000001 0.000001 0.000000 -0.007728 -0.362970
    49 1.099663 0.000000 0.000000 0.000000 -0.004918 -0.244312
    50 0.837268 -0.312954 -1.310521 1.248005 0.664326 -0.725045
    51 1.789783 0.000002 0.000001 0.000000 0.003275 0.228615
    52 1.207003 -0.000002 -0.000002 0.000000 0.005003 0.362980
  time 5
    0 24.997651 -0.531261 36.977025 1.805400 0.057664 0.088825
    1 3.890447 0.000001 0.000000 -2.343890 -0.171511 -1.146285
    2 17.848175 -0.000001 -0.000001 0.000000 0.000000 0.393835
    3 16.525255 0.000000 0.000000 -0.266886 0.083123 -1.188212
    4 6.879454 0.000000 0.000000 -0.007299 -0.002951 -0.584373
    5 -3.890447 0.000001 0.000000 -1.811437 -0.757707 -1.971306
    6 17.848175 -0.000001 0.000000 0.000000 0.000000 1.094206
    7 16.525255 0.000000 0.000000 -0.226287 0.086371 -0.611991
    8 6.879456 0.000000 -0.000001 -0.081333 -0.002951 -0.584373
    9 0.000000 3.345131 -2.981898 1.551113 0.167189 1.554936
    10 3.998799 0.000000 0.000000 -0.061829 0.027984 0.080965
    11 3.520302 0.000000 0.000000 0.010385 0.002061 0.097306
    12 8.923110 0.000000 0.000000 -0.000851 0.000216 0.283082
    13 3.306360 0.000001 0.000000 3.130181 -0.014717 0.506185
    14 3.601524 -0.000001 0.000000 0.025842 0.058032 0.433794
    15 2.056784 0.981236 1.937661 2.117312 -1.247252 2.399334
    16 6.028143 0.000001 0.000001 -1.336262 1.067997 -0.920525
    17 11.692552 -0.000001 0.000001 0.000000 0.000000 -1.260152
    18 11.481671 0.000001 -0.000033 1.562843 -0.037977 0.178569
    19 3.851893 0.123227 -1.223225 -0.469917 0.161694 -0.812367
    20 1.312564 0.000000 0.000000 0.000000 0.004679 -0.439781
    21 0.729362 0.000001 0.000000 0.000000 0.002406 -0.244325
    22 3.926701 0.316311 -0.458788 -0.150484 0.082976 -0.742886
    23 1.539101 -0.000001 0.000000 0.000000 0.002914 -0.247798
    24 1.196324 -0.000001 0.000000 0.000000 0.004796 -0.430833
    25 3.883690 0.211049 0.404099 0.087700 0.031633 -0.519958
    26 1.719580 -0.000001 -0.000001 0.000000 0.005013 -0.366479
    27 1.209176 0.000001 0.000000 0.000000 0.002808 -0.216399
    28 3.867673 0.115967 1.301215 0.352472 -0.032983 -0.463854
    29 1.719429 0.000000 -0.000002 0.000000 0.005105 -0.363009
    30 1.099660 0.000000 0.000001 0.000000 0.003243 -0.244330
    31 0.837298 -0.302045 1.313445 -1.251008 -0.669804 -0.720185
    32 1.789784 0.000000 -0.000001 0.000000 -0.002153 0.228622
    33 1.207004 -0.000001 0.000000 0.000000 -0.003294 0.363002
    34 2.056792 0.981240 -1.937609 -2.318866 1.192839 2.259805
    35 6.028139 0.000004 0.000001 1.613218 0.176146 -0.515639
    36 11.692554 0.000000 0.000002 0.000000 0.000000 -2.124379
    37 11.481697 -0.000001 0.000001 -1.568050 0.040101 -0.168901
    38 3.851861 0.133065 1.220453 0.469816 -0.167713 -0.811412
    39 1.312561 0.000000 -0.000001 0.000000 -0.007097 -0.439763
    40 0.729364 -0.000001 0.000002 0.000000 -0.003653 -0.244305
    41 3.926669 0.319868 0.458388 0.150457 -0.088581 -0.742367
    42 1.539096 -0.000001 -0.000001 0.000000 -0.004404 -0.247771
    43 1.196323 0.000000 -0.000001 0.000000 -0.007266 -0.430795
    44 3.883656 0.207493 -0.403698 -0.087715 -0.035752 -0.519729
    45 1.719579 -0.000002 0.000000 0.000000 -0.007590 -0.366435
    46 1.209176 0.000000 0.000000 0.000000 -0.004245 -0.216376
    47 3.867642 0.104978 -1.303937 -0.352490 0.029267 -0.464081
    48 1.719430 -0.000001 0.000001 0.000000 -0.007728 -0.362970
    49 1.099663 0.000000 0.000000 0.000000 -0.004918 -0.244312
    50 0.837268 -0.312954 -1.310521 1.248005 0.664326 -0.725045
    51 1.789783 0.000002 0.000001 0.000000 0.003275 0.228615
    52 1.207003 -0.000002 -0.000002 0.000000 0.005003 0.362980
  time 6
    0 29.997651 -0.531261 35.812927 1.814527 0.047536 0.142583
    1 3.890447 0.000001 0.000000 -2.306865 -0.267342 -1.145369
    2 17.848175 -0.000001 -0.000001 0.000000 0.000000 0.622261
    3 16.525255 0.000000 0.000000 -0.266420 0.165986 -1.432331
    4 6.879454 0.000000 0.000000 -0.007299 -0.002951 -0.584373
    5 -3.890447 0.000001 0.000000 -1.814647 -0.889775 -1.887401
    6 17.848175 -0.000001 0.000000 0.000000 0.000000 1.428650
    7 16.525255 0.000000 0.000000 -0.269351 0.051277 -0.855364
    8 6.879456 0.000000 -0.000001 -0.081333 -0.002951 -0.584373
    9 0.000000 3.345131 -2.981898 1.538665 0.167157 1.544893
    10 3.998799 0.000000 0.000000 -0.126713 -0.009971 0.059615
    11 3.520302 0.000000 0.000000 -0.060676 0.006639 0.097189
    12 8.923110 0.000000 0.000000 -0.052552 0.013686 0.282722
    13 3.306360 0.000001 0.000000 3.152040 0.013483 0.547729
    14 3.601524 -0.000001 0.000000 0.146853 0.082125 0.478160
    15 2.056784 0.981236 1.937661 2.040316 -1.158401 2.464581
    16 6.028143 0.000001 0.000001 -1.433373 0.849157 -0.878852
    17 11.692552 -0.000001 0.000001 0.000000 0.000000 -1.306396
    18 11.481671 0.000001 -0.000033 1.562290 -0.037866 0.192810
    19 3.851893 0.123227 -1.223225 -0.469917 0.161694 -0.812367
    20 1.312564 0.000000 0.000000 0.000000 0.004679 -0.439781
    21 0.729362 0.000001 0.000000 0.000000 0.002406 -0.244325
    22 3.926701 0.316311 -0.458788 -0.150484 0.082976 -0.742886
    23 1.539101 -0.000001 0.000000 0.000000 0.002914 -0.247798
    24 1.196324 -0.000001 0.000000 0.000000 0.004796 -0.430833
    25 3.883690 0.211049 0.404099 0.087700 0.031633 -0.519958
    26 1.719580 -0.000001 -0.000001 0.000000 0.005013 -0.366479
    27 1.209176 0.000001 0.000000 0.000000 0.002808 -0.216399
    28 3.867673 0.115967 1.301215 0.352472 -0.032983 -0.463854
    29 1.719429 0.000000 -0.000002 0.000000 0.005105 -0.363009
    30 1.099660 0.000000 0.000001 0.000000 0.003243 -0.244330
    31 0.837298 -0.302045 1.313445 -1.251008 -0.669804 -0.720185
    32 1.789784 0.000000 -0.000001 0.000000 -0.002153 0.228622
    33 1.207004 -0.000001 0.000000 0.000000 -0.003294 0.363002
    34 2.056792 0.981240 -1.937609 -2.133848 1.135832 2.438921
    35 6.028139 0.000004 0.000001 1.354598 0.012032 -0.597658
    36 11.692554 0.000000 0.000002 0.000000 0.000000 -1.973770
    37 11.481697 -0.000001 0.000001 -1.569055 0.040152 -0.193356
    38 3.851861 0.133065 1.220453 0.469816 -0.167713 -0.811412
    39 1.312561 0.000000 -0.000001 0.000000 -0.007097 -0.439763
    40 0.729364 -0.000001 0.000002 0.000000 -0.003653 -0.244305
    41 3.926669 0.319868 0.458388 0.150457 -0.088581 -0.742367
    42 1.539096 -0.000001 -0.000001 0.000000 -0.004404 -0.247771
    43 1.196323 0.000000 -0.000001 0.000000 -0.007266 -0.430795
    44 3.883656 0.207493 -0.403698 -0.087715 -0.035752 -0.519729
    45 1.719579 -0.000002 0.000000 0.000000 -0.007590 -0.366435
    46 1.209176 0.000000 0.000000 0.000000 -0.004245 -0.216376
    47 3.867642 0.104978 -1.303937 -0.352490 0.029267 -0.464081
    48 1.719430 -0.000001 0.000001 0.000000 -0.007728 -0.362970
    49 1.099663 0.000000 0.000000 0.000000 -0.004918 -0.244312
    50 0.837268 -0.312954 -1.310521 1.248005 0.664326 -0.725045
    51 1.789783 0.000002 0.000001 0.000000 0.003275 0.228615
    52 1.207003 -0.000002 -0.000002 0.000000 0.005003 0.362980
  time 7
    0 34.997651 -0.531261 35.101968 1.793858 -0.001946 0.199437
    1 3.890447 0.000001 0.000000 -2.253198 -0.303609 -1.300116
    2 17.848175 -0.000001 -0.000001 0.000000 0.000000 0.778683
    3 16.525255 0.000000 0.000000 -0.163877 0.136496 -1.609391
    4 6.879454 0.000000 0.000000 -0.007299 -0.002951 -0.584373
    5 -3.890447 0.000001 0.000000 -1.809579 -0.958340 -1.790056
    6 17.848175 -0.000001 0.000000 0.000000 0.000000 1.665212
    7 16.525255 0.000000 0.000000 -0.286782 -0.002352 -1.053799
    8 6.879456 0.000000 -0.000001 -0.081333 -0.002951 -0.584373
    9 0.000000 3.345131 -2.981898 1.518780 0.166739 1.494182
    10 3.998799 0.000000 0.000000 -0.172938 -0.058341 0.052326
    11 3.520302 0.000000 0.000000 -0.126537 0.010295 0.096767
    12 8.923110 0.000000 0.000000 -0.100431 0.026114 0.281763
    13 3.306360 0.000001 0.000000 3.183008 0.053188 0.640177
    14 3.601524 -0.000001 0.000000 0.259187 0.095920 0.575610
    15 2.056784 0.981236 1.937661 1.979123 -1.056397 2.509803
    16 6.028143 0.000001 0.000001 -1.449239 0.585539 -0.644133
    17 11.692552 -0.000001 0.000001 0.000000 0.000000 -1.389725
    18 11.481671 0.000001 -0.000033 1.562013 -0.037791 0.201240
    19 3.851893 0.123227 -1.223225 -0.469917 0.161694 -0.812367
    20 1.312564 0.000000 0.000000 0.000000 0.004679 -0.439781
    21 0.729362 0.000001 0.000000 0.000000 0.002406 -0.244325
    22 3.926701 0.316311 -0.458788 -0.150484 0.082976 -0.742886
    23 1.539101 -0.000001 0.000000 0.000000 0.002914 -0.247798
    24 1.196324 -0.000001 0.000000 0.000000 0.004796 -0.430833
    25 3.883690 0.211049 0.404099 0.087700 0.031633 -0.519958
    26 1.719580 -0.000001 -0.000001 0.000000 0.005013 -0.366479
    27 1.209176 0.000001 0.000000 0.000000 0.002808 -0.216399
    28 3.867673 0.115967 1.301215 0.352472 -0.032983 -0.463854
    29 1.719429 0.000000 -0.000002 0.000000 0.005105 -0.363009
    30 1.099660 0.000000 0.000001 0.000000 0.003243 -0.244330
    31 0.837298 -0.302045 1.313445 -1.251008 -0.669804 -0.720185
    32 1.789784 0.000000 -0.000001 0.000000 -0.002153 0.228622
    33 1.207004 -0.000001 0.000000 0.000000 -0.003294 0.363002
    34 2.056792 0.981240 -1.937609 -1.977203 1.058212 2.591403
    35 6.028139 0.000004 0.000001 1.107601 -0.262065 -0.562520
    36 11.692554 0.000000 0.000002 0.000000 0.000000 -1.822871
    37 11.481697 -0.000001 0.000001 -1.569486 0.040178 -0.203758
    38 3.851861 0.133065 1.220453 0.469816 -0.167713 -0.811412
    39 1.312561 0.000000 -0.000001 0.000000 -0.007097 -0.439763
    40 0.729364 -0.000001 0.000002 0.000000 -0.003653 -0.244305
    41 3.926669 0.319868 0.458388 0.150457 -0.088581 -0.742367
    42 1.539096 -0.000001 -0.000001 0.000000 -0.004404 -0.247771
    43 1.196323 0.000000 -0.000001 0.000000 -0.007266 -0.430795
    44 3.883656 0.207493 -0.403698 -0.087715 -0.035752 -0.519729
    45 1.719579 -0.000002 0.000000 0.000000 -0.007590 -0.366435
    46 1.209176 0.000000 0.000000 0.000000 -0.004245 -0.216376
    47 3.867642 0.104978 -1.303937 -0.352490 0.029267 -0.464081
    48 1.719430 -0.000001 0.000001 0.000000 -0.007728 -0.362970
    49 1.099663 0.000000 0.000000 0.000000 -0.004918 -0.244312
    50 0.837268 -0.312954 -1.310521 1.248005 0.664326 -0.725045
    51 1.789783 0.000002 0.000001 0.000000 0.003275 0.228615
    52 1.207003 -0.000002 -0.000002 0.000000 0.005003 0.362980
  time 8
    0 39.997651 -0.531261 34.949620 1.749222 -0.059367 0.255027
    1 3.890447 0.000001 0.000000 -2.111435 -0.228202 -1.553993
    2 17.848175 -0.000001 -0.000001 0.000000 0.000000 0.711450
    3 16.525255 0.000000 0.000000 -0.076769 0.044646 -1.673471
    4 6.879454 0.000000 0.000000 -0.007299 -0.002951 -0.584373
    5 -3.890447 0.000001 0.000000 -1.780945 -0.958873 -1.661402
    6 17.848175 -0.000001 0.000000 0.000000 0.000000 1.744332
    7 16.525255 0.000000 0.000000 -0.270441 -0.028626 -1.148357
    8 6.879456 0.000000 -0.000001 -0.081333 -0.002951 -0.584373
    9 0.000000 3.345131 -2.981898 1.497781 0.165679 1.434024
    10 3.998799 0.000000 0.000000 -0.197914 -0.106411 0.065807
    11 3.520302 0.000000 0.000000 -0.174070 0.012548 0.096272
    12 8.923110 0.000000 0.000000 -0.134994 0.035055 0.280709
    13 3.306360 0.000001 0.000000 3.198731 0.073382 0.732598
    14 3.601524 -0.000001 0.000000 0.346392 0.097056 0.673929
    15 2.056784 0.981236 1.937661 1.964949 -0.997699 2.511815
    16 6.028143 0.000001 0.000001 -1.464246 0.323057 -0.410535
    17 11.692552 -0.000001 0.000001 0.000000 0.000000 -1.508862
    18 11.481671 0.000001 -0.000033 1.561847 -0.037754 0.205544
    19 3.851893 0.123227 -1.223225 -0.469917 0.161694 -0.812367
    20 1.312564 0.000000 0.000000 0.000000 0.004679 -0.439781
    21 0.729362 0.000001 0.000000 0.000000 0.002406 -0.244325
    22 3.926701 0.316311 -0.458788 -0.150484 0.082976 -0.742886
    23 1.539101 -0.000001 0.000000 0.000000 0.002914 -0.247798
    24 1.196324 -0.000001 0.000000 0.000000 0.004796 -0.430833
    25 3.883690 0.211049 0.404099 0.087700 0.031633 -0.519958
    26 1.719580 -0.000001 -0.000001 0.000000 0.005013 -0.366479
    27 1.209176 0.000001 0.000000 0.000000 0.002808 -0.216399
    28 3.867673 0.115967 1.301215 0.352472 -0.032983 -0.463854
    29 1.719429 0.000000 -0.000002 0.000000 0.005105 -0.363009
    30 1.099660 0.000000 0.000001 0.000000 0.003243 -0.244330
    31 0.837298 -0.302045 1.313445 -1.251008 -0.669804 -0.720185
    32 1.789784 0.000000 -0.000001 0.000000 -0.002153 0.228622
    33 1.207004 -0.000001 0.000000 0.000000 -0.003294 0.363002
    34 2.056792 0.981240 -1.937609 -1.896736 1.015299 2.673410
    35 6.028139 0.000004 0.000001 0.902657 -0.567859 -0.451329
    36 11.692554 0.000000 0.000002 0.000000 0.000000 -1.674731
    37 11.481697 -0.000001 0.000001 -1.569534 0.040178 -0.205707
    38 3.851861 0.133065 1.220453 0.469816 -0.167713 -0.811412
    39 1.312561 0.000000 -0.000001 0.000000 -0.007097 -0.439763
    40 0.729364 -0.000001 0.000002 0.000000 -0.003653 -0.244305
    41 3.926669 0.319868 0.458388 0.150457 -0.088581 -0.742367
    42 1.539096 -0.000001 -0.000001 0.000000 -0.004404 -0.247771
    43 1.196323 0.000000 -0.000001 0.000000 -0.007266 -0.430795
    44 3.883656 0.207493 -0.403698 -0.087715 -0.035752 -0.519729
    45 1.719579 -0.000002 0.000000 0.000000 -0.007590 -0.366435
    46 1.209176 0.000000 0.000000 0.000000 -0.004245 -0.216376
    47 3.867642 0.104978 -1.303937 -0.352490 0.029267 -0.464081
    48 1.719430 -0.000001 0.000001 0.000000 -0.007728 -0.362970
    49 1.099663 0.000000 0.000000 0.000000 -0.004918 -0.244312
    50 0.837268 -0.312954 -1.310521 1.248005 0.664326 -0.725045
    51 1.789783 0.000002 0.000001 0.000000 0.003275 0.228615
    52 1.207003 -0.000002 -0.000002 0.000000 0.005003 0.362980
  time 9
    0 44.997651 -0.531261 35.305099 1.710180 -0.079683 0.303227
    1 3.890447 0.000001 0.000000 -2.062120 -0.054540 -1.733669
    2 17.848175 -0.000001 -0.000001 0.000000 0.000000 0.530951
    3 16.525255 0.000000 0.000000 -0.143977 0.076879 -1.555147
    4 6.879454 0.000000 0.000000 -0.007299 -0.002951 -0.584373
    5 -3.890447 0.000001 0.000000 -1.721397 -0.906472 -1.518065
    6 17.848175 -0.000001 0.000000 0.000000 0.000000 1.638147
    7 16.525255 0.000000 0.000000 -0.225959 -0.048038 -1.178773
    8 6.879456 0.000000 -0.000001 -0.081333 -0.002951 -0.584373
    9 0.000000 3.345131 -2.981898 1.484574 0.165133 1.411552
    10 3.998799 0.000000 0.000000 -0.205200 -0.128091 0.095343
    11 3.520302 0.000000 0.000000 -0.200383 0.013638 0.095937
    12 8.923110 0.000000 0.000000 -0.154122 0.039981 0.279990
    13 3.306360 0.000001 0.000000 3.191828 0.064501 0.773668
    14 3.601524 -0.000001 0.000000 0.384243 0.086206 0.719003
    15 2.056784 0.981236 1.937661 2.011108 -1.015760 2.465060
    16 6.028143 0.000001 0.000001 -1.503817 0.082760 -0.306351
    17 11.692552 -0.000001 0.000001 0.000000 0.000000 -1.655700
    18 11.481671 0.000001 -0.000033 1.561792 -0.037754 0.206011
    19 3.851893 0.123227 -1.223225 -0.469917 0.161694 -0.812367
    20 1.312564 0.000000 0.000000 0.000000 0.004679 -0.439781
    21 0.729362 0.000001 0.000000 0.000000 0.002406 -0.244325
    22 3.926701 0.316311 -0.458788 -0.150484 0.082976 -0.742886
    23 1.539101 -0.000001 0.000000 0.000000 0.002914 -0.247798
    24 1.196324 -0.000001 0.000000 0.000000 0.004796 -0.430833
    25 3.883690 0.211049 0.404099 0.087700 0.031633 -0.519958
    26 1.719580 -0.000001 -0.000001 0.000000 0.005013 -0.366479
    27 1.209176 0.000001 0.000000 0.000000 0.002808 -0.216399
    28 3.867673 0.115967 1.301215 0.352472 -0.032983 -0.463854
    29 1.719429 0.000000 -0.000002 0.000000 0.005105 -0.363009
    30 1.099660 0.000000 0.000001 0.000000 0.003243 -0.244330
    31 0.837298 -0.302045 1.313445 -1.251008 -0.669804 -0.720185
    32 1.789784 0.000000 -0.000001 0.000000 -0.002153 0.228622
    33 1.207004 -0.000001 0.000000 0.000000 -0.003294 0.363002
    34 2.056792 0.981240 -1.937609 -1.888434 1.046433 2.688054
    35 6.028139 0.000004 0.000001 0.756535 -0.822480 -0.343493
    36 11.692554 0.000000 0.000002 0.000000 0.000000 -1.532764
    37 11.481697 -0.000001 0.000001 -1.569343 0.040178 -0.200218
    38 3.851861 0.133065 1.220453 0.469816 -0.167713 -0.811412
    39 1.312561 0.000000 -0.000001 0.000000 -0.007097 -0.439763
    40 0.729364 -0.000001 0.000002 0.000000 -0.003653 -0.244305
    41 3.926669 0.319868 0.458388 0.150457 -0.088581 -0.742367
    42 1.539096 -0.000001 -0.000001 0.000000 -0.004404 -0.247771
    43 1.196323 0.000000 -0.000001 0.000000 -0.007266 -0.430795
    44 3.883656 0.207493 -0.403698 -0.087715 -0.035752 -0.519729
    45 1.719579 -0.000002 0.000000 0.000000 -0.007590 -0.366435
    46 1.209176 0.000000 0.000000 0.000000 -0.004245 -0.216376
    47 3.867642 0.104978 -1.303937 -0.352490 0.029267 -0.464081
    48 1.719430 -0.000001 0.000001 0.000000 -0.007728 -0.362970
    49 1.099663 0.000000 0.000000 0.000000 -0.004918 -0.244312
    50 0.837268 -0.312954 -1.310521 1.248005 0.664326 -0.725045
    51 1.789783 0.000002 0.000001 0.000000 0.003275 0.228615
    52 1.207003 -0.000002 -0.000002 0.000000 0.005003 0.362980
  time 10
    0 49.997651 -0.531261 36.059028 1.703173 -0.052858 0.336707
    1 3.890447 0.000001 0.000000 -2.009063 0.035725 -1.823900
    2 17.848175 -0.000001 -0.000001 0.000000 0.000000 0.426468
    3 16.525255 0.000000 0.000000 -0.212143 0.251060 -1.254846
    4 6.879454 0.000000 0.000000 -0.007299 -0.002951 -0.584373
    5 -3.890447 0.000001 0.000000 -1.675110 -0.815747 -1.372319
    6 17.848175 -0.000001 0.000000 0.000000 0.000000 1.377074
    7 16.525255 0.000000 0.000000 -0.047105 -0.202007 -1.197836
    8 6.879456 0.000000 -0.000001 -0.081333 -0.002951 -0.584373
    9 0.000000 3.345131 -2.981898 1.482399 0.165807 1.439394
    10 3.998799 0.000000 0.000000 -0.197530 -0.123345 0.124896
    11 3.520302 0.000000 0.000000 -0.208287 0.013950 0.095835
    12 8.923110 0.000000 0.000000 -0.159874 0.041455 0.279762
    13 3.306360 0.000001 0.000000 3.172653 0.039981 0.741481
    14 3.601524 -0.000001 0.000000 0.369754 0.067761 0.686348
    15 2.056784 0.981236 1.937661 2.110512 -1.082114 2.374519
    16 6.028143 0.000001 0.000001 -1.567187 -0.103804 -0.312611
    17 11.692552 -0.000001 0.000001 0.000000 0.000000 -1.821531
    18 11.481671 0.000001 -0.000033 1.561958 -0.037791 0.202244
    19 3.851893 0.123227 -1.223225 -0.469917 0.161694 -0.812367
    20 1.312564 0.000000 0.000000 0.000000 0.004679 -0.439781
    21 0.729362 0.000001 0.000000 0.000000 0.002406 -0.244325
    22 3.926701 0.316311 -0.458788 -0.150484 0.082976 -0.742886
    23 1.539101 -0.000001 0.000000 0.000000 0.002914 -0.247798
    24 1.196324 -0.000001 0.000000 0.000000 0.004796 -0.430833
    25 3.883690 0.211049 0.404099 0.087700 0.031633 -0.519958
    26 1.719580 -0.000001 -0.000001 0.000000 0.005013 -0.366479
    27 1.209176 0.000001 0.000000 0.000000 0.002808 -0.216399
    28 3.867673 0.115967 1.301215 0.352472 -0.032983 -0.463854
    29 1.719429 0.000000 -0.000002 0.000000 0.005105 -0.363009
    30 1.099660 0.000000 0.000001 0.000000 0.003243 -0.244330
    31 0.837298 -0.302045 1.313445 -1.251008 -0.669804 -0.720185
    32 1.789784 0.000000 -0.000001 0.000000 -0.002153 0.228622
    33 1.207004 -0.000001 0.000000 0.000000 -0.003294 0.363002
    34 2.056792 0.981240 -1.937609 -1.935419 1.126448 2.648515
    35 6.028139 0.000004 0.000001 0.710933 -1.006118 -0.325132
    36 11.692554 0.000000 0.000002 0.000000 0.000000 -1.412800
    37 11.481697 -0.000001 0.000001 -1.568768 0.040152 -0.186055
    38 3.851861 0.133065 1.220453 0.469816 -0.167713 -0.811412
    39 1.312561 0.000000 -0.000001 0.000000 -0.007097 -0.439763
    40 0.729364 -0.000001 0.000002 0.000000 -0.003653 -0.244305
    41 3.926669 0.319868 0.458388 0.150457 -0.088581 -0.742367
    42 1.539096 -0.000001 -0.000001 0.000000 -0.004404 -0.247771
    43 1.196323 0.000000 -0.000001 0.000000 -0.007266 -0.430795
    44 3.883656 0.207493 -0.403698 -0.087715 -0.035752 -0.519729
    45 1.719579 -0.000002 0.000000 0.000000 -0.007590 -0.366435
    46 1.209176 0.000000 0.000000 0.000000 -0.004245 -0.216376
    47 3.867642 0.104978 -1.303937 -0.352490 0.029267 -0.464081
    48 1.719430 -0.000001 0.000001 0.000000 -0.007728 -0.362970
    49 1.099663 0.000000 0.000000 0.000000 -0.004918 -0.244312
    50 0.837268 -0.312954 -1.310521 1.248005 0.664326 -0.725045
    51 1.789783 0.000002 0.000001 0.000000 0.003275 0.228615
    52 1.207003 -0.000002 -0.000002 0.000000 0.005003 0.362980
  time 11
    0 54.997651 -0.531261 37.023902 1.730791 -0.002616 0.349278
    1 3.890447 0.000001 0.000000 -2.164110 0.060637 -1.817488
    2 17.848175 -0.000001 -0.000001 0.000000 0.000000 0.413748
    3 16.525255 0.000000 0.000000 0.032423 0.446082 -0.828086
    4 6.879454 0.000000 0.000000 -0.007299 -0.002951 -0.584373
    5 -3.890447 0.000001 0.000000 -1.676040 -0.699799 -1.237061
    6 17.848175 -0.000001 0.000000 0.000000 0.000000 1.028498
    7 16.525255 0.000000 0.000000 0.162540 -0.179593 -1.182037
    8 6.879456 0.000000 -0.000001 -0.081333 -0.002951 -0.584373
    9 0.000000 3.345131 -2.981898 1.488825 0.166723 1.493337
    10 3.998799 0.000000 0.000000 -0.172267 -0.109743 0.138244
    11 3.520302 0.000000 0.000000 -0.200502 0.013650 0.095937
    12 8.923110 0.000000 0.000000 -0.154206 0.039993 0.279990
    13 3.306360 0.000001 0.000000 3.157889 0.020985 0.673233
    14 3.601524 -0.000001 0.000000 0.317023 0.045479 0.613863
    15 2.056784 0.981236 1.937661 2.264981 -1.163741 2.233678
    16 6.028143 0.000001 0.000001 -1.618802 -0.219089 -0.352043
    17 11.692552 -0.000001 0.000001 0.000000 0.000000 -1.993443
    18 11.481671 0.000001 -0.000033 1.562345 -0.037866 0.192523
    19 3.851893 0.123227 -1.223225 -0.469917 0.161694 -0.812367
    20 1.312564 0.000000 0.000000 0.000000 0.004679 -0.439781
    21 0.729362 0.000001 0.000000 0.000000 0.002406 -0.244325
    22 3.926701 0.316311 -0.458788 -0.150484 0.082976 -0.742886
    23 1.539101 -0.000001 0.000000 0.000000 0.002914 -0.247798
    24 1.196324 -0.000001 0.000000 0.000000 0.004796 -0.430833
    25 3.883690 0.211049 0.404099 0.087700 0.031633 -0.519958
    26 1.719580 -0.000001 -0.000001 0.000000 0.005013 -0.366479
    27 1.209176 0.000001 0.000000 0.000000 0.002808 -0.216399
    28 3.867673 0.115967 1.301215 0.352472 -0.032983 -0.463854
    29 1.719429 0.000000 -0.000002 0.000000 0.005105 -0.363009
    30 1.099660 0.000000 0.000001 0.000000 0.003255 -0.244330
    31 0.837298 -0.302045 1.313445 -1.251008 -0.669804 -0.720185
    32 1.789784 0.000000 -0.000001 0.000000 -0.002153 0.228622
    33 1.207004 -0.000001 0.000000 0.000000 -0.003294 0.363002
    34 2.056792 0.981240 -1.937609 -2.045535 1.222952 2.545091
    35 6.028139 0.000004 0.000001 0.839932 -1.135147 -0.495973
    36 11.692554 0.000000 0.000002 0.000000 0.000000 -1.325804
    37 11.481697 -0.000001 0.000001 -1.567619 0.040075 -0.157319
    38 3.851861 0.133065 1.220453 0.469816 -0.167713 -0.811412
    39 1.312561 0.000000 -0.000001 0.000000 -0.007097 -0.439763
    40 0.729364 -0.000001 0.000002 0.000000 -0.003653 -0.244305
    41 3.926669 0.319868 0.458388 0.150457 -0.088581 -0.742367
    42 1.539096 -0.000001 -0.000001 0.000000 -0.004404 -0.247771
    43 1.196323 0.000000 -0.000001 0.000000 -0.007266 -0.430795
    44 3.883656 0.207493 -0.403698 -0.087715 -0.035752 -0.519729
    45 1.719579 -0.000002 0.000000 0.000000 -0.007590 -0.366435
    46 1.209176 0.000000 0.000000 0.000000 -0.004245 -0.216376
    47 3.867642 0.104978 -1.303937 -0.352490 0.029267 -0.464081
    48 1.719430 -0.000001 0.000001 0.000000 -0.007728 -0.362970
    49 1.099663 0.000000 0.000000 0.000000 -0.004918 -0.244312
    50 0.837268 -0.312954 -1.310521 1.248005 0.664326 -0.725045
    51 1.789783 0.000002 0.000001 0.000000 0.003275 0.228615
    52 1.207003 -0.000002 -0.000002 0.000000 0.005003 0.362980
  time 12
    0 59.997651 -0.531261 37.582512 1.770480 0.047962 0.336897
    1 3.890447 0.000001 0.000000 -2.286559 0.005293 -1.769526
    2 17.848175 -0.000001 -0.000001 0.000000 0.000000 0.565249
    3 16.525255 0.000000 0.000000 0.214957 0.454166 -0.672781
    4 6.879454 0.000000 0.000000 -0.007299 -0.002951 -0.584373
    5 -3.890447 0.000001 0.000000 -1.709657 -0.544417 -1.148340
    6 17.848175 -0.000001 0.000000 0.000000 0.000000 0.622279
    7 16.525255 0.000000 0.000000 0.061571 -0.113060 -1.039372
    8 6.879456 0.000000 -0.000001 -0.081333 -0.002951 -0.584373
    9 0.000000 3.345131 -2.981898 1.500412 0.167173 1.547727
    10 3.998799 0.000000 0.000000 -0.127061 -0.088422 0.128017
    11 3.520302 0.000000 0.000000 -0.174892 0.012404 0.096272
    12 8.923110 0.000000 0.000000 -0.135582 0.035199 0.280685
    13 3.306360 0.000001 0.000000 3.154533 0.016671 0.597894
    14 3.601524 -0.000001 0.000000 0.221729 0.017258 0.531920
    15 2.056784 0.981236 1.937661 2.393498 -1.214114 2.114586
    16 6.028143 0.000001 0.000001 -1.617846 -0.254502 -0.316349
    17 11.692552 -0.000001 0.000001 0.000000 0.000000 -2.144411
    18 11.481671 0.000001 -0.000033 1.563174 -0.038051 0.169960
    19 3.851893 0.123227 -1.223225 -0.469917 0.161694 -0.812367
    20 1.312564 0.000000 0.000000 0.000000 0.004679 -0.439781
    21 0.729362 0.000001 0.000000 0.000000 0.002406 -0.244325
    22 3.926701 0.316311 -0.458788 -0.150484 0.082976 -0.742886
    23 1.539101 -0.000001 0.000000 0.000000 0.002914 -0.247798
    24 1.196324 -0.000001 0.000000 0.000000 0.004796 -0.430833
    25 3.883690 0.211049 0.404099 0.087700 0.031633 -0.519958
    26 1.719580 -0.000001 -0.000001 0.000000 0.005013 -0.366479
    27 1.209176 0.000001 0.000000 0.000000 0.002808 -0.216399
    28 3.867673 0.115967 1.301215 0.352472 -0.032983 -0.463854
    29 1.719429 0.000000 -0.000002 0.000000 0.005105 -0.363009
    30 1.099660 0.000000 0.000001 0.000000 0.003255 -0.244330
    31 0.837298 -0.302045 1.313445 -1.251008 -0.669804 -0.720185
    32 1.789784 0.000000 -0.000001 0.000000 -0.002153 0.228622
    33 1.207004 -0.000001 0.000000 0.000000 -0.003294 0.363002
    34 2.056792 0.981240 -1.937609 -2.168789 1.280667 2.425466
    35 6.028139 0.000004 0.000001 1.209363 -1.207657 -0.874191
    36 11.692554 0.000000 0.000002 0.000000 0.000000 -1.271051
    37 11.481697 -0.000001 0.000001 -1.561872 0.039175 -0.012072
    38 3.851861 0.133065 1.220453 0.469816 -0.167713 -0.811412
    39 1.312561 0.000000 -0.000001 0.000000 -0.007097 -0.439763
    40 0.729364 -0.000001 0.000002 0.000000 -0.003653 -0.244305
    41 3.926669 0.319868 0.458388 0.150457 -0.088581 -0.742367
    42 1.539096 -0.000001 -0.000001 0.000000 -0.004404 -0.247771
    43 1.196323 0.000000 -0.000001 0.000000 -0.007266 -0.430795
    44 3.883656 0.207493 -0.403698 -0.087715 -0.035752 -0.519729
    45 1.719579 -0.000002 0.000000 0.000000 -0.007590 -0.366435
    46 1.209176 0.000000 0.000000 0.000000 -0.004245 -0.216376
    47 3.867642 0.104978 -1.303937 -0.352490 0.029267 -0.464081
    48 1.719430 -0.000001 0.000001 0.000000 -0.007728 -0.362970
    49 1.099663 0.000000 0.000000 0.000000 -0.004918 -0.244312
    50 0.837268 -0.312954 -1.310521 1.248005 0.664326 -0.725045
    51 1.789783 0.000002 0.000001 0.000000 0.003275 0.228615
    52 1.207003 -0.000002 -0.000002 0.000000 0.005003 0.362980
  time 13
    0 64.997651 -0.531261 37.609857 1.802279 0.077219 0.304048
    1 3.890447 0.000001 0.000000 -2.336180 -0.069935 -1.744924
    2 17.848175 -0.000001 -0.000001 0.000000 0.000000 0.766720
    3 16.525255 0.000000 0.000000 0.238243 0.356479 -0.683611
    4 6.879454 0.000000 0.000000 -0.007299 -0.002951 -0.584373
    5 -3.890447 0.000001 0.000000 -1.746737 -0.323577 -1.150981
    6 17.848175 -0.000001 0.000000 0.000000 0.000000 0.126560
    7 16.525255 0.000000 0.000000 -0.098288 -0.059506 -0.835638
    8 6.879456 0.000000 -0.000001 -0.079296 -0.002903 -0.583820
    9 0.000000 3.345131 -2.981898 1.512101 0.167221 1.578254
    10 3.998799 0.000000 0.000000 -0.064333 -0.060678 0.105952
    11 3.520302 0.000000 0.000000 -0.129177 0.009863 0.096738
    12 8.923110 0.000000 0.000000 -0.102324 0.026606 0.281715
    13 3.306360 0.000001 0.000000 3.155779 0.018360 0.537686
    14 3.601524 -0.000001 0.000000 0.089174 -0.016365 0.466321
    15 2.056784 0.981236 1.937661 2.399340 -1.226129 2.110849
    16 6.028143 0.000001 0.000001 -1.555622 -0.227817 -0.320647
    17 11.692552 -0.000001 0.000001 0.000000 0.000000 -2.201089
    18 11.481671 0.000001 -0.000033 1.570087 -0.038795 -0.009041
    19 3.851893 0.123227 -1.223225 -0.469917 0.161694 -0.812367
    20 1.312564 0.000000 0.000000 0.000000 0.004679 -0.439781
    21 0.729362 0.000001 0.000000 0.000000 0.002406 -0.244325
    22 3.926701 0.316311 -0.458788 -0.150484 0.082976 -0.742886
    23 1.539101 -0.000001 0.000000 0.000000 0.002914 -0.247798
    24 1.196324 -0.000001 0.000000 0.000000 0.004796 -0.430833
    25 3.883690 0.211049 0.404099 0.087700 0.031633 -0.519958
    26 1.719580 -0.000001 -0.000001 0.000000 0.005013 -0.366479
    27 1.209176 0.000001 0.000000 0.000000 0.002808 -0.216399
    28 3.867673 0.115967 1.301215 0.352472 -0.032983 -0.463854
    29 1.719429 0.000000 -0.000002 0.000000 0.005105 -0.363009
    30 1.099660 0.000000 0.000001 0.000000 0.003243 -0.244330
    31 0.837298 -0.302045 1.313445 -1.251008 -0.669804 -0.720185
    32 1.789784 0.000000 -0.000001 0.000000 -0.002153 0.228622
    33 1.207004 -0.000001 0.000000 0.000000 -0.003294 0.363002
    34 2.056792 0.981240 -1.937609 -2.213493 1.282905 2.380253
    35 6.028139 0.000004 0.000001 1.508705 -1.161115 -1.203850
    36 11.692554 0.000000 0.000002 0.000000 0.000000 -1.248902
    37 11.481697 -0.000001 0.000001 -1.557371 0.037864 0.105124
    38 3.851861 0.133065 1.220453 0.469816 -0.167713 -0.811412
    39 1.312561 0.000000 -0.000001 0.000000 -0.007097 -0.439763
    40 0.729364 -0.000001 0.000002 0.000000 -0.003653 -0.244305
    41 3.926669 0.319868 0.458388 0.150457 -0.088581 -0.742367
    42 1.539096 -0.000001 -0.000001 0.000000 -0.004404 -0.247771
    43 1.196323 0.000000 -0.000001 0.000000 -0.007266 -0.430795
    44 3.883656 0.207493 -0.403698 -0.087715 -0.035752 -0.519729
    45 1.719579 -0.000002 0.000000 0.000000 -0.007590 -0.366435
    46 1.209176 0.000000 0.000000 0.000000 -0.004245 -0.216376
    47 3.867642 0.104978 -1.303937 -0.352490 0.029267 -0.464081
    48 1.719430 -0.000001 0.000001 0.000000 -0.007728 -0.362970
    49 1.099663 0.000000 0.000000 0.000000 -0.004918 -0.244312
    50 0.837268 -0.312954 -1.310521 1.248005 0.664326 -0.725045
    51 1.789783 0.000002 0.000001 0.000000 0.003275 0.228615
    52 1.207003 -0.000002 -0.000002 0.000000 0.005003 0.362980
  time 14
    0 69.997651 -0.531261 37.043433 1.820651 0.088016 0.256670
    1 3.890447 0.000001 0.000000 -2.339310 -0.172634 -1.727780
    2 17.848175 -0.000001 -0.000001 0.000000 0.000000 1.030201
    3 16.525255 0.000000 0.000000 0.155650 0.235652 -0.815791
    4 6.879454 0.000000 0.000000 -0.007299 -0.002951 -0.584373
    5 -3.890447 0.000001 0.000000 -1.798176 -0.353108 -1.173123
    6 17.848175 -0.000001 0.000000 0.000000 0.000000 0.200331
    7 16.525255 0.000000 0.000000 -0.217839 -0.005112 -0.961890
    8 6.879456 0.000000 -0.000001 -0.081333 -0.002951 -0.584373
    9 0.000000 3.345131 -2.981898 1.523081 0.167189 1.588446
    10 3.998799 0.000000 0.000000 0.004878 -0.028056 0.081580
    11 3.520302 0.000000 0.000000 -0.065795 0.006124 0.097160
    12 8.923110 0.000000 0.000000 -0.056220 0.014633 0.282662
    13 3.306360 0.000001 0.000000 3.151561 0.012871 0.512933
    14 3.601524 -0.000001 0.000000 -0.057751 -0.049911 0.441098
    15 2.056784 0.981236 1.937661 2.259427 -1.197310 2.246038
    16 6.028143 0.000001 0.000001 -1.396669 -0.141854 -0.385774
    17 11.692552 -0.000001 0.000001 0.000000 0.000000 -2.124367
    18 11.481671 0.000001 -0.000033 1.574401 -0.038646 -0.122862
    19 3.851893 0.123227 -1.223225 -0.469917 0.161694 -0.812367
    20 1.312564 0.000000 0.000000 0.000000 0.004679 -0.439781
    21 0.729362 0.000001 0.000000 0.000000 0.002406 -0.244325
    22 3.926701 0.316311 -0.458788 -0.150484 0.082976 -0.742886
    23 1.539101 -0.000001 0.000000 0.000000 0.002914 -0.247798
    24 1.196324 -0.000001 0.000000 0.000000 0.004796 -0.430833
    25 3.883690 0.211049 0.404099 0.087700 0.031633 -0.519958
    26 1.719580 -0.000001 -0.000001 0.000000 0.005013 -0.366479
    27 1.209176 0.000001 0.000000 0.000000 0.002808 -0.216399
    28 3.867673 0.115967 1.301215 0.352472 -0.032983 -0.463854
    29 1.719429 0.000000 -0.000002 0.000000 0.005105 -0.363009
    30 1.099660 0.000000 0.000001 0.000000 0.003255 -0.244330
    31 0.837298 -0.302045 1.313445 -1.251008 -0.669804 -0.720185
    32 1.789784 0.000000 -0.000001 0.000000 -0.002153 0.228622
    33 1.207004 -0.000001 0.000000 0.000000 -0.003294 0.363002
    34 2.056792 0.981240 -1.937609 -2.149996 1.228881 2.437914
    35 6.028139 0.000004 0.000001 1.663789 -0.988504 -1.326971
    36 11.692554 0.000000 0.000002 0.000000 0.000000 -1.260158
    37 11.481697 -0.000001 0.000001 -1.556317 0.037504 0.132543
    38 3.851861 0.133065 1.220453 0.469816 -0.167713 -0.811412
    39 1.312561 0.000000 -0.000001 0.000000 -0.007097 -0.439763
    40 0.729364 -0.000001 0.000002 0.000000 -0.003653 -0.244305
    41 3.926669 0.319868 0.458388 0.150457 -0.088581 -0.742367
    42 1.539096 -0.000001 -0.000001 0.000000 -0.004404 -0.247771
    43 1.196323 0.000000 -0.000001 0.000000 -0.007266 -0.430795
    44 3.883656 0.207493 -0.403698 -0.087715 -0.035752 -0.519729
    45 1.719579 -0.000002 0.000000 0.000000 -0.007590 -0.366435
    46 1.209176 0.000000 0.000000 0.000000 -0.004245 -0.216376
    47 3.867642 0.104978 -1.303937 -0.352490 0.029267 -0.464081
    48 1.719430 -0.000001 0.000001 0.000000 -0.007728 -0.362970
    49 1.099663 0.000000 0.000000 0.000000 -0.004918 -0.244312
    50 0.837268 -0.312954 -1.310521 1.248005 0.664326 -0.725045
    51 1.789783 0.000002 0.000001 0.000000 0.003275 0.228615
    52 1.207003 -0.000002 -0.000002 0.000000 0.005003 0.362980
  time 15
    0 74.997651 -0.531261 35.883242 1.825833 0.099604 0.201332
    1 3.890447 0.000001 0.000000 -2.331676 -0.304507 -1.678641
    2 17.848175 -0.000001 -0.000001 0.000000 0.000000 1.365608
    3 16.525255 0.000000 0.000000 0.025552 0.094516 -1.013375
    4 6.879454 0.000000 0.000000 -0.007299 -0.002951 -0.584373
    5 -3.890447 0.000001 0.000000 -1.866593 -0.546148 -1.190525
    6 17.848175 -0.000001 0.000000 0.000000 0.000000 0.662997
    7 16.525255 0.000000 0.000000 -0.213564 -0.010799 -1.289792
    8 6.879456 0.000000 -0.000001 -0.081333 -0.002951 -0.584373
    9 0.000000 3.345131 -2.981898 1.535781 0.167157 1.599234
    10 3.998799 0.000000 0.000000 0.065304 0.007814 0.062171
    11 3.520302 0.000000 0.000000 0.004204 0.001834 0.097321
    12 8.923110 0.000000 0.000000 -0.005321 0.001378 0.283070
    13 3.306360 0.000001 0.000000 3.125963 -0.020122 0.549786
    14 3.601524 -0.000001 0.000000 -0.187519 -0.074955 0.482053
    15 2.056784 0.981236 1.937661 2.077473 -1.134097 2.420891
    16 6.028143 0.000001 0.000001 -1.195470 0.032619 -0.422215
    17 11.692552 -0.000001 0.000001 0.000000 0.000000 -1.973775
    18 11.481671 0.000001 -0.000033 1.575341 -0.038535 -0.147291
    19 3.851893 0.123227 -1.223225 -0.469917 0.161694 -0.812367
    20 1.312564 0.000000 0.000000 0.000000 0.004679 -0.439781
    21 0.729362 0.000001 0.000000 0.000000 0.002406 -0.244325
    22 3.926701 0.316311 -0.458788 -0.150484 0.082976 -0.742886
    23 1.539101 -0.000001 0.000000 0.000000 0.002914 -0.247798
    24 1.196324 -0.000001 0.000000 0.000000 0.004796 -0.430833
    25 3.883690 0.211049 0.404099 0.087700 0.031633 -0.519958
    26 1.719580 -0.000001 -0.000001 0.000000 0.005013 -0.366479
    27 1.209176 0.000001 0.000000 0.000000 0.002808 -0.216399
    28 3.867673 0.115967 1.301215 0.352472 -0.032983 -0.463854
    29 1.719429 0.000000 -0.000002 0.000000 0.005105 -0.363009
    30 1.099660 0.000000 0.000001 0.000000 0.003243 -0.244330
    31 0.837298 -0.302045 1.313445 -1.251008 -0.669804 -0.720185
    32 1.789784 0.000000 -0.000001 0.000000 -0.002153 0.228622
    33 1.207004 -0.000001 0.000000 0.000000 -0.003294 0.363002
    34 2.056792 0.981240 -1.937609 -2.066062 1.138344 2.510677
    35 6.028139 0.000004 0.000001 1.691114 -0.720135 -1.200960
    36 11.692554 0.000000 0.000002 0.000000 0.000000 -1.306416
    37 11.481697 -0.000001 0.000001 -1.555790 0.037272 0.146760
    38 3.851861 0.133065 1.220453 0.469816 -0.167713 -0.811412
    39 1.312561 0.000000 -0.000001 0.000000 -0.007097 -0.439763
    40 0.729364 -0.000001 0.000002 0.000000 -0.003653 -0.244305
    41 3.926669 0.319868 0.458388 0.150457 -0.088581 -0.742367
    42 1.539096 -0.000001 -0.000001 0.000000 -0.004404 -0.247771
    43 1.196323 0.000000 -0.000001 0.000000 -0.007266 -0.430795
    44 3.883656 0.207493 -0.403698 -0.087715 -0.035752 -0.519729
    45 1.719579 -0.000002 0.000000 0.000000 -0.007590 -0.366435
    46 1.209176 0.000000 0.000000 0.000000 -0.004245 -0.216376
    47 3.867642 0.104978 -1.303937 -0.352490 0.029267 -0.464081
    48 1.719430 -0.000001 0.000001 0.000000 -0.007728 -0.362970
    49 1.099663 0.000000 0.000000 0.000000 -0.004918 -0.244312
    50 0.837268 -0.312954 -1.310521 1.248005 0.664326 -0.725045
    51 1.789783 0.000002 0.000001 0.000000 0.003275 0.228615
    52 1.207003 -0.000002 -0.000002 0.000000 0.005003 0.362980
  time 16
    0 79.997651 -0.531261 35.129313 1.814115 0.141361 0.144289
    1 3.890447 0.000001 0.000000 -2.345646 -0.447782 -1.561779
    2 17.848175 -0.000001 -0.000001 0.000000 0.000000 1.688825
    3 16.525255 0.000000 0.000000 -0.095540 -0.062630 -1.168444
    4 6.879454 0.000000 0.000000 -0.007299 -0.002951 -0.584373
    5 -3.890447 0.000001 0.000000 -1.858822 -0.595397 -1.287326
    6 17.848175 -0.000001 0.000000 0.000000 0.000000 0.835688
    7 16.525255 0.000000 0.000000 -0.118988 -0.130439 -1.436526
    8 6.879456 0.000000 -0.000001 -0.081333 -0.002951 -0.584373
    9 0.000000 3.345131 -2.981898 1.554048 0.166819 1.640997
    10 3.998799 0.000000 0.000000 0.107346 0.055824 0.054235
    11 3.520302 0.000000 0.000000 0.065517 -0.002121 0.097160
    12 8.923110 0.000000 0.000000 0.039262 -0.010223 0.282878
    13 3.306360 0.000001 0.000000 3.094037 -0.061097 0.635695
    14 3.601524 -0.000001 0.000000 -0.280653 -0.086894 0.572361
    15 2.056784 0.981236 1.937661 1.936603 -1.060716 2.557421
    16 6.028143 0.000001 0.000001 -1.011666 0.277962 -0.377645
    17 11.692552 -0.000001 0.000001 0.000000 0.000000 -1.822883
    18 11.481671 0.000001 -0.000033 1.575783 -0.038497 -0.157694
    19 3.851893 0.123227 -1.223225 -0.469917 0.161694 -0.812367
    20 1.312564 0.000000 0.000000 0.000000 0.004679 -0.439781
    21 0.729362 0.000001 0.000000 0.000000 0.002406 -0.244325
    22 3.926701 0.316311 -0.458788 -0.150484 0.082976 -0.742886
    23 1.539101 -0.000001 0.000000 0.000000 0.002914 -0.247798
    24 1.196324 -0.000001 0.000000 0.000000 0.004796 -0.430833
    25 3.883690 0.211049 0.404099 0.087700 0.031633 -0.519958
    26 1.719580 -0.000001 -0.000001 0.000000 0.005013 -0.366479
    27 1.209176 0.000001 0.000000 0.000000 0.002808 -0.216399
    28 3.867673 0.115967 1.301215 0.352472 -0.032983 -0.463854
    29 1.719429 0.000000 -0.000002 0.000000 0.005105 -0.363009
    30 1.099660 0.000000 0.000001 0.000000 0.003243 -0.244330
    31 0.837298 -0.302045 1.313445 -1.251008 -0.669804 -0.720185
    32 1.789784 0.000000 -0.000001 0.000000 -0.002153 0.228622
    33 1.207004 -0.000001 0.000000 0.000000 -0.003294 0.363002
    34 2.056792 0.981240 -1.937609 -2.009864 1.044274 2.552687
    35 6.028139 0.000004 0.000001 1.697857 -0.428567 -0.912031
    36 11.692554 0.000000 0.000002 0.000000 0.000000 -1.389708
    37 11.481697 -0.000001 0.000001 -1.555503 0.037144 0.155214
    38 3.851861 0.133065 1.220453 0.469816 -0.167713 -0.811412
    39 1.312561 0.000000 -0.000001 0.000000 -0.007097 -0.439763
    40 0.729364 -0.000001 0.000002 0.000000 -0.003653 -0.244305
    41 3.926669 0.319868 0.458388 0.150457 -0.088581 -0.742367
    42 1.539096 -0.000001 -0.000001 0.000000 -0.004404 -0.247771
    43 1.196323 0.000000 -0.000001 0.000000 -0.007266 -0.430795
    44 3.883656 0.207493 -0.403698 -0.087715 -0.035752 -0.519729
    45 1.719579 -0.000002 0.000000 0.000000 -0.007590 -0.366435
    46 1.209176 0.000000 0.000000 0.000000 -0.004245 -0.216376
    47 3.867642 0.104978 -1.303937 -0.352490 0.029267 -0.464081
    48 1.719430 -0.000001 0.000001 0.000000 -0.007728 -0.362970
    49 1.099663 0.000000 0.000000 0.000000 -0.004918 -0.244312
    50 0.837268 -0.312954 -1.310521 1.248005 0.664326 -0.725045
    51 1.789783 0.000002 0.000001 0.000000 0.003275 0.228615
    52 1.207003 -0.000002 -0.000002 0.000000 0.005003 0.362980
  time 17
    0 84.997651 -0.531261 34.953526 1.784318 0.200272 0.090594
    1 3.890447 0.000001 0.000000 -2.411527 -0.540650 -1.324457
    2 17.848175 -0.000001 -0.000001 0.000000 0.000000 1.942236
    3 16.525255 0.000000 0.000000 -0.120593 -0.174204 -1.247752
    4 6.879454 0.000000 0.000000 -0.007299 -0.002951 -0.584373
    5 -3.890447 0.000001 0.000000 -1.951818 -0.526121 -1.365715
    6 17.848175 -0.000001 0.000000 0.000000 0.000000 0.784910
    7 16.525255 0.000000 0.000000 0.040769 -0.157366 -1.485011
    8 6.879456 0.000000 -0.000001 -0.081333 -0.002951 -0.584373
    9 0.000000 3.345131 -2.981898 1.574490 0.165856 1.700061
    10 3.998799 0.000000 0.000000 0.130045 0.104757 0.066106
    11 3.520302 0.000000 0.000000 0.108792 -0.005201 0.096913
    12 8.923110 0.000000 0.000000 0.070757 -0.018420 0.282422
    13 3.306360 0.000001 0.000000 3.076492 -0.083569 0.728564
    14 3.601524 -0.000001 0.000000 -0.334130 -0.086157 0.668203
    15 2.056784 0.981236 1.937661 1.861715 -1.020864 2.633590
    16 6.028143 0.000001 0.000001 -0.859022 0.539170 -0.287196
    17 11.692552 -0.000001 0.000001 0.000000 0.000000 -1.674768
    18 11.481671 0.000001 -0.000033 1.575838 -0.038460 -0.159667
    19 3.851893 0.123227 -1.223225 -0.469917 0.161694 -0.812367
    20 1.312564 0.000000 0.000000 0.000000 0.004679 -0.439781
    21 0.729362 0.000001 0.000000 0.000000 0.002406 -0.244325
    22 3.926701 0.316311 -0.458788 -0.150484 0.082976 -0.742886
    23 1.539101 -0.000001 0.000000 0.000000 0.002914 -0.247798
    24 1.196324 -0.000001 0.000000 0.000000 0.004796 -0.430833
    25 3.883690 0.211049 0.404099 0.087700 0.031633 -0.519958
    26 1.719580 -0.000001 -0.000001 0.000000 0.005013 -0.366479
    27 1.209176 0.000001 0.000000 0.000000 0.002808 -0.216399
    28 3.867673 0.115967 1.301215 0.352472 -0.032983 -0.463854
    29 1.719429 0.000000 -0.000002 0.000000 0.005105 -0.363009
    30 1.099660 0.000000 0.000001 0.000000 0.003255 -0.244330
    31 0.837298 -0.302045 1.313445 -1.251008 -0.669804 -0.720185
    32 1.789784 0.000000 -0.000001 0.000000 -0.002153 0.228622
    33 1.207004 -0.000001 0.000000 0.000000 -0.003294 0.363002
    34 2.056792 0.981240 -1.937609 -1.997091 0.989975 2.554335
    35 6.028139 0.000004 0.000001 1.725272 -0.166451 -0.604555
    36 11.692554 0.000000 0.000002 0.000000 0.000000 -1.508873
    37 11.481697 -0.000001 0.000001 -1.555311 0.037092 0.159495
    38 3.851861 0.133065 1.220453 0.469816 -0.167713 -0.811412
    39 1.312561 0.000000 -0.000001 0.000000 -0.007097 -0.439763
    40 0.729364 -0.000001 0.000002 0.000000 -0.003653 -0.244305
    41 3.926669 0.319868 0.458388 0.150457 -0.088581 -0.742367
    42 1.539096 -0.000001 -0.000001 0.000000 -0.004404 -0.247771
    43 1.196323 0.000000 -0.000001 0.000000 -0.007266 -0.430795
    44 3.883656 0.207493 -0.403698 -0.087715 -0.035752 -0.519729
    45 1.719579 -0.000002 0.000000 0.000000 -0.007590 -0.366435
    46 1.209176 0.000000 0.000000 0.000000 -0.004245 -0.216376
    47 3.867642 0.104978 -1.303937 -0.352490 0.029267 -0.464081
    48 1.719430 -0.000001 0.000001 0.000000 -0.007728 -0.362970
    49 1.099663 0.000000 0.000000 0.000000 -0.004918 -0.244312
    50 0.837268 -0.312954 -1.310521 1.248005 0.664326 -0.725045
    51 1.789783 0.000002 0.000001 0.000000 0.003275 0.228615
    52 1.207003 -0.000002 -0.000002 0.000000 0.005003 0.362980
  time 18
    0 89.997651 -0.531261 35.277755 1.746867 0.230411 0.044795
    1 3.890447 0.000001 0.000000 -2.497028 -0.515469 -1.012542
    2 17.848175 -0.000001 -0.000001 0.000000 0.000000 1.992131
    3 16.525255 0.000000 0.000000 -0.080474 -0.141707 -1.217958
    4 6.879454 0.000000 0.000000 -0.007299 -0.002951 -0.584373
    5 -3.890447 0.000001 0.000000 -1.901730 -0.376467 -1.545101
    6 17.848175 -0.000001 0.000000 0.000000 0.000000 0.514656
    7 16.525255 0.000000 0.000000 0.145849 -0.263077 -1.415523
    8 6.879456 0.000000 -0.000001 -0.081333 -0.002951 -0.584373
    9 0.000000 3.345131 -2.981898 1.588556 0.165133 1.730040
    10 3.998799 0.000000 0.000000 0.136744 0.126150 0.093434
    11 3.520302 0.000000 0.000000 0.132797 -0.007335 0.096709
    12 8.923110 0.000000 0.000000 0.088255 -0.022962 0.282063
    13 3.306360 0.000001 0.000000 3.083299 -0.074868 0.774248
    14 3.601524 -0.000001 0.000000 -0.352977 -0.075354 0.716043
    15 2.056784 0.981236 1.937661 1.852521 -1.053216 2.649686
    16 6.028143 0.000001 0.000001 -0.739831 0.764875 -0.203755
    17 11.692552 -0.000001 0.000001 0.000000 0.000000 -1.532809
    18 11.481671 0.000001 -0.000033 1.575617 -0.038497 -0.154178
    19 3.851893 0.123227 -1.223225 -0.469917 0.161694 -0.812367
    20 1.312564 0.000000 0.000000 0.000000 0.004679 -0.439781
    21 0.729362 0.000001 0.000000 0.000000 0.002406 -0.244325
    22 3.926701 0.316311 -0.458788 -0.150484 0.082976 -0.742886
    23 1.539101 -0.000001 0.000000 0.000000 0.002914 -0.247798
    24 1.196324 -0.000001 0.000000 0.000000 0.004796 -0.430833
    25 3.883690 0.211049 0.404099 0.087700 0.031633 -0.519958
    26 1.719580 -0.000001 -0.000001 0.000000 0.005013 -0.366479
    27 1.209176 0.000001 0.000000 0.000000 0.002808 -0.216399
    28 3.867673 0.115967 1.301215 0.352472 -0.032983 -0.463854
    29 1.719429 0.000000 -0.000002 0.000000 0.005105 -0.363009
    30 1.099660 0.000000 0.000001 0.000000 0.003243 -0.244330
    31 0.837298 -0.302045 1.313445 -1.251008 -0.669804 -0.720185
    32 1.789784 0.000000 -0.000001 0.000000 -0.002153 0.228622
    33 1.207004 -0.000001 0.000000 0.000000 -0.003294 0.363002
    34 2.056792 0.981240 -1.937609 -2.044988 1.008664 2.505735
    35 6.028139 0.000004 0.000001 1.767414 0.049934 -0.412370
    36 11.692554 0.000000 0.000002 0.000000 0.000000 -1.655706
    37 11.481697 -0.000001 0.000001 -1.555311 0.037092 0.159990
    38 3.851861 0.133065 1.220453 0.469816 -0.167713 -0.811412
    39 1.312561 0.000000 -0.000001 0.000000 -0.007097 -0.439763
    40 0.729364 -0.000001 0.000002 0.000000 -0.003653 -0.244305
    41 3.926669 0.319868 0.458388 0.150457 -0.088581 -0.742367
    42 1.539096 -0.000001 -0.000001 0.000000 -0.004404 -0.247771
    43 1.196323 0.000000 -0.000001 0.000000 -0.007266 -0.430795
    44 3.883656 0.207493 -0.403698 -0.087715 -0.035752 -0.519729
    45 1.719579 -0.000002 0.000000 0.000000 -0.007590 -0.366435
    46 1.209176 0.000000 0.000000 0.000000 -0.004245 -0.216376
    47 3.867642 0.104978 -1.303937 -0.352490 0.029267 -0.464081
    48 1.719430 -0.000001 0.000001 0.000000 -0.007728 -0.362970
    49 1.099663 0.000000 0.000000 0.000000 -0.004918 -0.244312
    50 0.837268 -0.312954 -1.310521 1.248005 0.664326 -0.725045
    51 1.789783 0.000002 0.000001 0.000000 0.003275 0.228615
    52 1.207003 -0.000002 -0.000002 0.000000 0.005003 0.362980
end
