// Created by Crowbar 0.62
version 1
nodes
  0 "ValveBiped.Bip01_Pelvis" -1
  1 "ValveBiped.Bip01_L_Thigh" 0
  2 "ValveBiped.Bip01_L_Calf" 1
  3 "ValveBiped.Bip01_L_Foot" 2
  4 "ValveBiped.Bip01_L_Toe0" 3
  5 "ValveBiped.Bip01_R_Thigh" 0
  6 "ValveBiped.Bip01_R_Calf" 5
  7 "ValveBiped.Bip01_R_Foot" 6
  8 "ValveBiped.Bip01_R_Toe0" 7
  9 "ValveBiped.Bip01_Spine" 0
  10 "ValveBiped.Bip01_Spine1" 9
  11 "ValveBiped.Bip01_Spine2" 10
  12 "ValveBiped.Bip01_Spine4" 11
  13 "ValveBiped.Bip01_Neck1" 12
  14 "ValveBiped.Bip01_Head1" 13
  15 "ValveBiped.Bip01_L_Clavicle" 12
  16 "ValveBiped.Bip01_L_UpperArm" 15
  17 "ValveBiped.Bip01_L_Forearm" 16
  18 "ValveBiped.Bip01_L_Hand" 17
  19 "ValveBiped.Bip01_L_Finger4" 18
  20 "ValveBiped.Bip01_L_Finger41" 19
  21 "ValveBiped.Bip01_L_Finger42" 20
  22 "ValveBiped.Bip01_L_Finger3" 18
  23 "ValveBiped.Bip01_L_Finger31" 22
  24 "ValveBiped.Bip01_L_Finger32" 23
  25 "ValveBiped.Bip01_L_Finger2" 18
  26 "ValveBiped.Bip01_L_Finger21" 25
  27 "ValveBiped.Bip01_L_Finger22" 26
  28 "ValveBiped.Bip01_L_Finger1" 18
  29 "ValveBiped.Bip01_L_Finger11" 28
  30 "ValveBiped.Bip01_L_Finger12" 29
  31 "ValveBiped.Bip01_L_Finger0" 18
  32 "ValveBiped.Bip01_L_Finger01" 31
  33 "ValveBiped.Bip01_L_Finger02" 32
  34 "ValveBiped.Bip01_R_Clavicle" 12
  35 "ValveBiped.Bip01_R_UpperArm" 34
  36 "ValveBiped.Bip01_R_Forearm" 35
  37 "ValveBiped.Bip01_R_Hand" 36
  38 "ValveBiped.Bip01_R_Finger4" 37
  39 "ValveBiped.Bip01_R_Finger41" 38
  40 "ValveBiped.Bip01_R_Finger42" 39
  41 "ValveBiped.Bip01_R_Finger3" 37
  42 "ValveBiped.Bip01_R_Finger31" 41
  43 "ValveBiped.Bip01_R_Finger32" 42
  44 "ValveBiped.Bip01_R_Finger2" 37
  45 "ValveBiped.Bip01_R_Finger21" 44
  46 "ValveBiped.Bip01_R_Finger22" 45
  47 "ValveBiped.Bip01_R_Finger1" 37
  48 "ValveBiped.Bip01_R_Finger11" 47
  49 "ValveBiped.Bip01_R_Finger12" 48
  50 "ValveBiped.Bip01_R_Finger0" 37
  51 "ValveBiped.Bip01_R_Finger01" 50
  52 "ValveBiped.Bip01_R_Finger02" 51
end
skeleton
  time 0
    0 -0.002349 -0.531261 35.277755 1.806460 0.155716 -0.132778
    1 3.890447 -0.000001 0.000000 -2.200753 -0.993680 -0.861655
    2 17.848179 0.000000 0.000000 0.000000 0.000000 2.153096
    3 16.525255 0.000002 0.000001 0.111777 0.058073 -1.108998
    4 6.879453 -0.000001 0.000000 -0.003248 -0.002795 -1.107942
    5 -3.890448 -0.000001 0.000000 -1.585831 -0.142838 -1.355849
    6 17.848179 0.000000 0.000000 0.000000 0.000000 0.569905
    7 16.525257 -0.000001 0.000001 -0.113705 -0.048410 -1.490593
    8 6.879454 0.000001 0.000000 -0.079859 -0.003035 -0.733628
    9 -0.000001 3.345131 -2.981897 1.566242 -0.157728 1.599930
    10 3.998799 0.000000 0.000000 0.102229 0.076174 0.220078
    11 3.520300 0.000001 0.000000 0.109124 0.065903 0.345902
    12 8.923110 0.000000 0.000000 0.056687 0.010606 0.367201
    13 3.306360 -0.000002 0.000001 3.141590 0.000000 0.552422
    14 3.601524 -0.000001 0.000000 -0.053786 0.155738 0.911587
    15 2.056784 0.981236 1.937661 2.992509 -1.184825 1.535317
    16 6.028143 -0.000001 0.000000 -2.079601 -0.627494 -1.153095
    17 11.692555 0.000001 0.000000 0.000000 0.000000 -1.343931
    18 11.481671 -0.000002 -0.000031 1.130881 -0.197954 -0.509166
    19 3.851893 0.123227 -1.223225 -0.228173 -0.080299 -1.237629
    20 1.312562 0.000000 0.000000 0.000000 0.004679 -1.436672
    21 0.729363 0.000000 -0.000002 0.000000 0.002406 -1.017402
    22 3.926701 0.316311 -0.458788 -0.020547 -0.080746 -1.210566
    23 1.539099 -0.000002 0.000000 0.000000 0.002914 -1.244697
    24 1.196322 -0.000003 0.000003 0.000000 0.004796 -1.427712
    25 3.883690 0.211049 0.404099 0.066379 -0.047117 -1.014729
    26 1.719579 -0.000002 0.000000 0.000000 0.005013 -1.363362
    27 1.209179 0.000000 -0.000001 0.000000 0.002808 -1.213279
    28 3.867673 0.115967 1.301215 0.321072 -0.077961 -1.060019
    29 1.719429 0.000001 0.000001 0.000000 0.005105 -1.559271
    30 1.099662 0.000003 0.000000 0.000000 0.003243 -1.241199
    31 0.837298 -0.302045 1.313445 -1.194992 -0.447524 -0.858136
    32 1.789782 0.000001 -0.000001 0.000000 0.058130 0.663323
    33 1.207004 -0.000001 0.000000 0.000000 -0.003294 1.086686
    34 2.056792 0.981240 -1.937609 -2.880488 1.357894 1.723373
    35 6.028141 0.000003 -0.000001 1.412355 0.546144 -0.620958
    36 11.692552 0.000002 0.000002 0.000000 0.000000 -1.755409
    37 11.481696 -0.000001 0.000000 -1.508764 -0.073132 0.069142
    38 3.851861 0.133065 1.220453 0.494313 -0.097759 -1.141906
    39 1.312563 0.000000 0.000000 0.000000 -0.007097 -0.826609
    40 0.729362 0.000002 0.000001 0.000000 -0.003653 -0.935199
    41 3.926669 0.319868 0.458388 0.166720 -0.127387 -1.076926
    42 1.539095 0.000000 0.000001 0.000000 -0.004404 -0.870443
    43 1.196322 0.000000 0.000000 0.000000 -0.007266 -1.448866
    44 3.883656 0.207493 -0.403698 0.103787 -0.274161 -0.673786
    45 1.719579 -0.000001 -0.000002 0.000000 -0.007590 -1.320343
    46 1.209179 0.000001 -0.000003 0.000000 -0.004245 -1.170289
    47 3.867642 0.104978 -1.303937 -0.315433 0.154362 -0.106074
    48 1.719430 0.000001 -0.000001 0.000000 -0.007728 -0.850767
    49 1.099662 -0.000001 0.000002 0.000000 -0.004918 -0.732111
    50 0.837268 -0.312954 -1.310521 1.175425 0.303547 -0.981087
    51 1.789783 -0.000001 -0.000002 0.000000 0.200217 0.487566
    52 1.207002 -0.000001 0.000001 0.000000 0.201946 0.621931
  time 1
    0 0.278910 -7.524268 36.074654 1.790560 0.131568 -0.163795
    1 3.890447 -0.000001 0.000000 -2.430536 -1.129368 -0.720715
    2 17.848179 0.000000 0.000000 0.000000 0.000000 1.795580
    3 16.525255 0.000002 0.000001 0.097913 0.025558 -1.187739
    4 6.879453 -0.000001 0.000000 -0.003404 -0.003083 -1.107942
    5 -3.890448 -0.000001 0.000000 -1.620293 0.245152 -1.435170
    6 17.848179 0.000000 0.000000 0.000000 0.000000 0.139734
    7 16.525257 -0.000001 0.000001 -0.092862 -0.024206 -1.089607
    8 6.879454 0.000001 0.000000 -0.077618 -0.003155 -1.081235
    9 -0.000001 3.345131 -2.981897 1.570037 -0.157792 1.575917
    10 3.998799 0.000000 0.000000 0.128067 0.070937 0.222485
    11 3.520300 0.000001 0.000000 0.134309 0.058197 0.347970
    12 8.923110 0.000000 0.000000 0.070841 0.014046 0.367010
    13 3.306360 -0.000002 0.000001 3.141590 0.000000 0.552422
    14 3.601524 -0.000001 0.000000 -0.074085 0.154234 0.922880
    15 2.056784 0.981236 1.937661 2.933230 -1.184785 1.590600
    16 6.028143 -0.000001 0.000000 -2.076256 -0.575671 -1.095724
    17 11.692555 0.000001 0.000000 0.000000 0.000000 -1.439722
    18 11.481671 -0.000002 -0.000031 1.131766 -0.250351 -0.470532
    19 3.851893 0.123227 -1.223225 -0.228173 -0.080299 -1.237629
    20 1.312562 0.000000 0.000000 0.000000 0.004679 -1.436672
    21 0.729363 0.000000 -0.000002 0.000000 0.002406 -1.017402
    22 3.926701 0.316311 -0.458788 -0.020547 -0.080746 -1.210566
    23 1.539099 -0.000002 0.000000 0.000000 0.002914 -1.244697
    24 1.196322 -0.000003 0.000003 0.000000 0.004796 -1.427712
    25 3.883690 0.211049 0.404099 0.066379 -0.047117 -1.014729
    26 1.719579 -0.000002 0.000000 0.000000 0.005013 -1.363362
    27 1.209179 0.000000 -0.000001 0.000000 0.002808 -1.213279
    28 3.867673 0.115967 1.301215 0.321072 -0.077961 -1.060019
    29 1.719429 0.000001 0.000001 0.000000 0.005105 -1.559271
    30 1.099662 0.000003 0.000000 0.000000 0.003255 -1.241199
    31 0.837298 -0.302045 1.313445 -1.194992 -0.447524 -0.858136
    32 1.789782 0.000001 -0.000001 0.000000 0.058130 0.663323
    33 1.207004 -0.000001 0.000000 0.000000 -0.003294 1.086686
    34 2.056792 0.981240 -1.937609 -2.788161 1.347882 1.813800
    35 6.028141 0.000003 -0.000001 1.415283 0.564283 -0.589083
    36 11.692552 0.000002 0.000002 0.000000 0.000000 -1.761074
    37 11.481696 -0.000001 0.000000 -1.506513 -0.072849 0.038347
    38 3.851861 0.133065 1.220453 0.494313 -0.097759 -1.141906
    39 1.312563 0.000000 0.000000 0.000000 -0.007097 -0.826609
    40 0.729362 0.000002 0.000001 0.000000 -0.003653 -0.935199
    41 3.926669 0.319868 0.458388 0.166720 -0.127387 -1.076926
    42 1.539095 0.000000 0.000001 0.000000 -0.004404 -0.870443
    43 1.196322 0.000000 0.000000 0.000000 -0.007266 -1.448866
    44 3.883656 0.207493 -0.403698 0.103787 -0.274161 -0.673786
    45 1.719579 -0.000001 -0.000002 0.000000 -0.007590 -1.320343
    46 1.209179 0.000001 -0.000003 0.000000 -0.004245 -1.170289
    47 3.867642 0.104978 -1.303937 -0.315433 0.154362 -0.106074
    48 1.719430 0.000001 -0.000001 0.000000 -0.007728 -0.850767
    49 1.099662 -0.000001 0.000002 0.000000 -0.004918 -0.732111
    50 0.837268 -0.312954 -1.310521 1.175425 0.303547 -0.981087
    51 1.789783 -0.000001 -0.000002 0.000000 0.200217 0.487566
    52 1.207002 -0.000001 0.000001 0.000000 0.201946 0.621931
  time 2
    0 0.661734 -14.517275 37.109842 1.805812 0.078101 -0.175102
    1 3.890447 -0.000001 0.000000 -2.474737 -1.171202 -0.796747
    2 17.848179 0.000000 0.000000 0.000000 0.000000 1.341607
    3 16.525255 0.000002 0.000001 0.130818 0.029096 -1.252292
    4 6.879453 -0.000001 0.000000 -0.006964 -0.002963 -0.614637
    5 -3.890448 -0.000001 0.000000 -1.613113 0.402843 -1.537021
    6 17.848179 0.000000 0.000000 0.000000 0.000000 0.089515
    7 16.525257 -0.000001 0.000001 -0.093561 -0.018090 -0.721308
    8 6.879454 0.000001 0.000000 -0.074131 -0.002496 -1.103314
    9 -0.000001 3.345131 -2.981897 1.578588 -0.157600 1.521228
    10 3.998799 0.000000 0.000000 0.137703 0.069007 0.218882
    11 3.520300 0.000001 0.000000 0.143712 0.055345 0.344227
    12 8.923110 0.000000 0.000000 0.076114 0.015328 0.366938
    13 3.306360 -0.000002 0.000001 3.141590 0.000000 0.552422
    14 3.601524 -0.000001 0.000000 -0.079386 0.145150 0.943920
    15 2.056784 0.981236 1.937661 2.970866 -1.188672 1.555821
    16 6.028143 -0.000001 0.000000 -2.078263 -0.506936 -1.065543
    17 11.692555 0.000001 0.000000 0.000000 0.000000 -1.575450
    18 11.481671 -0.000002 -0.000031 1.145536 -0.298883 -0.399183
    19 3.851893 0.123227 -1.223225 -0.228173 -0.080299 -1.237629
    20 1.312562 0.000000 0.000000 0.000000 0.004679 -1.436672
    21 0.729363 0.000000 -0.000002 0.000000 0.002406 -1.017402
    22 3.926701 0.316311 -0.458788 -0.020547 -0.080746 -1.210566
    23 1.539099 -0.000002 0.000000 0.000000 0.002914 -1.244697
    24 1.196322 -0.000003 0.000003 0.000000 0.004796 -1.427712
    25 3.883690 0.211049 0.404099 0.066379 -0.047117 -1.014729
    26 1.719579 -0.000002 0.000000 0.000000 0.005013 -1.363362
    27 1.209179 0.000000 -0.000001 0.000000 0.002808 -1.213279
    28 3.867673 0.115967 1.301215 0.321072 -0.077961 -1.060019
    29 1.719429 0.000001 0.000001 0.000000 0.005105 -1.559271
    30 1.099662 0.000003 0.000000 0.000000 0.003243 -1.241199
    31 0.837298 -0.302045 1.313445 -1.194992 -0.447524 -0.858136
    32 1.789782 0.000001 -0.000001 0.000000 0.058130 0.663323
    33 1.207004 -0.000001 0.000000 0.000000 -0.003294 1.086686
    34 2.056792 0.981240 -1.937609 -2.853027 1.351102 1.750098
    35 6.028141 0.000003 -0.000001 1.403749 0.572494 -0.623195
    36 11.692552 0.000002 0.000002 0.000000 0.000000 -1.778357
    37 11.481696 -0.000001 0.000000 -1.503640 -0.072386 -0.001368
    38 3.851861 0.133065 1.220453 0.494313 -0.097759 -1.141906
    39 1.312563 0.000000 0.000000 0.000000 -0.007097 -0.826609
    40 0.729362 0.000002 0.000001 0.000000 -0.003653 -0.935199
    41 3.926669 0.319868 0.458388 0.166720 -0.127387 -1.076926
    42 1.539095 0.000000 0.000001 0.000000 -0.004404 -0.870443
    43 1.196322 0.000000 0.000000 0.000000 -0.007266 -1.448866
    44 3.883656 0.207493 -0.403698 0.103787 -0.274161 -0.673786
    45 1.719579 -0.000001 -0.000002 0.000000 -0.007590 -1.320343
    46 1.209179 0.000001 -0.000003 0.000000 -0.004245 -1.170289
    47 3.867642 0.104978 -1.303937 -0.315433 0.154362 -0.106074
    48 1.719430 0.000001 -0.000001 0.000000 -0.007728 -0.850767
    49 1.099662 -0.000001 0.000002 0.000000 -0.004918 -0.732111
    50 0.837268 -0.312954 -1.310521 1.175425 0.303547 -0.981087
    51 1.789783 -0.000001 -0.000002 0.000000 0.200217 0.487566
    52 1.207002 -0.000001 0.000001 0.000000 0.201946 0.621931
  time 3
    0 1.114873 -21.510282 37.609857 1.838023 0.019100 -0.162784
    1 3.890447 -0.000001 0.000000 -2.322973 -1.177396 -1.060307
    2 17.848179 0.000000 0.000000 0.000000 0.000000 0.937301
    3 16.525255 0.000002 0.000001 0.167796 0.041232 -1.178564
    4 6.879453 -0.000001 0.000000 -0.007922 -0.003358 -0.584373
    5 -3.890448 -0.000001 0.000000 -1.585662 0.425225 -1.616575
    6 17.848179 0.000000 0.000000 0.000000 0.000000 0.167677
    7 16.525257 -0.000001 0.000001 -0.096993 -0.001848 -0.343122
    8 6.879454 0.000001 0.000000 -0.077666 -0.003550 -1.107969
    9 -0.000001 3.345131 -2.981897 1.588101 -0.156845 1.460523
    10 3.998799 0.000000 0.000000 0.128091 0.070110 0.210664
    11 3.520300 0.000001 0.000000 0.134256 0.057370 0.336156
    12 8.923110 0.000000 0.000000 0.070841 0.014046 0.367010
    13 3.306360 -0.000002 0.000001 3.141590 0.000000 0.552422
    14 3.601524 -0.000001 0.000000 -0.071140 0.143139 0.955020
    15 2.056784 0.981236 1.937661 3.063854 -1.191303 1.469208
    16 6.028143 -0.000001 0.000000 -2.088299 -0.434611 -1.049845
    17 11.692555 0.000001 0.000000 0.000000 0.000000 -1.716207
    18 11.481671 -0.000002 -0.000031 1.159030 -0.335672 -0.309431
    19 3.851893 0.123227 -1.223225 -0.228173 -0.080299 -1.237629
    20 1.312562 0.000000 0.000000 0.000000 0.004679 -1.436672
    21 0.729363 0.000000 -0.000002 0.000000 0.002406 -1.017402
    22 3.926701 0.316311 -0.458788 -0.020547 -0.080746 -1.210566
    23 1.539099 -0.000002 0.000000 0.000000 0.002914 -1.244697
    24 1.196322 -0.000003 0.000003 0.000000 0.004796 -1.427712
    25 3.883690 0.211049 0.404099 0.066379 -0.047117 -1.014729
    26 1.719579 -0.000002 0.000000 0.000000 0.005013 -1.363362
    27 1.209179 0.000000 -0.000001 0.000000 0.002808 -1.213279
    28 3.867673 0.115967 1.301215 0.321072 -0.077961 -1.060019
    29 1.719429 0.000001 0.000001 0.000000 0.005105 -1.559271
    30 1.099662 0.000003 0.000000 0.000000 0.003243 -1.241199
    31 0.837298 -0.302045 1.313445 -1.194992 -0.447524 -0.858136
    32 1.789782 0.000001 -0.000001 0.000000 0.058130 0.663323
    33 1.207004 -0.000001 0.000000 0.000000 -0.003294 1.086686
    34 2.056792 0.981240 -1.937609 -3.010493 1.359543 1.595420
    35 6.028141 0.000003 -0.000001 1.378730 0.572589 -0.700088
    36 11.692552 0.000002 0.000002 0.000000 0.000000 -1.804354
    37 11.481696 -0.000001 0.000000 -1.501198 -0.071872 -0.035237
    38 3.851861 0.133065 1.220453 0.494313 -0.097759 -1.141906
    39 1.312563 0.000000 0.000000 0.000000 -0.007097 -0.826609
    40 0.729362 0.000002 0.000001 0.000000 -0.003653 -0.935199
    41 3.926669 0.319868 0.458388 0.166720 -0.127387 -1.076926
    42 1.539095 0.000000 0.000001 0.000000 -0.004404 -0.870443
    43 1.196322 0.000000 0.000000 0.000000 -0.007266 -1.448866
    44 3.883656 0.207493 -0.403698 0.103787 -0.274161 -0.673786
    45 1.719579 -0.000001 -0.000002 0.000000 -0.007590 -1.320343
    46 1.209179 0.000001 -0.000003 0.000000 -0.004245 -1.170289
    47 3.867642 0.104978 -1.303937 -0.315433 0.154362 -0.106074
    48 1.719430 0.000001 -0.000001 0.000000 -0.007728 -0.850767
    49 1.099662 -0.000001 0.000002 0.000000 -0.004918 -0.732111
    50 0.837268 -0.312954 -1.310521 1.175425 0.303547 -0.981087
    51 1.789783 -0.000001 -0.000002 0.000000 0.200217 0.487566
    52 1.207002 -0.000001 0.000001 0.000000 0.201946 0.621931
  time 4
    0 1.610982 -28.503288 37.582512 1.870411 -0.009519 -0.131451
    1 3.890447 -0.000001 0.000000 -1.996696 -1.028780 -1.444328
    2 17.848179 0.000000 0.000000 0.000000 0.000000 0.509979
    3 16.525255 0.000002 0.000001 0.180826 0.052289 -1.084832
    4 6.879453 -0.000001 0.000000 -0.008306 -0.003610 -0.584373
    5 -3.890448 -0.000001 0.000000 -1.560998 0.256253 -1.646252
    6 17.848179 0.000000 0.000000 0.000000 0.000000 0.608387
    7 16.525257 -0.000001 0.000001 -0.084660 0.009340 -0.278932
    8 6.879454 0.000001 0.000000 -0.079188 -0.006582 -1.107951
    9 -0.000001 3.345131 -2.981897 1.592655 -0.156282 1.431240
    10 3.998799 0.000000 0.000000 0.102324 0.073058 0.201798
    11 3.520300 0.000001 0.000000 0.108912 0.062787 0.327605
    12 8.923110 0.000000 0.000000 0.056687 0.010606 0.367201
    13 3.306360 -0.000002 0.000001 3.141590 0.000000 0.552422
    14 3.601524 -0.000001 0.000000 -0.042478 0.113338 0.955921
    15 2.056784 0.981236 1.937661 3.175325 -1.188476 1.365446
    16 6.028143 -0.000001 0.000000 -2.102063 -0.368831 -1.048630
    17 11.692555 0.000001 0.000000 0.000000 0.000000 -1.813349
    18 11.481671 -0.000002 -0.000031 1.151620 -0.362651 -0.235643
    19 3.851893 0.123227 -1.223225 -0.228173 -0.080299 -1.237629
    20 1.312562 0.000000 0.000000 0.000000 0.004679 -1.436672
    21 0.729363 0.000000 -0.000002 0.000000 0.002406 -1.017402
    22 3.926701 0.316311 -0.458788 -0.020547 -0.080746 -1.210566
    23 1.539099 -0.000002 0.000000 0.000000 0.002914 -1.244697
    24 1.196322 -0.000003 0.000003 0.000000 0.004796 -1.427712
    25 3.883690 0.211049 0.404099 0.066379 -0.047117 -1.014729
    26 1.719579 -0.000002 0.000000 0.000000 0.005013 -1.363362
    27 1.209179 0.000000 -0.000001 0.000000 0.002808 -1.213279
    28 3.867673 0.115967 1.301215 0.321072 -0.077961 -1.060019
    29 1.719429 0.000001 0.000001 0.000000 0.005105 -1.559271
    30 1.099662 0.000003 0.000000 0.000000 0.003255 -1.241199
    31 0.837298 -0.302045 1.313445 -1.194992 -0.447524 -0.858136
    32 1.789782 0.000001 -0.000001 0.000000 0.058130 0.663323
    33 1.207004 -0.000001 0.000000 0.000000 -0.003294 1.086686
    34 2.056792 0.981240 -1.937609 -3.209652 1.364490 1.399555
    35 6.028141 0.000003 -0.000001 1.342178 0.571634 -0.787419
    36 11.692552 0.000002 0.000002 0.000000 0.000000 -1.825848
    37 11.481696 -0.000001 0.000000 -1.500431 -0.071718 -0.045584
    38 3.851861 0.133065 1.220453 0.494313 -0.097759 -1.141906
    39 1.312563 0.000000 0.000000 0.000000 -0.007097 -0.826609
    40 0.729362 0.000002 0.000001 0.000000 -0.003653 -0.935199
    41 3.926669 0.319868 0.458388 0.166720 -0.127387 -1.076926
    42 1.539095 0.000000 0.000001 0.000000 -0.004404 -0.870443
    43 1.196322 0.000000 0.000000 0.000000 -0.007266 -1.448866
    44 3.883656 0.207493 -0.403698 0.103787 -0.274161 -0.673786
    45 1.719579 -0.000001 -0.000002 0.000000 -0.007590 -1.320343
    46 1.209179 0.000001 -0.000003 0.000000 -0.004245 -1.170289
    47 3.867642 0.104978 -1.303937 -0.315433 0.154362 -0.106074
    48 1.719430 0.000001 -0.000001 0.000000 -0.007728 -0.850767
    49 1.099662 -0.000001 0.000002 0.000000 -0.004918 -0.732111
    50 0.837268 -0.312954 -1.310521 1.175425 0.303547 -0.981087
    51 1.789783 -0.000001 -0.000002 0.000000 0.200217 0.487566
    52 1.207002 -0.000001 0.000001 0.000000 0.201946 0.621931
  time 5
    0 2.114903 -35.496295 36.980932 1.892081 -0.015572 -0.086347
    1 3.890447 -0.000001 0.000000 -1.819588 -0.836221 -1.623154
    2 17.848179 0.000000 0.000000 0.000000 0.000000 0.239911
    3 16.525255 0.000002 0.000001 0.184335 0.038649 -0.967549
    4 6.879453 -0.000001 0.000000 -0.008006 -0.003418 -0.584373
    5 -3.890448 -0.000001 0.000000 -1.533631 0.054110 -1.650525
    6 17.848179 0.000000 0.000000 0.000000 0.000000 1.134364
    7 16.525257 -0.000001 0.000001 -0.067147 0.007121 -0.404615
    8 6.879454 0.000001 0.000000 -0.083107 -0.014468 -1.107915
    9 -0.000001 3.345131 -2.981897 1.593616 -0.156154 1.425125
    10 3.998799 0.000000 0.000000 0.065016 0.077373 0.197266
    11 3.520300 0.000001 0.000000 0.072227 0.070697 0.323424
    12 8.923110 0.000000 0.000000 0.036193 0.005633 0.367393
    13 3.306360 -0.000002 0.000001 3.141590 0.000000 0.552422
    14 3.601524 -0.000001 0.000000 -0.001800 0.072764 0.956918
    15 2.056784 0.981236 1.937661 3.266014 -1.180623 1.281420
    16 6.028143 -0.000001 0.000000 -2.106842 -0.313235 -1.056012
    17 11.692555 0.000001 0.000000 0.000000 0.000000 -1.865748
    18 11.481671 -0.000002 -0.000031 1.129997 -0.386099 -0.189153
    19 3.851893 0.123227 -1.223225 -0.228173 -0.080299 -1.237629
    20 1.312562 0.000000 0.000000 0.000000 0.004679 -1.436672
    21 0.729363 0.000000 -0.000002 0.000000 0.002406 -1.017402
    22 3.926701 0.316311 -0.458788 -0.020547 -0.080746 -1.210566
    23 1.539099 -0.000002 0.000000 0.000000 0.002914 -1.244697
    24 1.196322 -0.000003 0.000003 0.000000 0.004796 -1.427712
    25 3.883690 0.211049 0.404099 0.066379 -0.047117 -1.014729
    26 1.719579 -0.000002 0.000000 0.000000 0.005013 -1.363362
    27 1.209179 0.000000 -0.000001 0.000000 0.002808 -1.213279
    28 3.867673 0.115967 1.301215 0.321072 -0.077961 -1.060019
    29 1.719429 0.000001 0.000001 0.000000 0.005105 -1.559271
    30 1.099662 0.000003 0.000000 0.000000 0.003243 -1.241199
    31 0.837298 -0.302045 1.313445 -1.194992 -0.447524 -0.858136
    32 1.789782 0.000001 -0.000001 0.000000 0.058130 0.663323
    33 1.207004 -0.000001 0.000000 0.000000 -0.003294 1.086686
    34 2.056792 0.981240 -1.937609 -3.380894 1.364450 1.230873
    35 6.028141 0.000003 -0.000001 1.305714 0.565429 -0.858999
    36 11.692552 0.000002 0.000002 0.000000 0.000000 -1.842333
    37 11.481696 -0.000001 0.000000 -1.500958 -0.071821 -0.038503
    38 3.851861 0.133065 1.220453 0.494313 -0.097759 -1.141906
    39 1.312563 0.000000 0.000000 0.000000 -0.007097 -0.826609
    40 0.729362 0.000002 0.000001 0.000000 -0.003653 -0.935199
    41 3.926669 0.319868 0.458388 0.166720 -0.127387 -1.076926
    42 1.539095 0.000000 0.000001 0.000000 -0.004404 -0.870443
    43 1.196322 0.000000 0.000000 0.000000 -0.007266 -1.448866
    44 3.883656 0.207493 -0.403698 0.103787 -0.274161 -0.673786
    45 1.719579 -0.000001 -0.000002 0.000000 -0.007590 -1.320343
    46 1.209179 0.000001 -0.000003 0.000000 -0.004245 -1.170289
    47 3.867642 0.104978 -1.303937 -0.315433 0.154362 -0.106074
    48 1.719430 0.000001 -0.000001 0.000000 -0.007728 -0.850767
    49 1.099662 -0.000001 0.000002 0.000000 -0.004918 -0.732111
    50 0.837268 -0.312954 -1.310521 1.175425 0.303547 -0.981087
    51 1.789783 -0.000001 -0.000002 0.000000 0.200217 0.487566
    52 1.207002 -0.000001 0.000001 0.000000 0.201946 0.621931
  time 6
    0 2.575855 -42.489302 35.820740 1.899088 -0.025395 -0.032715
    1 3.890447 -0.000001 0.000000 -1.746912 -0.864679 -1.659600
    2 17.848179 0.000000 0.000000 0.000000 0.000000 0.578347
    3 16.525255 0.000002 0.000001 0.181464 -0.001491 -1.038392
    4 6.879453 -0.000001 0.000000 -0.007299 -0.002951 -0.584373
    5 -3.890448 -0.000001 0.000000 -1.482192 -0.170415 -1.678571
    6 17.848179 0.000000 0.000000 0.000000 0.000000 1.637907
    7 16.525257 -0.000001 0.000001 -0.072121 -0.004701 -0.637014
    8 6.879454 0.000001 0.000000 -0.085672 -0.019598 -1.107879
    9 -0.000001 3.345131 -2.981897 1.595134 -0.155913 1.415181
    10 3.998799 0.000000 0.000000 0.020793 0.082634 0.199408
    11 3.520300 0.000001 0.000000 0.028740 0.080225 0.325828
    12 8.923110 0.000000 0.000000 0.011901 -0.000240 0.367525
    13 3.306360 -0.000002 0.000001 3.141590 0.000000 0.552422
    14 3.601524 -0.000001 0.000000 0.043353 0.036133 0.957755
    15 2.056784 0.981236 1.937661 3.301447 -1.172535 1.249036
    16 6.028143 -0.000001 0.000000 -2.096902 -0.273731 -1.048070
    17 11.692555 0.000001 0.000000 0.000000 0.000000 -1.891197
    18 11.481671 -0.000002 -0.000031 1.104945 -0.404233 -0.152672
    19 3.851893 0.123227 -1.223225 -0.228173 -0.080299 -1.237629
    20 1.312562 0.000000 0.000000 0.000000 0.004679 -1.436672
    21 0.729363 0.000000 -0.000002 0.000000 0.002406 -1.017402
    22 3.926701 0.316311 -0.458788 -0.020547 -0.080746 -1.210566
    23 1.539099 -0.000002 0.000000 0.000000 0.002914 -1.244697
    24 1.196322 -0.000003 0.000003 0.000000 0.004796 -1.427712
    25 3.883690 0.211049 0.404099 0.066379 -0.047117 -1.014729
    26 1.719579 -0.000002 0.000000 0.000000 0.005013 -1.363362
    27 1.209179 0.000000 -0.000001 0.000000 0.002808 -1.213279
    28 3.867673 0.115967 1.301215 0.321072 -0.077961 -1.060019
    29 1.719429 0.000001 0.000001 0.000000 0.005105 -1.559271
    30 1.099662 0.000003 0.000000 0.000000 0.003243 -1.241199
    31 0.837298 -0.302045 1.313445 -1.194992 -0.447524 -0.858136
    32 1.789782 0.000001 -0.000001 0.000000 0.058130 0.663323
    33 1.207004 -0.000001 0.000000 0.000000 -0.003294 1.086686
    34 2.056792 0.981240 -1.937609 -3.457711 1.366531 1.154906
    35 6.028141 0.000003 -0.000001 1.278476 0.546812 -0.905693
    36 11.692552 0.000002 0.000002 0.000000 0.000000 -1.863319
    37 11.481696 -0.000001 0.000000 -1.502299 -0.072129 -0.019483
    38 3.851861 0.133065 1.220453 0.494313 -0.097759 -1.141906
    39 1.312563 0.000000 0.000000 0.000000 -0.007097 -0.826609
    40 0.729362 0.000002 0.000001 0.000000 -0.003653 -0.935199
    41 3.926669 0.319868 0.458388 0.166720 -0.127387 -1.076926
    42 1.539095 0.000000 0.000001 0.000000 -0.004404 -0.870443
    43 1.196322 0.000000 0.000000 0.000000 -0.007266 -1.448866
    44 3.883656 0.207493 -0.403698 0.103787 -0.274161 -0.673786
    45 1.719579 -0.000001 -0.000002 0.000000 -0.007590 -1.320343
    46 1.209179 0.000001 -0.000003 0.000000 -0.004245 -1.170289
    47 3.867642 0.104978 -1.303937 -0.315433 0.154362 -0.106074
    48 1.719430 0.000001 -0.000001 0.000000 -0.007728 -0.850767
    49 1.099662 -0.000001 0.000002 0.000000 -0.004918 -0.732111
    50 0.837268 -0.312954 -1.310521 1.175425 0.303547 -0.981087
    51 1.789783 -0.000001 -0.000002 0.000000 0.200217 0.487566
    52 1.207002 -0.000001 0.000001 0.000000 0.201946 0.621931
  time 7
    0 2.907896 -49.482309 35.105874 1.883189 -0.075060 0.024391
    1 3.890447 -0.000001 0.000000 -1.711872 -0.758165 -1.723200
    2 17.848179 0.000000 0.000000 0.000000 0.000000 0.839177
    3 16.525255 0.000002 0.000001 0.195131 0.049670 -1.378230
    4 6.879453 -0.000001 0.000000 -0.007299 -0.002951 -0.584373
    5 -3.890448 -0.000001 0.000000 -1.378131 -0.448008 -1.810410
    6 17.848179 0.000000 0.000000 0.000000 0.000000 2.035983
    7 16.525257 -0.000001 0.000001 -0.115555 -0.032859 -0.893963
    8 6.879454 0.000001 0.000000 -0.080219 -0.008656 -1.107951
    9 -0.000001 3.345131 -2.981897 1.602927 -0.154515 1.364967
    10 3.998799 0.000000 0.000000 -0.025731 0.088470 0.205833
    11 3.520300 0.000001 0.000000 -0.016989 0.090544 0.332325
    12 8.923110 0.000000 0.000000 -0.013650 -0.006436 0.367525
    13 3.306360 -0.000002 0.000001 3.141590 0.000000 0.552422
    14 3.601524 -0.000001 0.000000 0.088428 0.006715 0.958591
    15 2.056784 0.981236 1.937661 3.243701 -1.168688 1.302594
    16 6.028143 -0.000001 0.000000 -2.053125 -0.330509 -0.973319
    17 11.692555 0.000001 0.000000 0.000000 0.000000 -1.729570
    18 11.481671 -0.000002 -0.000031 1.052353 -0.408581 -0.192382
    19 3.851893 0.123227 -1.223225 -0.228173 -0.080299 -1.237629
    20 1.312562 0.000000 0.000000 0.000000 0.004679 -1.436672
    21 0.729363 0.000000 -0.000002 0.000000 0.002406 -1.017402
    22 3.926701 0.316311 -0.458788 -0.020547 -0.080746 -1.210566
    23 1.539099 -0.000002 0.000000 0.000000 0.002914 -1.244697
    24 1.196322 -0.000003 0.000003 0.000000 0.004796 -1.427712
    25 3.883690 0.211049 0.404099 0.066379 -0.047117 -1.014729
    26 1.719579 -0.000002 0.000000 0.000000 0.005013 -1.363362
    27 1.209179 0.000000 -0.000001 0.000000 0.002808 -1.213279
    28 3.867673 0.115967 1.301215 0.321072 -0.077961 -1.060019
    29 1.719429 0.000001 0.000001 0.000000 0.005105 -1.559271
    30 1.099662 0.000003 0.000000 0.000000 0.003243 -1.241199
    31 0.837298 -0.302045 1.313445 -1.194992 -0.447524 -0.858136
    32 1.789782 0.000001 -0.000001 0.000000 0.058130 0.663323
    33 1.207004 -0.000001 0.000000 0.000000 -0.003294 1.086686
    34 2.056792 0.981240 -1.937609 -3.359272 1.378585 1.251649
    35 6.028141 0.000003 -0.000001 1.279985 0.546764 -0.924800
    36 11.692552 0.000002 0.000002 0.000000 0.000000 -1.808130
    37 11.481696 -0.000001 0.000000 -1.504310 -0.072489 0.008046
    38 3.851861 0.133065 1.220453 0.494313 -0.097759 -1.141906
    39 1.312563 0.000000 0.000000 0.000000 -0.007097 -0.826609
    40 0.729362 0.000002 0.000001 0.000000 -0.003653 -0.935199
    41 3.926669 0.319868 0.458388 0.166720 -0.127387 -1.076926
    42 1.539095 0.000000 0.000001 0.000000 -0.004404 -0.870443
    43 1.196322 0.000000 0.000000 0.000000 -0.007266 -1.448866
    44 3.883656 0.207493 -0.403698 0.103787 -0.274161 -0.673786
    45 1.719579 -0.000001 -0.000002 0.000000 -0.007590 -1.320343
    46 1.209179 0.000001 -0.000003 0.000000 -0.004245 -1.170289
    47 3.867642 0.104978 -1.303937 -0.315433 0.154362 -0.106074
    48 1.719430 0.000001 -0.000001 0.000000 -0.007728 -0.850767
    49 1.099662 -0.000001 0.000002 0.000000 -0.004918 -0.732111
    50 0.837268 -0.312954 -1.310521 1.175425 0.303547 -0.981087
    51 1.789783 -0.000001 -0.000002 0.000000 0.200217 0.487566
    52 1.207002 -0.000001 0.000001 0.000000 0.201946 0.621931
  time 8
    0 2.982117 -56.475316 34.949620 1.844736 -0.134153 0.080171
    1 3.890447 -0.000001 0.000000 -1.547436 -0.470090 -1.820563
    2 17.848179 0.000000 0.000000 0.000000 0.000000 0.775655
    3 16.525255 0.000002 0.000001 0.129935 0.003639 -1.558742
    4 6.879453 -0.000001 0.000000 -0.007299 -0.002951 -0.584373
    5 -3.890448 -0.000001 0.000000 -1.215958 -0.751356 -2.023979
    6 17.848179 0.000000 0.000000 0.000000 0.000000 2.234063
    7 16.525257 -0.000001 0.000001 -0.121085 -0.065864 -1.057157
    8 6.879454 0.000001 0.000000 -0.077954 -0.004125 -1.107969
    9 -0.000001 3.345131 -2.981897 1.612136 -0.152331 1.304809
    10 3.998799 0.000000 0.000000 -0.069978 0.094498 0.214250
    11 3.520300 0.000001 0.000000 -0.060450 0.100850 0.340643
    12 8.923110 0.000000 0.000000 -0.037943 -0.012320 0.367405
    13 3.306360 -0.000002 0.000001 3.141590 0.000000 0.552422
    14 3.601524 -0.000001 0.000000 0.129145 -0.013280 0.945722
    15 2.056784 0.981236 1.937661 3.121122 -1.164290 1.415746
    16 6.028143 -0.000001 0.000000 -2.009158 -0.404517 -0.887728
    17 11.692555 0.000001 0.000000 0.000000 0.000000 -1.581981
    18 11.481671 -0.000002 -0.000031 1.004628 -0.388180 -0.214658
    19 3.851893 0.123227 -1.223225 -0.228173 -0.080299 -1.237629
    20 1.312562 0.000000 0.000000 0.000000 0.004679 -1.436672
    21 0.729363 0.000000 -0.000002 0.000000 0.002406 -1.017402
    22 3.926701 0.316311 -0.458788 -0.020547 -0.080746 -1.210566
    23 1.539099 -0.000002 0.000000 0.000000 0.002914 -1.244697
    24 1.196322 -0.000003 0.000003 0.000000 0.004796 -1.427742
    25 3.883690 0.211049 0.404099 0.066379 -0.047117 -1.014729
    26 1.719579 -0.000002 0.000000 0.000000 0.005013 -1.363362
    27 1.209179 0.000000 -0.000001 0.000000 0.002808 -1.213309
    28 3.867673 0.115967 1.301215 0.321072 -0.077961 -1.060019
    29 1.719429 0.000001 0.000001 0.000000 0.005105 -1.559271
    30 1.099662 0.000003 0.000000 0.000000 0.003243 -1.241199
    31 0.837298 -0.302045 1.313445 -1.194992 -0.447524 -0.858136
    32 1.789782 0.000001 -0.000001 0.000000 0.058130 0.663323
    33 1.207004 -0.000001 0.000000 0.000000 -0.003294 1.086686
    34 2.056792 0.981240 -1.937609 -3.104279 1.389146 1.503345
    35 6.028141 0.000003 -0.000001 1.298971 0.526381 -0.913429
    36 11.692552 0.000002 0.000002 0.000000 0.000000 -1.796220
    37 11.481696 -0.000001 0.000000 -1.508429 -0.073106 0.064805
    38 3.851861 0.133065 1.220453 0.494313 -0.097759 -1.141906
    39 1.312563 0.000000 0.000000 0.000000 -0.007097 -0.826609
    40 0.729362 0.000002 0.000001 0.000000 -0.003653 -0.935199
    41 3.926669 0.319868 0.458388 0.166720 -0.127387 -1.076926
    42 1.539095 0.000000 0.000001 0.000000 -0.004404 -0.870443
    43 1.196322 0.000000 0.000000 0.000000 -0.007266 -1.448866
    44 3.883656 0.207493 -0.403698 0.103787 -0.274161 -0.673786
    45 1.719579 -0.000001 -0.000002 0.000000 -0.007590 -1.320343
    46 1.209179 0.000001 -0.000003 0.000000 -0.004245 -1.170289
    47 3.867642 0.104978 -1.303937 -0.315433 0.154362 -0.106074
    48 1.719430 0.000001 -0.000001 0.000000 -0.007728 -0.850767
    49 1.099662 -0.000001 0.000002 0.000000 -0.004918 -0.732111
    50 0.837268 -0.312954 -1.310521 1.175425 0.303547 -0.981087
    51 1.789783 -0.000001 -0.000002 0.000000 0.200217 0.487566
    52 1.207002 -0.000001 0.000001 0.000000 0.201946 0.621931
  time 9
    0 2.837582 -63.468323 35.297286 1.805812 -0.155777 0.128686
    1 3.890447 -0.000001 0.000000 -1.563238 -0.142919 -1.785753
    2 17.848179 0.000000 0.000000 0.000000 0.000000 0.567369
    3 16.525255 0.000002 0.000001 0.123800 0.052076 -1.489554
    4 6.879453 -0.000001 0.000000 -0.005837 -0.003035 -0.731380
    5 -3.890448 -0.000001 0.000000 -0.919317 -1.048177 -2.309488
    6 17.848179 0.000000 0.000000 0.000000 0.000000 2.159254
    7 16.525257 -0.000001 0.000001 -0.089450 -0.047012 -1.058576
    8 6.879454 0.000001 0.000000 -0.077283 -0.002795 -1.107969
    9 -0.000001 3.345131 -2.981897 1.615577 -0.151367 1.282088
    10 3.998799 0.000000 0.000000 -0.107310 0.100335 0.220758
    11 3.520300 0.000001 0.000000 -0.097068 0.110270 0.346907
    12 8.923110 0.000000 0.000000 -0.058425 -0.017294 0.367225
    13 3.306360 -0.000002 0.000001 3.141590 0.000000 0.552422
    14 3.601524 -0.000001 0.000000 0.163148 -0.028918 0.912070
    15 2.056784 0.981236 1.937661 3.002086 -1.155535 1.524970
    16 6.028143 -0.000001 0.000000 -1.982299 -0.432611 -0.853623
    17 11.692555 0.000001 0.000000 0.000000 0.000000 -1.572146
    18 11.481671 -0.000002 -0.000031 1.002637 -0.347972 -0.184669
    19 3.851893 0.123227 -1.223225 -0.228173 -0.080299 -1.237629
    20 1.312562 0.000000 0.000000 0.000000 0.004679 -1.436672
    21 0.729363 0.000000 -0.000002 0.000000 0.002406 -1.017402
    22 3.926701 0.316311 -0.458788 -0.020547 -0.080746 -1.210566
    23 1.539099 -0.000002 0.000000 0.000000 0.002914 -1.244697
    24 1.196322 -0.000003 0.000003 0.000000 0.004796 -1.427712
    25 3.883690 0.211049 0.404099 0.066379 -0.047117 -1.014729
    26 1.719579 -0.000002 0.000000 0.000000 0.005013 -1.363362
    27 1.209179 0.000000 -0.000001 0.000000 0.002808 -1.213279
    28 3.867673 0.115967 1.301215 0.321072 -0.077961 -1.060019
    29 1.719429 0.000001 0.000001 0.000000 0.005105 -1.559271
    30 1.099662 0.000003 0.000000 0.000000 0.003243 -1.241199
    31 0.837298 -0.302045 1.313445 -1.194992 -0.447524 -0.858136
    32 1.789782 0.000001 -0.000001 0.000000 0.058130 0.663323
    33 1.207004 -0.000001 0.000000 0.000000 -0.003294 1.086686
    34 2.056792 0.981240 -1.937609 -2.838704 1.386280 1.765932
    35 6.028141 0.000003 -0.000001 1.317868 0.473395 -0.885375
    36 11.692552 0.000002 0.000002 0.000000 0.000000 -1.859906
    37 11.481696 -0.000001 0.000000 -1.512739 -0.073492 0.123321
    38 3.851861 0.133065 1.220453 0.494313 -0.097759 -1.141906
    39 1.312563 0.000000 0.000000 0.000000 -0.007097 -0.826609
    40 0.729362 0.000002 0.000001 0.000000 -0.003653 -0.935199
    41 3.926669 0.319868 0.458388 0.166720 -0.127387 -1.076926
    42 1.539095 0.000000 0.000001 0.000000 -0.004404 -0.870443
    43 1.196322 0.000000 0.000000 0.000000 -0.007266 -1.448866
    44 3.883656 0.207493 -0.403698 0.103787 -0.274161 -0.673786
    45 1.719579 -0.000001 -0.000002 0.000000 -0.007590 -1.320343
    46 1.209179 0.000001 -0.000003 0.000000 -0.004245 -1.170289
    47 3.867642 0.104978 -1.303937 -0.315433 0.154362 -0.106074
    48 1.719430 0.000001 -0.000001 0.000000 -0.007728 -0.850767
    49 1.099662 -0.000001 0.000002 0.000000 -0.004918 -0.732111
    50 0.837268 -0.312954 -1.310521 1.175425 0.303547 -0.981087
    51 1.789783 -0.000001 -0.000002 0.000000 0.200217 0.487566
    52 1.207002 -0.000001 0.000001 0.000000 0.201946 0.621931
  time 10
    0 2.544604 -70.461329 36.047309 1.791208 -0.128344 0.162609
    1 3.890447 -0.000001 0.000000 -1.523465 0.227925 -1.704617
    2 17.848179 0.000000 0.000000 0.000000 0.000000 0.171089
    3 16.525255 0.000002 0.000001 0.099067 0.026478 -1.108195
    4 6.879453 -0.000001 0.000000 -0.003596 -0.003155 -1.077372
    5 -3.890448 -0.000001 0.000000 -0.647508 -1.157553 -2.481493
    6 17.848179 0.000000 0.000000 0.000000 0.000000 1.787764
    7 16.525257 -0.000001 0.000001 -0.094897 -0.016169 -1.132038
    8 6.879454 0.000001 0.000000 -0.077427 -0.003059 -1.107969
    9 -0.000001 3.345131 -2.981897 1.611427 -0.152507 1.309383
    10 3.998799 0.000000 0.000000 -0.133125 0.105512 0.223050
    11 3.520300 0.000001 0.000000 -0.122293 0.117916 0.348990
    12 8.923110 0.000000 0.000000 -0.072579 -0.020733 0.367046
    13 3.306360 -0.000002 0.000001 3.141590 0.000000 0.552422
    14 3.601524 -0.000001 0.000000 0.188237 -0.046105 0.925293
    15 2.056784 0.981236 1.937661 2.950277 -1.148664 1.572108
    16 6.028143 -0.000001 0.000000 -1.974175 -0.449840 -0.882683
    17 11.692555 0.000001 0.000000 0.000000 0.000000 -1.616663
    18 11.481671 -0.000002 -0.000031 1.045993 -0.293457 -0.150196
    19 3.851893 0.123227 -1.223225 -0.228173 -0.080299 -1.237629
    20 1.312562 0.000000 0.000000 0.000000 0.004679 -1.436672
    21 0.729363 0.000000 -0.000002 0.000000 0.002406 -1.017402
    22 3.926701 0.316311 -0.458788 -0.020547 -0.080746 -1.210566
    23 1.539099 -0.000002 0.000000 0.000000 0.002914 -1.244697
    24 1.196322 -0.000003 0.000003 0.000000 0.004796 -1.427712
    25 3.883690 0.211049 0.404099 0.066379 -0.047117 -1.014729
    26 1.719579 -0.000002 0.000000 0.000000 0.005013 -1.363362
    27 1.209179 0.000000 -0.000001 0.000000 0.002808 -1.213279
    28 3.867673 0.115967 1.301215 0.321072 -0.077961 -1.060019
    29 1.719429 0.000001 0.000001 0.000000 0.005105 -1.559271
    30 1.099662 0.000003 0.000000 0.000000 0.003243 -1.241199
    31 0.837298 -0.302045 1.313445 -1.194992 -0.447524 -0.858136
    32 1.789782 0.000001 -0.000001 0.000000 0.058130 0.663323
    33 1.207004 -0.000001 0.000000 0.000000 -0.003294 1.086686
    34 2.056792 0.981240 -1.937609 -2.721654 1.382040 1.881804
    35 6.028141 0.000003 -0.000001 1.333749 0.415539 -0.870556
    36 11.692552 0.000002 0.000002 0.000000 0.000000 -1.928747
    37 11.481696 -0.000001 0.000000 -1.514558 -0.073569 0.148407
    38 3.851861 0.133065 1.220453 0.494313 -0.097759 -1.141906
    39 1.312563 0.000000 0.000000 0.000000 -0.007097 -0.826609
    40 0.729362 0.000002 0.000001 0.000000 -0.003653 -0.935199
    41 3.926669 0.319868 0.458388 0.166720 -0.127387 -1.076926
    42 1.539095 0.000000 0.000001 0.000000 -0.004404 -0.870443
    43 1.196322 0.000000 0.000000 0.000000 -0.007266 -1.448866
    44 3.883656 0.207493 -0.403698 0.103787 -0.274161 -0.673786
    45 1.719579 -0.000001 -0.000002 0.000000 -0.007590 -1.320343
    46 1.209179 0.000001 -0.000003 0.000000 -0.004245 -1.170289
    47 3.867642 0.104978 -1.303937 -0.315433 0.154362 -0.106074
    48 1.719430 0.000001 -0.000001 0.000000 -0.007728 -0.850767
    49 1.099662 -0.000001 0.000002 0.000000 -0.004918 -0.732111
    50 0.837268 -0.312954 -1.310521 1.175425 0.303547 -0.981087
    51 1.789783 -0.000001 -0.000002 0.000000 0.200217 0.487566
    52 1.207002 -0.000001 0.000001 0.000000 0.201946 0.621931
  time 11
    0 2.142248 -77.454336 37.012182 1.808697 -0.075820 0.175053
    1 3.890447 -0.000001 0.000000 -1.529649 0.382915 -1.602085
    2 17.848179 0.000000 0.000000 0.000000 0.000000 0.124752
    3 16.525255 0.000002 0.000001 0.099606 0.023028 -0.748069
    4 6.879453 -0.000001 0.000000 -0.003201 -0.002687 -1.107942
    5 -3.890448 -0.000001 0.000000 -0.616678 -1.185352 -2.385857
    6 17.848179 0.000000 0.000000 0.000000 0.000000 1.315598
    7 16.525257 -0.000001 0.000001 -0.130293 -0.027190 -1.204080
    8 6.879454 0.000001 0.000000 -0.080962 -0.002963 -0.617634
    9 -0.000001 3.345131 -2.981897 1.603230 -0.154451 1.363028
    10 3.998799 0.000000 0.000000 -0.142808 0.109455 0.219065
    11 3.520300 0.000001 0.000000 -0.131564 0.122770 0.344940
    12 8.923110 0.000000 0.000000 -0.077852 -0.022016 0.366962
    13 3.306360 -0.000002 0.000001 3.141590 0.000000 0.552422
    14 3.601524 -0.000001 0.000000 0.200409 -0.063430 0.948682
    15 2.056784 0.981236 1.937661 2.986189 -1.149645 1.539150
    16 6.028143 -0.000001 0.000000 -1.972454 -0.472569 -0.969114
    17 11.692555 0.000001 0.000000 0.000000 0.000000 -1.654049
    18 11.481671 -0.000002 -0.000031 1.103728 -0.235338 -0.132547
    19 3.851893 0.123227 -1.223225 -0.228173 -0.080299 -1.237629
    20 1.312562 0.000000 0.000000 0.000000 0.004679 -1.436702
    21 0.729363 0.000000 -0.000002 0.000000 0.002406 -1.017402
    22 3.926701 0.316311 -0.458788 -0.020547 -0.080746 -1.210566
    23 1.539099 -0.000002 0.000000 0.000000 0.002914 -1.244697
    24 1.196322 -0.000003 0.000003 0.000000 0.004796 -1.427712
    25 3.883690 0.211049 0.404099 0.066379 -0.047117 -1.014729
    26 1.719579 -0.000002 0.000000 0.000000 0.005013 -1.363362
    27 1.209179 0.000000 -0.000001 0.000000 0.002808 -1.213279
    28 3.867673 0.115967 1.301215 0.321072 -0.077961 -1.060019
    29 1.719429 0.000001 0.000001 0.000000 0.005105 -1.559271
    30 1.099662 0.000003 0.000000 0.000000 0.003243 -1.241199
    31 0.837298 -0.302045 1.313445 -1.194992 -0.447524 -0.858136
    32 1.789782 0.000001 -0.000001 0.000000 0.058130 0.663323
    33 1.207004 -0.000001 0.000000 0.000000 -0.003294 1.086686
    34 2.056792 0.981240 -1.937609 -2.792723 1.388714 1.811603
    35 6.028141 0.000003 -0.000001 1.344573 0.361837 -0.884164
    36 11.692552 0.000002 0.000002 0.000000 0.000000 -1.982557
    37 11.481696 -0.000001 0.000000 -1.515373 -0.073595 0.159331
    38 3.851861 0.133065 1.220453 0.494313 -0.097759 -1.141906
    39 1.312563 0.000000 0.000000 0.000000 -0.007097 -0.826609
    40 0.729362 0.000002 0.000001 0.000000 -0.003653 -0.935199
    41 3.926669 0.319868 0.458388 0.166720 -0.127387 -1.076926
    42 1.539095 0.000000 0.000001 0.000000 -0.004404 -0.870443
    43 1.196322 0.000000 0.000000 0.000000 -0.007266 -1.448866
    44 3.883656 0.207493 -0.403698 0.103787 -0.274161 -0.673786
    45 1.719579 -0.000001 -0.000002 0.000000 -0.007590 -1.320343
    46 1.209179 0.000001 -0.000003 0.000000 -0.004245 -1.170289
    47 3.867642 0.104978 -1.303937 -0.315433 0.154362 -0.106074
    48 1.719430 0.000001 -0.000001 0.000000 -0.007728 -0.850767
    49 1.099662 -0.000001 0.000002 0.000000 -0.004918 -0.732111
    50 0.837268 -0.312954 -1.310521 1.175425 0.303547 -0.981087
    51 1.789783 -0.000001 -0.000002 0.000000 0.200217 0.487566
    52 1.207002 -0.000001 0.000001 0.000000 0.201946 0.621931
  time 12
    0 1.673484 -84.447343 37.578606 1.840202 -0.023023 0.162103
    1 3.890447 -0.000001 0.000000 -1.543085 0.419990 -1.527885
    2 17.848179 0.000000 0.000000 0.000000 0.000000 0.171240
    3 16.525255 0.000002 0.000001 0.094797 0.004489 -0.347414
    4 6.879453 -0.000001 0.000000 -0.003632 -0.003538 -1.107942
    5 -3.890448 -0.000001 0.000000 -0.809343 -1.178602 -2.083800
    6 17.848179 0.000000 0.000000 0.000000 0.000000 0.888940
    7 16.525257 -0.000001 0.000001 -0.164436 -0.046602 -1.154223
    8 6.879454 0.000001 0.000000 -0.082041 -0.003418 -0.584373
    9 -0.000001 3.345131 -2.981897 1.594831 -0.155961 1.417319
    10 3.998799 0.000000 0.000000 -0.133293 0.111373 0.210232
    11 3.520300 0.000001 0.000000 -0.121882 0.123765 0.336229
    12 8.923110 0.000000 0.000000 -0.072579 -0.020733 0.367046
    13 3.306360 -0.000002 0.000001 3.141590 0.000000 0.552422
    14 3.601524 -0.000001 0.000000 0.196836 -0.079298 0.960586
    15 2.056784 0.981236 1.937661 3.071420 -1.154553 1.461256
    16 6.028143 -0.000001 0.000000 -1.973506 -0.491617 -1.078998
    17 11.692555 0.000001 0.000000 0.000000 0.000000 -1.673942
    18 11.481671 -0.000002 -0.000031 1.152891 -0.190559 -0.138646
    19 3.851893 0.123227 -1.223225 -0.228173 -0.080299 -1.237629
    20 1.312562 0.000000 0.000000 0.000000 0.004679 -1.436672
    21 0.729363 0.000000 -0.000002 0.000000 0.002406 -1.017402
    22 3.926701 0.316311 -0.458788 -0.020547 -0.080746 -1.210566
    23 1.539099 -0.000002 0.000000 0.000000 0.002914 -1.244697
    24 1.196322 -0.000003 0.000003 0.000000 0.004796 -1.427712
    25 3.883690 0.211049 0.404099 0.066379 -0.047117 -1.014729
    26 1.719579 -0.000002 0.000000 0.000000 0.005013 -1.363362
    27 1.209179 0.000000 -0.000001 0.000000 0.002808 -1.213309
    28 3.867673 0.115967 1.301215 0.321072 -0.077961 -1.060019
    29 1.719429 0.000001 0.000001 0.000000 0.005105 -1.559271
    30 1.099662 0.000003 0.000000 0.000000 0.003243 -1.241199
    31 0.837298 -0.302045 1.313445 -1.194992 -0.447524 -0.858136
    32 1.789782 0.000001 -0.000001 0.000000 0.058130 0.663323
    33 1.207004 -0.000001 0.000000 0.000000 -0.003294 1.086686
    34 2.056792 0.981240 -1.937609 -2.985678 1.396095 1.620681
    35 6.028141 0.000003 -0.000001 1.350162 0.325319 -0.904761
    36 11.692552 0.000002 0.000002 0.000000 0.000000 -2.013565
    37 11.481696 -0.000001 0.000000 -1.515564 -0.073595 0.161746
    38 3.851861 0.133065 1.220453 0.494313 -0.097759 -1.141906
    39 1.312563 0.000000 0.000000 0.000000 -0.007097 -0.826609
    40 0.729362 0.000002 0.000001 0.000000 -0.003653 -0.935199
    41 3.926669 0.319868 0.458388 0.166720 -0.127387 -1.076926
    42 1.539095 0.000000 0.000001 0.000000 -0.004404 -0.870443
    43 1.196322 0.000000 0.000000 0.000000 -0.007266 -1.448866
    44 3.883656 0.207493 -0.403698 0.103787 -0.274161 -0.673786
    45 1.719579 -0.000001 -0.000002 0.000000 -0.007590 -1.320343
    46 1.209179 0.000001 -0.000003 0.000000 -0.004245 -1.170289
    47 3.867642 0.104978 -1.303937 -0.315433 0.154362 -0.106074
    48 1.719430 0.000001 -0.000001 0.000000 -0.007728 -0.850767
    49 1.099662 -0.000001 0.000002 0.000000 -0.004918 -0.732111
    50 0.837268 -0.312954 -1.310521 1.175425 0.303547 -0.981087
    51 1.789783 -0.000001 -0.000002 0.000000 0.200217 0.487566
    52 1.207002 -0.000001 0.000001 0.000000 0.201946 0.621931
  time 13
    0 1.161749 -91.440350 37.613763 1.869233 0.007056 0.128939
    1 3.890447 -0.000001 0.000000 -1.549039 0.261544 -1.507078
    2 17.848179 0.000000 0.000000 0.000000 0.000000 0.594171
    3 16.525255 0.000002 0.000001 0.066579 -0.002057 -0.270897
    4 6.879453 -0.000001 0.000000 -0.005130 -0.006546 -1.107942
    5 -3.890448 -0.000001 0.000000 -1.160380 -1.008166 -1.675541
    6 17.848179 0.000000 0.000000 0.000000 0.000000 0.434099
    7 16.525257 -0.000001 0.000001 -0.173830 -0.055963 -1.042919
    8 6.879454 0.000001 0.000000 -0.082388 -0.003646 -0.584373
    9 -0.000001 3.345131 -2.981897 1.590024 -0.156620 1.448193
    10 3.998799 0.000000 0.000000 -0.107598 0.110306 0.201333
    11 3.520300 0.000001 0.000000 -0.096378 0.120217 0.327605
    12 8.923110 0.000000 0.000000 -0.058425 -0.017294 0.367225
    13 3.306360 -0.000002 0.000001 3.141590 0.000000 0.552422
    14 3.601524 -0.000001 0.000000 0.174534 -0.072853 0.959878
    15 2.056784 0.981236 1.937661 3.174942 -1.158872 1.366212
    16 6.028143 -0.000001 0.000000 -1.977233 -0.507937 -1.180660
    17 11.692555 0.000001 0.000000 0.000000 0.000000 -1.665609
    18 11.481671 -0.000002 -0.000031 1.178883 -0.165550 -0.170428
    19 3.851893 0.123227 -1.223225 -0.228173 -0.080299 -1.237629
    20 1.312562 0.000000 0.000000 0.000000 0.004679 -1.436672
    21 0.729363 0.000000 -0.000002 0.000000 0.002406 -1.017402
    22 3.926701 0.316311 -0.458788 -0.020547 -0.080746 -1.210566
    23 1.539099 -0.000002 0.000000 0.000000 0.002914 -1.244697
    24 1.196322 -0.000003 0.000003 0.000000 0.004796 -1.427712
    25 3.883690 0.211049 0.404099 0.066379 -0.047117 -1.014729
    26 1.719579 -0.000002 0.000000 0.000000 0.005013 -1.363362
    27 1.209179 0.000000 -0.000001 0.000000 0.002808 -1.213279
    28 3.867673 0.115967 1.301215 0.321072 -0.077961 -1.060019
    29 1.719429 0.000001 0.000001 0.000000 0.005105 -1.559271
    30 1.099662 0.000003 0.000000 0.000000 0.003243 -1.241199
    31 0.837298 -0.302045 1.313445 -1.194992 -0.447524 -0.858136
    32 1.789782 0.000001 -0.000001 0.000000 0.058130 0.663323
    33 1.207004 -0.000001 0.000000 0.000000 -0.003294 1.086686
    34 2.056792 0.981240 -1.937609 -3.225344 1.393897 1.383721
    35 6.028141 0.000003 -0.000001 1.353800 0.312765 -0.920233
    36 11.692552 0.000002 0.000002 0.000000 0.000000 -2.018866
    37 11.481696 -0.000001 0.000000 -1.515516 -0.073595 0.161280
    38 3.851861 0.133065 1.220453 0.494313 -0.097759 -1.141906
    39 1.312563 0.000000 0.000000 0.000000 -0.007097 -0.826609
    40 0.729362 0.000002 0.000001 0.000000 -0.003653 -0.935199
    41 3.926669 0.319868 0.458388 0.166720 -0.127387 -1.076926
    42 1.539095 0.000000 0.000001 0.000000 -0.004404 -0.870443
    43 1.196322 0.000000 0.000000 0.000000 -0.007266 -1.448866
    44 3.883656 0.207493 -0.403698 0.103787 -0.274161 -0.673786
    45 1.719579 -0.000001 -0.000002 0.000000 -0.007590 -1.320343
    46 1.209179 0.000001 -0.000003 0.000000 -0.004245 -1.170289
    47 3.867642 0.104978 -1.303937 -0.315433 0.154362 -0.106074
    48 1.719430 0.000001 -0.000001 0.000000 -0.007728 -0.850767
    49 1.099662 -0.000001 0.000002 0.000000 -0.004918 -0.732111
    50 0.837268 -0.312954 -1.310521 1.175425 0.303547 -0.981087
    51 1.789783 -0.000001 -0.000002 0.000000 0.200217 0.487566
    52 1.207002 -0.000001 0.000001 0.000000 0.201946 0.621931
  time 14
    0 0.650015 -98.433357 37.059059 1.889313 0.017244 0.081687
    1 3.890447 -0.000001 0.000000 -1.580415 0.058796 -1.507536
    2 17.848179 0.000000 0.000000 0.000000 0.000000 1.122949
    3 16.525255 0.000002 0.000001 0.067830 0.005851 -0.396267
    4 6.879453 -0.000001 0.000000 -0.009025 -0.014372 -1.107903
    5 -3.890448 -0.000001 0.000000 -1.342318 -0.781198 -1.491417
    6 17.848179 0.000000 0.000000 0.000000 0.000000 0.113068
    7 16.525257 -0.000001 0.000001 -0.175885 -0.036383 -0.882657
    8 6.879454 0.000001 0.000000 -0.081993 -0.003382 -0.584373
    9 -0.000001 3.345131 -2.981897 1.588405 -0.156813 1.458485
    10 3.998799 0.000000 0.000000 -0.070314 0.106291 0.197183
    11 3.520300 0.000001 0.000000 -0.059641 0.112607 0.323701
    12 8.923110 0.000000 0.000000 -0.037943 -0.012320 0.367405
    13 3.306360 -0.000002 0.000001 3.141590 0.000000 0.552422
    14 3.601524 -0.000001 0.000000 0.134838 -0.035056 0.959363
    15 2.056784 0.981236 1.937661 3.263237 -1.161620 1.284869
    16 6.028143 -0.000001 0.000000 -1.987652 -0.527393 -1.254009
    17 11.692555 0.000001 0.000000 0.000000 0.000000 -1.639710
    18 11.481671 -0.000002 -0.000031 1.190441 -0.154216 -0.217061
    19 3.851893 0.123227 -1.223225 -0.228173 -0.080299 -1.237629
    20 1.312562 0.000000 0.000000 0.000000 0.004679 -1.436672
    21 0.729363 0.000000 -0.000002 0.000000 0.002406 -1.017402
    22 3.926701 0.316311 -0.458788 -0.020547 -0.080746 -1.210566
    23 1.539099 -0.000002 0.000000 0.000000 0.002914 -1.244697
    24 1.196322 -0.000003 0.000003 0.000000 0.004796 -1.427712
    25 3.883690 0.211049 0.404099 0.066379 -0.047117 -1.014729
    26 1.719579 -0.000002 0.000000 0.000000 0.005013 -1.363362
    27 1.209179 0.000000 -0.000001 0.000000 0.002808 -1.213279
    28 3.867673 0.115967 1.301215 0.321072 -0.077961 -1.060019
    29 1.719429 0.000001 0.000001 0.000000 0.005105 -1.559271
    30 1.099662 0.000003 0.000000 0.000000 0.003243 -1.241199
    31 0.837298 -0.302045 1.313445 -1.194992 -0.447524 -0.858136
    32 1.789782 0.000001 -0.000001 0.000000 0.058130 0.663323
    33 1.207004 -0.000001 0.000000 0.000000 -0.003294 1.086686
    34 2.056792 0.981240 -1.937609 -3.410179 1.382629 1.201127
    35 6.028141 0.000003 -0.000001 1.360631 0.325081 -0.921351
    36 11.692552 0.000002 0.000002 0.000000 0.000000 -2.000711
    37 11.481696 -0.000001 0.000000 -1.514654 -0.073569 0.149834
    38 3.851861 0.133065 1.220453 0.494313 -0.097759 -1.141906
    39 1.312563 0.000000 0.000000 0.000000 -0.007097 -0.826609
    40 0.729362 0.000002 0.000001 0.000000 -0.003653 -0.935199
    41 3.926669 0.319868 0.458388 0.166720 -0.127387 -1.076926
    42 1.539095 0.000000 0.000001 0.000000 -0.004404 -0.870443
    43 1.196322 0.000000 0.000000 0.000000 -0.007266 -1.448866
    44 3.883656 0.207493 -0.403698 0.103787 -0.274161 -0.673786
    45 1.719579 -0.000001 -0.000002 0.000000 -0.007590 -1.320343
    46 1.209179 0.000001 -0.000003 0.000000 -0.004245 -1.170289
    47 3.867642 0.104978 -1.303937 -0.315433 0.154362 -0.106074
    48 1.719430 0.000001 -0.000001 0.000000 -0.007728 -0.850767
    49 1.099662 -0.000001 0.000002 0.000000 -0.004918 -0.732111
    50 0.837268 -0.312954 -1.310521 1.175425 0.303547 -0.981087
    51 1.789783 -0.000001 -0.000002 0.000000 0.200217 0.487566
    52 1.207002 -0.000001 0.000001 0.000000 0.201946 0.621931
  time 15
    0 0.189063 -105.426363 35.898867 1.896851 0.027798 0.026412
    1 3.890447 -0.000001 0.000000 -1.646449 -0.166574 -1.473577
    2 17.848179 0.000000 0.000000 0.000000 0.000000 1.629618
    3 16.525255 0.000002 0.000001 0.100932 0.015917 -0.630124
    4 6.879453 -0.000001 0.000000 -0.011662 -0.019670 -1.107865
    5 -3.890448 -0.000001 0.000000 -1.407356 -0.852561 -1.469431
    6 17.848179 0.000000 0.000000 0.000000 0.000000 0.555853
    7 16.525257 -0.000001 0.000001 -0.172247 0.002310 -1.026694
    8 6.879454 0.000001 0.000000 -0.081333 -0.002951 -0.584373
    9 -0.000001 3.345131 -2.981897 1.586735 -0.156989 1.469075
    10 3.998799 0.000000 0.000000 -0.026066 0.099868 0.200121
    11 3.520300 0.000001 0.000000 -0.016207 0.101929 0.326731
    12 8.923110 0.000000 0.000000 -0.013650 -0.006436 0.367525
    13 3.306360 -0.000002 0.000001 3.141590 0.000000 0.552422
    14 3.601524 -0.000001 0.000000 0.084934 0.020220 0.958527
    15 2.056784 0.981236 1.937661 3.302022 -1.165861 1.248845
    16 6.028143 -0.000001 0.000000 -2.005908 -0.538712 -1.296337
    17 11.692555 0.000001 0.000000 0.000000 0.000000 -1.620717
    18 11.481671 -0.000002 -0.000031 1.198737 -0.150500 -0.265668
    19 3.851893 0.123227 -1.223225 -0.228173 -0.080299 -1.237629
    20 1.312562 0.000000 0.000000 0.000000 0.004679 -1.436672
    21 0.729363 0.000000 -0.000002 0.000000 0.002406 -1.017402
    22 3.926701 0.316311 -0.458788 -0.020547 -0.080746 -1.210566
    23 1.539099 -0.000002 0.000000 0.000000 0.002914 -1.244697
    24 1.196322 -0.000003 0.000003 0.000000 0.004796 -1.427712
    25 3.883690 0.211049 0.404099 0.066379 -0.047117 -1.014729
    26 1.719579 -0.000002 0.000000 0.000000 0.005013 -1.363362
    27 1.209179 0.000000 -0.000001 0.000000 0.002808 -1.213279
    28 3.867673 0.115967 1.301215 0.321072 -0.077961 -1.060019
    29 1.719429 0.000001 0.000001 0.000000 0.005105 -1.559271
    30 1.099662 0.000003 0.000000 0.000000 0.003243 -1.241199
    31 0.837298 -0.302045 1.313445 -1.194992 -0.447524 -0.858136
    32 1.789782 0.000001 -0.000001 0.000000 0.058130 0.663323
    33 1.207004 -0.000001 0.000000 0.000000 -0.003294 1.086686
    34 2.056792 0.981240 -1.937609 -3.473768 1.372381 1.138798
    35 6.028141 0.000003 -0.000001 1.366931 0.354963 -0.896653
    36 11.692552 0.000002 0.000002 0.000000 0.000000 -1.969195
    37 11.481696 -0.000001 0.000000 -1.512930 -0.073492 0.125983
    38 3.851861 0.133065 1.220453 0.494313 -0.097759 -1.141906
    39 1.312563 0.000000 0.000000 0.000000 -0.007097 -0.826609
    40 0.729362 0.000002 0.000001 0.000000 -0.003653 -0.935199
    41 3.926669 0.319868 0.458388 0.166720 -0.127387 -1.076926
    42 1.539095 0.000000 0.000001 0.000000 -0.004404 -0.870443
    43 1.196322 0.000000 0.000000 0.000000 -0.007266 -1.448866
    44 3.883656 0.207493 -0.403698 0.103787 -0.274161 -0.673786
    45 1.719579 -0.000001 -0.000002 0.000000 -0.007590 -1.320343
    46 1.209179 0.000001 -0.000003 0.000000 -0.004245 -1.170289
    47 3.867642 0.104978 -1.303937 -0.315433 0.154362 -0.106074
    48 1.719430 0.000001 -0.000001 0.000000 -0.007728 -0.850767
    49 1.099662 -0.000001 0.000002 0.000000 -0.004918 -0.732111
    50 0.837268 -0.312954 -1.310521 1.175425 0.303547 -0.981087
    51 1.789783 -0.000001 -0.000002 0.000000 0.200217 0.487566
    52 1.207002 -0.000001 0.000001 0.000000 0.201946 0.621931
  time 16
    0 -0.088289 -112.419370 35.137125 1.882423 0.068308 -0.031073
    1 3.890447 -0.000001 0.000000 -1.760195 -0.431354 -1.343367
    2 17.848179 0.000000 0.000000 0.000000 0.000000 2.019539
    3 16.525255 0.000002 0.000001 0.134572 0.039746 -0.890984
    4 6.879453 -0.000001 0.000000 -0.006221 -0.008728 -1.107942
    5 -3.890448 -0.000001 0.000000 -1.434638 -0.758906 -1.422739
    6 17.848179 0.000000 0.000000 0.000000 0.000000 0.837923
    7 16.525257 -0.000001 0.000001 -0.185464 -0.049902 -1.375221
    8 6.879454 0.000001 0.000000 -0.081333 -0.002951 -0.584391
    9 -0.000001 3.345131 -2.981897 1.580309 -0.157503 1.510141
    10 3.998799 0.000000 0.000000 0.020518 0.091934 0.206696
    11 3.520300 0.000001 0.000000 0.029376 0.089501 0.333199
    12 8.923110 0.000000 0.000000 0.011901 -0.000240 0.367525
    13 3.306360 -0.000002 0.000001 3.141590 0.000000 0.552422
    14 3.601524 -0.000001 0.000000 0.031849 0.079915 0.957079
    15 2.056784 0.981236 1.937661 3.248010 -1.175127 1.298378
    16 6.028143 -0.000001 0.000000 -2.040891 -0.614629 -1.270641
    17 11.692555 0.000001 0.000000 0.000000 0.000000 -1.428236
    18 11.481671 -0.000002 -0.000031 1.166883 -0.146487 -0.403236
    19 3.851893 0.123227 -1.223225 -0.228173 -0.080299 -1.237629
    20 1.312562 0.000000 0.000000 0.000000 0.004679 -1.436672
    21 0.729363 0.000000 -0.000002 0.000000 0.002406 -1.017402
    22 3.926701 0.316311 -0.458788 -0.020547 -0.080746 -1.210566
    23 1.539099 -0.000002 0.000000 0.000000 0.002914 -1.244697
    24 1.196322 -0.000003 0.000003 0.000000 0.004796 -1.427712
    25 3.883690 0.211049 0.404099 0.066379 -0.047117 -1.014729
    26 1.719579 -0.000002 0.000000 0.000000 0.005013 -1.363362
    27 1.209179 0.000000 -0.000001 0.000000 0.002808 -1.213279
    28 3.867673 0.115967 1.301215 0.321072 -0.077961 -1.060019
    29 1.719429 0.000001 0.000001 0.000000 0.005105 -1.559271
    30 1.099662 0.000003 0.000000 0.000000 0.003243 -1.241199
    31 0.837298 -0.302045 1.313445 -1.194992 -0.447524 -0.858136
    32 1.789782 0.000001 -0.000001 0.000000 0.058130 0.663323
    33 1.207004 -0.000001 0.000000 0.000000 -0.003294 1.086686
    34 2.056792 0.981240 -1.937609 -3.357356 1.371949 1.253846
    35 6.028141 0.000003 -0.000001 1.387514 0.442176 -0.819201
    36 11.692552 0.000002 0.000002 0.000000 0.000000 -1.851337
    37 11.481696 -0.000001 0.000000 -1.511589 -0.073415 0.107649
    38 3.851861 0.133065 1.220453 0.494313 -0.097759 -1.141906
    39 1.312563 0.000000 0.000000 0.000000 -0.007097 -0.826609
    40 0.729362 0.000002 0.000001 0.000000 -0.003653 -0.935199
    41 3.926669 0.319868 0.458388 0.166720 -0.127387 -1.076926
    42 1.539095 0.000000 0.000001 0.000000 -0.004404 -0.870443
    43 1.196322 0.000000 0.000000 0.000000 -0.007266 -1.448866
    44 3.883656 0.207493 -0.403698 0.103787 -0.274161 -0.673786
    45 1.719579 -0.000001 -0.000002 0.000000 -0.007590 -1.320343
    46 1.209179 0.000001 -0.000003 0.000000 -0.004245 -1.170289
    47 3.867642 0.104978 -1.303937 -0.315433 0.154362 -0.106074
    48 1.719430 0.000001 -0.000001 0.000000 -0.007728 -0.850767
    49 1.099662 -0.000001 0.000002 0.000000 -0.004918 -0.732111
    50 0.837268 -0.312954 -1.310521 1.175425 0.303547 -0.981087
    51 1.789783 -0.000001 -0.000002 0.000000 0.200217 0.487566
    52 1.207002 -0.000001 0.000001 0.000000 0.201946 0.621931
  time 17
    0 -0.139072 -119.412377 34.953526 1.846503 0.126154 -0.085779
    1 3.890447 -0.000001 0.000000 -1.937838 -0.700173 -1.120112
    2 17.848179 0.000000 0.000000 0.000000 0.000000 2.211470
    3 16.525255 0.000002 0.000001 0.153908 0.072721 -1.076840
    4 6.879453 -0.000001 0.000000 -0.003932 -0.004149 -1.107942
    5 -3.890448 -0.000001 0.000000 -1.594362 -0.476739 -1.329745
    6 17.848179 0.000000 0.000000 0.000000 0.000000 0.781797
    7 16.525257 -0.000001 0.000001 -0.120612 -0.006920 -1.559844
    8 6.879454 0.000001 0.000000 -0.081333 -0.002951 -0.584373
    9 -0.000001 3.345131 -2.981897 1.571049 -0.157792 1.569155
    10 3.998799 0.000000 0.000000 0.064837 0.083593 0.214068
    11 3.520300 0.000001 0.000000 0.072652 0.076905 0.340279
    12 8.923110 0.000000 0.000000 0.036193 0.005633 0.367393
    13 3.306360 -0.000002 0.000001 3.141590 0.000000 0.552422
    14 3.601524 -0.000001 0.000000 -0.017035 0.130356 0.943213
    15 2.056784 0.981236 1.937661 3.121792 -1.183333 1.415267
    16 6.028143 -0.000001 0.000000 -2.072911 -0.656361 -1.212242
    17 11.692555 0.000001 0.000000 0.000000 0.000000 -1.304294
    18 11.481671 -0.000002 -0.000031 1.138955 -0.159195 -0.501310
    19 3.851893 0.123227 -1.223225 -0.228173 -0.080299 -1.237629
    20 1.312562 0.000000 0.000000 0.000000 0.004679 -1.436672
    21 0.729363 0.000000 -0.000002 0.000000 0.002406 -1.017402
    22 3.926701 0.316311 -0.458788 -0.020547 -0.080746 -1.210566
    23 1.539099 -0.000002 0.000000 0.000000 0.002914 -1.244697
    24 1.196322 -0.000003 0.000003 0.000000 0.004796 -1.427712
    25 3.883690 0.211049 0.404099 0.066379 -0.047117 -1.014729
    26 1.719579 -0.000002 0.000000 0.000000 0.005013 -1.363362
    27 1.209179 0.000000 -0.000001 0.000000 0.002808 -1.213279
    28 3.867673 0.115967 1.301215 0.321072 -0.077961 -1.060019
    29 1.719429 0.000001 0.000001 0.000000 0.005105 -1.559271
    30 1.099662 0.000003 0.000000 0.000000 0.003243 -1.241199
    31 0.837298 -0.302045 1.313445 -1.194992 -0.447524 -0.858136
    32 1.789782 0.000001 -0.000001 0.000000 0.058130 0.663323
    33 1.207004 -0.000001 0.000000 0.000000 -0.003294 1.086686
    34 2.056792 0.981240 -1.937609 -3.110848 1.370104 1.496847
    35 6.028141 0.000003 -0.000001 1.402685 0.512920 -0.711179
    36 11.692552 0.000002 0.000002 0.000000 0.000000 -1.768916
    37 11.481696 -0.000001 0.000000 -1.510392 -0.073312 0.091456
    38 3.851861 0.133065 1.220453 0.494313 -0.097759 -1.141906
    39 1.312563 0.000000 0.000000 0.000000 -0.007097 -0.826609
    40 0.729362 0.000002 0.000001 0.000000 -0.003653 -0.935199
    41 3.926669 0.319868 0.458388 0.166720 -0.127387 -1.076926
    42 1.539095 0.000000 0.000001 0.000000 -0.004404 -0.870443
    43 1.196322 0.000000 0.000000 0.000000 -0.007266 -1.448866
    44 3.883656 0.207493 -0.403698 0.103787 -0.274161 -0.673786
    45 1.719579 -0.000001 -0.000002 0.000000 -0.007590 -1.320343
    46 1.209179 0.000001 -0.000003 0.000000 -0.004245 -1.170289
    47 3.867642 0.104978 -1.303937 -0.315433 0.154362 -0.106074
    48 1.719430 0.000001 -0.000001 0.000000 -0.007728 -0.850767
    49 1.099662 -0.000001 0.000002 0.000000 -0.004918 -0.732111
    50 0.837268 -0.312954 -1.310521 1.175425 0.303547 -0.981087
    51 1.789783 -0.000001 -0.000002 0.000000 0.200217 0.487566
    52 1.207002 -0.000001 0.000001 0.000000 0.201946 0.621931
  time 18
    0 -0.002349 -126.405384 35.277755 1.806460 0.155716 -0.132778
    1 3.890447 -0.000001 0.000000 -2.200753 -0.993680 -0.861655
    2 17.848179 0.000000 0.000000 0.000000 0.000000 2.153096
    3 16.525255 0.000002 0.000001 0.111777 0.058073 -1.108998
    4 6.879453 -0.000001 0.000000 -0.003248 -0.002795 -1.107942
    5 -3.890448 -0.000001 0.000000 -1.585831 -0.142838 -1.355849
    6 17.848179 0.000000 0.000000 0.000000 0.000000 0.569905
    7 16.525257 -0.000001 0.000001 -0.113705 -0.048410 -1.490593
    8 6.879454 0.000001 0.000000 -0.079859 -0.003035 -0.733628
    9 -0.000001 3.345131 -2.981897 1.566242 -0.157728 1.599930
    10 3.998799 0.000000 0.000000 0.102229 0.076174 0.220078
    11 3.520300 0.000001 0.000000 0.109124 0.065903 0.345902
    12 8.923110 0.000000 0.000000 0.056687 0.010606 0.367201
    13 3.306360 -0.000002 0.000001 3.141590 0.000000 0.552422
    14 3.601524 -0.000001 0.000000 -0.053786 0.155738 0.911587
    15 2.056784 0.981236 1.937661 2.992509 -1.184825 1.535317
    16 6.028143 -0.000001 0.000000 -2.079601 -0.627494 -1.153095
    17 11.692555 0.000001 0.000000 0.000000 0.000000 -1.343931
    18 11.481671 -0.000002 -0.000031 1.130881 -0.197954 -0.509166
    19 3.851893 0.123227 -1.223225 -0.228173 -0.080299 -1.237629
    20 1.312562 0.000000 0.000000 0.000000 0.004679 -1.436672
    21 0.729363 0.000000 -0.000002 0.000000 0.002406 -1.017402
    22 3.926701 0.316311 -0.458788 -0.020547 -0.080746 -1.210566
    23 1.539099 -0.000002 0.000000 0.000000 0.002914 -1.244697
    24 1.196322 -0.000003 0.000003 0.000000 0.004796 -1.427712
    25 3.883690 0.211049 0.404099 0.066379 -0.047117 -1.014729
    26 1.719579 -0.000002 0.000000 0.000000 0.005013 -1.363362
    27 1.209179 0.000000 -0.000001 0.000000 0.002808 -1.213279
    28 3.867673 0.115967 1.301215 0.321072 -0.077961 -1.060019
    29 1.719429 0.000001 0.000001 0.000000 0.005105 -1.559271
    30 1.099662 0.000003 0.000000 0.000000 0.003243 -1.241199
    31 0.837298 -0.302045 1.313445 -1.194992 -0.447524 -0.858136
    32 1.789782 0.000001 -0.000001 0.000000 0.058130 0.663323
    33 1.207004 -0.000001 0.000000 0.000000 -0.003294 1.086686
    34 2.056792 0.981240 -1.937609 -2.880488 1.357894 1.723373
    35 6.028141 0.000003 -0.000001 1.412355 0.546144 -0.620958
    36 11.692552 0.000002 0.000002 0.000000 0.000000 -1.755409
    37 11.481696 -0.000001 0.000000 -1.508764 -0.073132 0.069142
    38 3.851861 0.133065 1.220453 0.494313 -0.097759 -1.141906
    39 1.312563 0.000000 0.000000 0.000000 -0.007097 -0.826609
    40 0.729362 0.000002 0.000001 0.000000 -0.003653 -0.935199
    41 3.926669 0.319868 0.458388 0.166720 -0.127387 -1.076926
    42 1.539095 0.000000 0.000001 0.000000 -0.004404 -0.870443
    43 1.196322 0.000000 0.000000 0.000000 -0.007266 -1.448866
    44 3.883656 0.207493 -0.403698 0.103787 -0.274161 -0.673786
    45 1.719579 -0.000001 -0.000002 0.000000 -0.007590 -1.320343
    46 1.209179 0.000001 -0.000003 0.000000 -0.004245 -1.170289
    47 3.867642 0.104978 -1.303937 -0.315433 0.154362 -0.106074
    48 1.719430 0.000001 -0.000001 0.000000 -0.007728 -0.850767
    49 1.099662 -0.000001 0.000002 0.000000 -0.004918 -0.732111
    50 0.837268 -0.312954 -1.310521 1.175425 0.303547 -0.981087
    51 1.789783 -0.000001 -0.000002 0.000000 0.200217 0.487566
    52 1.207002 -0.000001 0.000001 0.000000 0.201946 0.621931
end
