// Created by Crowbar 0.62
version 1
nodes
  0 "ValveBiped.Bip01_Pelvis" -1
  1 "ValveBiped.Bip01_L_Thigh" 0
  2 "ValveBiped.Bip01_L_Calf" 1
  3 "ValveBiped.Bip01_L_Foot" 2
  4 "ValveBiped.Bip01_L_Toe0" 3
  5 "ValveBiped.Bip01_R_Thigh" 0
  6 "ValveBiped.Bip01_R_Calf" 5
  7 "ValveBiped.Bip01_R_Foot" 6
  8 "ValveBiped.Bip01_R_Toe0" 7
  9 "ValveBiped.Bip01_Spine" 0
  10 "ValveBiped.Bip01_Spine1" 9
  11 "ValveBiped.Bip01_Spine2" 10
  12 "ValveBiped.Bip01_Spine4" 11
  13 "ValveBiped.Bip01_Neck1" 12
  14 "ValveBiped.Bip01_Head1" 13
  15 "ValveBiped.Bip01_L_Clavicle" 12
  16 "ValveBiped.Bip01_L_UpperArm" 15
  17 "ValveBiped.Bip01_L_Forearm" 16
  18 "ValveBiped.Bip01_L_Hand" 17
  19 "ValveBiped.Bip01_L_Finger4" 18
  20 "ValveBiped.Bip01_L_Finger41" 19
  21 "ValveBiped.Bip01_L_Finger42" 20
  22 "ValveBiped.Bip01_L_Finger3" 18
  23 "ValveBiped.Bip01_L_Finger31" 22
  24 "ValveBiped.Bip01_L_Finger32" 23
  25 "ValveBiped.Bip01_L_Finger2" 18
  26 "ValveBiped.Bip01_L_Finger21" 25
  27 "ValveBiped.Bip01_L_Finger22" 26
  28 "ValveBiped.Bip01_L_Finger1" 18
  29 "ValveBiped.Bip01_L_Finger11" 28
  30 "ValveBiped.Bip01_L_Finger12" 29
  31 "ValveBiped.Bip01_L_Finger0" 18
  32 "ValveBiped.Bip01_L_Finger01" 31
  33 "ValveBiped.Bip01_L_Finger02" 32
  34 "ValveBiped.Bip01_R_Clavicle" 12
  35 "ValveBiped.Bip01_R_UpperArm" 34
  36 "ValveBiped.Bip01_R_Forearm" 35
  37 "ValveBiped.Bip01_R_Hand" 36
  38 "ValveBiped.Bip01_R_Finger4" 37
  39 "ValveBiped.Bip01_R_Finger41" 38
  40 "ValveBiped.Bip01_R_Finger42" 39
  41 "ValveBiped.Bip01_R_Finger3" 37
  42 "ValveBiped.Bip01_R_Finger31" 41
  43 "ValveBiped.Bip01_R_Finger32" 42
  44 "ValveBiped.Bip01_R_Finger2" 37
  45 "ValveBiped.Bip01_R_Finger21" 44
  46 "ValveBiped.Bip01_R_Finger22" 45
  47 "ValveBiped.Bip01_R_Finger1" 37
  48 "ValveBiped.Bip01_R_Finger11" 47
  49 "ValveBiped.Bip01_R_Finger12" 48
  50 "ValveBiped.Bip01_R_Finger0" 37
  51 "ValveBiped.Bip01_R_Finger01" 50
  52 "ValveBiped.Bip01_R_Finger02" 51
end
skeleton
  time 0
    0 0.767206 2.371171 35.406665 1.645876 0.219341 0.265261
    1 3.890452 -0.000005 -0.000003 -1.643319 -0.524895 -1.165849
    2 17.848175 0.000000 0.000001 0.000000 0.000000 0.832893
    3 16.525253 0.000000 0.000001 -0.045018 0.030600 -1.348436
    4 6.879454 0.000000 0.000000 -0.007299 -0.002951 -0.584373
    5 -3.890452 0.000005 0.000007 -0.906900 -0.225969 -1.735129
    6 17.848175 -0.000001 -0.000001 0.000000 0.000000 0.539327
    7 16.525257 -0.000001 0.000000 0.185891 -0.112557 -1.183030
    8 6.879455 0.000000 -0.000001 -0.081333 -0.002951 -0.584373
    9 -0.324224 3.329502 -2.981901 1.570796 0.086293 1.668938
    10 4.018332 0.000000 0.000000 0.003823 -0.117737 -0.029458
    11 3.518565 0.000000 0.000001 -0.101922 -0.052109 0.100103
    12 8.942640 0.000000 -0.000001 -0.135522 -0.126342 0.194947
    13 3.307271 0.000001 0.000000 3.141590 0.000000 0.400478
    14 3.593712 -0.000001 0.000001 0.000006 0.000009 0.406609
    15 2.033345 1.000767 1.937662 2.131006 -1.233471 2.383238
    16 6.028145 0.000000 0.000000 -1.666688 -0.622903 -0.440716
    17 11.692550 0.000000 0.000002 0.000000 0.000000 -1.899455
    18 11.481673 0.000001 -0.000033 1.123471 -0.287734 0.440864
    19 3.859703 -0.142406 -1.191976 -0.463410 -0.186147 -1.428469
    20 1.312563 0.000000 -0.000001 0.000000 0.066184 -0.827645
    21 0.729362 0.000002 -0.000002 0.000000 0.000009 -0.594031
    22 3.942326 0.046771 -0.431445 -0.161989 -0.106345 -1.434486
    23 1.539096 -0.000001 0.000000 0.000000 0.006390 -0.777660
    24 1.196321 -0.000001 -0.000001 0.000000 0.000002 -1.170567
    25 3.883689 -0.046771 0.431441 0.049936 -0.030483 -1.249506
    26 1.719574 -0.000002 0.000002 0.000000 0.033584 -1.110939
    27 1.209183 -0.000002 -0.000001 0.000000 0.000004 -1.111239
    28 3.859861 -0.137949 1.332466 0.283488 0.115914 -1.212807
    29 1.719429 -0.000001 0.000000 0.000000 -0.152217 -1.133732
    30 1.099665 0.000001 0.000000 0.000000 0.000007 -1.021302
    31 0.806047 -0.348923 1.321257 -1.241196 -0.251332 -0.849459
    32 1.789785 -0.000001 0.000001 0.000000 -0.036081 0.257592
    33 1.207001 -0.000001 0.000001 0.000000 0.000001 0.303714
    34 2.033352 1.000771 -1.937609 -0.940446 1.168065 3.716437
    35 6.028142 0.000006 -0.000001 0.815445 0.353722 -1.041024
    36 11.692554 -0.000002 0.000003 0.000000 0.000000 -1.938333
    37 11.481695 0.000001 0.000002 -1.497414 0.149528 -0.148728
    38 3.859671 -0.132568 1.193107 0.498203 0.156937 -0.982261
    39 1.312564 0.000000 0.000002 0.000000 -0.456981 -1.112956
    40 0.729365 0.000001 0.000000 0.000000 -0.000010 -0.672061
    41 3.942294 0.050327 0.431041 0.160536 0.000249 -0.910199
    42 1.539096 0.000001 0.000001 0.000000 -0.214757 -1.281153
    43 1.196322 0.000000 -0.000001 0.000000 -0.000003 -0.797323
    44 3.883655 -0.050329 -0.431044 -0.084946 -0.177602 -0.644875
    45 1.719578 0.000000 0.000003 0.000000 -0.031656 -1.425518
    46 1.209184 0.000002 0.000001 -0.003428 0.022229 -0.934718
    47 3.859828 -0.148936 -1.331284 -0.321533 -0.122638 -0.062443
    48 1.719425 -0.000001 0.000001 0.000000 0.126416 -0.583374
    49 1.099666 -0.000002 0.000001 -0.051342 0.069075 -1.042844
    50 0.806016 -0.359835 -1.318335 1.282844 0.248619 -0.715183
    51 1.789782 0.000001 0.000002 0.000000 -0.010076 0.141894
    52 1.206999 0.000000 0.000001 0.000300 0.002007 1.187229
  time 1
    0 0.767206 2.371171 35.406665 1.645876 0.219341 0.265261
    1 3.890452 -0.000005 -0.000003 -1.643319 -0.524895 -1.165849
    2 17.848175 0.000000 0.000001 0.000000 0.000000 0.832893
    3 16.525253 0.000000 0.000001 -0.045018 0.030600 -1.348436
    4 6.879454 0.000000 0.000000 -0.007299 -0.002951 -0.584373
    5 -3.890452 0.000005 0.000007 -0.906900 -0.225969 -1.735129
    6 17.848175 -0.000001 -0.000001 0.000000 0.000000 0.539327
    7 16.525257 -0.000001 0.000000 0.185891 -0.112557 -1.183030
    8 6.879455 0.000000 -0.000001 -0.081333 -0.002951 -0.584373
    9 -0.324224 3.329502 -2.981901 1.570796 0.086293 1.668938
    10 4.018332 0.000000 0.000000 0.003823 -0.117737 -0.029458
    11 3.518565 0.000000 0.000001 -0.101922 -0.052109 0.100103
    12 8.942640 0.000000 -0.000001 -0.135522 -0.126342 0.194947
    13 3.307271 0.000001 0.000000 3.141590 0.000000 0.400478
    14 3.593712 -0.000001 0.000001 0.000006 0.000009 0.406609
    15 2.033345 1.000767 1.937662 2.131006 -1.233471 2.383238
    16 6.028145 0.000000 0.000000 -1.666688 -0.622903 -0.440716
    17 11.692550 0.000000 0.000002 0.000000 0.000000 -1.899455
    18 11.481673 0.000001 -0.000033 1.123471 -0.287734 0.440864
    19 3.859703 -0.142406 -1.191976 -0.463410 -0.186147 -1.428469
    20 1.312563 0.000000 -0.000001 0.000000 0.066184 -0.827645
    21 0.729362 0.000002 -0.000002 0.000000 0.000009 -0.594031
    22 3.942326 0.046771 -0.431445 -0.161989 -0.106345 -1.434486
    23 1.539096 -0.000001 0.000000 0.000000 0.006390 -0.777660
    24 1.196321 -0.000001 -0.000001 0.000000 0.000002 -1.170567
    25 3.883689 -0.046771 0.431441 0.049936 -0.030483 -1.249506
    26 1.719574 -0.000002 0.000002 0.000000 0.033584 -1.110939
    27 1.209183 -0.000002 -0.000001 0.000000 0.000004 -1.111239
    28 3.859861 -0.137949 1.332466 0.283488 0.115914 -1.212807
    29 1.719429 -0.000001 0.000000 0.000000 -0.152217 -1.133732
    30 1.099665 0.000001 0.000000 0.000000 0.000007 -1.021302
    31 0.806047 -0.348923 1.321257 -1.241196 -0.251332 -0.849459
    32 1.789785 -0.000001 0.000001 0.000000 -0.036081 0.257592
    33 1.207001 -0.000001 0.000001 0.000000 0.000001 0.303714
    34 2.033352 1.000771 -1.937609 -0.940446 1.168065 3.716437
    35 6.028142 0.000006 -0.000001 0.815445 0.353722 -1.041024
    36 11.692554 -0.000002 0.000003 0.000000 0.000000 -1.938333
    37 11.481695 0.000001 0.000002 -1.497414 0.149528 -0.148728
    38 3.859671 -0.132568 1.193107 0.498203 0.156937 -0.982261
    39 1.312564 0.000000 0.000002 0.000000 -0.456981 -1.112956
    40 0.729365 0.000001 0.000000 0.000000 -0.000010 -0.672061
    41 3.942294 0.050327 0.431041 0.160536 0.000249 -0.910199
    42 1.539096 0.000001 0.000001 0.000000 -0.214757 -1.281153
    43 1.196322 0.000000 -0.000001 0.000000 -0.000003 -0.797323
    44 3.883655 -0.050329 -0.431044 -0.084946 -0.177602 -0.644875
    45 1.719578 0.000000 0.000003 0.000000 -0.031656 -1.425518
    46 1.209184 0.000002 0.000001 -0.003428 0.022229 -0.934718
    47 3.859828 -0.148936 -1.331284 -0.321533 -0.122638 -0.062443
    48 1.719425 -0.000001 0.000001 0.000000 0.126416 -0.583374
    49 1.099666 -0.000002 0.000001 -0.051342 0.069075 -1.042844
    50 0.806016 -0.359835 -1.318335 1.282844 0.248619 -0.715183
    51 1.789782 0.000001 0.000002 0.000000 -0.010076 0.141894
    52 1.206999 0.000000 0.000001 0.000300 0.002007 1.187229
  time 2
    0 0.767206 2.371171 35.406665 1.645876 0.219341 0.265261
    1 3.890452 -0.000005 -0.000003 -1.643319 -0.524895 -1.165849
    2 17.848175 0.000000 0.000001 0.000000 0.000000 0.832893
    3 16.525253 0.000000 0.000001 -0.045018 0.030600 -1.348436
    4 6.879454 0.000000 0.000000 -0.007299 -0.002951 -0.584373
    5 -3.890452 0.000005 0.000007 -0.906900 -0.225969 -1.735129
    6 17.848175 -0.000001 -0.000001 0.000000 0.000000 0.539327
    7 16.525257 -0.000001 0.000000 0.185891 -0.112557 -1.183030
    8 6.879455 0.000000 -0.000001 -0.081333 -0.002951 -0.584373
    9 -0.324224 3.329502 -2.981901 1.570796 0.086293 1.668938
    10 4.018332 0.000000 0.000000 0.003823 -0.117737 -0.029458
    11 3.518565 0.000000 0.000001 -0.101922 -0.052109 0.100103
    12 8.942640 0.000000 -0.000001 -0.135522 -0.126342 0.194947
    13 3.307271 0.000001 0.000000 3.141590 0.000000 0.400478
    14 3.593712 -0.000001 0.000001 0.000006 0.000009 0.406609
    15 2.033345 1.000767 1.937662 2.131006 -1.233471 2.383238
    16 6.028145 0.000000 0.000000 -1.666688 -0.622903 -0.440716
    17 11.692550 0.000000 0.000002 0.000000 0.000000 -1.899455
    18 11.481673 0.000001 -0.000033 1.123471 -0.287734 0.440864
    19 3.859703 -0.142406 -1.191976 -0.463410 -0.186147 -1.428469
    20 1.312563 0.000000 -0.000001 0.000000 0.066184 -0.827645
    21 0.729362 0.000002 -0.000002 0.000000 0.000009 -0.594031
    22 3.942326 0.046771 -0.431445 -0.161989 -0.106345 -1.434486
    23 1.539096 -0.000001 0.000000 0.000000 0.006390 -0.777660
    24 1.196321 -0.000001 -0.000001 0.000000 0.000002 -1.170567
    25 3.883689 -0.046771 0.431441 0.049936 -0.030483 -1.249506
    26 1.719574 -0.000002 0.000002 0.000000 0.033584 -1.110939
    27 1.209183 -0.000002 -0.000001 0.000000 0.000004 -1.111239
    28 3.859861 -0.137949 1.332466 0.283488 0.115914 -1.212807
    29 1.719429 -0.000001 0.000000 0.000000 -0.152217 -1.133732
    30 1.099665 0.000001 0.000000 0.000000 0.000007 -1.021302
    31 0.806047 -0.348923 1.321257 -1.241196 -0.251332 -0.849459
    32 1.789785 -0.000001 0.000001 0.000000 -0.036081 0.257592
    33 1.207001 -0.000001 0.000001 0.000000 0.000001 0.303714
    34 2.033352 1.000771 -1.937609 -0.940446 1.168065 3.716437
    35 6.028142 0.000006 -0.000001 0.815445 0.353722 -1.041024
    36 11.692554 -0.000002 0.000003 0.000000 0.000000 -1.938333
    37 11.481695 0.000001 0.000002 -1.497414 0.149528 -0.148728
    38 3.859671 -0.132568 1.193107 0.498203 0.156937 -0.982261
    39 1.312564 0.000000 0.000002 0.000000 -0.456981 -1.112956
    40 0.729365 0.000001 0.000000 0.000000 -0.000010 -0.672061
    41 3.942294 0.050327 0.431041 0.160536 0.000249 -0.910199
    42 1.539096 0.000001 0.000001 0.000000 -0.214757 -1.281153
    43 1.196322 0.000000 -0.000001 0.000000 -0.000003 -0.797323
    44 3.883655 -0.050329 -0.431044 -0.084946 -0.177602 -0.644875
    45 1.719578 0.000000 0.000003 0.000000 -0.031656 -1.425518
    46 1.209184 0.000002 0.000001 -0.003428 0.022229 -0.934718
    47 3.859828 -0.148936 -1.331284 -0.321533 -0.122638 -0.062443
    48 1.719425 -0.000001 0.000001 0.000000 0.126416 -0.583374
    49 1.099666 -0.000002 0.000001 -0.051342 0.069075 -1.042844
    50 0.806016 -0.359835 -1.318335 1.282844 0.248619 -0.715183
    51 1.789782 0.000001 0.000002 0.000000 -0.010076 0.141894
    52 1.206999 0.000000 0.000001 0.000300 0.002007 1.187229
  time 3
    0 0.767206 2.371171 35.406665 1.645876 0.219341 0.265261
    1 3.890452 -0.000005 -0.000003 -1.643319 -0.524895 -1.165849
    2 17.848175 0.000000 0.000001 0.000000 0.000000 0.832893
    3 16.525253 0.000000 0.000001 -0.045018 0.030600 -1.348436
    4 6.879454 0.000000 0.000000 -0.007299 -0.002951 -0.584373
    5 -3.890452 0.000005 0.000007 -0.906900 -0.225969 -1.735129
    6 17.848175 -0.000001 -0.000001 0.000000 0.000000 0.539327
    7 16.525257 -0.000001 0.000000 0.185891 -0.112557 -1.183030
    8 6.879455 0.000000 -0.000001 -0.081333 -0.002951 -0.584373
    9 -0.324224 3.329502 -2.981901 1.570796 0.086293 1.668938
    10 4.018332 0.000000 0.000000 0.003823 -0.117737 -0.029458
    11 3.518565 0.000000 0.000001 -0.101922 -0.052109 0.100103
    12 8.942640 0.000000 -0.000001 -0.135522 -0.126342 0.194947
    13 3.307271 0.000001 0.000000 3.141590 0.000000 0.400478
    14 3.593712 -0.000001 0.000001 0.000006 0.000009 0.406609
    15 2.033345 1.000767 1.937662 2.131006 -1.233471 2.383238
    16 6.028145 0.000000 0.000000 -1.666688 -0.622903 -0.440716
    17 11.692550 0.000000 0.000002 0.000000 0.000000 -1.899455
    18 11.481673 0.000001 -0.000033 1.123471 -0.287734 0.440864
    19 3.859703 -0.142406 -1.191976 -0.463410 -0.186147 -1.428469
    20 1.312563 0.000000 -0.000001 0.000000 0.066184 -0.827645
    21 0.729362 0.000002 -0.000002 0.000000 0.000009 -0.594031
    22 3.942326 0.046771 -0.431445 -0.161989 -0.106345 -1.434486
    23 1.539096 -0.000001 0.000000 0.000000 0.006390 -0.777660
    24 1.196321 -0.000001 -0.000001 0.000000 0.000002 -1.170567
    25 3.883689 -0.046771 0.431441 0.049936 -0.030483 -1.249506
    26 1.719574 -0.000002 0.000002 0.000000 0.033584 -1.110939
    27 1.209183 -0.000002 -0.000001 0.000000 0.000004 -1.111239
    28 3.859861 -0.137949 1.332466 0.283488 0.115914 -1.212807
    29 1.719429 -0.000001 0.000000 0.000000 -0.152217 -1.133732
    30 1.099665 0.000001 0.000000 0.000000 0.000007 -1.021302
    31 0.806047 -0.348923 1.321257 -1.241196 -0.251332 -0.849459
    32 1.789785 -0.000001 0.000001 0.000000 -0.036081 0.257592
    33 1.207001 -0.000001 0.000001 0.000000 0.000001 0.303714
    34 2.033352 1.000771 -1.937609 -0.940446 1.168065 3.716437
    35 6.028142 0.000006 -0.000001 0.815445 0.353722 -1.041024
    36 11.692554 -0.000002 0.000003 0.000000 0.000000 -1.938333
    37 11.481695 0.000001 0.000002 -1.497414 0.149528 -0.148728
    38 3.859671 -0.132568 1.193107 0.498203 0.156937 -0.982261
    39 1.312564 0.000000 0.000002 0.000000 -0.456981 -1.112956
    40 0.729365 0.000001 0.000000 0.000000 -0.000010 -0.672061
    41 3.942294 0.050327 0.431041 0.160536 0.000249 -0.910199
    42 1.539096 0.000001 0.000001 0.000000 -0.214757 -1.281153
    43 1.196322 0.000000 -0.000001 0.000000 -0.000003 -0.797323
    44 3.883655 -0.050329 -0.431044 -0.084946 -0.177602 -0.644875
    45 1.719578 0.000000 0.000003 0.000000 -0.031656 -1.425518
    46 1.209184 0.000002 0.000001 -0.003428 0.022229 -0.934718
    47 3.859828 -0.148936 -1.331284 -0.321533 -0.122638 -0.062443
    48 1.719425 -0.000001 0.000001 0.000000 0.126416 -0.583374
    49 1.099666 -0.000002 0.000001 -0.051342 0.069075 -1.042844
    50 0.806016 -0.359835 -1.318335 1.282844 0.248619 -0.715183
    51 1.789782 0.000001 0.000002 0.000000 -0.010076 0.141894
    52 1.206999 0.000000 0.000001 0.000300 0.002007 1.187229
  time 4
    0 0.767206 2.371171 35.406665 1.645876 0.219341 0.265261
    1 3.890452 -0.000005 -0.000003 -1.643319 -0.524895 -1.165849
    2 17.848175 0.000000 0.000001 0.000000 0.000000 0.832893
    3 16.525253 0.000000 0.000001 -0.045018 0.030600 -1.348436
    4 6.879454 0.000000 0.000000 -0.007299 -0.002951 -0.584373
    5 -3.890452 0.000005 0.000007 -0.906900 -0.225969 -1.735129
    6 17.848175 -0.000001 -0.000001 0.000000 0.000000 0.539327
    7 16.525257 -0.000001 0.000000 0.185891 -0.112557 -1.183030
    8 6.879455 0.000000 -0.000001 -0.081333 -0.002951 -0.584373
    9 -0.324224 3.329502 -2.981901 1.570796 0.086293 1.668938
    10 4.018332 0.000000 0.000000 0.003823 -0.117737 -0.029458
    11 3.518565 0.000000 0.000001 -0.101922 -0.052109 0.100103
    12 8.942640 0.000000 -0.000001 -0.135522 -0.126342 0.194947
    13 3.307271 0.000001 0.000000 3.141590 0.000000 0.400478
    14 3.593712 -0.000001 0.000001 0.000006 0.000009 0.406609
    15 2.033345 1.000767 1.937662 2.131006 -1.233471 2.383238
    16 6.028145 0.000000 0.000000 -1.666688 -0.622903 -0.440716
    17 11.692550 0.000000 0.000002 0.000000 0.000000 -1.899455
    18 11.481673 0.000001 -0.000033 1.123471 -0.287734 0.440864
    19 3.859703 -0.142406 -1.191976 -0.463410 -0.186147 -1.428469
    20 1.312563 0.000000 -0.000001 0.000000 0.066184 -0.827645
    21 0.729362 0.000002 -0.000002 0.000000 0.000009 -0.594031
    22 3.942326 0.046771 -0.431445 -0.161989 -0.106345 -1.434486
    23 1.539096 -0.000001 0.000000 0.000000 0.006390 -0.777660
    24 1.196321 -0.000001 -0.000001 0.000000 0.000002 -1.170567
    25 3.883689 -0.046771 0.431441 0.049936 -0.030483 -1.249506
    26 1.719574 -0.000002 0.000002 0.000000 0.033584 -1.110939
    27 1.209183 -0.000002 -0.000001 0.000000 0.000004 -1.111239
    28 3.859861 -0.137949 1.332466 0.283488 0.115914 -1.212807
    29 1.719429 -0.000001 0.000000 0.000000 -0.152217 -1.133732
    30 1.099665 0.000001 0.000000 0.000000 0.000007 -1.021302
    31 0.806047 -0.348923 1.321257 -1.241196 -0.251332 -0.849459
    32 1.789785 -0.000001 0.000001 0.000000 -0.036081 0.257592
    33 1.207001 -0.000001 0.000001 0.000000 0.000001 0.303714
    34 2.033352 1.000771 -1.937609 -0.940446 1.168065 3.716437
    35 6.028142 0.000006 -0.000001 0.815445 0.353722 -1.041024
    36 11.692554 -0.000002 0.000003 0.000000 0.000000 -1.938333
    37 11.481695 0.000001 0.000002 -1.497414 0.149528 -0.148728
    38 3.859671 -0.132568 1.193107 0.498203 0.156937 -0.982261
    39 1.312564 0.000000 0.000002 0.000000 -0.456981 -1.112956
    40 0.729365 0.000001 0.000000 0.000000 -0.000010 -0.672061
    41 3.942294 0.050327 0.431041 0.160536 0.000249 -0.910199
    42 1.539096 0.000001 0.000001 0.000000 -0.214757 -1.281153
    43 1.196322 0.000000 -0.000001 0.000000 -0.000003 -0.797323
    44 3.883655 -0.050329 -0.431044 -0.084946 -0.177602 -0.644875
    45 1.719578 0.000000 0.000003 0.000000 -0.031656 -1.425518
    46 1.209184 0.000002 0.000001 -0.003428 0.022229 -0.934718
    47 3.859828 -0.148936 -1.331284 -0.321533 -0.122638 -0.062443
    48 1.719425 -0.000001 0.000001 0.000000 0.126416 -0.583374
    49 1.099666 -0.000002 0.000001 -0.051342 0.069075 -1.042844
    50 0.806016 -0.359835 -1.318335 1.282844 0.248619 -0.715183
    51 1.789782 0.000001 0.000002 0.000000 -0.010076 0.141894
    52 1.206999 0.000000 0.000001 0.000300 0.002007 1.187229
  time 5
    0 0.767206 2.371171 35.406665 1.645876 0.219341 0.265261
    1 3.890452 -0.000005 -0.000003 -1.643319 -0.524895 -1.165849
    2 17.848175 0.000000 0.000001 0.000000 0.000000 0.832893
    3 16.525253 0.000000 0.000001 -0.045018 0.030600 -1.348436
    4 6.879454 0.000000 0.000000 -0.007299 -0.002951 -0.584373
    5 -3.890452 0.000005 0.000007 -0.906900 -0.225969 -1.735129
    6 17.848175 -0.000001 -0.000001 0.000000 0.000000 0.539327
    7 16.525257 -0.000001 0.000000 0.185891 -0.112557 -1.183030
    8 6.879455 0.000000 -0.000001 -0.081333 -0.002951 -0.584373
    9 -0.324224 3.329502 -2.981901 1.570796 0.086293 1.668938
    10 4.018332 0.000000 0.000000 0.003823 -0.117737 -0.029458
    11 3.518565 0.000000 0.000001 -0.101922 -0.052109 0.100103
    12 8.942640 0.000000 -0.000001 -0.135522 -0.126342 0.194947
    13 3.307271 0.000001 0.000000 3.141590 0.000000 0.400478
    14 3.593712 -0.000001 0.000001 0.000006 0.000009 0.406609
    15 2.033345 1.000767 1.937662 2.131006 -1.233471 2.383238
    16 6.028145 0.000000 0.000000 -1.666688 -0.622903 -0.440716
    17 11.692550 0.000000 0.000002 0.000000 0.000000 -1.899455
    18 11.481673 0.000001 -0.000033 1.123471 -0.287734 0.440864
    19 3.859703 -0.142406 -1.191976 -0.463410 -0.186147 -1.428469
    20 1.312563 0.000000 -0.000001 0.000000 0.066184 -0.827645
    21 0.729362 0.000002 -0.000002 0.000000 0.000009 -0.594031
    22 3.942326 0.046771 -0.431445 -0.161989 -0.106345 -1.434486
    23 1.539096 -0.000001 0.000000 0.000000 0.006390 -0.777660
    24 1.196321 -0.000001 -0.000001 0.000000 0.000002 -1.170567
    25 3.883689 -0.046771 0.431441 0.049936 -0.030483 -1.249506
    26 1.719574 -0.000002 0.000002 0.000000 0.033584 -1.110939
    27 1.209183 -0.000002 -0.000001 0.000000 0.000004 -1.111239
    28 3.859861 -0.137949 1.332466 0.283488 0.115914 -1.212807
    29 1.719429 -0.000001 0.000000 0.000000 -0.152217 -1.133732
    30 1.099665 0.000001 0.000000 0.000000 0.000007 -1.021302
    31 0.806047 -0.348923 1.321257 -1.241196 -0.251332 -0.849459
    32 1.789785 -0.000001 0.000001 0.000000 -0.036081 0.257592
    33 1.207001 -0.000001 0.000001 0.000000 0.000001 0.303714
    34 2.033352 1.000771 -1.937609 -0.940446 1.168065 3.716437
    35 6.028142 0.000006 -0.000001 0.815445 0.353722 -1.041024
    36 11.692554 -0.000002 0.000003 0.000000 0.000000 -1.938333
    37 11.481695 0.000001 0.000002 -1.497414 0.149528 -0.148728
    38 3.859671 -0.132568 1.193107 0.498203 0.156937 -0.982261
    39 1.312564 0.000000 0.000002 0.000000 -0.456981 -1.112956
    40 0.729365 0.000001 0.000000 0.000000 -0.000010 -0.672061
    41 3.942294 0.050327 0.431041 0.160536 0.000249 -0.910199
    42 1.539096 0.000001 0.000001 0.000000 -0.214757 -1.281153
    43 1.196322 0.000000 -0.000001 0.000000 -0.000003 -0.797323
    44 3.883655 -0.050329 -0.431044 -0.084946 -0.177602 -0.644875
    45 1.719578 0.000000 0.000003 0.000000 -0.031656 -1.425518
    46 1.209184 0.000002 0.000001 -0.003428 0.022229 -0.934718
    47 3.859828 -0.148936 -1.331284 -0.321533 -0.122638 -0.062443
    48 1.719425 -0.000001 0.000001 0.000000 0.126416 -0.583374
    49 1.099666 -0.000002 0.000001 -0.051342 0.069075 -1.042844
    50 0.806016 -0.359835 -1.318335 1.282844 0.248619 -0.715183
    51 1.789782 0.000001 0.000002 0.000000 -0.010076 0.141894
    52 1.206999 0.000000 0.000001 0.000300 0.002007 1.187229
end
