// Created by Crowbar 0.62
version 1
nodes
  0 "ValveBiped.Bip01_Pelvis" -1
  1 "ValveBiped.Bip01_L_Thigh" 0
  2 "ValveBiped.Bip01_L_Calf" 1
  3 "ValveBiped.Bip01_L_Foot" 2
  4 "ValveBiped.Bip01_L_Toe0" 3
  5 "ValveBiped.Bip01_R_Thigh" 0
  6 "ValveBiped.Bip01_R_Calf" 5
  7 "ValveBiped.Bip01_R_Foot" 6
  8 "ValveBiped.Bip01_R_Toe0" 7
  9 "ValveBiped.Bip01_Spine" 0
  10 "ValveBiped.Bip01_Spine1" 9
  11 "ValveBiped.Bip01_Spine2" 10
  12 "ValveBiped.Bip01_Spine4" 11
  13 "ValveBiped.Bip01_Neck1" 12
  14 "ValveBiped.Bip01_Head1" 13
  15 "ValveBiped.Bip01_L_Clavicle" 12
  16 "ValveBiped.Bip01_L_UpperArm" 15
  17 "ValveBiped.Bip01_L_Forearm" 16
  18 "ValveBiped.Bip01_L_Hand" 17
  19 "ValveBiped.Bip01_L_Finger4" 18
  20 "ValveBiped.Bip01_L_Finger41" 19
  21 "ValveBiped.Bip01_L_Finger42" 20
  22 "ValveBiped.Bip01_L_Finger3" 18
  23 "ValveBiped.Bip01_L_Finger31" 22
  24 "ValveBiped.Bip01_L_Finger32" 23
  25 "ValveBiped.Bip01_L_Finger2" 18
  26 "ValveBiped.Bip01_L_Finger21" 25
  27 "ValveBiped.Bip01_L_Finger22" 26
  28 "ValveBiped.Bip01_L_Finger1" 18
  29 "ValveBiped.Bip01_L_Finger11" 28
  30 "ValveBiped.Bip01_L_Finger12" 29
  31 "ValveBiped.Bip01_L_Finger0" 18
  32 "ValveBiped.Bip01_L_Finger01" 31
  33 "ValveBiped.Bip01_L_Finger02" 32
  34 "ValveBiped.Bip01_R_Clavicle" 12
  35 "ValveBiped.Bip01_R_UpperArm" 34
  36 "ValveBiped.Bip01_R_Forearm" 35
  37 "ValveBiped.Bip01_R_Hand" 36
  38 "ValveBiped.Bip01_R_Finger4" 37
  39 "ValveBiped.Bip01_R_Finger41" 38
  40 "ValveBiped.Bip01_R_Finger42" 39
  41 "ValveBiped.Bip01_R_Finger3" 37
  42 "ValveBiped.Bip01_R_Finger31" 41
  43 "ValveBiped.Bip01_R_Finger32" 42
  44 "ValveBiped.Bip01_R_Finger2" 37
  45 "ValveBiped.Bip01_R_Finger21" 44
  46 "ValveBiped.Bip01_R_Finger22" 45
  47 "ValveBiped.Bip01_R_Finger1" 37
  48 "ValveBiped.Bip01_R_Finger11" 47
  49 "ValveBiped.Bip01_R_Finger12" 48
  50 "ValveBiped.Bip01_R_Finger0" 37
  51 "ValveBiped.Bip01_R_Finger01" 50
  52 "ValveBiped.Bip01_R_Finger02" 51
end
skeleton
  time 0
    0 -2.224971 0.385903 35.034283 1.806505 0.155720 -0.132768
    1 3.890447 0.000000 0.000001 -1.925867 -1.040112 -0.906979
    2 17.848177 -0.000001 0.000000 0.000000 0.000000 2.230000
    3 16.525255 -0.000001 0.000000 -0.045181 0.241555 -1.179600
    4 6.879455 0.000000 0.000000 -0.003243 -0.002786 -1.107976
    5 -3.890447 0.000000 0.000000 -1.572851 -0.183482 -1.412075
    6 17.848179 0.000000 0.000000 0.000000 0.000000 0.642944
    7 16.525257 0.000000 0.000000 -0.072228 -0.086087 -1.526215
    8 6.879455 0.000000 0.000000 -0.079848 -0.003035 -0.733629
    9 -0.000001 3.345132 -2.981897 1.487054 -0.157728 1.599930
    10 3.998799 0.000000 0.000000 0.063267 0.060930 0.220011
    11 3.520299 0.000002 0.000000 0.068885 0.054494 0.427786
    12 8.923110 0.000000 0.000000 -0.001678 0.025815 0.367621
    13 3.306360 0.000002 0.000000 3.141590 0.000000 0.697011
    14 3.601524 -0.000001 0.000000 -0.394165 -0.176452 0.536231
    15 2.056784 0.981236 1.937661 3.378634 -1.178660 1.176699
    16 6.028142 0.000000 0.000001 -3.752665 -0.757826 1.035900
    17 11.692555 0.000001 0.000002 0.000000 0.000000 -2.252888
    18 11.481673 0.000001 -0.000031 1.547303 0.323262 -0.030600
    19 3.851893 0.123227 -1.223225 -0.175078 0.232930 -0.626253
    20 1.312563 0.000000 0.000001 0.000000 0.004679 -0.753589
    21 0.729363 -0.000001 0.000001 0.000000 0.002406 -0.334309
    22 3.926701 0.316311 -0.458788 0.013729 0.025114 -0.537224
    23 1.539099 -0.000001 -0.000001 0.000000 0.002914 -0.561620
    24 1.196322 -0.000001 0.000000 0.000000 0.004796 -0.744628
    25 3.883690 0.211049 0.404099 0.091079 -0.102654 -0.336106
    26 1.719579 0.000000 0.000001 0.000000 0.005013 -0.680296
    27 1.209178 0.000003 -0.000001 0.000000 0.002808 -0.530215
    28 3.867673 0.115967 1.301215 0.361172 -0.307765 -0.424235
    29 1.719429 0.000000 0.000001 0.000000 0.005105 -0.876204
    30 1.099661 0.000000 0.000002 0.000000 0.003243 -0.558112
    31 0.837298 -0.302045 1.313445 -1.418910 -0.585425 -0.411855
    32 1.789784 0.000000 -0.000001 -0.392970 0.058130 -0.103184
    33 1.207002 0.000001 0.000001 0.000000 -0.003294 1.086686
    34 2.056792 0.981240 -1.937609 -3.562080 1.345801 1.053130
    35 6.028141 0.000004 -0.000001 1.623598 -0.043246 -1.518876
    36 11.692557 -0.000001 0.000002 0.000000 0.000000 -2.090539
    37 11.481697 0.000000 -0.000001 -1.379609 0.154903 0.715011
    38 3.851861 0.133065 1.220453 0.494313 -0.097759 -1.141906
    39 1.312564 0.000002 0.000000 0.000000 -0.007097 -0.826609
    40 0.729363 0.000000 0.000001 0.000000 -0.003653 -0.935199
    41 3.926669 0.319868 0.458388 0.166720 -0.127387 -1.076926
    42 1.539096 0.000001 -0.000001 0.000000 -0.004404 -0.870443
    43 1.196322 0.000001 0.000000 0.000000 -0.007266 -1.448866
    44 3.883656 0.207493 -0.403698 0.103787 -0.274161 -0.673786
    45 1.719579 0.000000 0.000000 0.000000 -0.007590 -1.320343
    46 1.209178 0.000003 -0.000001 0.000000 -0.004245 -1.170289
    47 3.867642 0.104978 -1.303937 -0.315433 0.154362 -0.106074
    48 1.719431 0.000001 -0.000001 0.000000 -0.007728 -0.850767
    49 1.099662 -0.000003 0.000000 0.000000 -0.004918 -0.732111
    50 0.837268 -0.312954 -1.310521 1.175425 0.303547 -0.981087
    51 1.789780 -0.000001 -0.000001 0.000000 0.200217 0.487566
    52 1.207002 0.000000 0.000001 0.000000 0.201946 0.621931
  time 1
    0 -2.224971 0.385903 35.034283 1.806505 0.155720 -0.132768
    1 3.890447 0.000000 0.000001 -1.925867 -1.040112 -0.906979
    2 17.848177 -0.000001 0.000000 0.000000 0.000000 2.230000
    3 16.525255 -0.000001 0.000000 -0.045181 0.241555 -1.179600
    4 6.879455 0.000000 0.000000 -0.003243 -0.002786 -1.107976
    5 -3.890447 0.000000 0.000000 -1.572851 -0.183482 -1.412075
    6 17.848179 0.000000 0.000000 0.000000 0.000000 0.642944
    7 16.525257 0.000000 0.000000 -0.072228 -0.086087 -1.526215
    8 6.879455 0.000000 0.000000 -0.079848 -0.003035 -0.733629
    9 -0.000001 3.345132 -2.981897 1.490849 -0.157792 1.575867
    10 3.998799 0.000000 0.000000 0.099568 0.051114 0.222419
    11 3.520299 0.000002 0.000000 0.104044 0.041227 0.429840
    12 8.923110 0.000000 0.000000 0.017462 0.027948 0.367633
    13 3.306360 0.000002 0.000000 3.141590 0.000000 0.697011
    14 3.601524 -0.000001 0.000000 -0.414818 -0.177541 0.549519
    15 2.056784 0.981236 1.937661 3.323378 -1.186513 1.227670
    16 6.028142 0.000000 0.000001 -3.788604 -0.771691 1.089441
    17 11.692555 0.000001 0.000002 0.000000 0.000000 -2.252888
    18 11.481673 0.000001 -0.000031 1.547303 0.323262 -0.030600
    19 3.851893 0.123227 -1.223225 -0.175078 0.232930 -0.626253
    20 1.312563 0.000000 0.000001 0.000000 0.004679 -0.753589
    21 0.729363 -0.000001 0.000001 0.000000 0.002406 -0.334309
    22 3.926701 0.316311 -0.458788 0.013729 0.025114 -0.537224
    23 1.539099 -0.000001 -0.000001 0.000000 0.002914 -0.561620
    24 1.196322 -0.000001 0.000000 0.000000 0.004796 -0.744628
    25 3.883690 0.211049 0.404099 0.091079 -0.102654 -0.336106
    26 1.719579 0.000000 0.000001 0.000000 0.005013 -0.680296
    27 1.209178 0.000003 -0.000001 0.000000 0.002808 -0.530215
    28 3.867673 0.115967 1.301215 0.361172 -0.307765 -0.424235
    29 1.719429 0.000000 0.000001 0.000000 0.005105 -0.876204
    30 1.099661 0.000000 0.000002 0.000000 0.003255 -0.558112
    31 0.837298 -0.302045 1.313445 -1.418910 -0.585425 -0.411855
    32 1.789784 0.000000 -0.000001 -0.392970 0.058130 -0.103184
    33 1.207002 0.000001 0.000001 0.000000 -0.003294 1.086686
    34 2.056792 0.981240 -1.937609 -3.463094 1.350277 1.150513
    35 6.028141 0.000004 -0.000001 1.634600 -0.049690 -1.539660
    36 11.692557 -0.000001 0.000002 0.000000 0.000000 -2.144421
    37 11.481697 0.000000 -0.000001 -1.380998 0.150248 0.703319
    38 3.851861 0.133065 1.220453 0.494313 -0.097759 -1.141906
    39 1.312564 0.000002 0.000000 0.000000 -0.007097 -0.826609
    40 0.729363 0.000000 0.000001 0.000000 -0.003653 -0.935199
    41 3.926669 0.319868 0.458388 0.166720 -0.127387 -1.076926
    42 1.539096 0.000001 -0.000001 0.000000 -0.004404 -0.870443
    43 1.196322 0.000001 0.000000 0.000000 -0.007266 -1.448866
    44 3.883656 0.207493 -0.403698 0.103787 -0.274161 -0.673786
    45 1.719579 0.000000 0.000000 0.000000 -0.007590 -1.320343
    46 1.209178 0.000003 -0.000001 0.000000 -0.004245 -1.170289
    47 3.867642 0.104978 -1.303937 -0.315433 0.154362 -0.106074
    48 1.719431 0.000001 -0.000001 0.000000 -0.007728 -0.850767
    49 1.099662 -0.000003 0.000000 0.000000 -0.004918 -0.732111
    50 0.837268 -0.312954 -1.310521 1.175425 0.303547 -0.981087
    51 1.789780 -0.000001 -0.000001 0.000000 0.200217 0.487566
    52 1.207002 0.000000 0.000001 0.000000 0.201946 0.621931
  time 2
    0 -2.224971 0.385903 35.034283 1.806505 0.155720 -0.132768
    1 3.890447 0.000000 0.000001 -1.925867 -1.040112 -0.906979
    2 17.848177 -0.000001 0.000000 0.000000 0.000000 2.230000
    3 16.525255 -0.000001 0.000000 -0.045181 0.241555 -1.179600
    4 6.879455 0.000000 0.000000 -0.003243 -0.002786 -1.107976
    5 -3.890447 0.000000 0.000000 -1.572851 -0.183482 -1.412075
    6 17.848179 0.000000 0.000000 0.000000 0.000000 0.642944
    7 16.525257 0.000000 0.000000 -0.072228 -0.086087 -1.526215
    8 6.879455 0.000000 0.000000 -0.079848 -0.003035 -0.733629
    9 -0.000001 3.345132 -2.981897 1.499451 -0.157600 1.521129
    10 3.998799 0.000000 0.000000 0.113075 0.047495 0.218816
    11 3.520299 0.000002 0.000000 0.117134 0.036313 0.426067
    12 8.923110 0.000000 0.000000 0.024592 0.028739 0.367609
    13 3.306360 0.000002 0.000000 3.141590 0.000000 0.697011
    14 3.601524 -0.000001 0.000000 -0.420393 -0.186519 0.570624
    15 2.056784 0.981236 1.937661 3.362162 -1.185099 1.191550
    16 6.028142 0.000000 0.000001 -3.807911 -0.751234 1.106167
    17 11.692555 0.000001 0.000002 0.000000 0.000000 -2.252888
    18 11.481673 0.000001 -0.000031 1.547303 0.323262 -0.030600
    19 3.851893 0.123227 -1.223225 -0.175078 0.232930 -0.626253
    20 1.312563 0.000000 0.000001 0.000000 0.004679 -0.753589
    21 0.729363 -0.000001 0.000001 0.000000 0.002406 -0.334309
    22 3.926701 0.316311 -0.458788 0.013729 0.025114 -0.537224
    23 1.539099 -0.000001 -0.000001 0.000000 0.002914 -0.561620
    24 1.196322 -0.000001 0.000000 0.000000 0.004796 -0.744628
    25 3.883690 0.211049 0.404099 0.091079 -0.102654 -0.336106
    26 1.719579 0.000000 0.000001 0.000000 0.005013 -0.680296
    27 1.209178 0.000003 -0.000001 0.000000 0.002808 -0.530215
    28 3.867673 0.115967 1.301215 0.361172 -0.307765 -0.424235
    29 1.719429 0.000000 0.000001 0.000000 0.005105 -0.876204
    30 1.099661 0.000000 0.000002 0.000000 0.003243 -0.558112
    31 0.837298 -0.302045 1.313445 -1.418910 -0.585425 -0.411855
    32 1.789784 0.000000 -0.000001 -0.392970 0.058130 -0.103184
    33 1.207002 0.000001 0.000001 0.000000 -0.003294 1.086686
    34 2.056792 0.981240 -1.937609 -3.522942 1.344074 1.091937
    35 6.028141 0.000004 -0.000001 1.649150 -0.029976 -1.581322
    36 11.692557 -0.000001 0.000002 0.000000 0.000000 -2.200264
    37 11.481697 0.000000 -0.000001 -1.384206 0.136978 0.671756
    38 3.851861 0.133065 1.220453 0.494313 -0.097759 -1.141906
    39 1.312564 0.000002 0.000000 0.000000 -0.007097 -0.826609
    40 0.729363 0.000000 0.000001 0.000000 -0.003653 -0.935199
    41 3.926669 0.319868 0.458388 0.166720 -0.127387 -1.076926
    42 1.539096 0.000001 -0.000001 0.000000 -0.004404 -0.870443
    43 1.196322 0.000001 0.000000 0.000000 -0.007266 -1.448866
    44 3.883656 0.207493 -0.403698 0.103787 -0.274161 -0.673786
    45 1.719579 0.000000 0.000000 0.000000 -0.007590 -1.320343
    46 1.209178 0.000003 -0.000001 0.000000 -0.004245 -1.170289
    47 3.867642 0.104978 -1.303937 -0.315433 0.154362 -0.106074
    48 1.719431 0.000001 -0.000001 0.000000 -0.007728 -0.850767
    49 1.099662 -0.000003 0.000000 0.000000 -0.004918 -0.732111
    50 0.837268 -0.312954 -1.310521 1.175425 0.303547 -0.981087
    51 1.789780 -0.000001 -0.000001 0.000000 0.200217 0.487566
    52 1.207002 0.000000 0.000001 0.000000 0.201946 0.621931
  time 3
    0 -2.224971 0.385903 35.034283 1.806505 0.155720 -0.132768
    1 3.890447 0.000000 0.000001 -1.925867 -1.040112 -0.906979
    2 17.848177 -0.000001 0.000000 0.000000 0.000000 2.230000
    3 16.525255 -0.000001 0.000000 -0.045181 0.241555 -1.179600
    4 6.879455 0.000000 0.000000 -0.003243 -0.002786 -1.107976
    5 -3.890447 0.000000 0.000000 -1.572851 -0.183482 -1.412075
    6 17.848179 0.000000 0.000000 0.000000 0.000000 0.642944
    7 16.525257 0.000000 0.000000 -0.072228 -0.086087 -1.526215
    8 6.879455 0.000000 0.000000 -0.079848 -0.003035 -0.733629
    9 -0.000001 3.345132 -2.981897 1.508963 -0.156845 1.460374
    10 3.998799 0.000000 0.000000 0.099508 0.049628 0.210581
    11 3.520299 0.000002 0.000000 0.103832 0.039741 0.417997
    12 8.923110 0.000000 0.000000 0.017402 0.027936 0.367633
    13 3.306360 0.000002 0.000000 3.141590 0.000000 0.697011
    14 3.601524 -0.000001 0.000000 -0.412030 -0.188667 0.580726
    15 2.056784 0.981236 1.937661 3.449788 -1.175284 1.110495
    16 6.028142 0.000000 0.000001 -3.790229 -0.715776 1.081312
    17 11.692555 0.000001 0.000002 0.000000 0.000000 -2.252888
    18 11.481673 0.000001 -0.000031 1.547303 0.323262 -0.030600
    19 3.851893 0.123227 -1.223225 -0.175078 0.232930 -0.626253
    20 1.312563 0.000000 0.000001 0.000000 0.004679 -0.753589
    21 0.729363 -0.000001 0.000001 0.000000 0.002406 -0.334309
    22 3.926701 0.316311 -0.458788 0.013729 0.025114 -0.537224
    23 1.539099 -0.000001 -0.000001 0.000000 0.002914 -0.561620
    24 1.196322 -0.000001 0.000000 0.000000 0.004796 -0.744628
    25 3.883690 0.211049 0.404099 0.091079 -0.102654 -0.336106
    26 1.719579 0.000000 0.000001 0.000000 0.005013 -0.680296
    27 1.209178 0.000003 -0.000001 0.000000 0.002808 -0.530215
    28 3.867673 0.115967 1.301215 0.361172 -0.307765 -0.424235
    29 1.719429 0.000000 0.000001 0.000000 0.005105 -0.876204
    30 1.099661 0.000000 0.000002 0.000000 0.003243 -0.558112
    31 0.837298 -0.302045 1.313445 -1.418910 -0.585425 -0.411855
    32 1.789784 0.000000 -0.000001 -0.392970 0.058130 -0.103184
    33 1.207002 0.000001 0.000001 0.000000 -0.003294 1.086686
    34 2.056792 0.981240 -1.937609 -3.661066 1.330411 0.956479
    35 6.028141 0.000004 -0.000001 1.651190 -0.002528 -1.621119
    36 11.692557 -0.000001 0.000002 0.000000 0.000000 -2.249354
    37 11.481697 0.000000 -0.000001 -1.387175 0.115838 0.625673
    38 3.851861 0.133065 1.220453 0.494313 -0.097759 -1.141906
    39 1.312564 0.000002 0.000000 0.000000 -0.007097 -0.826609
    40 0.729363 0.000000 0.000001 0.000000 -0.003653 -0.935199
    41 3.926669 0.319868 0.458388 0.166720 -0.127387 -1.076926
    42 1.539096 0.000001 -0.000001 0.000000 -0.004404 -0.870443
    43 1.196322 0.000001 0.000000 0.000000 -0.007266 -1.448866
    44 3.883656 0.207493 -0.403698 0.103787 -0.274161 -0.673786
    45 1.719579 0.000000 0.000000 0.000000 -0.007590 -1.320343
    46 1.209178 0.000003 -0.000001 0.000000 -0.004245 -1.170289
    47 3.867642 0.104978 -1.303937 -0.315433 0.154362 -0.106074
    48 1.719431 0.000001 -0.000001 0.000000 -0.007728 -0.850767
    49 1.099662 -0.000003 0.000000 0.000000 -0.004918 -0.732111
    50 0.837268 -0.312954 -1.310521 1.175425 0.303547 -0.981087
    51 1.789780 -0.000001 -0.000001 0.000000 0.200217 0.487566
    52 1.207002 0.000000 0.000001 0.000000 0.201946 0.621931
  time 4
    0 -2.224971 0.385903 35.034283 1.806505 0.155720 -0.132768
    1 3.890447 0.000000 0.000001 -1.925867 -1.040112 -0.906979
    2 17.848177 -0.000001 0.000000 0.000000 0.000000 2.230000
    3 16.525255 -0.000001 0.000000 -0.045181 0.241555 -1.179600
    4 6.879455 0.000000 0.000000 -0.003243 -0.002786 -1.107976
    5 -3.890447 0.000000 0.000000 -1.572851 -0.183482 -1.412075
    6 17.848179 0.000000 0.000000 0.000000 0.000000 0.642944
    7 16.525257 0.000000 0.000000 -0.072228 -0.086087 -1.526215
    8 6.879455 0.000000 0.000000 -0.079848 -0.003035 -0.733629
    9 -0.000001 3.345132 -2.981897 1.513517 -0.156282 1.431190
    10 3.998799 0.000000 0.000000 0.063255 0.055297 0.201699
    11 3.520299 0.000002 0.000000 0.068315 0.048897 0.409446
    12 8.923110 0.000000 0.000000 -0.001774 0.025803 0.367621
    13 3.306360 0.000002 0.000000 3.141590 0.000000 0.697011
    14 3.601524 -0.000001 0.000000 -0.383485 -0.219236 0.576930
    15 2.056784 0.981236 1.937661 3.546415 -1.158401 1.021870
    16 6.028142 0.000000 0.000001 -3.734696 -0.678818 1.017306
    17 11.692555 0.000001 0.000002 0.000000 0.000000 -2.252888
    18 11.481673 0.000001 -0.000031 1.547303 0.323262 -0.030600
    19 3.851893 0.123227 -1.223225 -0.175078 0.232930 -0.626253
    20 1.312563 0.000000 0.000001 0.000000 0.004679 -0.753589
    21 0.729363 -0.000001 0.000001 0.000000 0.002406 -0.334309
    22 3.926701 0.316311 -0.458788 0.013729 0.025114 -0.537224
    23 1.539099 -0.000001 -0.000001 0.000000 0.002914 -0.561620
    24 1.196322 -0.000001 0.000000 0.000000 0.004796 -0.744628
    25 3.883690 0.211049 0.404099 0.091079 -0.102654 -0.336106
    26 1.719579 0.000000 0.000001 0.000000 0.005013 -0.680296
    27 1.209178 0.000003 -0.000001 0.000000 0.002808 -0.530215
    28 3.867673 0.115967 1.301215 0.361172 -0.307765 -0.424235
    29 1.719429 0.000000 0.000001 0.000000 0.005105 -0.876204
    30 1.099661 0.000000 0.000002 0.000000 0.003243 -0.558112
    31 0.837298 -0.302045 1.313445 -1.418910 -0.585425 -0.411855
    32 1.789784 0.000000 -0.000001 -0.392970 0.058130 -0.103184
    33 1.207002 0.000001 0.000001 0.000000 -0.003294 1.086686
    34 2.056792 0.981240 -1.937609 -3.808679 1.310623 0.811868
    35 6.028141 0.000004 -0.000001 1.642496 0.019096 -1.651504
    36 11.692557 -0.000001 0.000002 0.000000 0.000000 -2.267798
    37 11.481697 0.000000 -0.000001 -1.387798 0.087807 0.570478
    38 3.851861 0.133065 1.220453 0.494313 -0.097759 -1.141906
    39 1.312564 0.000002 0.000000 0.000000 -0.007097 -0.826609
    40 0.729363 0.000000 0.000001 0.000000 -0.003653 -0.935199
    41 3.926669 0.319868 0.458388 0.166720 -0.127387 -1.076926
    42 1.539096 0.000001 -0.000001 0.000000 -0.004404 -0.870443
    43 1.196322 0.000001 0.000000 0.000000 -0.007266 -1.448866
    44 3.883656 0.207493 -0.403698 0.103787 -0.274161 -0.673786
    45 1.719579 0.000000 0.000000 0.000000 -0.007590 -1.320343
    46 1.209178 0.000003 -0.000001 0.000000 -0.004245 -1.170289
    47 3.867642 0.104978 -1.303937 -0.315433 0.154362 -0.106074
    48 1.719431 0.000001 -0.000001 0.000000 -0.007728 -0.850767
    49 1.099662 -0.000003 0.000000 0.000000 -0.004918 -0.732111
    50 0.837268 -0.312954 -1.310521 1.175425 0.303547 -0.981087
    51 1.789780 -0.000001 -0.000001 0.000000 0.200217 0.487566
    52 1.207002 0.000000 0.000001 0.000000 0.201946 0.621931
  time 5
    0 -2.224971 0.385903 35.034283 1.806505 0.155720 -0.132768
    1 3.890447 0.000000 0.000001 -1.925867 -1.040112 -0.906979
    2 17.848177 -0.000001 0.000000 0.000000 0.000000 2.230000
    3 16.525255 -0.000001 0.000000 -0.045181 0.241555 -1.179600
    4 6.879455 0.000000 0.000000 -0.003243 -0.002786 -1.107976
    5 -3.890447 0.000000 0.000000 -1.572851 -0.183482 -1.412075
    6 17.848179 0.000000 0.000000 0.000000 0.000000 0.642944
    7 16.525257 0.000000 0.000000 -0.072228 -0.086087 -1.526215
    8 6.879455 0.000000 0.000000 -0.079848 -0.003035 -0.733629
    9 -0.000001 3.345132 -2.981897 1.514428 -0.156154 1.425075
    10 3.998799 0.000000 0.000000 0.010798 0.063590 0.197233
    11 3.520299 0.000002 0.000000 0.016936 0.062236 0.405236
    12 8.923110 0.000000 0.000000 -0.029554 0.022711 0.367453
    13 3.306360 0.000002 0.000000 3.141590 0.000000 0.697011
    14 3.601524 -0.000001 0.000000 -0.342533 -0.260516 0.571364
    15 2.056784 0.981236 1.937661 3.619004 -1.139869 0.956336
    16 6.028142 0.000000 0.000001 -3.653069 -0.644132 0.936014
    17 11.692555 0.000001 0.000002 0.000000 0.000000 -2.252888
    18 11.481673 0.000001 -0.000031 1.547303 0.323262 -0.030600
    19 3.851893 0.123227 -1.223225 -0.175078 0.232930 -0.626253
    20 1.312563 0.000000 0.000001 0.000000 0.004679 -0.753589
    21 0.729363 -0.000001 0.000001 0.000000 0.002406 -0.334309
    22 3.926701 0.316311 -0.458788 0.013729 0.025114 -0.537224
    23 1.539099 -0.000001 -0.000001 0.000000 0.002914 -0.561620
    24 1.196322 -0.000001 0.000000 0.000000 0.004796 -0.744628
    25 3.883690 0.211049 0.404099 0.091079 -0.102654 -0.336106
    26 1.719579 0.000000 0.000001 0.000000 0.005013 -0.680296
    27 1.209178 0.000003 -0.000001 0.000000 0.002808 -0.530215
    28 3.867673 0.115967 1.301215 0.361172 -0.307765 -0.424235
    29 1.719429 0.000000 0.000001 0.000000 0.005105 -0.876204
    30 1.099661 0.000000 0.000002 0.000000 0.003255 -0.558112
    31 0.837298 -0.302045 1.313445 -1.418910 -0.585425 -0.411855
    32 1.789784 0.000000 -0.000001 -0.392970 0.058130 -0.103184
    33 1.207002 0.000001 0.000001 0.000000 -0.003294 1.086686
    34 2.056792 0.981240 -1.937609 -3.920073 1.292013 0.702678
    35 6.028141 0.000004 -0.000001 1.619961 0.033035 -1.666230
    36 11.692557 -0.000001 0.000002 0.000000 0.000000 -2.242891
    37 11.481697 0.000000 -0.000001 -1.384637 0.054631 0.511277
    38 3.851861 0.133065 1.220453 0.494313 -0.097759 -1.141906
    39 1.312564 0.000002 0.000000 0.000000 -0.007097 -0.826609
    40 0.729363 0.000000 0.000001 0.000000 -0.003653 -0.935199
    41 3.926669 0.319868 0.458388 0.166720 -0.127387 -1.076926
    42 1.539096 0.000001 -0.000001 0.000000 -0.004404 -0.870443
    43 1.196322 0.000001 0.000000 0.000000 -0.007266 -1.448866
    44 3.883656 0.207493 -0.403698 0.103787 -0.274161 -0.673786
    45 1.719579 0.000000 0.000000 0.000000 -0.007590 -1.320343
    46 1.209178 0.000003 -0.000001 0.000000 -0.004245 -1.170289
    47 3.867642 0.104978 -1.303937 -0.315433 0.154362 -0.106074
    48 1.719431 0.000001 -0.000001 0.000000 -0.007728 -0.850767
    49 1.099662 -0.000003 0.000000 0.000000 -0.004918 -0.732111
    50 0.837268 -0.312954 -1.310521 1.175425 0.303547 -0.981087
    51 1.789780 -0.000001 -0.000001 0.000000 0.200217 0.487566
    52 1.207002 0.000000 0.000001 0.000000 0.201946 0.621931
  time 6
    0 -2.224971 0.385903 35.034283 1.806505 0.155720 -0.132768
    1 3.890447 0.000000 0.000001 -1.925867 -1.040112 -0.906979
    2 17.848177 -0.000001 0.000000 0.000000 0.000000 2.230000
    3 16.525255 -0.000001 0.000000 -0.045181 0.241555 -1.179600
    4 6.879455 0.000000 0.000000 -0.003243 -0.002786 -1.107976
    5 -3.890447 0.000000 0.000000 -1.572851 -0.183482 -1.412075
    6 17.848179 0.000000 0.000000 0.000000 0.000000 0.642944
    7 16.525257 0.000000 0.000000 -0.072228 -0.086087 -1.526215
    8 6.879455 0.000000 0.000000 -0.079848 -0.003035 -0.733629
    9 -0.000001 3.345132 -2.981897 1.515997 -0.155913 1.415082
    10 3.998799 0.000000 0.000000 -0.051342 0.073681 0.199491
    11 3.520299 0.000002 0.000000 -0.043925 0.078319 0.407479
    12 8.923110 0.000000 0.000000 -0.062464 0.019044 0.367034
    13 3.306360 0.000002 0.000000 3.141590 0.000000 0.697011
    14 3.601524 -0.000001 0.000000 -0.296476 -0.297684 0.565219
    15 2.056784 0.981236 1.937661 3.643329 -1.128051 0.935545
    16 6.028142 0.000000 0.000001 -3.558443 -0.618221 0.867056
    17 11.692555 0.000001 0.000002 0.000000 0.000000 -2.252888
    18 11.481673 0.000001 -0.000031 1.547303 0.323262 -0.030600
    19 3.851893 0.123227 -1.223225 -0.175078 0.232930 -0.626253
    20 1.312563 0.000000 0.000001 0.000000 0.004679 -0.753589
    21 0.729363 -0.000001 0.000001 0.000000 0.002406 -0.334309
    22 3.926701 0.316311 -0.458788 0.013729 0.025114 -0.537224
    23 1.539099 -0.000001 -0.000001 0.000000 0.002914 -0.561620
    24 1.196322 -0.000001 0.000000 0.000000 0.004796 -0.744628
    25 3.883690 0.211049 0.404099 0.091079 -0.102654 -0.336106
    26 1.719579 0.000000 0.000001 0.000000 0.005013 -0.680296
    27 1.209178 0.000003 -0.000001 0.000000 0.002808 -0.530215
    28 3.867673 0.115967 1.301215 0.361172 -0.307765 -0.424235
    29 1.719429 0.000000 0.000001 0.000000 0.005105 -0.876204
    30 1.099661 0.000000 0.000002 0.000000 0.003243 -0.558112
    31 0.837298 -0.302045 1.313445 -1.418910 -0.585425 -0.411855
    32 1.789784 0.000000 -0.000001 -0.392970 0.058130 -0.103184
    33 1.207002 0.000001 0.000001 0.000000 -0.003294 1.086686
    34 2.056792 0.981240 -1.937609 -3.972075 1.286163 0.651057
    35 6.028141 0.000004 -0.000001 1.583852 0.039957 -1.662408
    36 11.692557 -0.000001 0.000002 0.000000 0.000000 -2.193946
    37 11.481697 0.000000 -0.000001 -1.377310 0.019116 0.452898
    38 3.851861 0.133065 1.220453 0.494313 -0.097759 -1.141906
    39 1.312564 0.000002 0.000000 0.000000 -0.007097 -0.826609
    40 0.729363 0.000000 0.000001 0.000000 -0.003653 -0.935199
    41 3.926669 0.319868 0.458388 0.166720 -0.127387 -1.076926
    42 1.539096 0.000001 -0.000001 0.000000 -0.004404 -0.870443
    43 1.196322 0.000001 0.000000 0.000000 -0.007266 -1.448866
    44 3.883656 0.207493 -0.403698 0.103787 -0.274161 -0.673786
    45 1.719579 0.000000 0.000000 0.000000 -0.007590 -1.320343
    46 1.209178 0.000003 -0.000001 0.000000 -0.004245 -1.170289
    47 3.867642 0.104978 -1.303937 -0.315433 0.154362 -0.106074
    48 1.719431 0.000001 -0.000001 0.000000 -0.007728 -0.850767
    49 1.099662 -0.000003 0.000000 0.000000 -0.004918 -0.732111
    50 0.837268 -0.312954 -1.310521 1.175425 0.303547 -0.981087
    51 1.789780 -0.000001 -0.000001 0.000000 0.200217 0.487566
    52 1.207002 0.000000 0.000001 0.000000 0.201946 0.621931
  time 7
    0 -2.224971 0.385903 35.034283 1.806505 0.155720 -0.132768
    1 3.890447 0.000000 0.000001 -1.925867 -1.040112 -0.906979
    2 17.848177 -0.000001 0.000000 0.000000 0.000000 2.230000
    3 16.525255 -0.000001 0.000000 -0.045181 0.241555 -1.179600
    4 6.879455 0.000000 0.000000 -0.003243 -0.002786 -1.107976
    5 -3.890447 0.000000 0.000000 -1.572851 -0.183482 -1.412075
    6 17.848179 0.000000 0.000000 0.000000 0.000000 0.642944
    7 16.525257 0.000000 0.000000 -0.072228 -0.086087 -1.526215
    8 6.879455 0.000000 0.000000 -0.079848 -0.003035 -0.733629
    9 -0.000001 3.345132 -2.981897 1.523840 -0.154499 1.364470
    10 3.998799 0.000000 0.000000 -0.116694 0.084863 0.206082
    11 3.520299 0.000002 0.000000 -0.107930 0.095769 0.413685
    12 8.923110 0.000000 0.000000 -0.097063 0.015161 0.366327
    13 3.306360 0.000002 0.000000 3.141590 0.000000 0.697011
    14 3.601524 -0.000001 0.000000 -0.250145 -0.327424 0.559363
    15 2.056784 0.981236 1.937661 3.590083 -1.131585 0.985079
    16 6.028142 0.000000 0.000001 -3.455310 -0.627222 0.830802
    17 11.692555 0.000001 0.000002 0.000000 0.000000 -2.252888
    18 11.481673 0.000001 -0.000031 1.547303 0.323262 -0.030600
    19 3.851893 0.123227 -1.223225 -0.175078 0.232930 -0.626253
    20 1.312563 0.000000 0.000001 0.000000 0.004679 -0.753589
    21 0.729363 -0.000001 0.000001 0.000000 0.002406 -0.334309
    22 3.926701 0.316311 -0.458788 0.013729 0.025114 -0.537224
    23 1.539099 -0.000001 -0.000001 0.000000 0.002914 -0.561620
    24 1.196322 -0.000001 0.000000 0.000000 0.004796 -0.744628
    25 3.883690 0.211049 0.404099 0.091079 -0.102654 -0.336106
    26 1.719579 0.000000 0.000001 0.000000 0.005013 -0.680296
    27 1.209178 0.000003 -0.000001 0.000000 0.002808 -0.530215
    28 3.867673 0.115967 1.301215 0.361172 -0.307765 -0.424235
    29 1.719429 0.000000 0.000001 0.000000 0.005105 -0.876204
    30 1.099661 0.000000 0.000002 0.000000 0.003243 -0.558112
    31 0.837298 -0.302045 1.313445 -1.418910 -0.585425 -0.411855
    32 1.789784 0.000000 -0.000001 -0.392970 0.058130 -0.103184
    33 1.207002 0.000001 0.000001 0.000000 -0.003294 1.086686
    34 2.056792 0.981240 -1.937609 -3.932025 1.306461 0.688949
    35 6.028141 0.000004 -0.000001 1.543927 0.022629 -1.636218
    36 11.692557 -0.000001 0.000002 0.000000 0.000000 -2.144857
    37 11.481697 0.000000 -0.000001 -1.366775 -0.015294 0.399844
    38 3.851861 0.133065 1.220453 0.494313 -0.097759 -1.141906
    39 1.312564 0.000002 0.000000 0.000000 -0.007097 -0.826609
    40 0.729363 0.000000 0.000001 0.000000 -0.003653 -0.935199
    41 3.926669 0.319868 0.458388 0.166720 -0.127387 -1.076926
    42 1.539096 0.000001 -0.000001 0.000000 -0.004404 -0.870443
    43 1.196322 0.000001 0.000000 0.000000 -0.007266 -1.448866
    44 3.883656 0.207493 -0.403698 0.103787 -0.274161 -0.673786
    45 1.719579 0.000000 0.000000 0.000000 -0.007590 -1.320343
    46 1.209178 0.000003 -0.000001 0.000000 -0.004245 -1.170289
    47 3.867642 0.104978 -1.303937 -0.315433 0.154362 -0.106074
    48 1.719431 0.000001 -0.000001 0.000000 -0.007728 -0.850767
    49 1.099662 -0.000003 0.000000 0.000000 -0.004918 -0.732111
    50 0.837268 -0.312954 -1.310521 1.175425 0.303547 -0.981087
    51 1.789780 -0.000001 -0.000001 0.000000 0.200217 0.487566
    52 1.207002 0.000000 0.000001 0.000000 0.201946 0.621931
  time 8
    0 -2.224971 0.385903 35.034283 1.806505 0.155720 -0.132768
    1 3.890447 0.000000 0.000001 -1.925867 -1.040112 -0.906979
    2 17.848177 -0.000001 0.000000 0.000000 0.000000 2.230000
    3 16.525255 -0.000001 0.000000 -0.045181 0.241555 -1.179600
    4 6.879455 0.000000 0.000000 -0.003243 -0.002786 -1.107976
    5 -3.890447 0.000000 0.000000 -1.572851 -0.183482 -1.412075
    6 17.848179 0.000000 0.000000 0.000000 0.000000 0.642944
    7 16.525257 0.000000 0.000000 -0.072228 -0.086087 -1.526215
    8 6.879455 0.000000 0.000000 -0.079848 -0.003035 -0.733629
    9 -0.000001 3.345132 -2.981897 1.532998 -0.152315 1.304461
    10 3.998799 0.000000 0.000000 -0.178786 0.096368 0.214698
    11 3.520299 0.000002 0.000000 -0.168699 0.113206 0.421580
    12 8.923110 0.000000 0.000000 -0.129913 0.011445 0.365404
    13 3.306360 0.000002 0.000000 3.141590 0.000000 0.697011
    14 3.601524 -0.000001 0.000000 -0.208172 -0.347511 0.540575
    15 2.056784 0.981236 1.937661 3.477559 -1.142853 1.088458
    16 6.028142 0.000000 0.000001 -3.352560 -0.659452 0.801649
    17 11.692555 0.000001 0.000002 0.000000 0.000000 -2.252888
    18 11.481673 0.000001 -0.000031 1.547303 0.323262 -0.030600
    19 3.851893 0.123227 -1.223225 -0.175078 0.232930 -0.626253
    20 1.312563 0.000000 0.000001 0.000000 0.004679 -0.753589
    21 0.729363 -0.000001 0.000001 0.000000 0.002406 -0.334309
    22 3.926701 0.316311 -0.458788 0.013729 0.025114 -0.537224
    23 1.539099 -0.000001 -0.000001 0.000000 0.002914 -0.561620
    24 1.196322 -0.000001 0.000000 0.000000 0.004796 -0.744628
    25 3.883690 0.211049 0.404099 0.091079 -0.102654 -0.336106
    26 1.719579 0.000000 0.000001 0.000000 0.005013 -0.680296
    27 1.209178 0.000003 -0.000001 0.000000 0.002808 -0.530215
    28 3.867673 0.115967 1.301215 0.361172 -0.307765 -0.424235
    29 1.719429 0.000000 0.000001 0.000000 0.005105 -0.876204
    30 1.099661 0.000000 0.000002 0.000000 0.003243 -0.558112
    31 0.837298 -0.302045 1.313445 -1.418910 -0.585425 -0.411855
    32 1.789784 0.000000 -0.000001 -0.392970 0.058130 -0.103184
    33 1.207002 0.000001 0.000001 0.000000 -0.003294 1.086686
    34 2.056792 0.981240 -1.937609 -3.798918 1.342700 0.818275
    35 6.028141 0.000004 -0.000001 1.503737 -0.019044 -1.578898
    36 11.692557 -0.000001 0.000002 0.000000 0.000000 -2.096784
    37 11.481697 0.000000 -0.000001 -1.355329 -0.044689 0.356479
    38 3.851861 0.133065 1.220453 0.494313 -0.097759 -1.141906
    39 1.312564 0.000002 0.000000 0.000000 -0.007097 -0.826609
    40 0.729363 0.000000 0.000001 0.000000 -0.003653 -0.935199
    41 3.926669 0.319868 0.458388 0.166720 -0.127387 -1.076926
    42 1.539096 0.000001 -0.000001 0.000000 -0.004404 -0.870443
    43 1.196322 0.000001 0.000000 0.000000 -0.007266 -1.448866
    44 3.883656 0.207493 -0.403698 0.103787 -0.274161 -0.673786
    45 1.719579 0.000000 0.000000 0.000000 -0.007590 -1.320343
    46 1.209178 0.000003 -0.000001 0.000000 -0.004245 -1.170289
    47 3.867642 0.104978 -1.303937 -0.315433 0.154362 -0.106074
    48 1.719431 0.000001 -0.000001 0.000000 -0.007728 -0.850767
    49 1.099662 -0.000003 0.000000 0.000000 -0.004918 -0.732111
    50 0.837268 -0.312954 -1.310521 1.175425 0.303547 -0.981087
    51 1.789780 -0.000001 -0.000001 0.000000 0.200217 0.487566
    52 1.207002 0.000000 0.000001 0.000000 0.201946 0.621931
  time 9
    0 -2.224971 0.385903 35.034283 1.806505 0.155720 -0.132768
    1 3.890447 0.000000 0.000001 -1.925867 -1.040112 -0.906979
    2 17.848177 -0.000001 0.000000 0.000000 0.000000 2.230000
    3 16.525255 -0.000001 0.000000 -0.045181 0.241555 -1.179600
    4 6.879455 0.000000 0.000000 -0.003243 -0.002786 -1.107976
    5 -3.890447 0.000000 0.000000 -1.572851 -0.183482 -1.412075
    6 17.848179 0.000000 0.000000 0.000000 0.000000 0.642944
    7 16.525257 0.000000 0.000000 -0.072228 -0.086087 -1.526215
    8 6.879455 0.000000 0.000000 -0.079848 -0.003035 -0.733629
    9 -0.000001 3.345132 -2.981897 1.536388 -0.151367 1.282088
    10 3.998799 0.000000 0.000000 -0.231099 0.107442 0.221373
    11 3.520299 0.000002 0.000000 -0.219826 0.129206 0.427393
    12 8.923110 0.000000 0.000000 -0.157573 0.008293 0.364433
    13 3.306360 0.000002 0.000000 3.141590 0.000000 0.697011
    14 3.601524 -0.000001 0.000000 -0.173030 -0.363179 0.502483
    15 2.056784 0.981236 1.937661 3.361588 -1.149920 1.194999
    16 6.028142 0.000000 0.000001 -3.271889 -0.682000 0.769693
    17 11.692555 0.000001 0.000002 0.000000 0.000000 -2.252888
    18 11.481673 0.000001 -0.000031 1.547303 0.323262 -0.030600
    19 3.851893 0.123227 -1.223225 -0.175078 0.232930 -0.626253
    20 1.312563 0.000000 0.000001 0.000000 0.004679 -0.753589
    21 0.729363 -0.000001 0.000001 0.000000 0.002406 -0.334309
    22 3.926701 0.316311 -0.458788 0.013729 0.025114 -0.537224
    23 1.539099 -0.000001 -0.000001 0.000000 0.002914 -0.561620
    24 1.196322 -0.000001 0.000000 0.000000 0.004796 -0.744628
    25 3.883690 0.211049 0.404099 0.091079 -0.102654 -0.336106
    26 1.719579 0.000000 0.000001 0.000000 0.005013 -0.680296
    27 1.209178 0.000003 -0.000001 0.000000 0.002808 -0.530215
    28 3.867673 0.115967 1.301215 0.361172 -0.307765 -0.424235
    29 1.719429 0.000000 0.000001 0.000000 0.005105 -0.876204
    30 1.099661 0.000000 0.000002 0.000000 0.003243 -0.558112
    31 0.837298 -0.302045 1.313445 -1.418910 -0.585425 -0.411855
    32 1.789784 0.000000 -0.000001 -0.392970 0.058130 -0.103184
    33 1.207002 0.000001 0.000001 0.000000 -0.003294 1.086686
    34 2.056792 0.981240 -1.937609 -3.619647 1.372735 0.994187
    35 6.028141 0.000004 -0.000001 1.463369 -0.056326 -1.503963
    36 11.692557 -0.000001 0.000002 0.000000 0.000000 -2.050600
    37 11.481697 0.000000 -0.000001 -1.346087 -0.065083 0.327166
    38 3.851861 0.133065 1.220453 0.494313 -0.097759 -1.141906
    39 1.312564 0.000002 0.000000 0.000000 -0.007097 -0.826609
    40 0.729363 0.000000 0.000001 0.000000 -0.003653 -0.935199
    41 3.926669 0.319868 0.458388 0.166720 -0.127387 -1.076926
    42 1.539096 0.000001 -0.000001 0.000000 -0.004404 -0.870443
    43 1.196322 0.000001 0.000000 0.000000 -0.007266 -1.448866
    44 3.883656 0.207493 -0.403698 0.103787 -0.274161 -0.673786
    45 1.719579 0.000000 0.000000 0.000000 -0.007590 -1.320343
    46 1.209178 0.000003 -0.000001 0.000000 -0.004245 -1.170289
    47 3.867642 0.104978 -1.303937 -0.315433 0.154362 -0.106074
    48 1.719431 0.000001 -0.000001 0.000000 -0.007728 -0.850767
    49 1.099662 -0.000003 0.000000 0.000000 -0.004918 -0.732111
    50 0.837268 -0.312954 -1.310521 1.175425 0.303547 -0.981087
    51 1.789780 -0.000001 -0.000001 0.000000 0.200217 0.487566
    52 1.207002 0.000000 0.000001 0.000000 0.201946 0.621931
  time 10
    0 -2.224971 0.385903 35.034283 1.806505 0.155720 -0.132768
    1 3.890447 0.000000 0.000001 -1.925867 -1.040112 -0.906979
    2 17.848177 -0.000001 0.000000 0.000000 0.000000 2.230000
    3 16.525255 -0.000001 0.000000 -0.045181 0.241555 -1.179600
    4 6.879455 0.000000 0.000000 -0.003243 -0.002786 -1.107976
    5 -3.890447 0.000000 0.000000 -1.572851 -0.183482 -1.412075
    6 17.848179 0.000000 0.000000 0.000000 0.000000 0.642944
    7 16.525257 0.000000 0.000000 -0.072228 -0.086087 -1.526215
    8 6.879455 0.000000 0.000000 -0.079848 -0.003035 -0.733629
    9 -0.000001 3.345132 -2.981897 1.532189 -0.152540 1.309831
    10 3.998799 0.000000 0.000000 -0.267184 0.117149 0.223763
    11 3.520299 0.000002 0.000000 -0.254905 0.142293 0.429097
    12 8.923110 0.000000 0.000000 -0.176617 0.006100 0.363678
    13 3.306360 0.000002 0.000000 3.141590 0.000000 0.697011
    14 3.601524 -0.000001 0.000000 -0.146959 -0.380305 0.512006
    15 2.056784 0.981236 1.937661 3.308342 -1.150195 1.244054
    16 6.028142 0.000000 0.000001 -3.235090 -0.681045 0.749323
    17 11.692555 0.000001 0.000002 0.000000 0.000000 -2.252888
    18 11.481673 0.000001 -0.000031 1.547303 0.323262 -0.030600
    19 3.851893 0.123227 -1.223225 -0.175078 0.232930 -0.626253
    20 1.312563 0.000000 0.000001 0.000000 0.004679 -0.753589
    21 0.729363 -0.000001 0.000001 0.000000 0.002406 -0.334309
    22 3.926701 0.316311 -0.458788 0.013729 0.025114 -0.537224
    23 1.539099 -0.000001 -0.000001 0.000000 0.002914 -0.561620
    24 1.196322 -0.000001 0.000000 0.000000 0.004796 -0.744628
    25 3.883690 0.211049 0.404099 0.091079 -0.102654 -0.336106
    26 1.719579 0.000000 0.000001 0.000000 0.005013 -0.680296
    27 1.209178 0.000003 -0.000001 0.000000 0.002808 -0.530215
    28 3.867673 0.115967 1.301215 0.361172 -0.307765 -0.424235
    29 1.719429 0.000000 0.000001 0.000000 0.005105 -0.876204
    30 1.099661 0.000000 0.000002 0.000000 0.003243 -0.558112
    31 0.837298 -0.302045 1.313445 -1.418910 -0.585425 -0.411855
    32 1.789784 0.000000 -0.000001 -0.392970 0.058130 -0.103184
    33 1.207002 0.000001 0.000001 0.000000 -0.003294 1.086686
    34 2.056792 0.981240 -1.937609 -3.524858 1.384906 1.087452
    35 6.028141 0.000004 -0.000001 1.429301 -0.064154 -1.453168
    36 11.692557 -0.000001 0.000002 0.000000 0.000000 -2.011604
    37 11.481697 0.000000 -0.000001 -1.342400 -0.072695 0.316379
    38 3.851861 0.133065 1.220453 0.494313 -0.097759 -1.141906
    39 1.312564 0.000002 0.000000 0.000000 -0.007097 -0.826609
    40 0.729363 0.000000 0.000001 0.000000 -0.003653 -0.935199
    41 3.926669 0.319868 0.458388 0.166720 -0.127387 -1.076926
    42 1.539096 0.000001 -0.000001 0.000000 -0.004404 -0.870443
    43 1.196322 0.000001 0.000000 0.000000 -0.007266 -1.448866
    44 3.883656 0.207493 -0.403698 0.103787 -0.274161 -0.673786
    45 1.719579 0.000000 0.000000 0.000000 -0.007590 -1.320343
    46 1.209178 0.000003 -0.000001 0.000000 -0.004245 -1.170289
    47 3.867642 0.104978 -1.303937 -0.315433 0.154362 -0.106074
    48 1.719431 0.000001 -0.000001 0.000000 -0.007728 -0.850767
    49 1.099662 -0.000003 0.000000 0.000000 -0.004918 -0.732111
    50 0.837268 -0.312954 -1.310521 1.175425 0.303547 -0.981087
    51 1.789780 -0.000001 -0.000001 0.000000 0.200217 0.487566
    52 1.207002 0.000000 0.000001 0.000000 0.201946 0.621931
  time 11
    0 -2.224971 0.385903 35.034283 1.806505 0.155720 -0.132768
    1 3.890447 0.000000 0.000001 -1.925867 -1.040112 -0.906979
    2 17.848177 -0.000001 0.000000 0.000000 0.000000 2.230000
    3 16.525255 -0.000001 0.000000 -0.045181 0.241555 -1.179600
    4 6.879455 0.000000 0.000000 -0.003243 -0.002786 -1.107976
    5 -3.890447 0.000000 0.000000 -1.572851 -0.183482 -1.412075
    6 17.848179 0.000000 0.000000 0.000000 0.000000 0.642944
    7 16.525257 0.000000 0.000000 -0.072228 -0.086087 -1.526215
    8 6.879455 0.000000 0.000000 -0.079848 -0.003035 -0.733629
    9 -0.000001 3.345132 -2.981897 1.523941 -0.154467 1.363625
    10 3.998799 0.000000 0.000000 -0.280547 0.124412 0.219762
    11 3.520299 0.000002 0.000000 -0.267557 0.150766 0.424858
    12 8.923110 0.000000 0.000000 -0.183616 0.005297 0.363378
    13 3.306360 0.000002 0.000000 3.141590 0.000000 0.697011
    14 3.601524 -0.000001 0.000000 -0.134041 -0.397554 0.532885
    15 2.056784 0.981236 1.937661 3.343680 -1.146347 1.211766
    16 6.028142 0.000000 0.000001 -3.247037 -0.667771 0.744090
    17 11.692555 0.000001 0.000002 0.000000 0.000000 -2.252888
    18 11.481673 0.000001 -0.000031 1.547303 0.323262 -0.030600
    19 3.851893 0.123227 -1.223225 -0.175078 0.232930 -0.626253
    20 1.312563 0.000000 0.000001 0.000000 0.004679 -0.753589
    21 0.729363 -0.000001 0.000001 0.000000 0.002406 -0.334309
    22 3.926701 0.316311 -0.458788 0.013729 0.025114 -0.537224
    23 1.539099 -0.000001 -0.000001 0.000000 0.002914 -0.561620
    24 1.196322 -0.000001 0.000000 0.000000 0.004796 -0.744628
    25 3.883690 0.211049 0.404099 0.091079 -0.102654 -0.336106
    26 1.719579 0.000000 0.000001 0.000000 0.005013 -0.680296
    27 1.209178 0.000003 -0.000001 0.000000 0.002808 -0.530215
    28 3.867673 0.115967 1.301215 0.361172 -0.307765 -0.424235
    29 1.719429 0.000000 0.000001 0.000000 0.005105 -0.876204
    30 1.099661 0.000000 0.000002 0.000000 0.003243 -0.558112
    31 0.837298 -0.302045 1.313445 -1.418910 -0.585425 -0.411855
    32 1.789784 0.000000 -0.000001 -0.392970 0.058130 -0.103184
    33 1.207002 0.000001 0.000001 0.000000 -0.003294 1.086686
    34 2.056792 0.981240 -1.937609 -3.600762 1.380077 1.012401
    35 6.028141 0.000004 -0.000001 1.415549 -0.047256 -1.453634
    36 11.692557 -0.000001 0.000002 0.000000 0.000000 -1.983356
    37 11.481697 0.000000 -0.000001 -1.348003 -0.061045 0.332930
    38 3.851861 0.133065 1.220453 0.494313 -0.097759 -1.141906
    39 1.312564 0.000002 0.000000 0.000000 -0.007097 -0.826609
    40 0.729363 0.000000 0.000001 0.000000 -0.003653 -0.935199
    41 3.926669 0.319868 0.458388 0.166720 -0.127387 -1.076926
    42 1.539096 0.000001 -0.000001 0.000000 -0.004404 -0.870443
    43 1.196322 0.000001 0.000000 0.000000 -0.007266 -1.448866
    44 3.883656 0.207493 -0.403698 0.103787 -0.274161 -0.673786
    45 1.719579 0.000000 0.000000 0.000000 -0.007590 -1.320343
    46 1.209178 0.000003 -0.000001 0.000000 -0.004245 -1.170289
    47 3.867642 0.104978 -1.303937 -0.315433 0.154362 -0.106074
    48 1.719431 0.000001 -0.000001 0.000000 -0.007728 -0.850767
    49 1.099662 -0.000003 0.000000 0.000000 -0.004918 -0.732111
    50 0.837268 -0.312954 -1.310521 1.175425 0.303547 -0.981087
    51 1.789780 -0.000001 -0.000001 0.000000 0.200217 0.487566
    52 1.207002 0.000000 0.000001 0.000000 0.201946 0.621931
  time 12
    0 -2.224971 0.385903 35.034283 1.806505 0.155720 -0.132768
    1 3.890447 0.000000 0.000001 -1.925867 -1.040112 -0.906979
    2 17.848177 -0.000001 0.000000 0.000000 0.000000 2.230000
    3 16.525255 -0.000001 0.000000 -0.045181 0.241555 -1.179600
    4 6.879455 0.000000 0.000000 -0.003243 -0.002786 -1.107976
    5 -3.890447 0.000000 0.000000 -1.572851 -0.183482 -1.412075
    6 17.848179 0.000000 0.000000 0.000000 0.000000 0.642944
    7 16.525257 0.000000 0.000000 -0.072228 -0.086087 -1.526215
    8 6.879455 0.000000 0.000000 -0.079848 -0.003035 -0.733629
    9 -0.000001 3.345132 -2.981897 1.515592 -0.155977 1.417916
    10 3.998799 0.000000 0.000000 -0.266921 0.127720 0.210813
    11 3.520299 0.000002 0.000000 -0.253632 0.152780 0.416292
    12 8.923110 0.000000 0.000000 -0.176317 0.006136 0.363690
    13 3.306360 0.000002 0.000000 3.141590 0.000000 0.697011
    14 3.601524 -0.000001 0.000000 -0.137379 -0.413329 0.543824
    15 2.056784 0.981236 1.937661 3.427091 -1.139908 1.135597
    16 6.028142 0.000000 0.000001 -3.300659 -0.659543 0.750818
    17 11.692555 0.000001 0.000002 0.000000 0.000000 -2.252888
    18 11.481673 0.000001 -0.000031 1.547303 0.323262 -0.030600
    19 3.851893 0.123227 -1.223225 -0.175078 0.232930 -0.626253
    20 1.312563 0.000000 0.000001 0.000000 0.004679 -0.753589
    21 0.729363 -0.000001 0.000001 0.000000 0.002406 -0.334309
    22 3.926701 0.316311 -0.458788 0.013729 0.025114 -0.537224
    23 1.539099 -0.000001 -0.000001 0.000000 0.002914 -0.561620
    24 1.196322 -0.000001 0.000000 0.000000 0.004796 -0.744628
    25 3.883690 0.211049 0.404099 0.091079 -0.102654 -0.336106
    26 1.719579 0.000000 0.000001 0.000000 0.005013 -0.680296
    27 1.209178 0.000003 -0.000001 0.000000 0.002808 -0.530215
    28 3.867673 0.115967 1.301215 0.361172 -0.307765 -0.424235
    29 1.719429 0.000000 0.000001 0.000000 0.005105 -0.876204
    30 1.099661 0.000000 0.000002 0.000000 0.003243 -0.558112
    31 0.837298 -0.302045 1.313445 -1.418910 -0.585425 -0.411855
    32 1.789784 0.000000 -0.000001 -0.392970 0.058130 -0.103184
    33 1.207002 0.000001 0.000001 0.000000 -0.003294 1.086686
    34 2.056792 0.981240 -1.937609 -3.750109 1.361153 0.865319
    35 6.028141 0.000004 -0.000001 1.434092 -0.027255 -1.487560
    36 11.692557 -0.000001 0.000002 0.000000 0.000000 -1.965564
    37 11.481697 0.000000 -0.000001 -1.360980 -0.030879 0.376679
    38 3.851861 0.133065 1.220453 0.494313 -0.097759 -1.141906
    39 1.312564 0.000002 0.000000 0.000000 -0.007097 -0.826609
    40 0.729363 0.000000 0.000001 0.000000 -0.003653 -0.935199
    41 3.926669 0.319868 0.458388 0.166720 -0.127387 -1.076926
    42 1.539096 0.000001 -0.000001 0.000000 -0.004404 -0.870443
    43 1.196322 0.000001 0.000000 0.000000 -0.007266 -1.448866
    44 3.883656 0.207493 -0.403698 0.103787 -0.274161 -0.673786
    45 1.719579 0.000000 0.000000 0.000000 -0.007590 -1.320343
    46 1.209178 0.000003 -0.000001 0.000000 -0.004245 -1.170289
    47 3.867642 0.104978 -1.303937 -0.315433 0.154362 -0.106074
    48 1.719431 0.000001 -0.000001 0.000000 -0.007728 -0.850767
    49 1.099662 -0.000003 0.000000 0.000000 -0.004918 -0.732111
    50 0.837268 -0.312954 -1.310521 1.175425 0.303547 -0.981087
    51 1.789780 -0.000001 -0.000001 0.000000 0.200217 0.487566
    52 1.207002 0.000000 0.000001 0.000000 0.201946 0.621931
  time 13
    0 -2.224971 0.385903 35.034283 1.806505 0.155720 -0.132768
    1 3.890447 0.000000 0.000001 -1.925867 -1.040112 -0.906979
    2 17.848177 -0.000001 0.000000 0.000000 0.000000 2.230000
    3 16.525255 -0.000001 0.000000 -0.045181 0.241555 -1.179600
    4 6.879455 0.000000 0.000000 -0.003243 -0.002786 -1.107976
    5 -3.890447 0.000000 0.000000 -1.572851 -0.183482 -1.412075
    6 17.848179 0.000000 0.000000 0.000000 0.000000 0.642944
    7 16.525257 0.000000 0.000000 -0.072228 -0.086087 -1.526215
    8 6.879455 0.000000 0.000000 -0.079848 -0.003035 -0.733629
    9 -0.000001 3.345132 -2.981897 1.510836 -0.156636 1.448392
    10 3.998799 0.000000 0.000000 -0.230619 0.125383 0.201782
    11 3.520299 0.000002 0.000000 -0.217611 0.147027 0.408047
    12 8.923110 0.000000 0.000000 -0.157046 0.008353 0.364457
    13 3.306360 0.000002 0.000000 3.141590 0.000000 0.697011
    14 3.601524 -0.000001 0.000000 -0.160819 -0.406485 0.546108
    15 2.056784 0.981236 1.937661 3.524101 -1.130760 1.046972
    16 6.028142 0.000000 0.000001 -3.379227 -0.661907 0.768198
    17 11.692555 0.000001 0.000002 0.000000 0.000000 -2.252888
    18 11.481673 0.000001 -0.000031 1.547303 0.323262 -0.030600
    19 3.851893 0.123227 -1.223225 -0.175078 0.232930 -0.626253
    20 1.312563 0.000000 0.000001 0.000000 0.004679 -0.753589
    21 0.729363 -0.000001 0.000001 0.000000 0.002406 -0.334309
    22 3.926701 0.316311 -0.458788 0.013729 0.025114 -0.537224
    23 1.539099 -0.000001 -0.000001 0.000000 0.002914 -0.561620
    24 1.196322 -0.000001 0.000000 0.000000 0.004796 -0.744628
    25 3.883690 0.211049 0.404099 0.091079 -0.102654 -0.336106
    26 1.719579 0.000000 0.000001 0.000000 0.005013 -0.680296
    27 1.209178 0.000003 -0.000001 0.000000 0.002808 -0.530215
    28 3.867673 0.115967 1.301215 0.361172 -0.307765 -0.424235
    29 1.719429 0.000000 0.000001 0.000000 0.005105 -0.876204
    30 1.099661 0.000000 0.000002 0.000000 0.003243 -0.558112
    31 0.837298 -0.302045 1.313445 -1.418910 -0.585425 -0.411855
    32 1.789784 0.000000 -0.000001 -0.392970 0.058130 -0.103184
    33 1.207002 0.000001 0.000001 0.000000 -0.003294 1.086686
    34 2.056792 0.981240 -1.937609 -3.887595 1.332335 0.730685
    35 6.028141 0.000004 -0.000001 1.471266 -0.011932 -1.527823
    36 11.692557 -0.000001 0.000002 0.000000 0.000000 -1.958375
    37 11.481697 0.000000 -0.000001 -1.374916 0.010243 0.438955
    38 3.851861 0.133065 1.220453 0.494313 -0.097759 -1.141906
    39 1.312564 0.000002 0.000000 0.000000 -0.007097 -0.826609
    40 0.729363 0.000000 0.000001 0.000000 -0.003653 -0.935199
    41 3.926669 0.319868 0.458388 0.166720 -0.127387 -1.076926
    42 1.539096 0.000001 -0.000001 0.000000 -0.004404 -0.870443
    43 1.196322 0.000001 0.000000 0.000000 -0.007266 -1.448866
    44 3.883656 0.207493 -0.403698 0.103787 -0.274161 -0.673786
    45 1.719579 0.000000 0.000000 0.000000 -0.007590 -1.320343
    46 1.209178 0.000003 -0.000001 0.000000 -0.004245 -1.170289
    47 3.867642 0.104978 -1.303937 -0.315433 0.154362 -0.106074
    48 1.719431 0.000001 -0.000001 0.000000 -0.007728 -0.850767
    49 1.099662 -0.000003 0.000000 0.000000 -0.004918 -0.732111
    50 0.837268 -0.312954 -1.310521 1.175425 0.303547 -0.981087
    51 1.789780 -0.000001 -0.000001 0.000000 0.200217 0.487566
    52 1.207002 0.000000 0.000001 0.000000 0.201946 0.621931
  time 14
    0 -2.224971 0.385903 35.034283 1.806505 0.155720 -0.132768
    1 3.890447 0.000000 0.000001 -1.925867 -1.040112 -0.906979
    2 17.848177 -0.000001 0.000000 0.000000 0.000000 2.230000
    3 16.525255 -0.000001 0.000000 -0.045181 0.241555 -1.179600
    4 6.879455 0.000000 0.000000 -0.003243 -0.002786 -1.107976
    5 -3.890447 0.000000 0.000000 -1.572851 -0.183482 -1.412075
    6 17.848179 0.000000 0.000000 0.000000 0.000000 0.642944
    7 16.525257 0.000000 0.000000 -0.072228 -0.086087 -1.526215
    8 6.879455 0.000000 0.000000 -0.079848 -0.003035 -0.733629
    9 -0.000001 3.345132 -2.981897 1.509216 -0.156813 1.458584
    10 3.998799 0.000000 0.000000 -0.178115 0.117533 0.197532
    11 3.520299 0.000002 0.000000 -0.165967 0.134203 0.404682
    12 8.923110 0.000000 0.000000 -0.129230 0.011529 0.365428
    13 3.306360 0.000002 0.000000 3.141590 0.000000 0.697011
    14 3.601524 -0.000001 0.000000 -0.202910 -0.368458 0.552575
    15 2.056784 0.981236 1.937661 3.603586 -1.122436 0.973965
    16 6.028142 0.000000 0.000001 -3.473088 -0.669862 0.805480
    17 11.692555 0.000001 0.000002 0.000000 0.000000 -2.252888
    18 11.481673 0.000001 -0.000031 1.547303 0.323262 -0.030600
    19 3.851893 0.123227 -1.223225 -0.175078 0.232930 -0.626253
    20 1.312563 0.000000 0.000001 0.000000 0.004679 -0.753589
    21 0.729363 -0.000001 0.000001 0.000000 0.002406 -0.334309
    22 3.926701 0.316311 -0.458788 0.013729 0.025114 -0.537224
    23 1.539099 -0.000001 -0.000001 0.000000 0.002914 -0.561620
    24 1.196322 -0.000001 0.000000 0.000000 0.004796 -0.744628
    25 3.883690 0.211049 0.404099 0.091079 -0.102654 -0.336106
    26 1.719579 0.000000 0.000001 0.000000 0.005013 -0.680296
    27 1.209178 0.000003 -0.000001 0.000000 0.002808 -0.530215
    28 3.867673 0.115967 1.301215 0.361172 -0.307765 -0.424235
    29 1.719429 0.000000 0.000001 0.000000 0.005105 -0.876204
    30 1.099661 0.000000 0.000002 0.000000 0.003255 -0.558112
    31 0.837298 -0.302045 1.313445 -1.418910 -0.585425 -0.411855
    32 1.789784 0.000000 -0.000001 -0.392970 0.058130 -0.103184
    33 1.207002 0.000001 0.000001 0.000000 -0.003294 1.086686
    34 2.056792 0.981240 -1.937609 -3.972349 1.304184 0.648678
    35 6.028141 0.000004 -0.000001 1.522014 0.002389 -1.568553
    36 11.692557 -0.000001 0.000002 0.000000 0.000000 -1.962006
    37 11.481697 0.000000 -0.000001 -1.384637 0.054631 0.511277
    38 3.851861 0.133065 1.220453 0.494313 -0.097759 -1.141906
    39 1.312564 0.000002 0.000000 0.000000 -0.007097 -0.826609
    40 0.729363 0.000000 0.000001 0.000000 -0.003653 -0.935199
    41 3.926669 0.319868 0.458388 0.166720 -0.127387 -1.076926
    42 1.539096 0.000001 -0.000001 0.000000 -0.004404 -0.870443
    43 1.196322 0.000001 0.000000 0.000000 -0.007266 -1.448866
    44 3.883656 0.207493 -0.403698 0.103787 -0.274161 -0.673786
    45 1.719579 0.000000 0.000000 0.000000 -0.007590 -1.320343
    46 1.209178 0.000003 -0.000001 0.000000 -0.004245 -1.170289
    47 3.867642 0.104978 -1.303937 -0.315433 0.154362 -0.106074
    48 1.719431 0.000001 -0.000001 0.000000 -0.007728 -0.850767
    49 1.099662 -0.000003 0.000000 0.000000 -0.004918 -0.732111
    50 0.837268 -0.312954 -1.310521 1.175425 0.303547 -0.981087
    51 1.789780 -0.000001 -0.000001 0.000000 0.200217 0.487566
    52 1.207002 0.000000 0.000001 0.000000 0.201946 0.621931
  time 15
    0 -2.224971 0.385903 35.034283 1.806505 0.155720 -0.132768
    1 3.890447 0.000000 0.000001 -1.925867 -1.040112 -0.906979
    2 17.848177 -0.000001 0.000000 0.000000 0.000000 2.230000
    3 16.525255 -0.000001 0.000000 -0.045181 0.241555 -1.179600
    4 6.879455 0.000000 0.000000 -0.003243 -0.002786 -1.107976
    5 -3.890447 0.000000 0.000000 -1.572851 -0.183482 -1.412075
    6 17.848179 0.000000 0.000000 0.000000 0.000000 0.642944
    7 16.525257 0.000000 0.000000 -0.072228 -0.086087 -1.526215
    8 6.879455 0.000000 0.000000 -0.079848 -0.003035 -0.733629
    9 -0.000001 3.345132 -2.981897 1.507547 -0.156989 1.469373
    10 3.998799 0.000000 0.000000 -0.115867 0.105285 0.200371
    11 3.520299 0.000002 0.000000 -0.105118 0.116023 0.408193
    12 8.923110 0.000000 0.000000 -0.096308 0.015244 0.366339
    13 3.306360 0.000002 0.000000 3.141590 0.000000 0.697011
    14 3.601524 -0.000001 0.000000 -0.254974 -0.312845 0.560715
    15 2.056784 0.981236 1.937661 3.639402 -1.121887 0.940431
    16 6.028142 0.000000 0.000001 -3.571537 -0.675817 0.863505
    17 11.692555 0.000001 0.000002 0.000000 0.000000 -2.252888
    18 11.481673 0.000001 -0.000031 1.547303 0.323262 -0.030600
    19 3.851893 0.123227 -1.223225 -0.175078 0.232930 -0.626253
    20 1.312563 0.000000 0.000001 0.000000 0.004679 -0.753589
    21 0.729363 -0.000001 0.000001 0.000000 0.002406 -0.334309
    22 3.926701 0.316311 -0.458788 0.013729 0.025114 -0.537224
    23 1.539099 -0.000001 -0.000001 0.000000 0.002914 -0.561620
    24 1.196322 -0.000001 0.000000 0.000000 0.004796 -0.744628
    25 3.883690 0.211049 0.404099 0.091079 -0.102654 -0.336106
    26 1.719579 0.000000 0.000001 0.000000 0.005013 -0.680296
    27 1.209178 0.000003 -0.000001 0.000000 0.002808 -0.530215
    28 3.867673 0.115967 1.301215 0.361172 -0.307765 -0.424235
    29 1.719429 0.000000 0.000001 0.000000 0.005105 -0.876204
    30 1.099661 0.000000 0.000002 0.000000 0.003255 -0.558112
    31 0.837298 -0.302045 1.313445 -1.418910 -0.585425 -0.411855
    32 1.789784 0.000000 -0.000001 -0.392970 0.058130 -0.103184
    33 1.207002 0.000001 0.000001 0.000000 -0.003294 1.086686
    34 2.056792 0.981240 -1.937609 -3.991508 1.289540 0.631105
    35 6.028141 0.000004 -0.000001 1.573560 0.018715 -1.591201
    36 11.692557 -0.000001 0.000002 0.000000 0.000000 -1.977038
    37 11.481697 0.000000 -0.000001 -1.387941 0.095368 0.584833
    38 3.851861 0.133065 1.220453 0.494313 -0.097759 -1.141906
    39 1.312564 0.000002 0.000000 0.000000 -0.007097 -0.826609
    40 0.729363 0.000000 0.000001 0.000000 -0.003653 -0.935199
    41 3.926669 0.319868 0.458388 0.166720 -0.127387 -1.076926
    42 1.539096 0.000001 -0.000001 0.000000 -0.004404 -0.870443
    43 1.196322 0.000001 0.000000 0.000000 -0.007266 -1.448866
    44 3.883656 0.207493 -0.403698 0.103787 -0.274161 -0.673786
    45 1.719579 0.000000 0.000000 0.000000 -0.007590 -1.320343
    46 1.209178 0.000003 -0.000001 0.000000 -0.004245 -1.170289
    47 3.867642 0.104978 -1.303937 -0.315433 0.154362 -0.106074
    48 1.719431 0.000001 -0.000001 0.000000 -0.007728 -0.850767
    49 1.099662 -0.000003 0.000000 0.000000 -0.004918 -0.732111
    50 0.837268 -0.312954 -1.310521 1.175425 0.303547 -0.981087
    51 1.789780 -0.000001 -0.000001 0.000000 0.200217 0.487566
    52 1.207002 0.000000 0.000001 0.000000 0.201946 0.621931
  time 16
    0 -2.224971 0.385903 35.034283 1.806505 0.155720 -0.132768
    1 3.890447 0.000000 0.000001 -1.925867 -1.040112 -0.906979
    2 17.848177 -0.000001 0.000000 0.000000 0.000000 2.230000
    3 16.525255 -0.000001 0.000000 -0.045181 0.241555 -1.179600
    4 6.879455 0.000000 0.000000 -0.003243 -0.002786 -1.107976
    5 -3.890447 0.000000 0.000000 -1.572851 -0.183482 -1.412075
    6 17.848179 0.000000 0.000000 0.000000 0.000000 0.642944
    7 16.525257 0.000000 0.000000 -0.072228 -0.086087 -1.526215
    8 6.879455 0.000000 0.000000 -0.079848 -0.003035 -0.733629
    9 -0.000001 3.345132 -2.981897 1.501019 -0.157519 1.511086
    10 3.998799 0.000000 0.000000 -0.050395 0.090256 0.206846
    11 3.520299 0.000002 0.000000 -0.041379 0.094726 0.414981
    12 8.923110 0.000000 0.000000 -0.061709 0.019127 0.367046
    13 3.306360 0.000002 0.000000 3.141590 0.000000 0.697011
    14 3.601524 -0.000001 0.000000 -0.309198 -0.252690 0.568500
    15 2.056784 0.981236 1.937661 3.597745 -1.137356 0.976839
    16 6.028142 0.000000 0.000001 -3.654598 -0.689228 0.924801
    17 11.692555 0.000001 0.000002 0.000000 0.000000 -2.252888
    18 11.481673 0.000001 -0.000031 1.547303 0.323262 -0.030600
    19 3.851893 0.123227 -1.223225 -0.175078 0.232930 -0.626253
    20 1.312563 0.000000 0.000001 0.000000 0.004679 -0.753589
    21 0.729363 -0.000001 0.000001 0.000000 0.002406 -0.334309
    22 3.926701 0.316311 -0.458788 0.013729 0.025114 -0.537224
    23 1.539099 -0.000001 -0.000001 0.000000 0.002914 -0.561620
    24 1.196322 -0.000001 0.000000 0.000000 0.004796 -0.744628
    25 3.883690 0.211049 0.404099 0.091079 -0.102654 -0.336106
    26 1.719579 0.000000 0.000001 0.000000 0.005013 -0.680296
    27 1.209178 0.000003 -0.000001 0.000000 0.002808 -0.530215
    28 3.867673 0.115967 1.301215 0.361172 -0.307765 -0.424235
    29 1.719429 0.000000 0.000001 0.000000 0.005105 -0.876204
    30 1.099661 0.000000 0.000002 0.000000 0.003243 -0.558112
    31 0.837298 -0.302045 1.313445 -1.418910 -0.585425 -0.411855
    32 1.789784 0.000000 -0.000001 -0.392970 0.058130 -0.103184
    33 1.207002 0.000001 0.000001 0.000000 -0.003294 1.086686
    34 2.056792 0.981240 -1.937609 -3.916515 1.301240 0.705149
    35 6.028141 0.000004 -0.000001 1.610290 0.017235 -1.570603
    36 11.692557 -0.000001 0.000002 0.000000 0.000000 -2.004124
    37 11.481697 0.000000 -0.000001 -1.385882 0.127334 0.650183
    38 3.851861 0.133065 1.220453 0.494313 -0.097759 -1.141906
    39 1.312564 0.000002 0.000000 0.000000 -0.007097 -0.826609
    40 0.729363 0.000000 0.000001 0.000000 -0.003653 -0.935199
    41 3.926669 0.319868 0.458388 0.166720 -0.127387 -1.076926
    42 1.539096 0.000001 -0.000001 0.000000 -0.004404 -0.870443
    43 1.196322 0.000001 0.000000 0.000000 -0.007266 -1.448866
    44 3.883656 0.207493 -0.403698 0.103787 -0.274161 -0.673786
    45 1.719579 0.000000 0.000000 0.000000 -0.007590 -1.320343
    46 1.209178 0.000003 -0.000001 0.000000 -0.004245 -1.170289
    47 3.867642 0.104978 -1.303937 -0.315433 0.154362 -0.106074
    48 1.719431 0.000001 -0.000001 0.000000 -0.007728 -0.850767
    49 1.099662 -0.000003 0.000000 0.000000 -0.004918 -0.732111
    50 0.837268 -0.312954 -1.310521 1.175425 0.303547 -0.981087
    51 1.789780 -0.000001 -0.000001 0.000000 0.200217 0.487566
    52 1.207002 0.000000 0.000001 0.000000 0.201946 0.621931
  time 17
    0 -2.224971 0.385903 35.034283 1.806505 0.155720 -0.132768
    1 3.890447 0.000000 0.000001 -1.925867 -1.040112 -0.906979
    2 17.848177 -0.000001 0.000000 0.000000 0.000000 2.230000
    3 16.525255 -0.000001 0.000000 -0.045181 0.241555 -1.179600
    4 6.879455 0.000000 0.000000 -0.003243 -0.002786 -1.107976
    5 -3.890447 0.000000 0.000000 -1.572851 -0.183482 -1.412075
    6 17.848179 0.000000 0.000000 0.000000 0.000000 0.642944
    7 16.525257 0.000000 0.000000 -0.072228 -0.086087 -1.526215
    8 6.879455 0.000000 0.000000 -0.079848 -0.003035 -0.733629
    9 -0.000001 3.345132 -2.981897 1.491760 -0.157792 1.570050
    10 3.998799 0.000000 0.000000 0.011757 0.074592 0.214151
    11 3.520299 0.000002 0.000000 0.018965 0.073094 0.422221
    12 8.923110 0.000000 0.000000 -0.028871 0.022783 0.367453
    13 3.306360 0.000002 0.000000 3.141590 0.000000 0.697011
    14 3.601524 -0.000001 0.000000 -0.358199 -0.201788 0.562130
    15 2.056784 0.981236 1.937661 3.492403 -1.160874 1.072266
    16 6.028142 0.000000 0.000001 -3.713190 -0.720822 0.980958
    17 11.692555 0.000001 0.000002 0.000000 0.000000 -2.252888
    18 11.481673 0.000001 -0.000031 1.547303 0.323262 -0.030600
    19 3.851893 0.123227 -1.223225 -0.175078 0.232930 -0.626253
    20 1.312563 0.000000 0.000001 0.000000 0.004679 -0.753589
    21 0.729363 -0.000001 0.000001 0.000000 0.002406 -0.334309
    22 3.926701 0.316311 -0.458788 0.013729 0.025114 -0.537224
    23 1.539099 -0.000001 -0.000001 0.000000 0.002914 -0.561620
    24 1.196322 -0.000001 0.000000 0.000000 0.004796 -0.744628
    25 3.883690 0.211049 0.404099 0.091079 -0.102654 -0.336106
    26 1.719579 0.000000 0.000001 0.000000 0.005013 -0.680296
    27 1.209178 0.000003 -0.000001 0.000000 0.002808 -0.530215
    28 3.867673 0.115967 1.301215 0.361172 -0.307765 -0.424235
    29 1.719429 0.000000 0.000001 0.000000 0.005105 -0.876204
    30 1.099661 0.000000 0.000002 0.000000 0.003243 -0.558112
    31 0.837298 -0.302045 1.313445 -1.418910 -0.585425 -0.411855
    32 1.789784 0.000000 -0.000001 -0.392970 0.058130 -0.103184
    33 1.207002 0.000001 0.000001 0.000000 -0.003294 1.086686
    34 2.056792 0.981240 -1.937609 -3.752025 1.327152 0.866509
    35 6.028141 0.000004 -0.000001 1.624131 -0.010500 -1.533509
    36 11.692557 -0.000001 0.000002 0.000000 0.000000 -2.042829
    37 11.481697 0.000000 -0.000001 -1.381716 0.147728 0.697089
    38 3.851861 0.133065 1.220453 0.494313 -0.097759 -1.141906
    39 1.312564 0.000002 0.000000 0.000000 -0.007097 -0.826609
    40 0.729363 0.000000 0.000001 0.000000 -0.003653 -0.935199
    41 3.926669 0.319868 0.458388 0.166720 -0.127387 -1.076926
    42 1.539096 0.000001 -0.000001 0.000000 -0.004404 -0.870443
    43 1.196322 0.000001 0.000000 0.000000 -0.007266 -1.448866
    44 3.883656 0.207493 -0.403698 0.103787 -0.274161 -0.673786
    45 1.719579 0.000000 0.000000 0.000000 -0.007590 -1.320343
    46 1.209178 0.000003 -0.000001 0.000000 -0.004245 -1.170289
    47 3.867642 0.104978 -1.303937 -0.315433 0.154362 -0.106074
    48 1.719431 0.000001 -0.000001 0.000000 -0.007728 -0.850767
    49 1.099662 -0.000003 0.000000 0.000000 -0.004918 -0.732111
    50 0.837268 -0.312954 -1.310521 1.175425 0.303547 -0.981087
    51 1.789780 -0.000001 -0.000001 0.000000 0.200217 0.487566
    52 1.207002 0.000000 0.000001 0.000000 0.201946 0.621931
  time 18
    0 -2.224971 0.385903 35.034283 1.806505 0.155720 -0.132768
    1 3.890447 0.000000 0.000001 -1.925867 -1.040112 -0.906979
    2 17.848177 -0.000001 0.000000 0.000000 0.000000 2.230000
    3 16.525255 -0.000001 0.000000 -0.045181 0.241555 -1.179600
    4 6.879455 0.000000 0.000000 -0.003243 -0.002786 -1.107976
    5 -3.890447 0.000000 0.000000 -1.572851 -0.183482 -1.412075
    6 17.848179 0.000000 0.000000 0.000000 0.000000 0.642944
    7 16.525257 0.000000 0.000000 -0.072228 -0.086087 -1.526215
    8 6.879455 0.000000 0.000000 -0.079848 -0.003035 -0.733629
    9 -0.000001 3.345132 -2.981897 1.487054 -0.157728 1.599930
    10 3.998799 0.000000 0.000000 0.064082 0.060714 0.220011
    11 3.520299 0.000002 0.000000 0.069668 0.054194 0.427786
    12 8.923110 0.000000 0.000000 -0.001246 0.025863 0.367621
    13 3.306360 0.000002 0.000000 3.141590 0.000000 0.697011
    14 3.601524 -0.000001 0.000000 -0.394675 -0.176329 0.536296
    15 2.056784 0.981236 1.937661 3.376814 -1.178896 1.178328
    16 6.028142 0.000000 0.000001 -3.754481 -0.759008 1.038797
    17 11.692555 0.000001 0.000002 0.000000 0.000000 -2.252888
    18 11.481673 0.000001 -0.000031 1.547303 0.323262 -0.030600
    19 3.851893 0.123227 -1.223225 -0.175078 0.232930 -0.626253
    20 1.312563 0.000000 0.000001 0.000000 0.004679 -0.753589
    21 0.729363 -0.000001 0.000001 0.000000 0.002406 -0.334309
    22 3.926701 0.316311 -0.458788 0.013729 0.025114 -0.537224
    23 1.539099 -0.000001 -0.000001 0.000000 0.002914 -0.561620
    24 1.196322 -0.000001 0.000000 0.000000 0.004796 -0.744628
    25 3.883690 0.211049 0.404099 0.091079 -0.102654 -0.336106
    26 1.719579 0.000000 0.000001 0.000000 0.005013 -0.680296
    27 1.209178 0.000003 -0.000001 0.000000 0.002808 -0.530215
    28 3.867673 0.115967 1.301215 0.361172 -0.307765 -0.424235
    29 1.719429 0.000000 0.000001 0.000000 0.005105 -0.876204
    30 1.099661 0.000000 0.000002 0.000000 0.003243 -0.558112
    31 0.837298 -0.302045 1.313445 -1.418910 -0.585425 -0.411855
    32 1.789784 0.000000 -0.000001 -0.392970 0.058130 -0.103184
    33 1.207002 0.000001 0.000001 0.000000 -0.003294 1.086686
    34 2.056792 0.981240 -1.937609 -3.558978 1.346037 1.056150
    35 6.028141 0.000004 -0.000001 1.625284 -0.043294 -1.519342
    36 11.692557 -0.000001 0.000002 0.000000 0.000000 -2.090539
    37 11.481697 0.000000 -0.000001 -1.379609 0.154903 0.715011
    38 3.851861 0.133065 1.220453 0.494313 -0.097759 -1.141906
    39 1.312564 0.000002 0.000000 0.000000 -0.007097 -0.826609
    40 0.729363 0.000000 0.000001 0.000000 -0.003653 -0.935199
    41 3.926669 0.319868 0.458388 0.166720 -0.127387 -1.076926
    42 1.539096 0.000001 -0.000001 0.000000 -0.004404 -0.870443
    43 1.196322 0.000001 0.000000 0.000000 -0.007266 -1.448866
    44 3.883656 0.207493 -0.403698 0.103787 -0.274161 -0.673786
    45 1.719579 0.000000 0.000000 0.000000 -0.007590 -1.320343
    46 1.209178 0.000003 -0.000001 0.000000 -0.004245 -1.170289
    47 3.867642 0.104978 -1.303937 -0.315433 0.154362 -0.106074
    48 1.719431 0.000001 -0.000001 0.000000 -0.007728 -0.850767
    49 1.099662 -0.000003 0.000000 0.000000 -0.004918 -0.732111
    50 0.837268 -0.312954 -1.310521 1.175425 0.303547 -0.981087
    51 1.789780 -0.000001 -0.000001 0.000000 0.200217 0.487566
    52 1.207002 0.000000 0.000001 0.000000 0.201946 0.621931
end
