// Created by Crowbar 0.62

$modelname "props_junk/wood_pallet001a.mdl"

$staticprop

$bodygroup "Body"
{
	studio "wood_pallet001a_reference.smd"
}

$surfaceprop "wood"

$contents "solid"

$illumposition 0 0 0

$cdmaterials "models\props_junk\"

$cbox 0 0 0 0 0 0

$bbox -32.511 -37.583 -3.926 32.511 37.583 3.926

$animation "a_idle" "wood_pallet001a_anims\idle.smd" {
	fps 30
}

$sequence "idle" {
	"a_idle"
	fadein 0.2
	fadeout 0.2
}


$collisionmodel "wood_pallet001a_physics.smd"
{
	$mass 50
	$inertia 1
	$damping 0
	$rotdamping 0
	$rootbone " "
	$concave

}

$KeyValues
{
	prop_data 
	{
		"base" "Wooden.Large"
	}
}
