version 1
nodes
  0 "ValveBiped.Bip01_Pelvis" -1
  1 "ValveBiped.Bip01_L_Thigh" 0
  2 "ValveBiped.Bip01_L_Calf" 1
  3 "ValveBiped.Bip01_L_Foot" 2
  4 "ValveBiped.Bip01_L_Toe0" 3
  5 "ValveBiped.Bip01_R_Thigh" 0
  6 "ValveBiped.Bip01_R_Calf" 5
  7 "ValveBiped.Bip01_R_Foot" 6
  8 "ValveBiped.Bip01_R_Toe0" 7
  9 "ValveBiped.Bip01_Spine" 0
  10 "ValveBiped.Bip01_Spine1" 9
  11 "ValveBiped.Bip01_Spine2" 10
  12 "ValveBiped.Bip01_Spine4" 11
  13 "ValveBiped.Bip01_Neck1" 12
  14 "ValveBiped.Bip01_Head1" 13
  15 "ValveBiped.Bip01_L_Clavicle" 12
  16 "ValveBiped.Bip01_L_UpperArm" 15
  17 "ValveBiped.Bip01_L_Forearm" 16
  18 "ValveBiped.Bip01_L_Hand" 17
  19 "ValveBiped.Bip01_L_Finger4" 18
  20 "ValveBiped.Bip01_L_Finger41" 19
  21 "ValveBiped.Bip01_L_Finger42" 20
  22 "ValveBiped.Bip01_L_Finger3" 18
  23 "ValveBiped.Bip01_L_Finger31" 22
  24 "ValveBiped.Bip01_L_Finger32" 23
  25 "ValveBiped.Bip01_L_Finger2" 18
  26 "ValveBiped.Bip01_L_Finger21" 25
  27 "ValveBiped.Bip01_L_Finger22" 26
  28 "ValveBiped.Bip01_L_Finger1" 18
  29 "ValveBiped.Bip01_L_Finger11" 28
  30 "ValveBiped.Bip01_L_Finger12" 29
  31 "ValveBiped.Bip01_L_Finger0" 18
  32 "ValveBiped.Bip01_L_Finger01" 31
  33 "ValveBiped.Bip01_L_Finger02" 32
  34 "ValveBiped.Bip01_R_Clavicle" 12
  35 "ValveBiped.Bip01_R_UpperArm" 34
  36 "ValveBiped.Bip01_R_Forearm" 35
  37 "ValveBiped.Bip01_R_Hand" 36
  38 "ValveBiped.Bip01_R_Finger4" 37
  39 "ValveBiped.Bip01_R_Finger41" 38
  40 "ValveBiped.Bip01_R_Finger42" 39
  41 "ValveBiped.Bip01_R_Finger3" 37
  42 "ValveBiped.Bip01_R_Finger31" 41
  43 "ValveBiped.Bip01_R_Finger32" 42
  44 "ValveBiped.Bip01_R_Finger2" 37
  45 "ValveBiped.Bip01_R_Finger21" 44
  46 "ValveBiped.Bip01_R_Finger22" 45
  47 "ValveBiped.Bip01_R_Finger1" 37
  48 "ValveBiped.Bip01_R_Finger11" 47
  49 "ValveBiped.Bip01_R_Finger12" 48
  50 "ValveBiped.Bip01_R_Finger0" 37
  51 "ValveBiped.Bip01_R_Finger01" 50
  52 "ValveBiped.Bip01_R_Finger02" 51
  53 "ValveBiped.Bip01_L_Trapezius" 15
  54 "ValveBiped.Bip01_L_Ulna" 17
  55 "ValveBiped.Bip01_R_Ulna" 36
  56 "ValveBiped.Bip01_L_Wrist" 17
  57 "ValveBiped.Bip01_L_Bicep" 16
  58 "ValveBiped.Bip01_L_Latt" 11
  59 "ValveBiped.Bip01_L_Pectoral" 11
  60 "ValveBiped.Bip01_R_Elbow" 35
  61 "ValveBiped.Bip01_R_Pectoral" 11
  62 "ValveBiped.Bip01_R_Latt" 11
  63 "ValveBiped.Bip01_L_Shoulder" 16
  64 "ValveBiped.Bip01_R_Wrist" 36
  65 "ValveBiped.Bip01_L_Elbow" 16
  66 "ValveBiped.Bip01_R_Trapezius" 34
  67 "ValveBiped.Bip01_R_Shoulder" 35
  68 "ValveBiped.Bip01_R_Bicep" 35
end
skeleton
  time 0
    0 -0.000005 -0.533615 38.566917 1.570796 0.000000 0.000000
    1 3.984014 -0.000004 -0.000003 -1.567611 0.022938 -1.553278
    2 15.940008 0.000000 0.000000 0.000000 0.000000 0.089575
    3 17.709560 0.000000 0.000000 -0.037237 -0.043434 -1.105378
    4 6.204000 0.000000 0.000000 -0.010400 0.001101 -0.539471
    5 -3.984013 0.000008 0.000007 -1.574210 0.003418 -1.591612
    6 15.940012 0.000000 0.000000 0.000000 0.000000 0.126651
    7 17.709562 0.000000 0.000000 0.049670 0.042227 -1.126219
    8 6.203999 0.000000 0.000000 -0.065251 -0.006284 -0.538179
    9 0.000005 4.212784 -1.689857 1.570796 -0.027977 1.570796
    10 3.837410 0.000000 0.000000 0.000000 0.000000 -0.112614
    11 3.617867 0.000000 0.000000 0.000000 0.000000 -0.012635
    12 7.539776 0.000000 0.000000 0.000000 0.000000 0.155813
    13 3.178299 0.000000 0.000000 3.141590 0.000000 0.224127
    14 2.970276 0.000000 0.000000 0.000000 0.000000 0.109880
    15 2.023712 0.907460 0.852579 1.078774 -1.330045 -2.844964
    16 4.983667 -0.000004 0.000000 -1.414210 0.080037 -0.770474
    17 11.123058 0.000000 -0.000004 0.000000 0.000000 -0.089452
    18 11.208294 0.000000 0.000000 1.505414 -0.037977 0.080794
    19 3.549246 0.198826 -1.489468 -0.479144 0.152190 -0.879874
    20 1.219002 0.000001 0.000000 0.000000 0.009665 -0.439720
    21 0.679996 -0.000001 0.000001 0.000000 0.004971 -0.244299
    22 3.698009 0.267555 -0.728978 -0.155014 0.073328 -0.810648
    23 1.749004 0.000000 0.000000 0.000000 0.004460 -0.247797
    24 0.959999 -0.000002 0.000000 0.000000 0.007361 -0.430803
    25 3.768503 0.152550 0.071384 0.085902 0.021830 -0.587867
    26 2.038002 0.000002 0.000000 0.000000 0.005516 -0.366478
    27 1.066998 -0.000001 0.000000 0.000000 0.003084 -0.216400
    28 3.783922 -0.017254 0.794555 0.354449 -0.042750 -0.531718
    29 1.628998 0.000000 0.000000 0.000000 0.004074 -0.363010
    30 0.955997 0.000002 0.000000 0.000000 0.002597 -0.244331
    31 1.258963 -0.297981 1.252590 -1.206854 -0.679488 -0.789308
    32 1.393000 0.000000 -0.000002 0.000000 0.007387 0.228523
    33 1.100002 0.000000 0.000002 0.000000 0.011267 0.362860
    34 2.023712 0.907462 -0.852528 -1.150541 1.330039 -2.844983
    35 4.983668 0.000004 0.000000 1.465619 -0.048463 -0.771345
    36 11.123047 0.000000 0.000000 0.000000 0.000000 -0.126479
    37 11.208294 0.000000 0.000000 -1.496969 0.037967 0.099286
    38 3.549271 0.211411 1.487670 0.479140 -0.158545 -0.879041
    39 1.218998 0.000000 0.000000 0.000000 -0.011932 -0.439672
    40 0.680000 -0.000001 0.000000 0.000000 -0.006134 -0.244271
    41 3.698021 0.273720 0.726623 0.154999 -0.079305 -0.810205
    42 1.749001 0.000001 0.000000 0.000000 -0.005854 -0.247771
    43 0.959999 -0.000001 0.000000 0.000000 -0.009663 -0.430761
    44 3.768501 0.151955 -0.072740 -0.085905 -0.026404 -0.587695
    45 2.038002 -0.000002 0.000000 0.000000 -0.007974 -0.366436
    46 1.067001 0.000002 0.000000 0.000000 -0.004461 -0.216375
    47 3.783907 -0.023949 -0.794451 -0.354419 0.038567 -0.532001
    48 1.628998 0.000000 0.000000 0.000000 -0.006612 -0.362969
    49 0.956001 -0.000001 0.000000 0.000000 -0.004212 -0.244312
    50 1.258938 -0.308544 -1.250052 1.204200 0.673618 -0.793956
    51 1.393002 0.000000 0.000004 0.000000 -0.006301 0.228555
    52 1.099998 -0.000001 -0.000006 -0.000001 -0.009618 0.362905
    53 4.271700 0.000000 0.000000 0.000000 0.000000 0.000000
    54 5.604151 0.000000 -0.000004 -0.030876 0.000000 0.000000
    55 5.604151 0.000000 0.000004 0.034930 0.000000 0.000000
    56 11.208300 0.000001 -0.000008 -0.057543 0.000000 0.000000
    57 5.560005 -0.700001 -0.500008 0.000000 0.000000 0.000000
    58 2.132023 1.532023 5.000000 0.000000 0.000000 0.000000
    59 2.000004 4.938046 2.578000 0.000000 0.000000 0.000000
    60 11.123051 -0.000001 0.000004 0.000000 0.000000 -0.100063
    61 2.000000 4.938042 -2.578000 0.000000 0.000000 0.000000
    62 2.132019 1.532021 -5.000000 0.000000 0.000000 0.000000
    63 1.500000 0.000000 0.000000 0.000000 0.000000 0.000000
    64 11.208303 0.000001 0.000004 0.065171 0.000000 0.000000
    65 11.123055 0.000000 -0.000004 0.000000 0.000000 -0.100081
    66 4.271700 -0.000008 0.000000 0.000000 0.000000 0.000000
    67 1.500000 0.000000 -0.000004 0.000000 0.000000 0.000000
    68 5.560001 -0.700001 0.500000 0.000000 0.000000 0.000000
end
