version 1
nodes
  0 "ValveBiped.Bip01_Pelvis" -1
  1 "ValveBiped.Bip01_L_Thigh" 0
  2 "ValveBiped.Bip01_L_Calf" 1
  3 "ValveBiped.Bip01_L_Foot" 2
  4 "ValveBiped.Bip01_L_Toe0" 3
  5 "ValveBiped.Bip01_R_Thigh" 0
  6 "ValveBiped.Bip01_R_Calf" 5
  7 "ValveBiped.Bip01_R_Foot" 6
  8 "ValveBiped.Bip01_R_Toe0" 7
  9 "ValveBiped.Bip01_Spine" 0
  10 "ValveBiped.Bip01_Spine1" 9
  11 "ValveBiped.Bip01_Spine2" 10
  12 "ValveBiped.Bip01_Spine4" 11
  13 "ValveBiped.Bip01_Neck1" 12
  14 "ValveBiped.Bip01_Head1" 13
  15 "ValveBiped.Bip01_L_Clavicle" 12
  16 "ValveBiped.Bip01_L_UpperArm" 15
  17 "ValveBiped.Bip01_L_Forearm" 16
  18 "ValveBiped.Bip01_L_Hand" 17
  19 "ValveBiped.Bip01_L_Finger4" 18
  20 "ValveBiped.Bip01_L_Finger41" 19
  21 "ValveBiped.Bip01_L_Finger42" 20
  22 "ValveBiped.Bip01_L_Finger3" 18
  23 "ValveBiped.Bip01_L_Finger31" 22
  24 "ValveBiped.Bip01_L_Finger32" 23
  25 "ValveBiped.Bip01_L_Finger2" 18
  26 "ValveBiped.Bip01_L_Finger21" 25
  27 "ValveBiped.Bip01_L_Finger22" 26
  28 "ValveBiped.Bip01_L_Finger1" 18
  29 "ValveBiped.Bip01_L_Finger11" 28
  30 "ValveBiped.Bip01_L_Finger12" 29
  31 "ValveBiped.Bip01_L_Finger0" 18
  32 "ValveBiped.Bip01_L_Finger01" 31
  33 "ValveBiped.Bip01_L_Finger02" 32
  34 "ValveBiped.Bip01_R_Clavicle" 12
  35 "ValveBiped.Bip01_R_UpperArm" 34
  36 "ValveBiped.Bip01_R_Forearm" 35
  37 "ValveBiped.Bip01_R_Hand" 36
  38 "ValveBiped.Bip01_R_Finger4" 37
  39 "ValveBiped.Bip01_R_Finger41" 38
  40 "ValveBiped.Bip01_R_Finger42" 39
  41 "ValveBiped.Bip01_R_Finger3" 37
  42 "ValveBiped.Bip01_R_Finger31" 41
  43 "ValveBiped.Bip01_R_Finger32" 42
  44 "ValveBiped.Bip01_R_Finger2" 37
  45 "ValveBiped.Bip01_R_Finger21" 44
  46 "ValveBiped.Bip01_R_Finger22" 45
  47 "ValveBiped.Bip01_R_Finger1" 37
  48 "ValveBiped.Bip01_R_Finger11" 47
  49 "ValveBiped.Bip01_R_Finger12" 48
  50 "ValveBiped.Bip01_R_Finger0" 37
  51 "ValveBiped.Bip01_R_Finger01" 50
  52 "ValveBiped.Bip01_R_Finger02" 51
  53 "ValveBiped.Bip01_L_Trapezius" 15
  54 "ValveBiped.Bip01_L_Ulna" 17
  55 "ValveBiped.Bip01_R_Ulna" 36
  56 "ValveBiped.Bip01_L_Wrist" 17
  57 "ValveBiped.Bip01_L_Bicep" 16
  58 "ValveBiped.Bip01_L_Latt" 11
  59 "ValveBiped.Bip01_L_Pectoral" 11
  60 "ValveBiped.Bip01_R_Elbow" 35
  61 "ValveBiped.Bip01_R_Pectoral" 11
  62 "ValveBiped.Bip01_R_Latt" 11
  63 "ValveBiped.Bip01_L_Shoulder" 16
  64 "ValveBiped.Bip01_R_Wrist" 36
  65 "ValveBiped.Bip01_L_Elbow" 16
  66 "ValveBiped.Bip01_R_Trapezius" 34
  67 "ValveBiped.Bip01_R_Shoulder" 35
  68 "ValveBiped.Bip01_R_Bicep" 35
end
skeleton
  time 0
    0 -0.003280 -0.531884 35.285808 2.028862 0.337353 -0.228229
    1 3.984015 -0.000006 -0.000003 -2.945982 -1.071296 -0.088056
    2 15.940016 0.000000 0.000000 0.000000 0.000000 2.266863
    3 17.709564 0.000000 0.000000 0.095137 -0.005950 -1.196395
    4 6.204000 0.000000 0.000000 -0.005005 0.003966 -1.024125
    5 -3.984013 0.000006 0.000007 -1.814533 -0.107371 -1.177502
    6 15.940014 0.000000 0.000000 0.000000 0.000000 0.089539
    7 17.709570 -0.000001 0.000000 -0.140860 -0.029165 -1.311717
    8 6.204001 0.000000 0.000000 -0.077811 -0.006233 -0.651581
    9 -0.871115 3.622926 -2.592228 1.646416 0.135457 1.686587
    10 3.837406 0.000001 0.000000 0.020182 0.043708 0.063582
    11 3.617867 0.000000 0.000000 0.019627 0.043959 0.211146
    12 7.539776 0.000000 0.000000 -0.029650 0.018288 0.157260
    13 3.178299 0.000000 0.000000 3.141590 0.000000 0.370447
    14 2.970274 0.000000 0.000000 0.241496 0.032919 0.627114
    15 2.023708 0.907459 0.852579 2.736554 -1.146891 1.770201
    16 4.983667 -0.000004 0.000000 -1.651746 -0.544443 -1.059295
    17 11.123055 0.000000 -0.000002 0.000000 0.000000 -1.328750
    18 11.208294 0.000000 -0.000004 1.343630 0.081967 -0.104991
    19 3.549242 0.198826 -1.489471 -0.449521 -0.213492 -1.502175
    20 1.219000 0.000000 0.000004 -0.000005 0.184250 -0.756130
    21 0.679999 0.000000 0.000000 0.000003 0.002403 -1.130222
    22 3.698008 0.267557 -0.728977 -0.159022 -0.128597 -1.500848
    23 1.749000 0.000000 -0.000004 0.000009 0.083290 -1.128379
    24 0.959999 -0.000001 0.000000 0.000000 0.004802 -1.316700
    25 3.768503 0.152550 0.071381 0.023947 -0.021726 -1.562896
    26 2.038003 0.000002 0.000000 0.000004 0.004994 -1.252366
    27 1.067003 -0.000003 0.000000 -0.000011 0.002789 -1.102295
    28 3.783922 -0.017256 0.794556 0.192440 0.061256 -1.577964
    29 1.629000 0.000000 0.000000 0.000003 0.005096 -1.248867
    30 0.956001 0.000001 0.000000 0.000000 0.003254 -1.130186
    31 1.258961 -0.297981 1.252590 -1.253674 -0.300823 -0.782383
    32 1.393002 0.000000 0.000000 0.000000 0.300692 0.663312
    33 1.100000 0.000000 0.000000 0.000000 -0.003290 1.086696
    34 2.023712 0.907463 -0.852528 -2.575642 1.371900 2.025278
    35 4.983668 0.000004 -0.000002 1.312465 -0.225173 -0.994070
    36 11.123047 0.000000 0.000006 0.000000 0.000000 -1.797926
    37 11.208294 -0.000002 0.000002 -1.396997 0.260226 -0.233835
    38 3.549271 0.211411 1.487671 0.494305 -0.097767 -1.141905
    39 1.219000 -0.000001 0.000000 0.000010 -0.007094 -0.936359
    40 0.679999 0.000000 0.000002 -0.000003 -0.003649 -0.567372
    41 3.698020 0.273716 0.726624 0.166728 -0.127400 -1.076953
    42 1.748999 0.000000 0.000000 -0.000009 -0.004407 -0.757418
    43 0.960000 -0.000002 -0.000004 -0.000012 -0.007271 -1.258531
    44 3.768501 0.151955 -0.072739 -0.077950 -0.287333 -0.840906
    45 2.038000 0.000000 0.000000 -0.000004 0.115787 -1.062702
    46 1.066999 0.000000 0.000000 0.000011 -0.004239 -1.185375
    47 3.783908 -0.023952 -0.794449 -0.316445 0.173356 -0.112326
    48 1.628999 0.000000 0.000000 -0.000003 -0.007732 -0.686546
    49 0.956000 0.000000 0.000000 0.000000 -0.004920 -1.090657
    50 1.258942 -0.308545 -1.250050 1.202586 0.210776 -0.999947
    51 1.393001 0.000000 0.000002 0.000000 0.200216 0.487536
    52 1.100000 0.000002 -0.000002 0.000000 0.201946 0.966012
    53 4.271699 0.000000 0.000000 0.000000 0.000000 0.000000
    54 5.604150 0.000000 -0.000005 -0.030876 0.000000 0.000000
    55 5.604151 0.000000 0.000000 0.034930 0.000000 0.000000
    56 11.208296 0.000000 -0.000005 -0.057543 0.000000 0.000000
    57 5.560005 -0.700001 -0.500006 0.000000 0.000000 0.000000
    58 2.132027 1.532021 5.000000 0.000000 0.000000 0.000000
    59 2.000008 4.938046 2.578000 0.000000 0.000000 0.000000
    60 11.123045 0.000000 0.000004 0.000000 0.000000 -0.100063
    61 2.000004 4.938040 -2.578001 0.000000 0.000000 0.000000
    62 2.132023 1.532021 -5.000000 0.000000 0.000000 0.000000
    63 1.500000 0.000000 -0.000001 0.000000 0.000000 0.000000
    64 11.208302 -0.000002 0.000002 0.065171 0.000000 0.000000
    65 11.123055 -0.000001 -0.000003 0.000000 0.000000 -0.100081
    66 4.271699 -0.000004 0.000000 0.000000 0.000000 0.000000
    67 1.500000 0.000000 -0.000002 0.000000 0.000000 0.000000
    68 5.560001 -0.700001 0.500002 0.000000 0.000000 0.000000
  time 1
    0 0.285792 -7.531888 36.086283 1.992396 0.294351 -0.298036
    1 3.984015 -0.000006 -0.000003 -3.341781 -1.070076 0.219963
    2 15.940016 0.000000 0.000000 0.000000 0.000000 1.909598
    3 17.709564 0.000000 0.000000 0.123712 -0.024040 -1.250517
    4 6.204000 0.000000 0.000000 -0.007057 0.000598 -1.024125
    5 -3.984013 0.000006 0.000007 -1.853738 0.054667 -1.316307
    6 15.940014 0.000000 0.000000 0.000000 0.000000 0.126611
    7 17.709570 -0.000001 0.000000 -0.103491 0.006734 -0.982433
    8 6.204001 0.000000 0.000000 -0.051445 -0.003381 -0.991687
    9 -0.824239 3.677615 -2.529726 1.664253 0.125799 1.635677
    10 3.837406 0.000001 0.000000 0.045865 0.037775 0.065889
    11 3.617867 0.000000 0.000000 0.045391 0.038351 0.213451
    12 7.539776 0.000000 0.000000 -0.017905 0.009672 0.157289
    13 3.178299 0.000000 0.000000 3.141590 0.000000 0.370447
    14 2.970274 0.000000 0.000000 0.214692 0.029887 0.636668
    15 2.023708 0.907459 0.852579 2.736554 -1.146891 1.770201
    16 4.983667 -0.000004 0.000000 -1.635009 -0.581773 -1.054032
    17 11.123055 0.000000 -0.000002 0.000000 0.000000 -1.282161
    18 11.208294 0.000000 -0.000004 1.335628 0.086868 -0.125406
    19 3.549242 0.198826 -1.489471 -0.449521 -0.213492 -1.502175
    20 1.219000 0.000000 0.000004 -0.000005 0.184250 -0.756130
    21 0.679999 0.000000 0.000000 0.000003 0.002403 -1.130222
    22 3.698008 0.267557 -0.728977 -0.159022 -0.128597 -1.500848
    23 1.749000 0.000000 -0.000004 0.000009 0.083290 -1.128379
    24 0.959999 -0.000001 0.000000 0.000012 0.004802 -1.316700
    25 3.768503 0.152550 0.071381 0.023947 -0.021726 -1.562896
    26 2.038003 0.000002 0.000000 0.000004 0.004994 -1.252366
    27 1.067003 -0.000003 0.000000 -0.000011 0.002789 -1.102295
    28 3.783922 -0.017256 0.794556 0.192440 0.061256 -1.577964
    29 1.629000 0.000000 0.000000 0.000003 0.005096 -1.248867
    30 0.956001 0.000001 0.000000 0.000000 0.003254 -1.130186
    31 1.258961 -0.297981 1.252590 -1.253674 -0.300823 -0.782383
    32 1.393002 0.000000 0.000000 0.000000 0.300692 0.663312
    33 1.100000 0.000000 0.000000 0.000000 -0.003290 1.086696
    34 2.023712 0.907463 -0.852528 -2.575642 1.371900 2.025278
    35 4.983668 0.000004 -0.000002 1.343756 -0.226260 -1.023873
    36 11.123047 0.000000 0.000006 0.000000 0.000000 -1.793130
    37 11.208294 -0.000002 0.000002 -1.403422 0.250272 -0.236658
    38 3.549271 0.211411 1.487671 0.494305 -0.097767 -1.141905
    39 1.219000 -0.000001 0.000000 0.000010 -0.007094 -0.936359
    40 0.679999 0.000000 0.000002 -0.000003 -0.003649 -0.567372
    41 3.698020 0.273716 0.726624 0.166728 -0.127400 -1.076953
    42 1.748999 0.000000 0.000000 -0.000009 -0.004407 -0.757418
    43 0.960000 -0.000002 -0.000004 0.000000 -0.007271 -1.258531
    44 3.768501 0.151955 -0.072739 -0.077950 -0.287333 -0.840906
    45 2.038000 0.000000 0.000000 -0.000004 0.115787 -1.062702
    46 1.066999 0.000000 0.000000 0.000011 -0.004239 -1.185375
    47 3.783908 -0.023952 -0.794449 -0.316445 0.173356 -0.112326
    48 1.628999 0.000000 0.000000 -0.000003 -0.007732 -0.686546
    49 0.956000 0.000000 0.000000 0.000000 -0.004920 -1.090657
    50 1.258942 -0.308545 -1.250050 1.202586 0.210776 -0.999947
    51 1.393001 0.000000 0.000002 0.000000 0.200216 0.487536
    52 1.100000 0.000002 -0.000002 0.000000 0.201946 0.966012
    53 4.271699 0.000000 0.000000 0.000000 0.000000 0.000000
    54 5.604150 0.000000 -0.000005 -0.030876 0.000000 0.000000
    55 5.604151 0.000000 0.000000 0.034930 0.000000 0.000000
    56 11.208296 0.000000 -0.000005 -0.057543 0.000000 0.000000
    57 5.560005 -0.700001 -0.500006 0.000000 0.000000 0.000000
    58 2.132027 1.532021 5.000000 0.000000 0.000000 0.000000
    59 2.000008 4.938046 2.578000 0.000000 0.000000 0.000000
    60 11.123045 0.000000 0.000004 0.000000 0.000000 -0.100063
    61 2.000004 4.938040 -2.578001 0.000000 0.000000 0.000000
    62 2.132023 1.532021 -5.000000 0.000000 0.000000 0.000000
    63 1.500000 0.000000 -0.000001 0.000000 0.000000 0.000000
    64 11.208302 -0.000002 0.000002 0.065171 0.000000 0.000000
    65 11.123055 -0.000001 -0.000003 0.000000 0.000000 -0.100081
    66 4.271699 -0.000004 0.000000 0.000000 0.000000 0.000000
    67 1.500000 0.000000 -0.000002 0.000000 0.000000 0.000000
    68 5.560001 -0.700001 0.500002 0.000000 0.000000 0.000000
  time 2
    0 0.676428 -14.531893 37.113308 2.026914 0.193555 -0.328143
    1 3.984015 -0.000006 -0.000003 -3.499181 -1.104175 0.202130
    2 15.940016 0.000000 0.000000 0.000000 0.000000 1.451549
    3 17.709564 0.000000 0.000000 0.178938 0.005192 -1.320753
    4 6.204000 0.000000 0.000000 -0.010758 0.000886 -0.530281
    5 -3.984013 0.000006 0.000007 -1.834422 0.177850 -1.498620
    6 15.940014 0.000000 0.000000 0.000000 0.000000 0.089539
    7 17.709570 -0.000001 0.000000 -0.092558 0.022669 -0.680628
    8 6.204001 0.000000 0.000000 -0.038154 0.002312 -0.908906
    9 -0.621108 3.677615 -2.588322 1.649885 0.151478 1.527393
    10 3.837406 0.000001 0.000000 0.055417 0.035570 0.062232
    11 3.617867 0.000000 0.000000 0.054959 0.036277 0.209801
    12 7.539776 0.000000 0.000000 -0.013543 0.006472 0.157304
    13 3.178299 0.000000 0.000000 3.141590 0.000000 0.370447
    14 2.970274 0.000000 0.000000 0.206866 0.020195 0.656794
    15 2.023708 0.907459 0.852579 2.736554 -1.146891 1.770201
    16 4.983667 -0.000004 0.000000 -1.619334 -0.611795 -1.048829
    17 11.123055 0.000000 -0.000002 0.000000 0.000000 -1.279713
    18 11.208294 0.000000 -0.000004 1.342792 0.091422 -0.126933
    19 3.549242 0.198826 -1.489471 -0.449521 -0.213492 -1.502175
    20 1.219000 0.000000 0.000004 -0.000005 0.184250 -0.756130
    21 0.679999 0.000000 0.000000 0.000003 0.002403 -1.130222
    22 3.698008 0.267557 -0.728977 -0.159022 -0.128597 -1.500848
    23 1.749000 0.000000 -0.000004 0.000009 0.083290 -1.128379
    24 0.959999 -0.000001 0.000000 0.000012 0.004802 -1.316700
    25 3.768503 0.152550 0.071381 0.023947 -0.021726 -1.562896
    26 2.038003 0.000002 0.000000 0.000004 0.004994 -1.252366
    27 1.067003 -0.000003 0.000000 -0.000011 0.002789 -1.102295
    28 3.783922 -0.017256 0.794556 0.192440 0.061256 -1.577964
    29 1.629000 0.000000 0.000000 0.000003 0.005096 -1.248867
    30 0.956001 0.000001 0.000000 0.000000 0.003254 -1.130186
    31 1.258961 -0.297981 1.252590 -1.253674 -0.300823 -0.782383
    32 1.393002 0.000000 0.000000 0.000000 0.300692 0.663312
    33 1.100000 0.000000 0.000000 0.000000 -0.003290 1.086696
    34 2.023712 0.907463 -0.852528 -2.575642 1.371900 2.025278
    35 4.983668 0.000004 -0.000002 1.366863 -0.229106 -1.041173
    36 11.123047 0.000000 0.000006 0.000000 0.000000 -1.796710
    37 11.208294 -0.000002 0.000002 -1.409666 0.253425 -0.257853
    38 3.549271 0.211411 1.487671 0.494305 -0.097767 -1.141905
    39 1.219000 -0.000001 0.000000 0.000010 -0.007094 -0.936359
    40 0.679999 0.000000 0.000002 -0.000003 -0.003649 -0.567372
    41 3.698020 0.273716 0.726624 0.166728 -0.127400 -1.076953
    42 1.748999 0.000000 0.000000 -0.000009 -0.004407 -0.757418
    43 0.960000 -0.000002 -0.000004 -0.000012 -0.007271 -1.258531
    44 3.768501 0.151955 -0.072739 -0.077950 -0.287333 -0.840906
    45 2.038000 0.000000 0.000000 -0.000004 0.115787 -1.062702
    46 1.066999 0.000000 0.000000 0.000011 -0.004239 -1.185375
    47 3.783908 -0.023952 -0.794449 -0.316445 0.173356 -0.112326
    48 1.628999 0.000000 0.000000 -0.000003 -0.007732 -0.686546
    49 0.956000 0.000000 0.000000 0.000000 -0.004920 -1.090657
    50 1.258942 -0.308545 -1.250050 1.202586 0.210776 -0.999947
    51 1.393001 0.000000 0.000002 0.000000 0.200216 0.487536
    52 1.100000 0.000002 -0.000002 0.000000 0.201946 0.966012
    53 4.271699 0.000000 0.000000 0.000000 0.000000 0.000000
    54 5.604150 0.000000 -0.000005 -0.030876 0.000000 0.000000
    55 5.604151 0.000000 0.000000 0.034930 0.000000 0.000000
    56 11.208296 0.000000 -0.000005 -0.057543 0.000000 0.000000
    57 5.560005 -0.700001 -0.500006 0.000000 0.000000 0.000000
    58 2.132027 1.532021 5.000000 0.000000 0.000000 0.000000
    59 2.000008 4.938046 2.578000 0.000000 0.000000 0.000000
    60 11.123045 0.000000 0.000004 0.000000 0.000000 -0.100063
    61 2.000004 4.938040 -2.578001 0.000000 0.000000 0.000000
    62 2.132023 1.532021 -5.000000 0.000000 0.000000 0.000000
    63 1.500000 0.000000 -0.000001 0.000000 0.000000 0.000000
    64 11.208302 -0.000002 0.000002 0.065171 0.000000 0.000000
    65 11.123055 -0.000001 -0.000003 0.000000 0.000000 -0.100081
    66 4.271699 -0.000004 0.000000 0.000000 0.000000 0.000000
    67 1.500000 0.000000 -0.000002 0.000000 0.000000 0.000000
    68 5.560001 -0.700001 0.500002 0.000000 0.000000 0.000000
  time 3
    0 1.141286 -21.531897 37.611718 2.099442 0.079936 -0.313802
    1 3.984015 -0.000006 -0.000003 -3.502632 -1.223350 0.031527
    2 15.940016 0.000000 0.000000 0.000000 0.000000 1.031322
    3 17.709564 0.000000 0.000000 0.219511 0.033943 -1.264841
    4 6.204000 0.000000 0.000000 -0.012359 0.000263 -0.500515
    5 -3.984013 0.000006 0.000007 -1.767775 0.219700 -1.634284
    6 15.940014 0.000000 0.000000 0.000000 0.000000 0.089539
    7 17.709570 -0.000001 0.000000 -0.069630 0.040194 -0.385898
    8 6.204001 0.000000 0.000000 -0.050151 -0.004723 -0.924043
    9 -0.351568 3.619020 -2.717232 1.602939 0.188509 1.408370
    10 3.837406 0.000001 0.000000 0.045781 0.036948 0.054044
    11 3.617867 0.000000 0.000000 0.045315 0.037524 0.201618
    12 7.539776 0.000000 0.000000 -0.017953 0.009696 0.157289
    13 3.178299 0.000000 0.000000 3.141590 0.000000 0.370447
    14 2.970274 0.000000 0.000000 0.217622 0.018770 0.668444
    15 2.023708 0.907459 0.852579 2.736554 -1.146891 1.770201
    16 4.983667 -0.000004 0.000000 -1.613700 -0.614549 -1.040300
    17 11.123055 0.000000 -0.000002 0.000000 0.000000 -1.336096
    18 11.208294 0.000000 -0.000004 1.359786 0.097407 -0.097918
    19 3.549242 0.198826 -1.489471 -0.449521 -0.213492 -1.502175
    20 1.219000 0.000000 0.000004 -0.000005 0.184250 -0.756130
    21 0.679999 0.000000 0.000000 0.000003 0.002403 -1.130222
    22 3.698008 0.267557 -0.728977 -0.159022 -0.128597 -1.500848
    23 1.749000 0.000000 -0.000004 0.000009 0.083290 -1.128379
    24 0.959999 -0.000001 0.000000 0.000012 0.004802 -1.316700
    25 3.768503 0.152550 0.071381 0.023947 -0.021726 -1.562896
    26 2.038003 0.000002 0.000000 0.000004 0.004994 -1.252366
    27 1.067003 -0.000003 0.000000 -0.000011 0.002789 -1.102295
    28 3.783922 -0.017256 0.794556 0.192440 0.061256 -1.577964
    29 1.629000 0.000000 0.000000 0.000003 0.005096 -1.248867
    30 0.956001 0.000001 0.000000 0.000000 0.003254 -1.130186
    31 1.258961 -0.297981 1.252590 -1.253674 -0.300823 -0.782383
    32 1.393002 0.000000 0.000000 0.000000 0.300692 0.663312
    33 1.100000 0.000000 0.000000 0.000000 -0.003290 1.086696
    34 2.023712 0.907463 -0.852528 -2.575642 1.371900 2.025278
    35 4.983668 0.000004 -0.000002 1.369761 -0.240851 -1.047082
    36 11.123047 0.000000 0.000006 0.000000 0.000000 -1.817309
    37 11.208294 -0.000002 0.000002 -1.420414 0.266304 -0.285116
    38 3.549271 0.211411 1.487671 0.494305 -0.097767 -1.141905
    39 1.219000 -0.000001 0.000000 0.000010 -0.007094 -0.936359
    40 0.679999 0.000000 0.000002 -0.000003 -0.003649 -0.567372
    41 3.698020 0.273716 0.726624 0.166728 -0.127400 -1.076953
    42 1.748999 0.000000 0.000000 -0.000009 -0.004407 -0.757418
    43 0.960000 -0.000002 -0.000004 0.000000 -0.007271 -1.258531
    44 3.768501 0.151955 -0.072739 -0.077950 -0.287333 -0.840906
    45 2.038000 0.000000 0.000000 -0.000004 0.115787 -1.062702
    46 1.066999 0.000000 0.000000 0.000011 -0.004239 -1.185375
    47 3.783908 -0.023952 -0.794449 -0.316445 0.173356 -0.112326
    48 1.628999 0.000000 0.000000 -0.000003 -0.007732 -0.686546
    49 0.956000 0.000000 0.000000 0.000000 -0.004920 -1.090657
    50 1.258942 -0.308545 -1.250050 1.202586 0.210776 -0.999947
    51 1.393001 0.000000 0.000002 0.000000 0.200216 0.487536
    52 1.100000 0.000002 -0.000002 0.000000 0.201946 0.966012
    53 4.271699 0.000000 0.000000 0.000000 0.000000 0.000000
    54 5.604150 0.000000 -0.000005 -0.030876 0.000000 0.000000
    55 5.604151 0.000000 0.000000 0.034930 0.000000 0.000000
    56 11.208296 0.000000 -0.000005 -0.057543 0.000000 0.000000
    57 5.560005 -0.700001 -0.500006 0.000000 0.000000 0.000000
    58 2.132027 1.532021 5.000000 0.000000 0.000000 0.000000
    59 2.000008 4.938046 2.578000 0.000000 0.000000 0.000000
    60 11.123045 0.000000 0.000004 0.000000 0.000000 -0.100063
    61 2.000004 4.938040 -2.578001 0.000000 0.000000 0.000000
    62 2.132023 1.532021 -5.000000 0.000000 0.000000 0.000000
    63 1.500000 0.000000 -0.000001 0.000000 0.000000 0.000000
    64 11.208302 -0.000002 0.000002 0.065171 0.000000 0.000000
    65 11.123055 -0.000001 -0.000003 0.000000 0.000000 -0.100081
    66 4.271699 -0.000004 0.000000 0.000000 0.000000 0.000000
    67 1.500000 0.000000 -0.000002 0.000000 0.000000 0.000000
    68 5.560001 -0.700001 0.500002 0.000000 0.000000 0.000000
  time 4
    0 1.645208 -28.522052 37.581511 2.168947 0.020047 -0.258431
    1 3.984015 -0.000006 -0.000003 -2.625718 -1.318378 -0.920471
    2 15.940016 0.000000 0.000000 0.000000 0.000000 0.552843
    3 17.709564 0.000000 0.000000 0.227387 0.052343 -1.174910
    4 6.204000 0.000000 0.000000 -0.013028 -0.000097 -0.500515
    5 -3.984013 0.000006 0.000007 -1.696920 -0.033818 -1.633903
    6 15.940014 0.000000 0.000000 0.000000 0.000000 0.714479
    7 17.709570 -0.000001 0.000000 -0.022470 0.050435 -0.483971
    8 6.204001 0.000000 0.000000 -0.085374 -0.023371 -1.023523
    9 -0.179688 3.533079 -2.842236 1.549429 0.215540 1.351593
    10 3.837406 0.000001 0.000000 0.020038 0.040604 0.045279
    11 3.617867 0.000000 0.000000 0.019519 0.040855 0.192838
    12 7.539776 0.000000 0.000000 -0.029722 0.018336 0.157260
    13 3.178299 0.000000 0.000000 3.141590 0.000000 0.370447
    14 2.970274 0.000000 0.000000 0.246219 0.015052 0.672358
    15 2.023708 0.907459 0.852579 2.736554 -1.146891 1.770201
    16 4.983667 -0.000004 0.000000 -1.618926 -0.595434 -1.034069
    17 11.123055 0.000000 -0.000002 0.000000 0.000000 -1.438438
    18 11.208294 0.000000 -0.000004 1.390421 0.101397 -0.032576
    19 3.549242 0.198826 -1.489471 -0.449521 -0.213492 -1.502175
    20 1.219000 0.000000 0.000004 -0.000005 0.184250 -0.756130
    21 0.679999 0.000000 0.000000 0.000003 0.002403 -1.130222
    22 3.698008 0.267557 -0.728977 -0.159022 -0.128597 -1.500848
    23 1.749000 0.000000 -0.000004 0.000009 0.083290 -1.128379
    24 0.959999 -0.000001 0.000000 0.000012 0.004802 -1.316700
    25 3.768503 0.152550 0.071381 0.023947 -0.021726 -1.562896
    26 2.038003 0.000002 0.000000 0.000004 0.004994 -1.252366
    27 1.067003 -0.000003 0.000000 -0.000011 0.002789 -1.102295
    28 3.783922 -0.017256 0.794556 0.192440 0.061256 -1.577964
    29 1.629000 0.000000 0.000000 0.000003 0.005096 -1.248867
    30 0.956001 0.000001 0.000000 0.000000 0.003254 -1.130186
    31 1.258961 -0.297981 1.252590 -1.253674 -0.300823 -0.782383
    32 1.393002 0.000000 0.000000 0.000000 0.300692 0.663312
    33 1.100000 0.000000 0.000000 0.000000 -0.003290 1.086696
    34 2.023712 0.907463 -0.852528 -2.575642 1.371900 2.025278
    35 4.983668 0.000004 -0.000002 1.353306 -0.261031 -1.030639
    36 11.123047 0.000000 0.000006 0.000000 0.000000 -1.855737
    37 11.208294 -0.000002 0.000002 -1.422395 0.281651 -0.306268
    38 3.549271 0.211411 1.487671 0.494305 -0.097767 -1.141905
    39 1.219000 -0.000001 0.000000 0.000010 -0.007094 -0.936359
    40 0.679999 0.000000 0.000002 -0.000003 -0.003649 -0.567372
    41 3.698020 0.273716 0.726624 0.166728 -0.127400 -1.076953
    42 1.748999 0.000000 0.000000 -0.000009 -0.004407 -0.757418
    43 0.960000 -0.000002 -0.000004 -0.000012 -0.007271 -1.258531
    44 3.768501 0.151955 -0.072739 -0.077950 -0.287333 -0.840906
    45 2.038000 0.000000 0.000000 -0.000004 0.115787 -1.062702
    46 1.066999 0.000000 0.000000 0.000011 -0.004239 -1.185375
    47 3.783908 -0.023952 -0.794449 -0.316445 0.173356 -0.112326
    48 1.628999 0.000000 0.000000 -0.000003 -0.007732 -0.686546
    49 0.956000 0.000000 0.000000 0.000000 -0.004920 -1.090657
    50 1.258942 -0.308545 -1.250050 1.202586 0.210776 -0.999947
    51 1.393001 0.000000 0.000002 0.000000 0.200216 0.487536
    52 1.100000 0.000002 -0.000002 0.000000 0.201946 0.966012
    53 4.271699 0.000000 0.000000 0.000000 0.000000 0.000000
    54 5.604150 0.000000 -0.000005 -0.030876 0.000000 0.000000
    55 5.604151 0.000000 0.000000 0.034930 0.000000 0.000000
    56 11.208296 0.000000 -0.000005 -0.057543 0.000000 0.000000
    57 5.560005 -0.700001 -0.500006 0.000000 0.000000 0.000000
    58 2.132027 1.532021 5.000000 0.000000 0.000000 0.000000
    59 2.000008 4.938046 2.578000 0.000000 0.000000 0.000000
    60 11.123045 0.000000 0.000004 0.000000 0.000000 -0.100063
    61 2.000004 4.938040 -2.578001 0.000000 0.000000 0.000000
    62 2.132023 1.532021 -5.000000 0.000000 0.000000 0.000000
    63 1.500000 0.000000 -0.000001 0.000000 0.000000 0.000000
    64 11.208302 -0.000002 0.000002 0.065171 0.000000 0.000000
    65 11.123055 -0.000001 -0.000003 0.000000 0.000000 -0.100081
    66 4.271699 -0.000004 0.000000 0.000000 0.000000 0.000000
    67 1.500000 0.000000 -0.000002 0.000000 0.000000 0.000000
    68 5.560001 -0.700001 0.500002 0.000000 0.000000 0.000000
  time 5
    0 2.156942 -35.522056 36.977379 2.213673 -0.003252 -0.171529
    1 3.984015 -0.000006 -0.000003 -1.848690 -1.091736 -1.680887
    2 15.940016 0.000000 0.000000 0.000000 0.000000 0.089553
    3 17.709564 0.000000 0.000000 0.222625 0.035835 -0.966248
    4 6.204000 0.000000 0.000000 -0.006265 -0.000073 -0.505552
    5 -3.984013 0.000006 0.000007 -1.639739 -0.210692 -1.594584
    6 15.940014 0.000000 0.000000 0.000000 0.000000 1.306331
    7 17.709570 -0.000001 0.000000 0.039377 0.050324 -0.719950
    8 6.204001 0.000000 0.000000 -0.098257 -0.044488 -1.023100
    9 -0.078122 3.470577 -2.928176 1.497529 0.227428 1.342445
    10 3.837406 0.000001 0.000000 -0.017186 0.045949 0.040880
    11 3.617867 0.000000 0.000000 -0.017766 0.045721 0.188420
    12 7.539776 0.000000 0.000000 -0.046740 0.030824 0.157200
    13 3.178299 0.000000 0.000000 3.141590 0.000000 0.370447
    14 2.970274 0.000000 0.000000 0.287714 0.008807 0.677136
    15 2.023708 0.907459 0.852579 2.736554 -1.146891 1.770201
    16 4.983667 -0.000004 0.000000 -1.631254 -0.565147 -1.033222
    17 11.123055 0.000000 -0.000002 0.000000 0.000000 -1.551273
    18 11.208294 0.000000 -0.000004 1.433096 0.103132 0.048921
    19 3.549242 0.198826 -1.489471 -0.449521 -0.213492 -1.502175
    20 1.219000 0.000000 0.000004 -0.000005 0.184250 -0.756130
    21 0.679999 0.000000 0.000000 0.000003 0.002403 -1.130222
    22 3.698008 0.267557 -0.728977 -0.159022 -0.128597 -1.500848
    23 1.749000 0.000000 -0.000004 0.000009 0.083290 -1.128379
    24 0.959999 -0.000001 0.000000 0.000012 0.004802 -1.316700
    25 3.768503 0.152550 0.071381 0.023947 -0.021726 -1.562896
    26 2.038003 0.000002 0.000000 0.000004 0.004994 -1.252366
    27 1.067003 -0.000003 0.000000 -0.000011 0.002789 -1.102295
    28 3.783922 -0.017256 0.794556 0.192440 0.061256 -1.577964
    29 1.629000 0.000000 0.000000 0.000003 0.005096 -1.248867
    30 0.956001 0.000001 0.000000 0.000000 0.003254 -1.130186
    31 1.258961 -0.297981 1.252590 -1.253674 -0.300823 -0.782383
    32 1.393002 0.000000 0.000000 0.000000 0.300692 0.663312
    33 1.100000 0.000000 0.000000 0.000000 -0.003290 1.086696
    34 2.023712 0.907463 -0.852528 -2.575642 1.371900 2.025278
    35 4.983668 0.000004 -0.000002 1.320309 -0.277226 -0.996725
    36 11.123047 0.000000 0.000006 0.000000 0.000000 -1.890519
    37 11.208294 -0.000002 0.000002 -1.414650 0.299658 -0.326030
    38 3.549271 0.211411 1.487671 0.494305 -0.097767 -1.141905
    39 1.219000 -0.000001 0.000000 0.000010 -0.007094 -0.936359
    40 0.679999 0.000000 0.000002 -0.000003 -0.003649 -0.567372
    41 3.698020 0.273716 0.726624 0.166728 -0.127400 -1.076953
    42 1.748999 0.000000 0.000000 -0.000009 -0.004407 -0.757418
    43 0.960000 -0.000002 -0.000004 -0.000012 -0.007271 -1.258531
    44 3.768501 0.151955 -0.072739 -0.077950 -0.287333 -0.840906
    45 2.038000 0.000000 0.000000 -0.000004 0.115787 -1.062702
    46 1.066999 0.000000 0.000000 0.000011 -0.004239 -1.185375
    47 3.783908 -0.023952 -0.794449 -0.316445 0.173356 -0.112326
    48 1.628999 0.000000 0.000000 -0.000003 -0.007732 -0.686546
    49 0.956000 0.000000 0.000000 0.000000 -0.004920 -1.090657
    50 1.258942 -0.308545 -1.250050 1.202586 0.210776 -0.999947
    51 1.393001 0.000000 0.000002 0.000000 0.200216 0.487536
    52 1.100000 0.000002 -0.000002 0.000000 0.201946 0.966012
    53 4.271699 0.000000 0.000000 0.000000 0.000000 0.000000
    54 5.604150 0.000000 -0.000005 -0.030876 0.000000 0.000000
    55 5.604151 0.000000 0.000000 0.034930 0.000000 0.000000
    56 11.208296 0.000000 -0.000005 -0.057543 0.000000 0.000000
    57 5.560005 -0.700001 -0.500006 0.000000 0.000000 0.000000
    58 2.132027 1.532021 5.000000 0.000000 0.000000 0.000000
    59 2.000008 4.938046 2.578000 0.000000 0.000000 0.000000
    60 11.123045 0.000000 0.000004 0.000000 0.000000 -0.100063
    61 2.000004 4.938040 -2.578001 0.000000 0.000000 0.000000
    62 2.132023 1.532021 -5.000000 0.000000 0.000000 0.000000
    63 1.500000 0.000000 -0.000001 0.000000 0.000000 0.000000
    64 11.208302 -0.000002 0.000002 0.065171 0.000000 0.000000
    65 11.123055 -0.000001 -0.000003 0.000000 0.000000 -0.100081
    66 4.271699 -0.000004 0.000000 0.000000 0.000000 0.000000
    67 1.500000 0.000000 -0.000002 0.000000 0.000000 0.000000
    68 5.560001 -0.700001 0.500002 0.000000 0.000000 0.000000
  time 6
    0 2.625707 -42.522061 35.814424 2.228111 -0.039593 -0.070191
    1 3.984015 -0.000006 -0.000003 -1.637418 -1.111444 -1.829365
    2 15.940016 0.000000 0.000000 0.000000 0.000000 0.391375
    3 17.709564 0.000000 0.000000 0.222350 -0.013413 -1.021853
    4 6.204000 0.000000 0.000000 -0.011146 0.000934 -0.500515
    5 -3.984013 0.000006 0.000007 -1.554062 -0.354268 -1.573164
    6 15.940014 0.000000 0.000000 0.000000 0.000000 1.788918
    7 17.709570 -0.000001 0.000000 0.076828 0.051581 -1.025702
    8 6.204001 0.000000 0.000000 -0.105196 -0.055849 -1.022742
    9 0.050788 3.447139 -2.955521 1.438197 0.222376 1.327331
    10 3.837406 0.000001 0.000000 -0.061301 0.052433 0.043121
    11 3.617867 0.000000 0.000000 -0.061958 0.051654 0.190687
    12 7.539776 0.000000 0.000000 -0.066910 0.045625 0.157081
    13 3.178299 0.000000 0.000000 3.141590 0.000000 0.370447
    14 2.970274 0.000000 0.000000 0.336206 0.003808 0.680680
    15 2.023708 0.907459 0.852579 2.736554 -1.146891 1.770201
    16 4.983667 -0.000004 0.000000 -1.647419 -0.523899 -1.036247
    17 11.123055 0.000000 -0.000002 0.000000 0.000000 -1.633469
    18 11.208294 0.000000 -0.000004 1.469675 0.098014 0.113299
    19 3.549242 0.198826 -1.489471 -0.449521 -0.213492 -1.502175
    20 1.219000 0.000000 0.000004 -0.000005 0.184250 -0.756130
    21 0.679999 0.000000 0.000000 0.000003 0.002403 -1.130222
    22 3.698008 0.267557 -0.728977 -0.159022 -0.128597 -1.500848
    23 1.749000 0.000000 -0.000004 0.000009 0.083290 -1.128379
    24 0.959999 -0.000001 0.000000 0.000000 0.004802 -1.316700
    25 3.768503 0.152550 0.071381 0.023947 -0.021726 -1.562896
    26 2.038003 0.000002 0.000000 0.000004 0.004994 -1.252366
    27 1.067003 -0.000003 0.000000 -0.000011 0.002789 -1.102295
    28 3.783922 -0.017256 0.794556 0.192440 0.061256 -1.577964
    29 1.629000 0.000000 0.000000 0.000003 0.005096 -1.248867
    30 0.956001 0.000001 0.000000 0.000000 0.003254 -1.130186
    31 1.258961 -0.297981 1.252590 -1.253674 -0.300823 -0.782383
    32 1.393002 0.000000 0.000000 0.000000 0.300692 0.663312
    33 1.100000 0.000000 0.000000 0.000000 -0.003290 1.086696
    34 2.023712 0.907463 -0.852528 -2.575642 1.371900 2.025278
    35 4.983668 0.000004 -0.000002 1.278701 -0.277692 -0.959556
    36 11.123047 0.000000 0.000006 0.000000 0.000000 -1.899299
    37 11.208294 -0.000002 0.000002 -1.398078 0.313144 -0.340315
    38 3.549271 0.211411 1.487671 0.494305 -0.097767 -1.141905
    39 1.219000 -0.000001 0.000000 0.000010 -0.007094 -0.936359
    40 0.679999 0.000000 0.000002 -0.000003 -0.003649 -0.567372
    41 3.698020 0.273716 0.726624 0.166728 -0.127400 -1.076953
    42 1.748999 0.000000 0.000000 -0.000009 -0.004407 -0.757418
    43 0.960000 -0.000002 -0.000004 -0.000012 -0.007271 -1.258531
    44 3.768501 0.151955 -0.072739 -0.077950 -0.287333 -0.840906
    45 2.038000 0.000000 0.000000 -0.000004 0.115787 -1.062702
    46 1.066999 0.000000 0.000000 0.000011 -0.004239 -1.185375
    47 3.783908 -0.023952 -0.794449 -0.316445 0.173356 -0.112326
    48 1.628999 0.000000 0.000000 -0.000003 -0.007732 -0.686546
    49 0.956000 0.000000 0.000000 0.000000 -0.004920 -1.090657
    50 1.258942 -0.308545 -1.250050 1.202586 0.210776 -0.999947
    51 1.393001 0.000000 0.000002 0.000000 0.200216 0.487536
    52 1.100000 0.000002 -0.000002 0.000000 0.201946 0.966012
    53 4.271699 0.000000 0.000000 0.000000 0.000000 0.000000
    54 5.604150 0.000000 -0.000005 -0.030876 0.000000 0.000000
    55 5.604151 0.000000 0.000000 0.034930 0.000000 0.000000
    56 11.208296 0.000000 -0.000005 -0.057543 0.000000 0.000000
    57 5.560005 -0.700001 -0.500006 0.000000 0.000000 0.000000
    58 2.132027 1.532021 5.000000 0.000000 0.000000 0.000000
    59 2.000008 4.938046 2.578000 0.000000 0.000000 0.000000
    60 11.123045 0.000000 0.000004 0.000000 0.000000 -0.100063
    61 2.000004 4.938040 -2.578001 0.000000 0.000000 0.000000
    62 2.132023 1.532021 -5.000000 0.000000 0.000000 0.000000
    63 1.500000 0.000000 -0.000001 0.000000 0.000000 0.000000
    64 11.208302 -0.000002 0.000002 0.065171 0.000000 0.000000
    65 11.123055 -0.000001 -0.000003 0.000000 0.000000 -0.100081
    66 4.271699 -0.000004 0.000000 0.000000 0.000000 0.000000
    67 1.500000 0.000000 -0.000002 0.000000 0.000000 0.000000
    68 5.560001 -0.700001 0.500002 0.000000 0.000000 0.000000
  time 7
    0 2.965561 -49.522065 35.104568 2.195944 -0.154932 0.026209
    1 3.984015 -0.000006 -0.000003 -1.480497 -0.985781 -2.014940
    2 15.940016 0.000000 0.000000 0.000000 0.000000 0.667678
    3 17.709564 0.000000 0.000000 0.230043 0.038311 -1.351395
    4 6.204000 0.000000 0.000000 -0.011146 0.000934 -0.500515
    5 -3.984013 0.000006 0.000007 -1.320270 -0.627214 -1.795938
    6 15.940014 0.000000 0.000000 0.000000 0.000000 2.184110
    7 17.709570 -0.000001 0.000000 -0.013005 0.023704 -1.274241
    8 6.204001 0.000000 0.000000 -0.088885 -0.029135 -1.023425
    9 0.359391 3.478390 -2.893019 1.358056 0.185386 1.234608
    10 3.837406 0.000001 0.000000 -0.107694 0.059539 0.049579
    11 3.617867 0.000000 0.000000 -0.108441 0.058173 0.197199
    12 7.539776 0.000000 0.000000 -0.088135 0.061181 0.156917
    13 3.178299 0.000000 0.000000 3.141590 0.000000 0.370447
    14 2.970274 0.000000 0.000000 0.386621 0.000108 0.680279
    15 2.023708 0.907459 0.852579 2.736554 -1.146891 1.770201
    16 4.983667 -0.000004 0.000000 -1.667259 -0.471161 -1.043324
    17 11.123055 0.000000 -0.000002 0.000000 0.000000 -1.605977
    18 11.208294 0.000000 -0.000004 1.463731 0.089383 0.096421
    19 3.549242 0.198826 -1.489471 -0.449521 -0.213492 -1.502175
    20 1.219000 0.000000 0.000004 -0.000005 0.184250 -0.756130
    21 0.679999 0.000000 0.000000 0.000003 0.002403 -1.130222
    22 3.698008 0.267557 -0.728977 -0.159022 -0.128597 -1.500848
    23 1.749000 0.000000 -0.000004 0.000009 0.083290 -1.128379
    24 0.959999 -0.000001 0.000000 0.000012 0.004802 -1.316700
    25 3.768503 0.152550 0.071381 0.023947 -0.021726 -1.562896
    26 2.038003 0.000002 0.000000 0.000004 0.004994 -1.252366
    27 1.067003 -0.000003 0.000000 -0.000011 0.002789 -1.102295
    28 3.783922 -0.017256 0.794556 0.192440 0.061256 -1.577964
    29 1.629000 0.000000 0.000000 0.000003 0.005096 -1.248867
    30 0.956001 0.000001 0.000000 0.000000 0.003254 -1.130186
    31 1.258961 -0.297981 1.252590 -1.253674 -0.300823 -0.782383
    32 1.393002 0.000000 0.000000 0.000000 0.300692 0.663312
    33 1.100000 0.000000 0.000000 0.000000 -0.003290 1.086696
    34 2.023712 0.907463 -0.852528 -2.575642 1.371900 2.025278
    35 4.983668 0.000004 -0.000002 1.236496 -0.244991 -0.940801
    36 11.123047 0.000000 0.000006 0.000000 0.000000 -1.847498
    37 11.208294 -0.000002 0.000002 -1.367455 0.315918 -0.328938
    38 3.549271 0.211411 1.487671 0.494305 -0.097767 -1.141905
    39 1.219000 -0.000001 0.000000 0.000010 -0.007094 -0.936359
    40 0.679999 0.000000 0.000002 -0.000003 -0.003649 -0.567372
    41 3.698020 0.273716 0.726624 0.166728 -0.127400 -1.076953
    42 1.748999 0.000000 0.000000 -0.000009 -0.004407 -0.757418
    43 0.960000 -0.000002 -0.000004 -0.000012 -0.007271 -1.258531
    44 3.768501 0.151955 -0.072739 -0.077950 -0.287333 -0.840906
    45 2.038000 0.000000 0.000000 -0.000004 0.115787 -1.062702
    46 1.066999 0.000000 0.000000 0.000011 -0.004239 -1.185375
    47 3.783908 -0.023952 -0.794449 -0.316445 0.173356 -0.112326
    48 1.628999 0.000000 0.000000 -0.000003 -0.007732 -0.686546
    49 0.956000 0.000000 0.000000 0.000000 -0.004920 -1.090657
    50 1.258942 -0.308545 -1.250050 1.202586 0.210776 -0.999947
    51 1.393001 0.000000 0.000002 0.000000 0.200216 0.487536
    52 1.100000 0.000002 -0.000002 0.000000 0.201946 0.966012
    53 4.271699 0.000000 0.000000 0.000000 0.000000 0.000000
    54 5.604150 0.000000 -0.000005 -0.030876 0.000000 0.000000
    55 5.604151 0.000000 0.000000 0.034930 0.000000 0.000000
    56 11.208296 0.000000 -0.000005 -0.057543 0.000000 0.000000
    57 5.560005 -0.700001 -0.500006 0.000000 0.000000 0.000000
    58 2.132027 1.532021 5.000000 0.000000 0.000000 0.000000
    59 2.000008 4.938046 2.578000 0.000000 0.000000 0.000000
    60 11.123045 0.000000 0.000004 0.000000 0.000000 -0.100063
    61 2.000004 4.938040 -2.578001 0.000000 0.000000 0.000000
    62 2.132023 1.532021 -5.000000 0.000000 0.000000 0.000000
    63 1.500000 0.000000 -0.000001 0.000000 0.000000 0.000000
    64 11.208302 -0.000002 0.000002 0.065171 0.000000 0.000000
    65 11.123055 -0.000001 -0.000003 0.000000 0.000000 -0.100081
    66 4.271699 -0.000004 0.000000 0.000000 0.000000 0.000000
    67 1.500000 0.000000 -0.000002 0.000000 0.000000 0.000000
    68 5.560001 -0.700001 0.500002 0.000000 0.000000 0.000000
  time 8
    0 3.043688 -56.522070 34.953535 2.114753 -0.285250 0.123938
    1 3.984015 -0.000006 -0.000003 -1.310349 -0.594304 -2.092469
    2 15.940016 0.000000 0.000000 0.000000 0.000000 0.531881
    3 17.709564 0.000000 0.000000 0.167032 -0.010628 -1.489821
    4 6.204000 0.000000 0.000000 -0.011131 0.000934 -0.501660
    5 -3.984013 0.000006 0.000007 -0.868557 -0.968734 -2.343923
    6 15.940014 0.000000 0.000000 0.000000 0.000000 2.379388
    7 17.709570 -0.000001 0.000000 -0.061552 -0.002176 -1.284084
    8 6.204001 0.000000 0.000000 -0.080484 -0.015353 -1.023621
    9 0.695339 3.548705 -2.744577 1.289496 0.119028 1.127418
    10 3.837406 0.000001 0.000000 -0.151749 0.066790 0.057965
    11 3.617867 0.000000 0.000000 -0.152571 0.064873 0.205632
    12 7.539776 0.000000 0.000000 -0.108293 0.075934 0.156738
    13 3.178299 0.000000 0.000000 3.141590 0.000000 0.370447
    14 2.970274 0.000000 0.000000 0.434151 -0.002328 0.637778
    15 2.023708 0.907459 0.852579 2.736554 -1.146891 1.770201
    16 4.983667 -0.000004 0.000000 -1.694446 -0.427054 -1.060686
    17 11.123055 0.000000 -0.000002 0.000000 0.000000 -1.512169
    18 11.208294 0.000000 -0.000004 1.428295 0.088559 0.041688
    19 3.549242 0.198826 -1.489471 -0.449521 -0.213492 -1.502175
    20 1.219000 0.000000 0.000004 -0.000005 0.184250 -0.756130
    21 0.679999 0.000000 0.000000 0.000003 0.002403 -1.130222
    22 3.698008 0.267557 -0.728977 -0.159022 -0.128597 -1.500848
    23 1.749000 0.000000 -0.000004 0.000009 0.083290 -1.128379
    24 0.959999 -0.000001 0.000000 0.000012 0.004802 -1.316700
    25 3.768503 0.152550 0.071381 0.023947 -0.021726 -1.562896
    26 2.038003 0.000002 0.000000 0.000004 0.004994 -1.252366
    27 1.067003 -0.000003 0.000000 -0.000011 0.002789 -1.102295
    28 3.783922 -0.017256 0.794556 0.192440 0.061256 -1.577964
    29 1.629000 0.000000 0.000000 0.000003 0.005096 -1.248867
    30 0.956001 0.000001 0.000000 0.000000 0.003254 -1.130186
    31 1.258961 -0.297981 1.252590 -1.253674 -0.300823 -0.782383
    32 1.393002 0.000000 0.000000 0.000000 0.300692 0.663312
    33 1.100000 0.000000 0.000000 0.000000 -0.003290 1.086696
    34 2.023712 0.907463 -0.852528 -2.575642 1.371900 2.025278
    35 4.983668 0.000004 -0.000002 1.192159 -0.207736 -0.921189
    36 11.123047 0.000000 0.000006 0.000000 0.000000 -1.794143
    37 11.208294 -0.000002 0.000002 -1.326986 0.314816 -0.270747
    38 3.549271 0.211411 1.487671 0.494305 -0.097767 -1.141905
    39 1.219000 -0.000001 0.000000 0.000010 -0.007094 -0.936359
    40 0.679999 0.000000 0.000002 -0.000003 -0.003649 -0.567372
    41 3.698020 0.273716 0.726624 0.166728 -0.127400 -1.076953
    42 1.748999 0.000000 0.000000 -0.000009 -0.004407 -0.757418
    43 0.960000 -0.000002 -0.000004 -0.000012 -0.007271 -1.258531
    44 3.768501 0.151955 -0.072739 -0.077950 -0.287333 -0.840906
    45 2.038000 0.000000 0.000000 -0.000004 0.115787 -1.062702
    46 1.066999 0.000000 0.000000 0.000011 -0.004239 -1.185375
    47 3.783908 -0.023952 -0.794449 -0.316445 0.173356 -0.112326
    48 1.628999 0.000000 0.000000 -0.000003 -0.007732 -0.686546
    49 0.956000 0.000000 0.000000 0.000000 -0.004920 -1.090657
    50 1.258942 -0.308545 -1.250050 1.202586 0.210776 -0.999947
    51 1.393001 0.000000 0.000002 0.000000 0.200216 0.487536
    52 1.100000 0.000002 -0.000002 0.000000 0.201946 0.966012
    53 4.271699 0.000000 0.000000 0.000000 0.000000 0.000000
    54 5.604150 0.000000 -0.000005 -0.030876 0.000000 0.000000
    55 5.604151 0.000000 0.000000 0.034930 0.000000 0.000000
    56 11.208296 0.000000 -0.000005 -0.057543 0.000000 0.000000
    57 5.560005 -0.700001 -0.500006 0.000000 0.000000 0.000000
    58 2.132027 1.532021 5.000000 0.000000 0.000000 0.000000
    59 2.000008 4.938046 2.578000 0.000000 0.000000 0.000000
    60 11.123045 0.000000 0.000004 0.000000 0.000000 -0.100063
    61 2.000004 4.938040 -2.578001 0.000000 0.000000 0.000000
    62 2.132023 1.532021 -5.000000 0.000000 0.000000 0.000000
    63 1.500000 0.000000 -0.000001 0.000000 0.000000 0.000000
    64 11.208302 -0.000002 0.000002 0.065171 0.000000 0.000000
    65 11.123055 -0.000001 -0.000003 0.000000 0.000000 -0.100081
    66 4.271699 -0.000004 0.000000 0.000000 0.000000 0.000000
    67 1.500000 0.000000 -0.000002 0.000000 0.000000 0.000000
    68 5.560001 -0.700001 0.500002 0.000000 0.000000 0.000000
  time 9
    0 2.906965 -63.522074 35.316014 2.027921 -0.336133 0.222997
    1 3.984015 -0.000006 -0.000003 -1.337860 -0.106580 -1.965352
    2 15.940016 0.000000 0.000000 0.000000 0.000000 0.089553
    3 17.709564 0.000000 0.000000 0.150547 0.032086 -1.305100
    4 6.204000 0.000000 0.000000 -0.007850 0.000479 -0.655488
    5 -3.984013 0.000006 0.000007 -0.073375 -1.106512 -3.189702
    6 15.940014 0.000000 0.000000 0.000000 0.000000 2.280204
    7 17.709570 -0.000001 0.000000 -0.073057 0.022189 -1.145153
    8 6.204001 0.000000 0.000000 -0.077032 -0.009661 -1.023653
    9 0.867219 3.626832 -2.588322 1.252707 0.062892 1.094505
    10 3.837406 0.000001 0.000000 -0.188841 0.073633 0.064373
    11 3.617867 0.000000 0.000000 -0.189749 0.071260 0.212126
    12 7.539776 0.000000 0.000000 -0.125275 0.088374 0.156544
    13 3.178299 0.000000 0.000000 3.141590 0.000000 0.370447
    14 2.970274 0.000000 0.000000 0.465939 0.030429 0.565811
    15 2.023708 0.907459 0.852579 2.736554 -1.146891 1.770201
    16 4.983667 -0.000004 0.000000 -1.724164 -0.394436 -1.086214
    17 11.123055 0.000000 -0.000002 0.000000 0.000000 -1.470267
    18 11.208294 0.000000 -0.000004 1.410158 0.097190 0.019746
    19 3.549242 0.198826 -1.489471 -0.449521 -0.213492 -1.502175
    20 1.219000 0.000000 0.000004 -0.000005 0.184250 -0.756130
    21 0.679999 0.000000 0.000000 0.000003 0.002403 -1.130222
    22 3.698008 0.267557 -0.728977 -0.159022 -0.128597 -1.500848
    23 1.749000 0.000000 -0.000004 0.000009 0.083290 -1.128379
    24 0.959999 -0.000001 0.000000 0.000012 0.004802 -1.316700
    25 3.768503 0.152550 0.071381 0.023947 -0.021726 -1.562896
    26 2.038003 0.000002 0.000000 0.000004 0.004994 -1.252366
    27 1.067003 -0.000003 0.000000 -0.000011 0.002789 -1.102295
    28 3.783922 -0.017256 0.794556 0.192440 0.061256 -1.577964
    29 1.629000 0.000000 0.000000 0.000003 0.005096 -1.248867
    30 0.956001 0.000001 0.000000 0.000000 0.003254 -1.130186
    31 1.258961 -0.297981 1.252590 -1.253674 -0.300823 -0.782383
    32 1.393002 0.000000 0.000000 0.000000 0.300692 0.663312
    33 1.100000 0.000000 0.000000 0.000000 -0.003290 1.086696
    34 2.023712 0.907463 -0.852528 -2.575642 1.371900 2.025278
    35 4.983668 0.000004 -0.000002 1.148675 -0.190816 -0.885476
    36 11.123047 0.000000 0.000006 0.000000 0.000000 -1.787795
    37 11.208294 -0.000002 0.000002 -1.298885 0.322376 -0.209438
    38 3.549271 0.211411 1.487671 0.494305 -0.097767 -1.141905
    39 1.219000 -0.000001 0.000000 0.000010 -0.007094 -0.936359
    40 0.679999 0.000000 0.000002 -0.000003 -0.003649 -0.567372
    41 3.698020 0.273716 0.726624 0.166728 -0.127400 -1.076953
    42 1.748999 0.000000 0.000000 -0.000009 -0.004407 -0.757418
    43 0.960000 -0.000002 -0.000004 -0.000012 -0.007271 -1.258531
    44 3.768501 0.151955 -0.072739 -0.077950 -0.287333 -0.840906
    45 2.038000 0.000000 0.000000 -0.000004 0.115787 -1.062702
    46 1.066999 0.000000 0.000000 0.000011 -0.004239 -1.185375
    47 3.783908 -0.023952 -0.794449 -0.316445 0.173356 -0.112326
    48 1.628999 0.000000 0.000000 -0.000003 -0.007732 -0.686546
    49 0.956000 0.000000 0.000000 0.000000 -0.004920 -1.090657
    50 1.258942 -0.308545 -1.250050 1.202586 0.210776 -0.999947
    51 1.393001 0.000000 0.000002 0.000000 0.200216 0.487536
    52 1.100000 0.000002 -0.000002 0.000000 0.201946 0.966012
    53 4.271699 0.000000 0.000000 0.000000 0.000000 0.000000
    54 5.604150 0.000000 -0.000005 -0.030876 0.000000 0.000000
    55 5.604151 0.000000 0.000000 0.034930 0.000000 0.000000
    56 11.208296 0.000000 -0.000005 -0.057543 0.000000 0.000000
    57 5.560005 -0.700001 -0.500006 0.000000 0.000000 0.000000
    58 2.132027 1.532021 5.000000 0.000000 0.000000 0.000000
    59 2.000008 4.938046 2.578000 0.000000 0.000000 0.000000
    60 11.123045 0.000000 0.000004 0.000000 0.000000 -0.100063
    61 2.000004 4.938040 -2.578001 0.000000 0.000000 0.000000
    62 2.132023 1.532021 -5.000000 0.000000 0.000000 0.000000
    63 1.500000 0.000000 -0.000001 0.000000 0.000000 0.000000
    64 11.208302 -0.000002 0.000002 0.065171 0.000000 0.000000
    65 11.123055 -0.000001 -0.000003 0.000000 0.000000 -0.100081
    66 4.271699 -0.000004 0.000000 0.000000 0.000000 0.000000
    67 1.500000 0.000000 -0.000002 0.000000 0.000000 0.000000
    68 5.560001 -0.700001 0.500002 0.000000 0.000000 0.000000
  time 10
    0 2.617894 -70.522079 36.071180 1.994612 -0.286939 0.298598
    1 3.984015 -0.000006 -0.000003 -1.291944 0.052011 -1.819257
    2 15.940016 0.000000 0.000000 0.000000 0.000000 0.126616
    3 17.709564 0.000000 0.000000 0.110066 -0.005400 -0.986198
    4 6.204000 0.000000 0.000000 0.006235 -0.002362 -0.993100
    5 -3.984013 0.000006 0.000007 0.288453 -1.067223 -3.445226
    6 15.940014 0.000000 0.000000 0.000000 0.000000 1.900053
    7 17.709570 -0.000001 0.000000 -0.121768 0.033983 -1.197393
    8 6.204001 0.000000 0.000000 -0.075307 -0.006832 -1.023686
    9 0.804717 3.681521 -2.533633 1.237596 0.049455 1.154315
    10 3.837406 0.000001 0.000000 -0.214380 0.079506 0.066531
    11 3.617867 0.000000 0.000000 -0.215344 0.076809 0.214354
    12 7.539776 0.000000 0.000000 -0.136972 0.096919 0.156395
    13 3.178299 0.000000 0.000000 3.141590 0.000000 0.370447
    14 2.970274 0.000000 0.000000 0.486053 0.061362 0.559709
    15 2.023708 0.907459 0.852579 2.736554 -1.146891 1.770201
    16 4.983667 -0.000004 0.000000 -1.746045 -0.369709 -1.105753
    17 11.123055 0.000000 -0.000002 0.000000 0.000000 -1.490134
    18 11.208294 0.000000 -0.000004 1.417931 0.103349 0.019345
    19 3.549242 0.198826 -1.489471 -0.449521 -0.213492 -1.502175
    20 1.219000 0.000000 0.000004 -0.000005 0.184250 -0.756130
    21 0.679999 0.000000 0.000000 0.000003 0.002403 -1.130222
    22 3.698008 0.267557 -0.728977 -0.159022 -0.128597 -1.500848
    23 1.749000 0.000000 -0.000004 0.000009 0.083290 -1.128379
    24 0.959999 -0.000001 0.000000 0.000012 0.004802 -1.316700
    25 3.768503 0.152550 0.071381 0.023947 -0.021726 -1.562896
    26 2.038003 0.000002 0.000000 0.000004 0.004994 -1.252366
    27 1.067003 -0.000003 0.000000 -0.000011 0.002789 -1.102295
    28 3.783922 -0.017256 0.794556 0.192440 0.061256 -1.577964
    29 1.629000 0.000000 0.000000 0.000003 0.005096 -1.248867
    30 0.956001 0.000001 0.000000 0.000000 0.003254 -1.130186
    31 1.258961 -0.297981 1.252590 -1.253674 -0.300823 -0.782383
    32 1.393002 0.000000 0.000000 0.000000 0.300692 0.663312
    33 1.100000 0.000000 0.000000 0.000000 -0.003290 1.086696
    34 2.023712 0.907463 -0.852528 -2.575642 1.371900 2.025278
    35 4.983668 0.000004 -0.000002 1.117725 -0.178501 -0.854303
    36 11.123047 0.000000 0.000006 0.000000 0.000000 -1.788605
    37 11.208294 -0.000002 0.000002 -1.296363 0.338293 -0.199536
    38 3.549271 0.211411 1.487671 0.494305 -0.097767 -1.141905
    39 1.219000 -0.000001 0.000000 0.000010 -0.007094 -0.936359
    40 0.679999 0.000000 0.000002 -0.000003 -0.003649 -0.567372
    41 3.698020 0.273716 0.726624 0.166728 -0.127400 -1.076953
    42 1.748999 0.000000 0.000000 -0.000009 -0.004407 -0.757418
    43 0.960000 -0.000002 -0.000004 0.000000 -0.007271 -1.258531
    44 3.768501 0.151955 -0.072739 -0.077950 -0.287333 -0.840906
    45 2.038000 0.000000 0.000000 -0.000004 0.115787 -1.062702
    46 1.066999 0.000000 0.000000 0.000011 -0.004239 -1.185375
    47 3.783908 -0.023952 -0.794449 -0.316445 0.173356 -0.112326
    48 1.628999 0.000000 0.000000 -0.000003 -0.007732 -0.686546
    49 0.956000 0.000000 0.000000 0.000000 -0.004920 -1.090657
    50 1.258942 -0.308545 -1.250050 1.202586 0.210776 -0.999947
    51 1.393001 0.000000 0.000002 0.000000 0.200216 0.487536
    52 1.100000 0.000002 -0.000002 0.000000 0.201946 0.966012
    53 4.271699 0.000000 0.000000 0.000000 0.000000 0.000000
    54 5.604150 0.000000 -0.000005 -0.030876 0.000000 0.000000
    55 5.604151 0.000000 0.000000 0.034930 0.000000 0.000000
    56 11.208296 0.000000 -0.000005 -0.057543 0.000000 0.000000
    57 5.560005 -0.700001 -0.500006 0.000000 0.000000 0.000000
    58 2.132027 1.532021 5.000000 0.000000 0.000000 0.000000
    59 2.000008 4.938046 2.578000 0.000000 0.000000 0.000000
    60 11.123045 0.000000 0.000004 0.000000 0.000000 -0.100063
    61 2.000004 4.938040 -2.578001 0.000000 0.000000 0.000000
    62 2.132023 1.532021 -5.000000 0.000000 0.000000 0.000000
    63 1.500000 0.000000 -0.000001 0.000000 0.000000 0.000000
    64 11.208302 -0.000002 0.000002 0.065171 0.000000 0.000000
    65 11.123055 -0.000001 -0.000003 0.000000 0.000000 -0.100081
    66 4.271699 -0.000004 0.000000 0.000000 0.000000 0.000000
    67 1.500000 0.000000 -0.000002 0.000000 0.000000 0.000000
    68 5.560001 -0.700001 0.500002 0.000000 0.000000 0.000000
  time 11
    0 2.223351 -77.522083 37.022689 2.033630 -0.188645 0.330224
    1 3.984015 -0.000006 -0.000003 -1.309390 0.171674 -1.637593
    2 15.940016 0.000000 0.000000 0.000000 0.000000 0.089553
    3 17.709564 0.000000 0.000000 0.098892 -0.019466 -0.688321
    4 6.204000 0.000000 0.000000 -0.000683 -0.006484 -0.919029
    5 -3.984013 0.000006 0.000007 0.415055 -1.098103 -3.388390
    6 15.940014 0.000000 0.000000 0.000000 0.000000 1.421287
    7 17.709570 -0.000001 0.000000 -0.179045 -0.004394 -1.275625
    8 6.204001 0.000000 0.000000 -0.078399 -0.006221 -0.529217
    9 0.609399 3.669802 -2.600041 1.240197 0.080108 1.259119
    10 3.837406 0.000001 0.000000 -0.223764 0.083676 0.062479
    11 3.617867 0.000000 0.000000 -0.224773 0.080872 0.210320
    12 7.539776 0.000000 0.000000 -0.141262 0.100059 0.156335
    13 3.178299 0.000000 0.000000 3.141590 0.000000 0.370447
    14 2.970274 0.000000 0.000000 0.498209 0.052032 0.579002
    15 2.023708 0.907459 0.852579 2.736554 -1.146891 1.770201
    16 4.983667 -0.000004 0.000000 -1.752494 -0.357636 -1.111742
    17 11.123055 0.000000 -0.000002 0.000000 0.000000 -1.531826
    18 11.208294 0.000000 -0.000004 1.429515 0.101700 0.022640
    19 3.549242 0.198826 -1.489471 -0.449521 -0.213492 -1.502175
    20 1.219000 0.000000 0.000004 -0.000005 0.184250 -0.756130
    21 0.679999 0.000000 0.000000 0.000003 0.002403 -1.130222
    22 3.698008 0.267557 -0.728977 -0.159022 -0.128597 -1.500848
    23 1.749000 0.000000 -0.000004 0.000009 0.083290 -1.128379
    24 0.959999 -0.000001 0.000000 0.000000 0.004802 -1.316700
    25 3.768503 0.152550 0.071381 0.023947 -0.021726 -1.562896
    26 2.038003 0.000002 0.000000 0.000004 0.004994 -1.252366
    27 1.067003 -0.000003 0.000000 -0.000011 0.002789 -1.102295
    28 3.783922 -0.017256 0.794556 0.192440 0.061256 -1.577964
    29 1.629000 0.000000 0.000000 0.000003 0.005096 -1.248867
    30 0.956001 0.000001 0.000000 0.000000 0.003254 -1.130186
    31 1.258961 -0.297981 1.252590 -1.253674 -0.300823 -0.782383
    32 1.393002 0.000000 0.000000 0.000000 0.300692 0.663312
    33 1.100000 0.000000 0.000000 0.000000 -0.003290 1.086696
    34 2.023712 0.907463 -0.852528 -2.575642 1.371900 2.025278
    35 4.983668 0.000004 -0.000002 1.106982 -0.173172 -0.838716
    36 11.123047 0.000000 0.000006 0.000000 0.000000 -1.790226
    37 11.208294 -0.000002 0.000002 -1.314857 0.352881 -0.222964
    38 3.549271 0.211411 1.487671 0.494305 -0.097767 -1.141905
    39 1.219000 -0.000001 0.000000 0.000010 -0.007094 -0.936359
    40 0.679999 0.000000 0.000002 -0.000003 -0.003649 -0.567372
    41 3.698020 0.273716 0.726624 0.166728 -0.127400 -1.076953
    42 1.748999 0.000000 0.000000 -0.000009 -0.004407 -0.757418
    43 0.960000 -0.000002 -0.000004 -0.000012 -0.007271 -1.258531
    44 3.768501 0.151955 -0.072739 -0.077950 -0.287333 -0.840906
    45 2.038000 0.000000 0.000000 -0.000004 0.115787 -1.062702
    46 1.066999 0.000000 0.000000 0.000011 -0.004239 -1.185375
    47 3.783908 -0.023952 -0.794449 -0.316445 0.173356 -0.112326
    48 1.628999 0.000000 0.000000 -0.000003 -0.007732 -0.686546
    49 0.956000 0.000000 0.000000 0.000000 -0.004920 -1.090657
    50 1.258942 -0.308545 -1.250050 1.202586 0.210776 -0.999947
    51 1.393001 0.000000 0.000002 0.000000 0.200216 0.487536
    52 1.100000 0.000002 -0.000002 0.000000 0.201946 0.966012
    53 4.271699 0.000000 0.000000 0.000000 0.000000 0.000000
    54 5.604150 0.000000 -0.000005 -0.030876 0.000000 0.000000
    55 5.604151 0.000000 0.000000 0.034930 0.000000 0.000000
    56 11.208296 0.000000 -0.000005 -0.057543 0.000000 0.000000
    57 5.560005 -0.700001 -0.500006 0.000000 0.000000 0.000000
    58 2.132027 1.532021 5.000000 0.000000 0.000000 0.000000
    59 2.000008 4.938046 2.578000 0.000000 0.000000 0.000000
    60 11.123045 0.000000 0.000004 0.000000 0.000000 -0.100063
    61 2.000004 4.938040 -2.578001 0.000000 0.000000 0.000000
    62 2.132023 1.532021 -5.000000 0.000000 0.000000 0.000000
    63 1.500000 0.000000 -0.000001 0.000000 0.000000 0.000000
    64 11.208302 -0.000002 0.000002 0.065171 0.000000 0.000000
    65 11.123055 -0.000001 -0.000003 0.000000 0.000000 -0.100081
    66 4.271699 -0.000004 0.000000 0.000000 0.000000 0.000000
    67 1.500000 0.000000 -0.000002 0.000000 0.000000 0.000000
    68 5.560001 -0.700001 0.500002 0.000000 0.000000 0.000000
  time 12
    0 1.762399 -84.522088 37.581511 2.103941 -0.087192 0.313034
    1 3.984015 -0.000006 -0.000003 -1.360578 0.195235 -1.517723
    2 15.940016 0.000000 0.000000 0.000000 0.000000 0.126616
    3 17.709564 0.000000 0.000000 0.066471 -0.039654 -0.401596
    4 6.204000 0.000000 0.000000 -0.001678 -0.001283 -0.929371
    5 -3.984013 0.000006 0.000007 0.387517 -1.222253 -3.196081
    6 15.940014 0.000000 0.000000 0.000000 0.000000 0.989756
    7 17.709570 -0.000001 0.000000 -0.216415 -0.041772 -1.247993
    8 6.204001 0.000000 0.000000 -0.078926 -0.006329 -0.498943
    9 0.367204 3.611207 -2.725045 1.268748 0.128817 1.360492
    10 3.837406 0.000001 0.000000 -0.213985 0.085306 0.053665
    11 3.617867 0.000000 0.000000 -0.215021 0.082610 0.201483
    12 7.539776 0.000000 0.000000 -0.136780 0.096788 0.156395
    13 3.178299 0.000000 0.000000 3.141590 0.000000 0.370447
    14 2.970274 0.000000 0.000000 0.492044 0.033461 0.606310
    15 2.023708 0.907459 0.852579 2.736554 -1.146891 1.770201
    16 4.983667 -0.000004 0.000000 -1.745065 -0.362084 -1.109806
    17 11.123055 0.000000 -0.000002 0.000000 0.000000 -1.584361
    18 11.208294 0.000000 -0.000004 1.447423 0.098751 0.043456
    19 3.549242 0.198826 -1.489471 -0.449521 -0.213492 -1.502175
    20 1.219000 0.000000 0.000004 -0.000005 0.184250 -0.756130
    21 0.679999 0.000000 0.000000 0.000003 0.002403 -1.130222
    22 3.698008 0.267557 -0.728977 -0.159022 -0.128597 -1.500848
    23 1.749000 0.000000 -0.000004 0.000009 0.083290 -1.128379
    24 0.959999 -0.000001 0.000000 0.000000 0.004802 -1.316700
    25 3.768503 0.152550 0.071381 0.023947 -0.021726 -1.562896
    26 2.038003 0.000002 0.000000 0.000004 0.004994 -1.252366
    27 1.067003 -0.000003 0.000000 -0.000011 0.002789 -1.102295
    28 3.783922 -0.017256 0.794556 0.192440 0.061256 -1.577964
    29 1.629000 0.000000 0.000000 0.000003 0.005096 -1.248867
    30 0.956001 0.000001 0.000000 0.000000 0.003254 -1.130186
    31 1.258961 -0.297981 1.252590 -1.253674 -0.300823 -0.782383
    32 1.393002 0.000000 0.000000 0.000000 0.300692 0.663312
    33 1.100000 0.000000 0.000000 0.000000 -0.003290 1.086696
    34 2.023712 0.907463 -0.852528 -2.575642 1.371900 2.025278
    35 4.983668 0.000004 -0.000002 1.114741 -0.183210 -0.833320
    36 11.123047 0.000000 0.000006 0.000000 0.000000 -1.807786
    37 11.208294 -0.000002 0.000002 -1.334911 0.360061 -0.252628
    38 3.549271 0.211411 1.487671 0.494305 -0.097767 -1.141905
    39 1.219000 -0.000001 0.000000 0.000010 -0.007094 -0.936359
    40 0.679999 0.000000 0.000002 -0.000003 -0.003649 -0.567372
    41 3.698020 0.273716 0.726624 0.166728 -0.127400 -1.076953
    42 1.748999 0.000000 0.000000 -0.000009 -0.004407 -0.757418
    43 0.960000 -0.000002 -0.000004 -0.000012 -0.007271 -1.258531
    44 3.768501 0.151955 -0.072739 -0.077950 -0.287333 -0.840906
    45 2.038000 0.000000 0.000000 -0.000004 0.115787 -1.062702
    46 1.066999 0.000000 0.000000 0.000011 -0.004239 -1.185375
    47 3.783908 -0.023952 -0.794449 -0.316445 0.173356 -0.112326
    48 1.628999 0.000000 0.000000 -0.000003 -0.007732 -0.686546
    49 0.956000 0.000000 0.000000 0.000000 -0.004920 -1.090657
    50 1.258942 -0.308545 -1.250050 1.202586 0.210776 -0.999947
    51 1.393001 0.000000 0.000002 0.000000 0.200216 0.487536
    52 1.100000 0.000002 -0.000002 0.000000 0.201946 0.966012
    53 4.271699 0.000000 0.000000 0.000000 0.000000 0.000000
    54 5.604150 0.000000 -0.000005 -0.030876 0.000000 0.000000
    55 5.604151 0.000000 0.000000 0.034930 0.000000 0.000000
    56 11.208296 0.000000 -0.000005 -0.057543 0.000000 0.000000
    57 5.560005 -0.700001 -0.500006 0.000000 0.000000 0.000000
    58 2.132027 1.532021 5.000000 0.000000 0.000000 0.000000
    59 2.000008 4.938046 2.578000 0.000000 0.000000 0.000000
    60 11.123045 0.000000 0.000004 0.000000 0.000000 -0.100063
    61 2.000004 4.938040 -2.578001 0.000000 0.000000 0.000000
    62 2.132023 1.532021 -5.000000 0.000000 0.000000 0.000000
    63 1.500000 0.000000 -0.000001 0.000000 0.000000 0.000000
    64 11.208302 -0.000002 0.000002 0.065171 0.000000 0.000000
    65 11.123055 -0.000001 -0.000003 0.000000 0.000000 -0.100081
    66 4.271699 -0.000004 0.000000 0.000000 0.000000 0.000000
    67 1.500000 0.000000 -0.000002 0.000000 0.000000 0.000000
    68 5.560001 -0.700001 0.500002 0.000000 0.000000 0.000000
  time 13
    0 1.258477 -91.531942 37.611718 2.166731 -0.023581 0.254149
    1 3.984015 -0.000006 -0.000003 -1.408603 -0.030382 -1.526496
    2 15.940016 0.000000 0.000000 0.000000 0.000000 0.711956
    3 17.709564 0.000000 0.000000 -0.000295 -0.049902 -0.476180
    4 6.204000 0.000000 0.000000 -0.001010 0.010522 -1.024087
    5 -3.984013 0.000006 0.000007 -0.540005 -1.319920 -2.195978
    6 15.940014 0.000000 0.000000 0.000000 0.000000 0.517412
    7 17.709570 -0.000001 0.000000 -0.221065 -0.057190 -1.155149
    8 6.204001 0.000000 0.000000 -0.079106 -0.006437 -0.498943
    9 0.183604 3.536986 -2.838330 1.311482 0.170243 1.414883
    10 3.837406 0.000001 0.000000 -0.188146 0.083497 0.044900
    11 3.617867 0.000000 0.000000 -0.189164 0.081124 0.192646
    12 7.539776 0.000000 0.000000 -0.124951 0.088135 0.156544
    13 3.178299 0.000000 0.000000 3.141590 0.000000 0.370447
    14 2.970274 0.000000 0.000000 0.468213 0.017416 0.631213
    15 2.023708 0.907459 0.852579 2.736554 -1.146891 1.770201
    16 4.983667 -0.000004 0.000000 -1.727267 -0.384111 -1.101035
    17 11.123055 0.000000 -0.000002 0.000000 0.000000 -1.632909
    18 11.208294 0.000000 -0.000004 1.466856 0.096973 0.078498
    19 3.549242 0.198826 -1.489471 -0.449521 -0.213492 -1.502175
    20 1.219000 0.000000 0.000004 -0.000005 0.184250 -0.756130
    21 0.679999 0.000000 0.000000 0.000003 0.002403 -1.130222
    22 3.698008 0.267557 -0.728977 -0.159022 -0.128597 -1.500848
    23 1.749000 0.000000 -0.000004 0.000009 0.083290 -1.128379
    24 0.959999 -0.000001 0.000000 0.000000 0.004802 -1.316700
    25 3.768503 0.152550 0.071381 0.023947 -0.021726 -1.562896
    26 2.038003 0.000002 0.000000 0.000004 0.004994 -1.252366
    27 1.067003 -0.000003 0.000000 -0.000011 0.002789 -1.102295
    28 3.783922 -0.017256 0.794556 0.192440 0.061256 -1.577964
    29 1.629000 0.000000 0.000000 0.000003 0.005096 -1.248867
    30 0.956001 0.000001 0.000000 0.000000 0.003254 -1.130186
    31 1.258961 -0.297981 1.252590 -1.253674 -0.300823 -0.782383
    32 1.393002 0.000000 0.000000 0.000000 0.300692 0.663312
    33 1.100000 0.000000 0.000000 0.000000 -0.003290 1.086696
    34 2.023712 0.907463 -0.852528 -2.575642 1.371900 2.025278
    35 4.983668 0.000004 -0.000002 1.138870 -0.207788 -0.840001
    36 11.123047 0.000000 0.000006 0.000000 0.000000 -1.839663
    37 11.208294 -0.000002 0.000002 -1.350463 0.357212 -0.277025
    38 3.549271 0.211411 1.487671 0.494305 -0.097767 -1.141905
    39 1.219000 -0.000001 0.000000 0.000010 -0.007094 -0.936359
    40 0.679999 0.000000 0.000002 -0.000003 -0.003649 -0.567372
    41 3.698020 0.273716 0.726624 0.166728 -0.127400 -1.076953
    42 1.748999 0.000000 0.000000 -0.000009 -0.004407 -0.757418
    43 0.960000 -0.000002 -0.000004 0.000000 -0.007271 -1.258531
    44 3.768501 0.151955 -0.072739 -0.077950 -0.287333 -0.840906
    45 2.038000 0.000000 0.000000 -0.000004 0.115787 -1.062702
    46 1.066999 0.000000 0.000000 0.000011 -0.004239 -1.185375
    47 3.783908 -0.023952 -0.794449 -0.316445 0.173356 -0.112326
    48 1.628999 0.000000 0.000000 -0.000003 -0.007732 -0.686546
    49 0.956000 0.000000 0.000000 0.000000 -0.004920 -1.090657
    50 1.258942 -0.308545 -1.250050 1.202586 0.210776 -0.999947
    51 1.393001 0.000000 0.000002 0.000000 0.200216 0.487536
    52 1.100000 0.000002 -0.000002 0.000000 0.201946 0.966012
    53 4.271699 0.000000 0.000000 0.000000 0.000000 0.000000
    54 5.604150 0.000000 -0.000005 -0.030876 0.000000 0.000000
    55 5.604151 0.000000 0.000000 0.034930 0.000000 0.000000
    56 11.208296 0.000000 -0.000005 -0.057543 0.000000 0.000000
    57 5.560005 -0.700001 -0.500006 0.000000 0.000000 0.000000
    58 2.132027 1.532021 5.000000 0.000000 0.000000 0.000000
    59 2.000008 4.938046 2.578000 0.000000 0.000000 0.000000
    60 11.123045 0.000000 0.000004 0.000000 0.000000 -0.100063
    61 2.000004 4.938040 -2.578001 0.000000 0.000000 0.000000
    62 2.132023 1.532021 -5.000000 0.000000 0.000000 0.000000
    63 1.500000 0.000000 -0.000001 0.000000 0.000000 0.000000
    64 11.208302 -0.000002 0.000002 0.065171 0.000000 0.000000
    65 11.123055 -0.000001 -0.000003 0.000000 0.000000 -0.100081
    66 4.271699 -0.000004 0.000000 0.000000 0.000000 0.000000
    67 1.500000 0.000000 -0.000002 0.000000 0.000000 0.000000
    68 5.560001 -0.700001 0.500002 0.000000 0.000000 0.000000
  time 14
    0 0.754556 -98.531947 37.052895 2.208434 0.008569 0.164303
    1 3.984015 -0.000006 -0.000003 -1.466023 -0.204778 -1.575703
    2 15.940016 0.000000 0.000000 0.000000 0.000000 1.303904
    3 17.709564 0.000000 0.000000 -0.055796 -0.048286 -0.711085
    4 6.204000 0.000000 0.000000 0.004105 0.018923 -1.024011
    5 -3.984013 0.000006 0.000007 -1.304588 -1.112746 -1.450924
    6 15.940014 0.000000 0.000000 0.000000 0.000000 0.126611
    7 17.709570 -0.000001 0.000000 -0.214212 -0.033158 -0.961619
    8 6.204001 0.000000 0.000000 -0.080975 -0.005825 -0.504412
    9 0.062507 3.478390 -2.916457 1.359914 0.199203 1.428754
    10 3.837406 0.000001 0.000000 -0.150850 0.078415 0.040930
    11 3.617867 0.000000 0.000000 -0.151818 0.076510 0.188593
    12 7.539776 0.000000 0.000000 -0.107873 0.075635 0.156738
    13 3.178299 0.000000 0.000000 3.141590 0.000000 0.370447
    14 2.970274 0.000000 0.000000 0.429429 0.013482 0.651400
    15 2.023708 0.907459 0.852579 2.736554 -1.146891 1.770201
    16 4.983667 -0.000004 0.000000 -1.703835 -0.419694 -1.085730
    17 11.123055 0.000000 -0.000002 0.000000 0.000000 -1.662290
    18 11.208294 0.000000 -0.000004 1.476000 0.096149 0.099475
    19 3.549242 0.198826 -1.489471 -0.449521 -0.213492 -1.502175
    20 1.219000 0.000000 0.000004 -0.000005 0.184250 -0.756130
    21 0.679999 0.000000 0.000000 0.000003 0.002403 -1.130222
    22 3.698008 0.267557 -0.728977 -0.159022 -0.128597 -1.500848
    23 1.749000 0.000000 -0.000004 0.000009 0.083290 -1.128379
    24 0.959999 -0.000001 0.000000 0.000012 0.004802 -1.316700
    25 3.768503 0.152550 0.071381 0.023947 -0.021726 -1.562896
    26 2.038003 0.000002 0.000000 0.000004 0.004994 -1.252366
    27 1.067003 -0.000003 0.000000 -0.000011 0.002789 -1.102295
    28 3.783922 -0.017256 0.794556 0.192440 0.061256 -1.577964
    29 1.629000 0.000000 0.000000 0.000003 0.005096 -1.248867
    30 0.956001 0.000001 0.000000 0.000000 0.003254 -1.130186
    31 1.258961 -0.297981 1.252590 -1.253674 -0.300823 -0.782383
    32 1.393002 0.000000 0.000000 0.000000 0.300692 0.663312
    33 1.100000 0.000000 0.000000 0.000000 -0.003290 1.086696
    34 2.023712 0.907463 -0.852528 -2.575642 1.371900 2.025278
    35 4.983668 0.000004 -0.000002 1.174851 -0.235522 -0.862610
    36 11.123047 0.000000 0.000006 0.000000 0.000000 -1.869245
    37 11.208294 -0.000002 0.000002 -1.375501 0.349956 -0.302771
    38 3.549271 0.211411 1.487671 0.494305 -0.097767 -1.141905
    39 1.219000 -0.000001 0.000000 0.000010 -0.007094 -0.936359
    40 0.679999 0.000000 0.000002 -0.000003 -0.003649 -0.567372
    41 3.698020 0.273716 0.726624 0.166728 -0.127400 -1.076953
    42 1.748999 0.000000 0.000000 -0.000009 -0.004407 -0.757418
    43 0.960000 -0.000002 -0.000004 -0.000012 -0.007271 -1.258531
    44 3.768501 0.151955 -0.072739 -0.077950 -0.287333 -0.840906
    45 2.038000 0.000000 0.000000 -0.000004 0.115787 -1.062702
    46 1.066999 0.000000 0.000000 0.000011 -0.004239 -1.185375
    47 3.783908 -0.023952 -0.794449 -0.316445 0.173356 -0.112326
    48 1.628999 0.000000 0.000000 -0.000003 -0.007732 -0.686546
    49 0.956000 0.000000 0.000000 0.000000 -0.004920 -1.090657
    50 1.258942 -0.308545 -1.250050 1.202586 0.210776 -0.999947
    51 1.393001 0.000000 0.000002 0.000000 0.200216 0.487536
    52 1.100000 0.000002 -0.000002 0.000000 0.201946 0.966012
    53 4.271699 0.000000 0.000000 0.000000 0.000000 0.000000
    54 5.604150 0.000000 -0.000005 -0.030876 0.000000 0.000000
    55 5.604151 0.000000 0.000000 0.034930 0.000000 0.000000
    56 11.208296 0.000000 -0.000005 -0.057543 0.000000 0.000000
    57 5.560005 -0.700001 -0.500006 0.000000 0.000000 0.000000
    58 2.132027 1.532021 5.000000 0.000000 0.000000 0.000000
    59 2.000008 4.938046 2.578000 0.000000 0.000000 0.000000
    60 11.123045 0.000000 0.000004 0.000000 0.000000 -0.100063
    61 2.000004 4.938040 -2.578001 0.000000 0.000000 0.000000
    62 2.132023 1.532021 -5.000000 0.000000 0.000000 0.000000
    63 1.500000 0.000000 -0.000001 0.000000 0.000000 0.000000
    64 11.208302 -0.000002 0.000002 0.065171 0.000000 0.000000
    65 11.123055 -0.000001 -0.000003 0.000000 0.000000 -0.100081
    66 4.271699 -0.000004 0.000000 0.000000 0.000000 0.000000
    67 1.500000 0.000000 -0.000002 0.000000 0.000000 0.000000
    68 5.560001 -0.700001 0.500002 0.000000 0.000000 0.000000
  time 15
    0 0.305323 -105.531951 35.889940 2.223410 0.047130 0.060020
    1 3.984015 -0.000006 -0.000003 -1.569646 -0.352442 -1.591819
    2 15.940016 0.000000 0.000000 0.000000 0.000000 1.785953
    3 17.709564 0.000000 0.000000 -0.069992 -0.049902 -1.017147
    4 6.204000 0.000000 0.000000 0.006795 0.023345 -1.023973
    5 -3.984013 0.000006 0.000007 -1.535416 -1.084282 -1.283939
    6 15.940014 0.000000 0.000000 0.000000 0.000000 0.354978
    7 17.709570 -0.000001 0.000000 -0.213151 0.012946 -1.008733
    8 6.204001 0.000000 0.000000 -0.078650 -0.006185 -0.498943
    9 -0.074216 3.451046 -2.947708 1.418936 0.216170 1.444166
    10 3.837406 0.000001 0.000000 -0.106711 0.070757 0.043945
    11 3.617867 0.000000 0.000000 -0.107595 0.069415 0.191551
    12 7.539776 0.000000 0.000000 -0.087679 0.060834 0.156932
    13 3.178299 0.000000 0.000000 3.141590 0.000000 0.370447
    14 2.970274 0.000000 0.000000 0.381112 0.018517 0.667520
    15 2.023708 0.907459 0.852579 2.736554 -1.146891 1.770201
    16 4.983667 -0.000004 0.000000 -1.680485 -0.462106 -1.069094
    17 11.123055 0.000000 -0.000002 0.000000 0.000000 -1.662220
    18 11.208294 0.000000 -0.000004 1.473638 0.097450 0.098752
    19 3.549242 0.198826 -1.489471 -0.449521 -0.213492 -1.502175
    20 1.219000 0.000000 0.000004 -0.000005 0.184250 -0.756130
    21 0.679999 0.000000 0.000000 0.000003 0.002403 -1.130222
    22 3.698008 0.267557 -0.728977 -0.159022 -0.128597 -1.500848
    23 1.749000 0.000000 -0.000004 0.000009 0.083290 -1.128379
    24 0.959999 -0.000001 0.000000 0.000000 0.004802 -1.316700
    25 3.768503 0.152550 0.071381 0.023947 -0.021726 -1.562896
    26 2.038003 0.000002 0.000000 0.000004 0.004994 -1.252366
    27 1.067003 -0.000003 0.000000 -0.000011 0.002789 -1.102295
    28 3.783922 -0.017256 0.794556 0.192440 0.061256 -1.577964
    29 1.629000 0.000000 0.000000 0.000003 0.005096 -1.248867
    30 0.956001 0.000001 0.000000 0.000000 0.003254 -1.130186
    31 1.258961 -0.297981 1.252590 -1.253674 -0.300823 -0.782383
    32 1.393002 0.000000 0.000000 0.000000 0.300692 0.663312
    33 1.100000 0.000000 0.000000 0.000000 -0.003290 1.086696
    34 2.023712 0.907463 -0.852528 -2.575642 1.371900 2.025278
    35 4.983668 0.000004 -0.000002 1.215521 -0.255701 -0.895925
    36 11.123047 0.000000 0.000006 0.000000 0.000000 -1.885589
    37 11.208294 -0.000002 0.000002 -1.401800 0.341788 -0.325440
    38 3.549271 0.211411 1.487671 0.494305 -0.097767 -1.141905
    39 1.219000 -0.000001 0.000000 0.000010 -0.007094 -0.936359
    40 0.679999 0.000000 0.000002 -0.000003 -0.003649 -0.567372
    41 3.698020 0.273716 0.726624 0.166728 -0.127400 -1.076953
    42 1.748999 0.000000 0.000000 -0.000009 -0.004407 -0.757418
    43 0.960000 -0.000002 -0.000004 0.000000 -0.007271 -1.258531
    44 3.768501 0.151955 -0.072739 -0.077950 -0.287333 -0.840906
    45 2.038000 0.000000 0.000000 -0.000004 0.115787 -1.062702
    46 1.066999 0.000000 0.000000 0.000011 -0.004239 -1.185375
    47 3.783908 -0.023952 -0.794449 -0.316445 0.173356 -0.112326
    48 1.628999 0.000000 0.000000 -0.000003 -0.007732 -0.686546
    49 0.956000 0.000000 0.000000 0.000000 -0.004920 -1.090657
    50 1.258942 -0.308545 -1.250050 1.202586 0.210776 -0.999947
    51 1.393001 0.000000 0.000002 0.000000 0.200216 0.487536
    52 1.100000 0.000002 -0.000002 0.000000 0.201946 0.966012
    53 4.271699 0.000000 0.000000 0.000000 0.000000 0.000000
    54 5.604150 0.000000 -0.000005 -0.030876 0.000000 0.000000
    55 5.604151 0.000000 0.000000 0.034930 0.000000 0.000000
    56 11.208296 0.000000 -0.000005 -0.057543 0.000000 0.000000
    57 5.560005 -0.700001 -0.500006 0.000000 0.000000 0.000000
    58 2.132027 1.532021 5.000000 0.000000 0.000000 0.000000
    59 2.000008 4.938046 2.578000 0.000000 0.000000 0.000000
    60 11.123045 0.000000 0.000004 0.000000 0.000000 -0.100063
    61 2.000004 4.938040 -2.578001 0.000000 0.000000 0.000000
    62 2.132023 1.532021 -5.000000 0.000000 0.000000 0.000000
    63 1.500000 0.000000 -0.000001 0.000000 0.000000 0.000000
    64 11.208302 -0.000002 0.000002 0.065171 0.000000 0.000000
    65 11.123055 -0.000001 -0.000003 0.000000 0.000000 -0.100081
    66 4.271699 -0.000004 0.000000 0.000000 0.000000 0.000000
    67 1.500000 0.000000 -0.000002 0.000000 0.000000 0.000000
    68 5.560001 -0.700001 0.500002 0.000000 0.000000 0.000000
  time 16
    0 0.039690 -112.531956 35.134774 2.193123 0.144924 -0.040083
    1 3.984015 -0.000006 -0.000003 -1.820795 -0.614451 -1.364571
    2 15.940016 0.000000 0.000000 0.000000 0.000000 2.165395
    3 17.709564 0.000000 0.000000 0.030203 -0.017575 -1.264789
    4 6.204000 0.000000 0.000000 0.000421 0.012871 -1.024087
    5 -3.984013 0.000006 0.000007 -1.673110 -0.984392 -1.133233
    6 15.940014 0.000000 0.000000 0.000000 0.000000 0.668871
    7 17.709570 -0.000001 0.000000 -0.219678 -0.038741 -1.353345
    8 6.204001 0.000000 0.000000 -0.078650 -0.006185 -0.498943
    9 -0.343755 3.482297 -2.893019 1.501988 0.211249 1.521327
    10 3.837406 0.000001 0.000000 -0.060330 0.061529 0.050518
    11 3.617867 0.000000 0.000000 -0.061112 0.060762 0.198064
    12 7.539776 0.000000 0.000000 -0.066467 0.045290 0.157081
    13 3.178299 0.000000 0.000000 3.141590 0.000000 0.370447
    14 2.970274 0.000000 0.000000 0.330303 0.023390 0.675934
    15 2.023708 0.907459 0.852579 2.736554 -1.146891 1.770201
    16 4.983667 -0.000004 0.000000 -1.666279 -0.491599 -1.062017
    17 11.123055 0.000000 -0.000002 0.000000 0.000000 -1.576177
    18 11.208294 0.000000 -0.000004 1.443079 0.094327 0.030597
    19 3.549242 0.198826 -1.489471 -0.449521 -0.213492 -1.502175
    20 1.219000 0.000000 0.000004 -0.000005 0.184250 -0.756130
    21 0.679999 0.000000 0.000000 0.000003 0.002403 -1.130222
    22 3.698008 0.267557 -0.728977 -0.159022 -0.128597 -1.500848
    23 1.749000 0.000000 -0.000004 0.000009 0.083290 -1.128379
    24 0.959999 -0.000001 0.000000 0.000012 0.004802 -1.316700
    25 3.768503 0.152550 0.071381 0.023947 -0.021726 -1.562896
    26 2.038003 0.000002 0.000000 0.000004 0.004994 -1.252366
    27 1.067003 -0.000003 0.000000 -0.000011 0.002789 -1.102295
    28 3.783922 -0.017256 0.794556 0.192440 0.061256 -1.577964
    29 1.629000 0.000000 0.000000 0.000003 0.005096 -1.248867
    30 0.956001 0.000001 0.000000 0.000000 0.003254 -1.130186
    31 1.258961 -0.297981 1.252590 -1.253674 -0.300823 -0.782383
    32 1.393002 0.000000 0.000000 0.000000 0.300692 0.663312
    33 1.100000 0.000000 0.000000 0.000000 -0.003290 1.086696
    34 2.023712 0.907463 -0.852528 -2.575642 1.371900 2.025278
    35 4.983668 0.000004 -0.000002 1.251246 -0.242507 -0.934206
    36 11.123047 0.000000 0.000006 0.000000 0.000000 -1.846822
    37 11.208294 -0.000002 0.000002 -1.411588 0.325453 -0.329823
    38 3.549271 0.211411 1.487671 0.494305 -0.097767 -1.141905
    39 1.219000 -0.000001 0.000000 0.000010 -0.007094 -0.936359
    40 0.679999 0.000000 0.000002 -0.000003 -0.003649 -0.567372
    41 3.698020 0.273716 0.726624 0.166728 -0.127400 -1.076953
    42 1.748999 0.000000 0.000000 -0.000009 -0.004407 -0.757418
    43 0.960000 -0.000002 -0.000004 -0.000012 -0.007271 -1.258531
    44 3.768501 0.151955 -0.072739 -0.077950 -0.287333 -0.840906
    45 2.038000 0.000000 0.000000 -0.000004 0.115787 -1.062702
    46 1.066999 0.000000 0.000000 0.000011 -0.004239 -1.185375
    47 3.783908 -0.023952 -0.794449 -0.316445 0.173356 -0.112326
    48 1.628999 0.000000 0.000000 -0.000003 -0.007732 -0.686546
    49 0.956000 0.000000 0.000000 0.000000 -0.004920 -1.090657
    50 1.258942 -0.308545 -1.250050 1.202586 0.210776 -0.999947
    51 1.393001 0.000000 0.000002 0.000000 0.200216 0.487536
    52 1.100000 0.000002 -0.000002 0.000000 0.201946 0.966012
    53 4.271699 0.000000 0.000000 0.000000 0.000000 0.000000
    54 5.604150 0.000000 -0.000005 -0.030876 0.000000 0.000000
    55 5.604151 0.000000 0.000000 0.034930 0.000000 0.000000
    56 11.208296 0.000000 -0.000005 -0.057543 0.000000 0.000000
    57 5.560005 -0.700001 -0.500006 0.000000 0.000000 0.000000
    58 2.132027 1.532021 5.000000 0.000000 0.000000 0.000000
    59 2.000008 4.938046 2.578000 0.000000 0.000000 0.000000
    60 11.123045 0.000000 0.000004 0.000000 0.000000 -0.100063
    61 2.000004 4.938040 -2.578001 0.000000 0.000000 0.000000
    62 2.132023 1.532021 -5.000000 0.000000 0.000000 0.000000
    63 1.500000 0.000000 -0.000001 0.000000 0.000000 0.000000
    64 11.208302 -0.000002 0.000002 0.065171 0.000000 0.000000
    65 11.123055 -0.000001 -0.000003 0.000000 0.000000 -0.100081
    66 4.271699 -0.000004 0.000000 0.000000 0.000000 0.000000
    67 1.500000 0.000000 -0.000002 0.000000 0.000000 0.000000
    68 5.560001 -0.700001 0.500002 0.000000 0.000000 0.000000
  time 17
    0 -0.003280 -119.531960 35.285808 2.028862 0.337353 -0.228229
    1 3.984015 -0.000006 -0.000003 -2.945982 -1.071296 -0.088056
    2 15.940016 0.000000 0.000000 0.000000 0.000000 2.266863
    3 17.709564 0.000000 0.000000 0.095137 -0.005950 -1.196395
    4 6.204000 0.000000 0.000000 -0.005005 0.003966 -1.024125
    5 -3.984013 0.000006 0.000007 -1.815107 -0.126266 -1.172742
    6 15.940014 0.000000 0.000000 0.000000 0.000000 0.126611
    7 17.709570 -0.000001 0.000000 -0.140860 -0.029165 -1.329250
    8 6.204001 0.000000 0.000000 -0.077811 -0.006233 -0.651581
    9 -0.675797 3.548705 -2.592228 1.646416 0.135457 1.686587
    10 3.837406 0.000001 0.000000 0.020182 0.043708 0.063582
    11 3.617867 0.000000 0.000000 0.019627 0.043959 0.211146
    12 7.539776 0.000000 0.000000 -0.029650 0.018288 0.157260
    13 3.178299 0.000000 0.000000 3.141590 0.000000 0.370447
    14 2.970274 0.000000 0.000000 0.241496 0.032919 0.627114
    15 2.023708 0.907459 0.852579 2.736554 -1.146891 1.770201
    16 4.983667 -0.000004 0.000000 -1.651746 -0.544443 -1.059295
    17 11.123055 0.000000 -0.000002 0.000000 0.000000 -1.328750
    18 11.208294 0.000000 -0.000004 1.343630 0.081967 -0.104991
    19 3.549242 0.198826 -1.489471 -0.449521 -0.213492 -1.502175
    20 1.219000 0.000000 0.000004 -0.000005 0.184250 -0.756130
    21 0.679999 0.000000 0.000000 0.000003 0.002403 -1.130222
    22 3.698008 0.267557 -0.728977 -0.159022 -0.128597 -1.500848
    23 1.749000 0.000000 -0.000004 0.000009 0.083290 -1.128379
    24 0.959999 -0.000001 0.000000 0.000000 0.004802 -1.316700
    25 3.768503 0.152550 0.071381 0.023947 -0.021726 -1.562896
    26 2.038003 0.000002 0.000000 0.000004 0.004994 -1.252366
    27 1.067003 -0.000003 0.000000 -0.000011 0.002789 -1.102295
    28 3.783922 -0.017256 0.794556 0.192440 0.061256 -1.577964
    29 1.629000 0.000000 0.000000 0.000003 0.005096 -1.248867
    30 0.956001 0.000001 0.000000 0.000000 0.003254 -1.130186
    31 1.258961 -0.297981 1.252590 -1.253674 -0.300823 -0.782383
    32 1.393002 0.000000 0.000000 0.000000 0.300692 0.663312
    33 1.100000 0.000000 0.000000 0.000000 -0.003290 1.086696
    34 2.023712 0.907463 -0.852528 -2.575642 1.371900 2.025278
    35 4.983668 0.000004 -0.000002 1.312465 -0.225173 -0.994070
    36 11.123047 0.000000 0.000006 0.000000 0.000000 -1.797926
    37 11.208294 -0.000002 0.000002 -1.396997 0.260226 -0.233835
    38 3.549271 0.211411 1.487671 0.494305 -0.097767 -1.141905
    39 1.219000 -0.000001 0.000000 0.000010 -0.007094 -0.936359
    40 0.679999 0.000000 0.000002 -0.000003 -0.003649 -0.567372
    41 3.698020 0.273716 0.726624 0.166728 -0.127400 -1.076953
    42 1.748999 0.000000 0.000000 -0.000009 -0.004407 -0.757418
    43 0.960000 -0.000002 -0.000004 -0.000012 -0.007271 -1.258531
    44 3.768501 0.151955 -0.072739 -0.077950 -0.287333 -0.840906
    45 2.038000 0.000000 0.000000 -0.000004 0.115787 -1.062702
    46 1.066999 0.000000 0.000000 0.000011 -0.004239 -1.185375
    47 3.783908 -0.023952 -0.794449 -0.316445 0.173356 -0.112326
    48 1.628999 0.000000 0.000000 -0.000003 -0.007732 -0.686546
    49 0.956000 0.000000 0.000000 0.000000 -0.004920 -1.090657
    50 1.258942 -0.308545 -1.250050 1.202586 0.210776 -0.999947
    51 1.393001 0.000000 0.000002 0.000000 0.200216 0.487536
    52 1.100000 0.000002 -0.000002 0.000000 0.201946 0.966012
    53 4.271699 0.000000 0.000000 0.000000 0.000000 0.000000
    54 5.604150 0.000000 -0.000005 -0.030876 0.000000 0.000000
    55 5.604151 0.000000 0.000000 0.034930 0.000000 0.000000
    56 11.208296 0.000000 -0.000005 -0.057543 0.000000 0.000000
    57 5.560005 -0.700001 -0.500006 0.000000 0.000000 0.000000
    58 2.132027 1.532021 5.000000 0.000000 0.000000 0.000000
    59 2.000008 4.938046 2.578000 0.000000 0.000000 0.000000
    60 11.123045 0.000000 0.000004 0.000000 0.000000 -0.100063
    61 2.000004 4.938040 -2.578001 0.000000 0.000000 0.000000
    62 2.132023 1.532021 -5.000000 0.000000 0.000000 0.000000
    63 1.500000 0.000000 -0.000001 0.000000 0.000000 0.000000
    64 11.208302 -0.000002 0.000002 0.065171 0.000000 0.000000
    65 11.123055 -0.000001 -0.000003 0.000000 0.000000 -0.100081
    66 4.271699 -0.000004 0.000000 0.000000 0.000000 0.000000
    67 1.500000 0.000000 -0.000002 0.000000 0.000000 0.000000
    68 5.560001 -0.700001 0.500002 0.000000 0.000000 0.000000
end
