version 1
nodes
  0 "ValveBiped.Bip01_Pelvis" -1
  1 "ValveBiped.Bip01_L_Thigh" 0
  2 "ValveBiped.Bip01_L_Calf" 1
  3 "ValveBiped.Bip01_L_Foot" 2
  4 "ValveBiped.Bip01_L_Toe0" 3
  5 "ValveBiped.Bip01_R_Thigh" 0
  6 "ValveBiped.Bip01_R_Calf" 5
  7 "ValveBiped.Bip01_R_Foot" 6
  8 "ValveBiped.Bip01_R_Toe0" 7
  9 "ValveBiped.Bip01_Spine" 0
  10 "ValveBiped.Bip01_Spine1" 9
  11 "ValveBiped.Bip01_Spine2" 10
  12 "ValveBiped.Bip01_Spine4" 11
  13 "ValveBiped.Bip01_Neck1" 12
  14 "ValveBiped.Bip01_Head1" 13
  15 "ValveBiped.Bip01_L_Clavicle" 12
  16 "ValveBiped.Bip01_L_UpperArm" 15
  17 "ValveBiped.Bip01_L_Forearm" 16
  18 "ValveBiped.Bip01_L_Hand" 17
  19 "ValveBiped.Bip01_L_Finger4" 18
  20 "ValveBiped.Bip01_L_Finger41" 19
  21 "ValveBiped.Bip01_L_Finger42" 20
  22 "ValveBiped.Bip01_L_Finger3" 18
  23 "ValveBiped.Bip01_L_Finger31" 22
  24 "ValveBiped.Bip01_L_Finger32" 23
  25 "ValveBiped.Bip01_L_Finger2" 18
  26 "ValveBiped.Bip01_L_Finger21" 25
  27 "ValveBiped.Bip01_L_Finger22" 26
  28 "ValveBiped.Bip01_L_Finger1" 18
  29 "ValveBiped.Bip01_L_Finger11" 28
  30 "ValveBiped.Bip01_L_Finger12" 29
  31 "ValveBiped.Bip01_L_Finger0" 18
  32 "ValveBiped.Bip01_L_Finger01" 31
  33 "ValveBiped.Bip01_L_Finger02" 32
  34 "ValveBiped.Bip01_R_Clavicle" 12
  35 "ValveBiped.Bip01_R_UpperArm" 34
  36 "ValveBiped.Bip01_R_Forearm" 35
  37 "ValveBiped.Bip01_R_Hand" 36
  38 "ValveBiped.Bip01_R_Finger4" 37
  39 "ValveBiped.Bip01_R_Finger41" 38
  40 "ValveBiped.Bip01_R_Finger42" 39
  41 "ValveBiped.Bip01_R_Finger3" 37
  42 "ValveBiped.Bip01_R_Finger31" 41
  43 "ValveBiped.Bip01_R_Finger32" 42
  44 "ValveBiped.Bip01_R_Finger2" 37
  45 "ValveBiped.Bip01_R_Finger21" 44
  46 "ValveBiped.Bip01_R_Finger22" 45
  47 "ValveBiped.Bip01_R_Finger1" 37
  48 "ValveBiped.Bip01_R_Finger11" 47
  49 "ValveBiped.Bip01_R_Finger12" 48
  50 "ValveBiped.Bip01_R_Finger0" 37
  51 "ValveBiped.Bip01_R_Finger01" 50
  52 "ValveBiped.Bip01_R_Finger02" 51
  53 "ValveBiped.Bip01_L_Trapezius" 15
  54 "ValveBiped.Bip01_L_Ulna" 17
  55 "ValveBiped.Bip01_R_Ulna" 36
  56 "ValveBiped.Bip01_L_Wrist" 17
  57 "ValveBiped.Bip01_L_Bicep" 16
  58 "ValveBiped.Bip01_L_Latt" 11
  59 "ValveBiped.Bip01_L_Pectoral" 11
  60 "ValveBiped.Bip01_R_Elbow" 35
  61 "ValveBiped.Bip01_R_Pectoral" 11
  62 "ValveBiped.Bip01_R_Latt" 11
  63 "ValveBiped.Bip01_L_Shoulder" 16
  64 "ValveBiped.Bip01_R_Wrist" 36
  65 "ValveBiped.Bip01_L_Elbow" 16
  66 "ValveBiped.Bip01_R_Trapezius" 34
  67 "ValveBiped.Bip01_R_Shoulder" 35
  68 "ValveBiped.Bip01_R_Bicep" 35
end
skeleton
  time 0
    0 0.697300 -0.459867 1.190804 0.119421 -0.501600 -1.512301
    1 0.000000 0.000000 0.000000 -0.353700 -0.319957 0.157243
    2 -0.000006 -0.000002 0.000001 0.000000 0.000000 -0.082973
    3 -0.000002 0.000001 0.000000 -0.056106 -0.020798 -0.026921
    4 -0.000003 -0.000001 0.000000 0.000000 0.000000 0.000000
    5 0.000000 0.000000 0.000000 -0.323904 -0.132967 -0.177149
    6 -0.000001 0.000001 0.000000 0.000000 0.000000 -0.295857
    7 -0.000006 -0.000001 0.000000 -0.001836 0.005309 0.225782
    8 -0.000002 0.000000 0.000002 0.000000 0.000000 0.000000
    9 -0.377601 -0.087011 -0.002911 0.077484 -0.095948 -0.012165
    10 0.000000 0.000002 0.000000 -0.165955 -0.040379 0.056390
    11 0.000000 0.000002 0.000000 -0.164159 -0.041961 0.056861
    12 0.000002 0.000002 0.000000 0.000000 0.000000 0.000000
    13 0.000000 0.000000 0.000000 -0.000003 0.000000 0.000000
    14 0.000000 0.000000 0.000002 -0.052248 -0.050004 -0.156338
    15 0.000004 -0.000004 0.000000 0.000000 0.000000 0.000000
    16 0.000003 0.000000 0.000002 -0.112463 0.230166 0.440858
    17 0.000001 -0.000008 -0.000001 0.000000 0.000000 -0.081226
    18 0.000004 0.000000 -0.000002 0.214570 0.450677 0.043916
    19 -0.000002 -0.000001 0.000000 0.000000 0.000000 0.000000
    20 0.000001 -0.000001 -0.000004 0.000000 0.000000 0.000000
    21 0.000001 -0.000001 0.000004 0.000000 0.000000 0.000000
    22 0.000001 -0.000001 0.000000 0.000000 0.000000 0.000000
    23 0.000000 0.000000 0.000000 0.000000 0.000000 0.000000
    24 0.000001 -0.000002 0.000000 0.000000 0.000000 0.000000
    25 -0.000001 0.000001 -0.000002 0.000000 0.000000 0.000000
    26 0.000001 0.000001 -0.000002 0.000000 0.000000 0.000000
    27 0.000000 -0.000001 0.000002 0.000000 0.000000 0.000000
    28 -0.000002 -0.000001 -0.000002 0.000000 0.000000 0.000000
    29 0.000001 -0.000002 0.000000 0.000000 0.000000 0.000000
    30 0.000002 0.000001 0.000000 0.000000 0.000000 0.000000
    31 -0.000001 -0.000001 -0.000002 0.000000 0.000000 0.000000
    32 -0.000002 0.000000 -0.000001 0.000000 0.000000 0.000000
    33 0.000000 0.000000 -0.000001 0.000000 0.000000 0.000000
    34 0.000000 0.000000 0.000000 0.000000 0.000000 0.000000
    35 0.000001 -0.000004 -0.000004 -0.288078 -0.107459 0.207410
    36 0.000000 -0.000003 -0.000004 0.000000 0.000000 -0.129265
    37 0.000000 0.000002 0.000000 0.408516 -0.300504 0.108850
    38 -0.000001 -0.000001 -0.000002 0.000000 0.000000 0.000000
    39 0.000001 0.000002 0.000004 0.000000 0.000000 0.000000
    40 0.000000 0.000000 0.000000 0.000000 0.000000 0.000000
    41 0.000000 0.000000 0.000002 0.000000 0.000000 0.000000
    42 0.000001 0.000000 0.000000 0.000000 0.000000 0.000000
    43 0.000000 0.000001 0.000000 0.000000 0.000000 0.000000
    44 0.000000 -0.000001 -0.000002 0.000000 0.000000 0.000000
    45 0.000004 0.000001 0.000000 0.000000 0.000000 0.000000
    46 0.000000 -0.000002 0.000000 0.000000 0.000000 0.000000
    47 0.000000 0.000000 0.000002 0.000000 0.000000 0.000000
    48 0.000000 0.000000 0.000004 0.000000 0.000000 0.000000
    49 -0.000002 0.000000 0.000000 0.000000 0.000000 0.000000
    50 0.000000 -0.000001 0.000000 0.000000 0.000000 0.000000
    51 -0.000001 0.000000 0.000001 0.000000 0.000000 0.000000
    52 -0.000001 0.000000 0.000001 0.000000 0.000000 0.000000
    53 -0.000001 0.000004 0.000000 0.000000 0.000000 0.000000
    54 0.000003 0.000000 -0.000002 0.000000 0.000000 0.000000
    55 0.000001 0.000002 0.000000 0.000000 0.000000 0.000000
    56 0.000001 0.000000 -0.000004 0.000000 0.000000 0.000000
    57 -0.000002 -0.000002 0.000000 0.000000 0.000000 0.000000
    58 0.000002 0.000002 0.000001 0.000000 0.000000 0.000000
    59 0.000000 0.000004 0.000002 0.000000 0.000000 0.000000
    60 0.000001 -0.000003 0.000000 0.000000 0.000000 0.000000
    61 0.000000 0.000002 0.000001 0.000000 0.000000 0.000000
    62 0.000002 0.000000 0.000000 0.000000 0.000000 0.000000
    63 0.000000 0.000000 0.000000 0.000000 0.000000 0.000000
    64 -0.000001 0.000000 0.000000 0.000000 0.000000 0.000000
    65 0.000002 -0.000002 0.000000 0.000000 0.000000 0.000000
    66 0.000000 -0.000004 0.000002 0.000000 0.000000 0.000000
    67 0.000002 0.000000 0.000004 0.000000 0.000000 0.000000
    68 -0.000001 0.000000 -0.000002 0.000000 0.000000 0.000000
end
