version 1
nodes
  0 "ValveBiped.Bip01_Pelvis" -1
  1 "ValveBiped.Bip01_L_Thigh" 0
  2 "ValveBiped.Bip01_L_Calf" 1
  3 "ValveBiped.Bip01_L_Foot" 2
  4 "ValveBiped.Bip01_L_Toe0" 3
  5 "ValveBiped.Bip01_R_Thigh" 0
  6 "ValveBiped.Bip01_R_Calf" 5
  7 "ValveBiped.Bip01_R_Foot" 6
  8 "ValveBiped.Bip01_R_Toe0" 7
  9 "ValveBiped.Bip01_Spine" 0
  10 "ValveBiped.Bip01_Spine1" 9
  11 "ValveBiped.Bip01_Spine2" 10
  12 "ValveBiped.Bip01_Spine4" 11
  13 "ValveBiped.Bip01_Neck1" 12
  14 "ValveBiped.Bip01_Head1" 13
  15 "ValveBiped.Bip01_L_Clavicle" 12
  16 "ValveBiped.Bip01_L_UpperArm" 15
  17 "ValveBiped.Bip01_L_Forearm" 16
  18 "ValveBiped.Bip01_L_Hand" 17
  19 "ValveBiped.Bip01_L_Finger4" 18
  20 "ValveBiped.Bip01_L_Finger41" 19
  21 "ValveBiped.Bip01_L_Finger42" 20
  22 "ValveBiped.Bip01_L_Finger3" 18
  23 "ValveBiped.Bip01_L_Finger31" 22
  24 "ValveBiped.Bip01_L_Finger32" 23
  25 "ValveBiped.Bip01_L_Finger2" 18
  26 "ValveBiped.Bip01_L_Finger21" 25
  27 "ValveBiped.Bip01_L_Finger22" 26
  28 "ValveBiped.Bip01_L_Finger1" 18
  29 "ValveBiped.Bip01_L_Finger11" 28
  30 "ValveBiped.Bip01_L_Finger12" 29
  31 "ValveBiped.Bip01_L_Finger0" 18
  32 "ValveBiped.Bip01_L_Finger01" 31
  33 "ValveBiped.Bip01_L_Finger02" 32
  34 "ValveBiped.Bip01_R_Clavicle" 12
  35 "ValveBiped.Bip01_R_UpperArm" 34
  36 "ValveBiped.Bip01_R_Forearm" 35
  37 "ValveBiped.Bip01_R_Hand" 36
  38 "ValveBiped.Bip01_R_Finger4" 37
  39 "ValveBiped.Bip01_R_Finger41" 38
  40 "ValveBiped.Bip01_R_Finger42" 39
  41 "ValveBiped.Bip01_R_Finger3" 37
  42 "ValveBiped.Bip01_R_Finger31" 41
  43 "ValveBiped.Bip01_R_Finger32" 42
  44 "ValveBiped.Bip01_R_Finger2" 37
  45 "ValveBiped.Bip01_R_Finger21" 44
  46 "ValveBiped.Bip01_R_Finger22" 45
  47 "ValveBiped.Bip01_R_Finger1" 37
  48 "ValveBiped.Bip01_R_Finger11" 47
  49 "ValveBiped.Bip01_R_Finger12" 48
  50 "ValveBiped.Bip01_R_Finger0" 37
  51 "ValveBiped.Bip01_R_Finger01" 50
  52 "ValveBiped.Bip01_R_Finger02" 51
  53 "ValveBiped.Bip01_L_Trapezius" 15
  54 "ValveBiped.Bip01_L_Ulna" 17
  55 "ValveBiped.Bip01_R_Ulna" 36
  56 "ValveBiped.Bip01_L_Wrist" 17
  57 "ValveBiped.Bip01_L_Bicep" 16
  58 "ValveBiped.Bip01_L_Latt" 11
  59 "ValveBiped.Bip01_L_Pectoral" 11
  60 "ValveBiped.Bip01_R_Elbow" 35
  61 "ValveBiped.Bip01_R_Pectoral" 11
  62 "ValveBiped.Bip01_R_Latt" 11
  63 "ValveBiped.Bip01_L_Shoulder" 16
  64 "ValveBiped.Bip01_R_Wrist" 36
  65 "ValveBiped.Bip01_L_Elbow" 16
  66 "ValveBiped.Bip01_R_Trapezius" 34
  67 "ValveBiped.Bip01_R_Shoulder" 35
  68 "ValveBiped.Bip01_R_Bicep" 35
end
skeleton
  time 0
    0 -1.370681 0.046364 -1.663525 -0.171810 0.828537 -1.658024
    1 0.000000 0.000000 0.000000 0.294890 0.588571 0.072201
    2 -0.000001 -0.000004 0.000000 0.000000 0.000000 -0.008149
    3 0.000000 0.000001 0.000000 0.148401 0.126265 0.152053
    4 0.000000 0.000000 0.000000 0.000000 0.000000 0.000000
    5 -0.000001 -0.000002 0.000000 0.626378 0.197385 0.512276
    6 0.000000 0.000000 0.000002 0.000000 0.000000 0.175066
    7 -0.000002 0.000000 0.000000 0.055190 -0.019661 -0.234237
    8 0.000000 -0.000001 0.000002 0.000000 0.000000 0.000000
    9 0.898704 0.140406 0.169024 -0.303876 0.035371 0.080661
    10 -0.000004 0.000000 0.000000 0.108533 -0.000944 -0.233242
    11 -0.000004 0.000000 0.000000 0.103555 -0.002396 -0.233127
    12 0.000004 0.000002 0.000000 0.000000 0.000000 0.000000
    13 0.000000 0.000000 0.000000 -0.000003 0.000000 0.098836
    14 0.000002 0.000000 0.000000 0.087226 0.056040 0.228757
    15 0.000004 -0.000003 0.000001 0.069055 -0.006063 0.175090
    16 0.000004 0.000000 0.000001 0.221624 -0.574890 0.174659
    17 0.000005 -0.000004 0.000002 0.000000 0.000000 -0.852384
    18 0.000004 -0.000002 0.000000 -0.157970 0.060428 0.431758
    19 0.000000 -0.000001 -0.000002 0.000000 0.000000 0.000000
    20 0.000001 0.000000 -0.000004 0.000000 0.000000 0.000000
    21 0.000001 0.000001 0.000004 0.000000 0.000000 0.000000
    22 0.000002 -0.000001 -0.000002 0.000000 0.000000 0.000000
    23 0.000000 0.000000 0.000000 0.000000 0.000000 0.000000
    24 0.000001 0.000000 0.000000 0.000000 0.000000 0.000000
    25 -0.000002 0.000001 -0.000002 0.000000 0.000000 0.000000
    26 0.000001 0.000000 0.000000 0.000000 0.000000 0.000000
    27 0.000002 -0.000002 0.000006 0.000000 0.000000 0.000000
    28 0.000000 -0.000003 -0.000004 0.000000 0.000000 0.000000
    29 0.000003 0.000000 0.000001 0.000000 0.000000 0.000000
    30 0.000002 0.000000 0.000000 0.000000 0.000000 0.000000
    31 -0.000002 -0.000001 0.000000 0.000000 0.000000 0.000000
    32 0.000002 0.000001 0.000004 0.000000 0.000000 0.000000
    33 0.000000 0.000000 0.000000 0.000000 0.000000 0.000000
    34 -0.000004 0.000000 0.000000 0.000000 0.000000 0.000000
    35 0.000003 0.000000 -0.000002 -0.073644 -0.184889 -0.001766
    36 0.000006 0.000002 0.000000 0.000000 0.000000 0.018581
    37 0.000005 0.000000 0.000004 -0.284129 0.825830 -0.311084
    38 -0.000005 -0.000002 0.000000 0.000000 0.000000 0.000000
    39 0.000002 0.000002 0.000000 0.000000 0.000000 0.000000
    40 0.000000 0.000000 0.000000 0.000000 0.000000 0.000000
    41 0.000000 -0.000002 0.000004 0.000000 0.000000 0.000000
    42 -0.000001 0.000000 0.000000 0.000000 0.000000 0.000000
    43 0.000000 0.000001 0.000000 0.000000 0.000000 0.000000
    44 0.000000 0.000000 -0.000002 0.000000 0.000000 0.000000
    45 0.000000 0.000001 0.000002 0.000000 0.000000 0.000000
    46 0.000001 0.000002 -0.000002 0.000000 0.000000 0.000000
    47 -0.000003 -0.000001 0.000002 0.000000 0.000000 0.000000
    48 0.000002 0.000000 0.000004 0.000000 0.000000 0.000000
    49 0.000002 0.000000 0.000001 0.000000 0.000000 0.000000
    50 0.000002 -0.000001 0.000000 0.000000 0.000000 0.000000
    51 0.000002 0.000000 0.000000 0.000000 0.000000 0.000000
    52 -0.000001 0.000001 0.000006 0.000000 0.000000 0.000000
    53 0.000003 0.000000 0.000000 0.000000 0.000000 0.000000
    54 0.000002 0.000000 0.000000 0.000000 0.000000 0.000000
    55 0.000003 0.000001 0.000000 0.000000 0.000000 0.000000
    56 0.000000 0.000000 0.000000 0.000000 0.000000 0.000000
    57 0.000001 0.000000 0.000002 0.000000 0.000000 0.000000
    58 0.000000 0.000002 0.000002 0.000000 0.000000 0.000000
    59 0.000000 0.000002 0.000002 0.000000 0.000000 0.000000
    60 0.000005 0.000001 0.000000 0.000000 0.000000 0.000000
    61 0.000004 0.000001 0.000000 0.000000 0.000000 0.000000
    62 0.000000 0.000000 -0.000002 0.000000 0.000000 0.000000
    63 0.000000 0.000000 0.000000 0.000000 0.000000 0.000000
    64 0.000006 -0.000003 0.000000 0.000000 0.000000 0.000000
    65 0.000004 0.000000 0.000002 0.000000 0.000000 0.000000
    66 0.000001 0.000000 0.000001 0.000000 0.000000 0.000000
    67 0.000000 0.000001 0.000000 0.000000 0.000000 0.000000
    68 0.000000 0.000001 0.000000 0.000000 0.000000 0.000000
end
