version 1
nodes
  0 "ValveBiped.Bip01_Pelvis" -1
  1 "ValveBiped.Bip01_L_Thigh" 0
  2 "ValveBiped.Bip01_L_Calf" 1
  3 "ValveBiped.Bip01_L_Foot" 2
  4 "ValveBiped.Bip01_L_Toe0" 3
  5 "ValveBiped.Bip01_R_Thigh" 0
  6 "ValveBiped.Bip01_R_Calf" 5
  7 "ValveBiped.Bip01_R_Foot" 6
  8 "ValveBiped.Bip01_R_Toe0" 7
  9 "ValveBiped.Bip01_Spine" 0
  10 "ValveBiped.Bip01_Spine1" 9
  11 "ValveBiped.Bip01_Spine2" 10
  12 "ValveBiped.Bip01_Spine4" 11
  13 "ValveBiped.Bip01_Neck1" 12
  14 "ValveBiped.Bip01_Head1" 13
  15 "ValveBiped.Bip01_L_Clavicle" 12
  16 "ValveBiped.Bip01_L_UpperArm" 15
  17 "ValveBiped.Bip01_L_Forearm" 16
  18 "ValveBiped.Bip01_L_Hand" 17
  19 "ValveBiped.Bip01_L_Finger4" 18
  20 "ValveBiped.Bip01_L_Finger41" 19
  21 "ValveBiped.Bip01_L_Finger42" 20
  22 "ValveBiped.Bip01_L_Finger3" 18
  23 "ValveBiped.Bip01_L_Finger31" 22
  24 "ValveBiped.Bip01_L_Finger32" 23
  25 "ValveBiped.Bip01_L_Finger2" 18
  26 "ValveBiped.Bip01_L_Finger21" 25
  27 "ValveBiped.Bip01_L_Finger22" 26
  28 "ValveBiped.Bip01_L_Finger1" 18
  29 "ValveBiped.Bip01_L_Finger11" 28
  30 "ValveBiped.Bip01_L_Finger12" 29
  31 "ValveBiped.Bip01_L_Finger0" 18
  32 "ValveBiped.Bip01_L_Finger01" 31
  33 "ValveBiped.Bip01_L_Finger02" 32
  34 "ValveBiped.Bip01_R_Clavicle" 12
  35 "ValveBiped.Bip01_R_UpperArm" 34
  36 "ValveBiped.Bip01_R_Forearm" 35
  37 "ValveBiped.Bip01_R_Hand" 36
  38 "ValveBiped.Bip01_R_Finger4" 37
  39 "ValveBiped.Bip01_R_Finger41" 38
  40 "ValveBiped.Bip01_R_Finger42" 39
  41 "ValveBiped.Bip01_R_Finger3" 37
  42 "ValveBiped.Bip01_R_Finger31" 41
  43 "ValveBiped.Bip01_R_Finger32" 42
  44 "ValveBiped.Bip01_R_Finger2" 37
  45 "ValveBiped.Bip01_R_Finger21" 44
  46 "ValveBiped.Bip01_R_Finger22" 45
  47 "ValveBiped.Bip01_R_Finger1" 37
  48 "ValveBiped.Bip01_R_Finger11" 47
  49 "ValveBiped.Bip01_R_Finger12" 48
  50 "ValveBiped.Bip01_R_Finger0" 37
  51 "ValveBiped.Bip01_R_Finger01" 50
  52 "ValveBiped.Bip01_R_Finger02" 51
  53 "ValveBiped.Bip01_L_Trapezius" 15
  54 "ValveBiped.Bip01_L_Ulna" 17
  55 "ValveBiped.Bip01_R_Ulna" 36
  56 "ValveBiped.Bip01_L_Wrist" 17
  57 "ValveBiped.Bip01_L_Bicep" 16
  58 "ValveBiped.Bip01_L_Latt" 11
  59 "ValveBiped.Bip01_L_Pectoral" 11
  60 "ValveBiped.Bip01_R_Elbow" 35
  61 "ValveBiped.Bip01_R_Pectoral" 11
  62 "ValveBiped.Bip01_R_Latt" 11
  63 "ValveBiped.Bip01_L_Shoulder" 16
  64 "ValveBiped.Bip01_R_Wrist" 36
  65 "ValveBiped.Bip01_L_Elbow" 16
  66 "ValveBiped.Bip01_R_Trapezius" 34
  67 "ValveBiped.Bip01_R_Shoulder" 35
  68 "ValveBiped.Bip01_R_Bicep" 35
end
skeleton
  time 0
    0 0.000000 0.000000 -1.046043 0.504866 -0.711481 -1.763622
    1 3.984015 -0.000008 -0.000003 -2.437929 -0.592660 -1.092609
    2 15.940013 0.000000 -0.000001 0.000000 0.000000 1.205489
    3 17.709560 -0.000001 0.000000 -0.127429 0.150737 -1.063697
    4 6.204000 0.000000 0.000000 -0.006380 0.001694 -1.024140
    5 -3.984013 0.000004 0.000008 -2.060556 -0.398391 -1.366475
    6 15.940008 0.000000 0.000000 0.000000 0.000000 0.515877
    7 17.709558 0.000001 -0.000001 0.002473 0.071806 -1.388518
    8 6.203999 -0.000001 0.000000 -0.078493 -0.006211 -0.517578
    9 -0.694716 3.955212 -2.115860 1.932121 -0.061577 1.498378
    10 3.837410 0.000000 0.000000 0.006283 0.007396 0.149922
    11 3.617867 0.000000 0.000000 0.015740 -0.015192 0.250825
    12 7.539776 0.000000 0.000000 0.000851 0.002888 0.212464
    13 3.178299 0.000000 0.000000 3.141590 0.000000 0.224127
    14 2.970276 0.000000 0.000000 0.317272 0.078772 0.666541
    15 2.023708 0.907459 0.852579 2.117582 -1.127271 2.379047
    16 4.983667 -0.000004 0.000000 -1.625651 -0.269963 -0.819999
    17 11.123058 -0.000002 -0.000002 0.000000 0.000000 -1.347911
    18 11.208295 0.000000 -0.000008 1.118497 -0.120814 -0.068717
    19 3.549244 0.198826 -1.489468 -0.015356 -0.016323 -1.268090
    20 1.219000 0.000000 0.000000 0.000000 0.004668 -0.773859
    21 0.680000 0.000000 0.000000 0.000000 0.002402 -0.578400
    22 3.698009 0.267557 -0.728977 0.100999 -0.020676 -1.375137
    23 1.749000 0.000000 0.000000 0.000000 0.002903 -0.581884
    24 0.960000 0.000000 0.000000 0.000000 0.004791 -0.764900
    25 3.768503 0.152550 0.071384 0.034896 0.091873 -1.433642
    26 2.038003 -0.000001 0.000000 0.000000 0.005005 -0.700549
    27 1.066998 -0.000001 0.000000 0.000000 0.002798 -0.550466
    28 3.783921 -0.017255 0.794556 0.237798 0.158425 -1.402423
    29 1.629000 0.000000 0.000000 0.000000 0.005107 -0.697060
    30 0.956000 0.000002 0.000000 0.000000 0.003255 -0.578386
    31 1.258963 -0.297980 1.252590 -1.378026 -0.390810 -0.419478
    32 1.393001 0.000004 0.000001 0.065193 0.306449 0.403540
    33 1.099999 0.000000 0.000003 0.000000 -0.003300 0.797365
    34 2.023712 0.907459 -0.852528 -2.089322 1.237862 2.502053
    35 4.983667 0.000000 -0.000002 1.168946 -0.173690 -0.780585
    36 11.123047 0.000000 0.000005 0.000000 0.000000 -1.874086
    37 11.208296 0.000004 0.000002 -1.347081 -0.009559 -0.053647
    38 3.549271 0.211410 1.487671 0.469790 -0.167716 -0.811402
    39 1.219000 -0.000002 -0.000002 0.000000 -0.007085 -0.729267
    40 0.680000 0.000000 -0.000002 0.000000 -0.003644 -0.360293
    41 3.698021 0.273715 0.726624 0.150445 -0.088592 -0.742350
    42 1.748999 0.000000 0.000002 0.000000 -0.004401 -0.550356
    43 0.960000 0.000000 0.000002 0.000000 -0.007264 -0.733361
    44 3.768501 0.151954 -0.072739 -0.241412 -0.246382 -0.499494
    45 2.037998 -0.000001 0.000000 0.000000 0.000000 -0.712652
    46 1.067000 0.000002 -0.000002 0.000000 0.000000 -0.562589
    47 3.783909 -0.023952 -0.794449 -0.352486 0.029262 -0.464071
    48 1.629000 -0.000001 0.000000 0.000000 -0.007737 -0.686547
    49 0.956000 -0.000001 0.000000 0.000000 -0.004929 -0.567890
    50 1.258942 -0.308544 -1.250050 1.384694 0.380848 -0.394844
    51 1.393001 0.000000 0.000001 0.000000 0.003280 0.228617
    52 1.099999 0.000004 -0.000004 0.000000 0.005011 0.362995
    53 4.271700 0.000000 0.000000 0.000000 0.000000 0.000000
    54 5.604148 0.000000 -0.000006 -0.030876 0.000000 0.000000
    55 5.604151 0.000000 0.000001 0.034930 0.000000 0.000000
    56 11.208295 0.000000 -0.000008 -0.057543 0.000000 0.000000
    57 5.560005 -0.700002 -0.500004 0.000000 0.000000 0.000000
    58 2.132023 1.532022 5.000000 0.000000 0.000000 0.000000
    59 2.000004 4.938046 2.578000 0.000000 0.000000 0.000000
    60 11.123049 -0.000004 0.000001 0.000000 0.000000 -0.100063
    61 1.999996 4.938042 -2.578001 0.000000 0.000000 0.000000
    62 2.132023 1.532022 -5.000000 0.000000 0.000000 0.000000
    63 1.500004 -0.000001 0.000002 0.000000 0.000000 0.000000
    64 11.208303 0.000000 0.000003 0.065171 0.000000 0.000000
    65 11.123058 -0.000002 -0.000002 0.000000 0.000000 -0.100081
    66 4.271698 -0.000004 0.000000 0.000000 0.000000 0.000000
    67 1.500002 0.000000 -0.000004 0.000000 0.000000 0.000000
    68 5.560001 -0.700001 0.500001 0.000000 0.000000 0.000000
end
