version 1
nodes
  0 "ValveBiped.Bip01_Pelvis" -1
  1 "ValveBiped.Bip01_L_Thigh" 0
  2 "ValveBiped.Bip01_L_Calf" 1
  3 "ValveBiped.Bip01_L_Foot" 2
  4 "ValveBiped.Bip01_L_Toe0" 3
  5 "ValveBiped.Bip01_R_Thigh" 0
  6 "ValveBiped.Bip01_R_Calf" 5
  7 "ValveBiped.Bip01_R_Foot" 6
  8 "ValveBiped.Bip01_R_Toe0" 7
  9 "ValveBiped.Bip01_Spine" 0
  10 "ValveBiped.Bip01_Spine1" 9
  11 "ValveBiped.Bip01_Spine2" 10
  12 "ValveBiped.Bip01_Spine4" 11
  13 "ValveBiped.Bip01_Neck1" 12
  14 "ValveBiped.Bip01_Head1" 13
  15 "ValveBiped.Bip01_L_Clavicle" 12
  16 "ValveBiped.Bip01_L_UpperArm" 15
  17 "ValveBiped.Bip01_L_Forearm" 16
  18 "ValveBiped.Bip01_L_Hand" 17
  19 "ValveBiped.Bip01_L_Finger4" 18
  20 "ValveBiped.Bip01_L_Finger41" 19
  21 "ValveBiped.Bip01_L_Finger42" 20
  22 "ValveBiped.Bip01_L_Finger3" 18
  23 "ValveBiped.Bip01_L_Finger31" 22
  24 "ValveBiped.Bip01_L_Finger32" 23
  25 "ValveBiped.Bip01_L_Finger2" 18
  26 "ValveBiped.Bip01_L_Finger21" 25
  27 "ValveBiped.Bip01_L_Finger22" 26
  28 "ValveBiped.Bip01_L_Finger1" 18
  29 "ValveBiped.Bip01_L_Finger11" 28
  30 "ValveBiped.Bip01_L_Finger12" 29
  31 "ValveBiped.Bip01_L_Finger0" 18
  32 "ValveBiped.Bip01_L_Finger01" 31
  33 "ValveBiped.Bip01_L_Finger02" 32
  34 "ValveBiped.Bip01_R_Clavicle" 12
  35 "ValveBiped.Bip01_R_UpperArm" 34
  36 "ValveBiped.Bip01_R_Forearm" 35
  37 "ValveBiped.Bip01_R_Hand" 36
  38 "ValveBiped.Bip01_R_Finger4" 37
  39 "ValveBiped.Bip01_R_Finger41" 38
  40 "ValveBiped.Bip01_R_Finger42" 39
  41 "ValveBiped.Bip01_R_Finger3" 37
  42 "ValveBiped.Bip01_R_Finger31" 41
  43 "ValveBiped.Bip01_R_Finger32" 42
  44 "ValveBiped.Bip01_R_Finger2" 37
  45 "ValveBiped.Bip01_R_Finger21" 44
  46 "ValveBiped.Bip01_R_Finger22" 45
  47 "ValveBiped.Bip01_R_Finger1" 37
  48 "ValveBiped.Bip01_R_Finger11" 47
  49 "ValveBiped.Bip01_R_Finger12" 48
  50 "ValveBiped.Bip01_R_Finger0" 37
  51 "ValveBiped.Bip01_R_Finger01" 50
  52 "ValveBiped.Bip01_R_Finger02" 51
  53 "ValveBiped.Bip01_L_Trapezius" 15
  54 "ValveBiped.Bip01_L_Ulna" 17
  55 "ValveBiped.Bip01_R_Ulna" 36
  56 "ValveBiped.Bip01_L_Wrist" 17
  57 "ValveBiped.Bip01_L_Bicep" 16
  58 "ValveBiped.Bip01_L_Latt" 11
  59 "ValveBiped.Bip01_L_Pectoral" 11
  60 "ValveBiped.Bip01_R_Elbow" 35
  61 "ValveBiped.Bip01_R_Pectoral" 11
  62 "ValveBiped.Bip01_R_Latt" 11
  63 "ValveBiped.Bip01_L_Shoulder" 16
  64 "ValveBiped.Bip01_R_Wrist" 36
  65 "ValveBiped.Bip01_L_Elbow" 16
  66 "ValveBiped.Bip01_R_Trapezius" 34
  67 "ValveBiped.Bip01_R_Shoulder" 35
  68 "ValveBiped.Bip01_R_Bicep" 35
end
skeleton
  time 0
    0 0.766275 2.363955 35.406634 1.645876 0.219356 0.265261
    1 3.984014 -0.000004 -0.000003 -1.643840 -0.529277 -1.211039
    2 15.940013 0.000000 0.000000 0.000000 0.000000 0.787905
    3 17.709564 0.000001 0.000000 -0.004508 0.002097 -1.385004
    4 6.204000 0.000001 0.000000 -0.011146 0.000934 -0.500515
    5 -3.984013 0.000004 0.000008 -0.906614 -0.227848 -1.685979
    6 15.940016 0.000000 0.000000 0.000000 0.000000 0.474324
    7 17.709564 -0.000001 -0.000001 0.158747 -0.070832 -1.228255
    8 6.204000 0.000000 -0.000001 -0.078650 -0.006185 -0.498943
    9 -0.410164 4.193256 -1.689857 1.570796 -0.027977 1.668938
    10 3.837410 0.000000 0.000000 0.000168 -0.117809 -0.112614
    11 3.617867 0.000000 0.000000 -0.097335 -0.060271 -0.012597
    12 7.539780 0.000000 0.000000 -0.119414 -0.141658 0.156559
    13 3.178299 0.000000 0.000000 3.141590 0.000000 0.224127
    14 2.970276 0.000000 0.000000 0.000000 0.000000 0.109880
    15 2.023708 0.907460 0.852579 2.243785 -1.267004 2.273657
    16 4.983665 0.000000 0.000001 -1.578757 -0.546985 -0.557987
    17 11.123055 0.000000 0.000000 0.000000 0.000000 -1.844799
    18 11.208294 -0.000001 -0.000006 1.086510 -0.198861 0.436958
    19 3.549240 0.198827 -1.489471 -0.463403 -0.186140 -1.428467
    20 1.219000 -0.000002 0.000000 -0.000005 0.066202 -0.827640
    21 0.680000 0.000000 0.000000 0.000003 0.000006 -0.594000
    22 3.698006 0.267558 -0.728981 -0.161994 -0.106334 -1.434469
    23 1.749001 0.000000 0.000000 0.000009 0.006397 -0.777634
    24 0.959999 0.000004 0.000000 0.000000 0.000009 -1.170580
    25 3.768501 0.152551 0.071384 0.049930 -0.030486 -1.249500
    26 2.038002 0.000000 0.000000 0.000004 0.033589 -1.110951
    27 1.066998 0.000000 0.000000 -0.000011 -0.000003 -1.111216
    28 3.783920 -0.017254 0.794552 0.283487 0.115906 -1.212806
    29 1.629000 -0.000004 0.000000 0.000003 -0.152214 -1.133717
    30 0.956001 0.000000 0.000000 0.000000 -0.000006 -1.021306
    31 1.258961 -0.297979 1.252590 -1.241289 -0.251338 -0.849490
    32 1.392998 0.000002 -0.000004 0.000000 -0.036075 0.257565
    33 1.099998 0.000000 0.000004 0.000000 0.000006 0.303667
    34 2.023712 0.907463 -0.852528 -0.865931 1.208211 3.782997
    35 4.983668 0.000004 -0.000002 0.786991 0.230940 -1.073460
    36 11.123051 -0.000002 0.000008 0.000000 0.000000 -1.885926
    37 11.208298 0.000000 0.000000 -1.417412 0.095581 -0.151753
    38 3.549271 0.211411 1.487671 0.498222 0.156931 -0.982248
    39 1.219001 0.000000 0.000004 0.000010 -0.456984 -1.112975
    40 0.680000 0.000000 0.000000 -0.000003 -0.000006 -0.672069
    41 3.698023 0.273718 0.726624 0.160532 0.000252 -0.910186
    42 1.748999 0.000002 0.000000 -0.000009 -0.214761 -1.281174
    43 0.960001 0.000000 0.000000 -0.000012 -0.000009 -0.797298
    44 3.768501 0.151955 -0.072739 -0.084949 -0.177602 -0.644873
    45 2.037999 0.000000 0.000000 -0.000004 -0.031660 -1.425514
    46 1.067001 0.000002 0.000000 -0.003429 0.022223 -0.934717
    47 3.783909 -0.023951 -0.794449 -0.321526 -0.122640 -0.062418
    48 1.629001 -0.000004 0.000000 -0.000003 0.126411 -0.583363
    49 0.956001 0.000000 0.000000 -0.051342 0.069097 -1.042848
    50 1.258941 -0.308544 -1.250050 1.282900 0.248609 -0.715173
    51 1.393001 -0.000002 0.000000 0.000000 -0.010078 0.141859
    52 1.100000 0.000002 -0.000004 0.000300 0.002007 1.187213
    53 4.271702 0.000000 0.000000 0.000000 0.000000 0.000000
    54 5.604149 0.000000 -0.000006 -0.030876 0.000000 0.000000
    55 5.604153 -0.000004 -0.000004 0.034930 0.000000 0.000000
    56 11.208298 0.000000 -0.000006 -0.057543 0.000000 0.000000
    57 5.560005 -0.700001 -0.500004 0.000000 0.000000 0.000000
    58 2.132023 1.532023 5.000000 0.000000 0.000000 0.000000
    59 2.000004 4.938047 2.578000 0.000000 0.000000 0.000000
    60 11.123047 0.000000 0.000004 0.000000 0.000000 -0.100063
    61 2.000004 4.938043 -2.578000 0.000000 0.000000 0.000000
    62 2.132027 1.532021 -5.000000 0.000000 0.000000 0.000000
    63 1.500004 0.000002 0.000000 0.000000 0.000000 0.000000
    64 11.208306 0.000000 0.000000 0.065171 0.000000 0.000000
    65 11.123055 0.000000 0.000000 0.000000 0.000000 -0.100081
    66 4.271699 -0.000004 0.000000 0.000000 0.000000 0.000000
    67 1.500000 0.000000 0.000000 0.000000 0.000000 0.000000
    68 5.560001 -0.700001 0.500004 0.000000 0.000000 0.000000
  time 1
    0 0.766275 2.363955 35.406634 1.645876 0.219356 0.265261
    1 3.984014 -0.000004 -0.000003 -1.643840 -0.529277 -1.211039
    2 15.940013 0.000000 0.000000 0.000000 0.000000 0.787905
    3 17.709564 0.000001 0.000000 -0.004508 0.002097 -1.385004
    4 6.204000 0.000001 0.000000 -0.011146 0.000934 -0.500515
    5 -3.984013 0.000004 0.000008 -0.906614 -0.227848 -1.685979
    6 15.940016 0.000000 0.000000 0.000000 0.000000 0.474324
    7 17.709564 -0.000001 -0.000001 0.158747 -0.070832 -1.228255
    8 6.204000 0.000000 -0.000001 -0.078650 -0.006185 -0.498943
    9 -0.410164 4.193256 -1.689857 1.570796 -0.027977 1.668938
    10 3.837410 0.000000 0.000000 0.000168 -0.117809 -0.112614
    11 3.617867 0.000000 0.000000 -0.097335 -0.060271 -0.012597
    12 7.539780 0.000000 0.000000 -0.119414 -0.141658 0.156559
    13 3.178299 0.000000 0.000000 3.141590 0.000000 0.224127
    14 2.970276 0.000000 0.000000 0.000000 0.000000 0.109880
    15 2.023708 0.907460 0.852579 2.243785 -1.267004 2.273657
    16 4.983665 0.000000 0.000001 -1.578757 -0.546985 -0.557987
    17 11.123055 0.000000 0.000000 0.000000 0.000000 -1.844799
    18 11.208294 -0.000001 -0.000006 1.086510 -0.198861 0.436958
    19 3.549240 0.198827 -1.489471 -0.463403 -0.186140 -1.428467
    20 1.219000 -0.000002 0.000000 -0.000005 0.066202 -0.827640
    21 0.680000 0.000000 0.000000 0.000003 0.000006 -0.594000
    22 3.698006 0.267558 -0.728981 -0.161994 -0.106334 -1.434469
    23 1.749001 0.000000 0.000000 0.000009 0.006397 -0.777634
    24 0.959999 0.000004 0.000000 0.000000 0.000009 -1.170580
    25 3.768501 0.152551 0.071384 0.049930 -0.030486 -1.249500
    26 2.038002 0.000000 0.000000 0.000004 0.033589 -1.110951
    27 1.066998 0.000000 0.000000 -0.000011 -0.000003 -1.111216
    28 3.783920 -0.017254 0.794552 0.283487 0.115906 -1.212806
    29 1.629000 -0.000004 0.000000 0.000003 -0.152214 -1.133717
    30 0.956001 0.000000 0.000000 0.000000 -0.000006 -1.021306
    31 1.258961 -0.297979 1.252590 -1.241289 -0.251338 -0.849490
    32 1.392998 0.000002 -0.000004 0.000000 -0.036075 0.257565
    33 1.099998 0.000000 0.000004 0.000000 0.000006 0.303667
    34 2.023712 0.907463 -0.852528 -0.865931 1.208211 3.782997
    35 4.983668 0.000004 -0.000002 0.786991 0.230940 -1.073460
    36 11.123051 -0.000002 0.000008 0.000000 0.000000 -1.885926
    37 11.208298 0.000000 0.000000 -1.417412 0.095581 -0.151753
    38 3.549271 0.211411 1.487671 0.498222 0.156931 -0.982248
    39 1.219001 0.000000 0.000004 0.000010 -0.456984 -1.112975
    40 0.680000 0.000000 0.000000 -0.000003 -0.000006 -0.672069
    41 3.698023 0.273718 0.726624 0.160532 0.000252 -0.910186
    42 1.748999 0.000002 0.000000 -0.000009 -0.214761 -1.281174
    43 0.960001 0.000000 0.000000 -0.000012 -0.000009 -0.797298
    44 3.768501 0.151955 -0.072739 -0.084949 -0.177602 -0.644873
    45 2.037999 0.000000 0.000000 -0.000004 -0.031660 -1.425514
    46 1.067001 0.000002 0.000000 -0.003429 0.022223 -0.934717
    47 3.783909 -0.023951 -0.794449 -0.321526 -0.122640 -0.062418
    48 1.629001 -0.000004 0.000000 -0.000003 0.126411 -0.583363
    49 0.956001 0.000000 0.000000 -0.051342 0.069097 -1.042848
    50 1.258941 -0.308544 -1.250050 1.282900 0.248609 -0.715173
    51 1.393001 -0.000002 0.000000 0.000000 -0.010078 0.141859
    52 1.100000 0.000002 -0.000004 0.000300 0.002007 1.187213
    53 4.271702 0.000000 0.000000 0.000000 0.000000 0.000000
    54 5.604149 0.000000 -0.000006 -0.030876 0.000000 0.000000
    55 5.604153 -0.000004 -0.000004 0.034930 0.000000 0.000000
    56 11.208298 0.000000 -0.000006 -0.057543 0.000000 0.000000
    57 5.560005 -0.700001 -0.500004 0.000000 0.000000 0.000000
    58 2.132023 1.532023 5.000000 0.000000 0.000000 0.000000
    59 2.000004 4.938047 2.578000 0.000000 0.000000 0.000000
    60 11.123047 0.000000 0.000004 0.000000 0.000000 -0.100063
    61 2.000004 4.938043 -2.578000 0.000000 0.000000 0.000000
    62 2.132027 1.532021 -5.000000 0.000000 0.000000 0.000000
    63 1.500004 0.000002 0.000000 0.000000 0.000000 0.000000
    64 11.208306 0.000000 0.000000 0.065171 0.000000 0.000000
    65 11.123055 0.000000 0.000000 0.000000 0.000000 -0.100081
    66 4.271699 -0.000004 0.000000 0.000000 0.000000 0.000000
    67 1.500000 0.000000 0.000000 0.000000 0.000000 0.000000
    68 5.560001 -0.700001 0.500004 0.000000 0.000000 0.000000
  time 2
    0 0.766275 2.363955 35.406634 1.645876 0.219356 0.265261
    1 3.984014 -0.000004 -0.000003 -1.643840 -0.529277 -1.211039
    2 15.940013 0.000000 0.000000 0.000000 0.000000 0.787905
    3 17.709564 0.000001 0.000000 -0.004508 0.002097 -1.385004
    4 6.204000 0.000001 0.000000 -0.011146 0.000934 -0.500515
    5 -3.984013 0.000004 0.000008 -0.906614 -0.227848 -1.685979
    6 15.940016 0.000000 0.000000 0.000000 0.000000 0.474324
    7 17.709564 -0.000001 -0.000001 0.158747 -0.070832 -1.228255
    8 6.204000 0.000000 -0.000001 -0.078650 -0.006185 -0.498943
    9 -0.410164 4.193256 -1.689857 1.570796 -0.027977 1.668938
    10 3.837410 0.000000 0.000000 0.000168 -0.117809 -0.112614
    11 3.617867 0.000000 0.000000 -0.097335 -0.060271 -0.012597
    12 7.539780 0.000000 0.000000 -0.119414 -0.141658 0.156559
    13 3.178299 0.000000 0.000000 3.141590 0.000000 0.224127
    14 2.970276 0.000000 0.000000 0.000000 0.000000 0.109880
    15 2.023708 0.907460 0.852579 2.243785 -1.267004 2.273657
    16 4.983665 0.000000 0.000001 -1.578757 -0.546985 -0.557987
    17 11.123055 0.000000 0.000000 0.000000 0.000000 -1.844799
    18 11.208294 -0.000001 -0.000006 1.086510 -0.198861 0.436958
    19 3.549240 0.198827 -1.489471 -0.463403 -0.186140 -1.428467
    20 1.219000 -0.000002 0.000000 -0.000005 0.066202 -0.827640
    21 0.680000 0.000000 0.000000 0.000003 0.000006 -0.594000
    22 3.698006 0.267558 -0.728981 -0.161994 -0.106334 -1.434469
    23 1.749001 0.000000 0.000000 0.000009 0.006397 -0.777634
    24 0.959999 0.000004 0.000000 0.000000 0.000009 -1.170580
    25 3.768501 0.152551 0.071384 0.049930 -0.030486 -1.249500
    26 2.038002 0.000000 0.000000 0.000004 0.033589 -1.110951
    27 1.066998 0.000000 0.000000 -0.000011 -0.000003 -1.111216
    28 3.783920 -0.017254 0.794552 0.283487 0.115906 -1.212806
    29 1.629000 -0.000004 0.000000 0.000003 -0.152214 -1.133717
    30 0.956001 0.000000 0.000000 0.000000 -0.000006 -1.021306
    31 1.258961 -0.297979 1.252590 -1.241289 -0.251338 -0.849490
    32 1.392998 0.000002 -0.000004 0.000000 -0.036075 0.257565
    33 1.099998 0.000000 0.000004 0.000000 0.000006 0.303667
    34 2.023712 0.907463 -0.852528 -0.865931 1.208211 3.782997
    35 4.983668 0.000004 -0.000002 0.786991 0.230940 -1.073460
    36 11.123051 -0.000002 0.000008 0.000000 0.000000 -1.885926
    37 11.208298 0.000000 0.000000 -1.417412 0.095581 -0.151753
    38 3.549271 0.211411 1.487671 0.498222 0.156931 -0.982248
    39 1.219001 0.000000 0.000004 0.000010 -0.456984 -1.112975
    40 0.680000 0.000000 0.000000 -0.000003 -0.000006 -0.672069
    41 3.698023 0.273718 0.726624 0.160532 0.000252 -0.910186
    42 1.748999 0.000002 0.000000 -0.000009 -0.214761 -1.281174
    43 0.960001 0.000000 0.000000 -0.000012 -0.000009 -0.797298
    44 3.768501 0.151955 -0.072739 -0.084949 -0.177602 -0.644873
    45 2.037999 0.000000 0.000000 -0.000004 -0.031660 -1.425514
    46 1.067001 0.000002 0.000000 -0.003429 0.022223 -0.934717
    47 3.783909 -0.023951 -0.794449 -0.321526 -0.122640 -0.062418
    48 1.629001 -0.000004 0.000000 -0.000003 0.126411 -0.583363
    49 0.956001 0.000000 0.000000 -0.051342 0.069097 -1.042848
    50 1.258941 -0.308544 -1.250050 1.282900 0.248609 -0.715173
    51 1.393001 -0.000002 0.000000 0.000000 -0.010078 0.141859
    52 1.100000 0.000002 -0.000004 0.000300 0.002007 1.187213
    53 4.271702 0.000000 0.000000 0.000000 0.000000 0.000000
    54 5.604149 0.000000 -0.000006 -0.030876 0.000000 0.000000
    55 5.604153 -0.000004 -0.000004 0.034930 0.000000 0.000000
    56 11.208298 0.000000 -0.000006 -0.057543 0.000000 0.000000
    57 5.560005 -0.700001 -0.500004 0.000000 0.000000 0.000000
    58 2.132023 1.532023 5.000000 0.000000 0.000000 0.000000
    59 2.000004 4.938047 2.578000 0.000000 0.000000 0.000000
    60 11.123047 0.000000 0.000004 0.000000 0.000000 -0.100063
    61 2.000004 4.938043 -2.578000 0.000000 0.000000 0.000000
    62 2.132027 1.532021 -5.000000 0.000000 0.000000 0.000000
    63 1.500004 0.000002 0.000000 0.000000 0.000000 0.000000
    64 11.208306 0.000000 0.000000 0.065171 0.000000 0.000000
    65 11.123055 0.000000 0.000000 0.000000 0.000000 -0.100081
    66 4.271699 -0.000004 0.000000 0.000000 0.000000 0.000000
    67 1.500000 0.000000 0.000000 0.000000 0.000000 0.000000
    68 5.560001 -0.700001 0.500004 0.000000 0.000000 0.000000
  time 3
    0 0.766275 2.363955 35.406634 1.645876 0.219356 0.265261
    1 3.984014 -0.000004 -0.000003 -1.643840 -0.529277 -1.211039
    2 15.940013 0.000000 0.000000 0.000000 0.000000 0.787905
    3 17.709564 0.000001 0.000000 -0.004508 0.002097 -1.385004
    4 6.204000 0.000001 0.000000 -0.011146 0.000934 -0.500515
    5 -3.984013 0.000004 0.000008 -0.906614 -0.227848 -1.685979
    6 15.940016 0.000000 0.000000 0.000000 0.000000 0.474324
    7 17.709564 -0.000001 -0.000001 0.158747 -0.070832 -1.228255
    8 6.204000 0.000000 -0.000001 -0.078650 -0.006185 -0.498943
    9 -0.410164 4.193256 -1.689857 1.570796 -0.027977 1.668938
    10 3.837410 0.000000 0.000000 0.000168 -0.117809 -0.112614
    11 3.617867 0.000000 0.000000 -0.097335 -0.060271 -0.012597
    12 7.539780 0.000000 0.000000 -0.119414 -0.141658 0.156559
    13 3.178299 0.000000 0.000000 3.141590 0.000000 0.224127
    14 2.970276 0.000000 0.000000 0.000000 0.000000 0.109880
    15 2.023708 0.907460 0.852579 2.243785 -1.267004 2.273657
    16 4.983665 0.000000 0.000001 -1.578757 -0.546985 -0.557987
    17 11.123055 0.000000 0.000000 0.000000 0.000000 -1.844799
    18 11.208294 -0.000001 -0.000006 1.086510 -0.198861 0.436958
    19 3.549240 0.198827 -1.489471 -0.463403 -0.186140 -1.428467
    20 1.219000 -0.000002 0.000000 -0.000005 0.066202 -0.827640
    21 0.680000 0.000000 0.000000 0.000003 0.000006 -0.594000
    22 3.698006 0.267558 -0.728981 -0.161994 -0.106334 -1.434469
    23 1.749001 0.000000 0.000000 0.000009 0.006397 -0.777634
    24 0.959999 0.000004 0.000000 0.000000 0.000009 -1.170580
    25 3.768501 0.152551 0.071384 0.049930 -0.030486 -1.249500
    26 2.038002 0.000000 0.000000 0.000004 0.033589 -1.110951
    27 1.066998 0.000000 0.000000 -0.000011 -0.000003 -1.111216
    28 3.783920 -0.017254 0.794552 0.283487 0.115906 -1.212806
    29 1.629000 -0.000004 0.000000 0.000003 -0.152214 -1.133717
    30 0.956001 0.000000 0.000000 0.000000 -0.000006 -1.021306
    31 1.258961 -0.297979 1.252590 -1.241289 -0.251338 -0.849490
    32 1.392998 0.000002 -0.000004 0.000000 -0.036075 0.257565
    33 1.099998 0.000000 0.000004 0.000000 0.000006 0.303667
    34 2.023712 0.907463 -0.852528 -0.865931 1.208211 3.782997
    35 4.983668 0.000004 -0.000002 0.786991 0.230940 -1.073460
    36 11.123051 -0.000002 0.000008 0.000000 0.000000 -1.885926
    37 11.208298 0.000000 0.000000 -1.417412 0.095581 -0.151753
    38 3.549271 0.211411 1.487671 0.498222 0.156931 -0.982248
    39 1.219001 0.000000 0.000004 0.000010 -0.456984 -1.112975
    40 0.680000 0.000000 0.000000 -0.000003 -0.000006 -0.672069
    41 3.698023 0.273718 0.726624 0.160532 0.000252 -0.910186
    42 1.748999 0.000002 0.000000 -0.000009 -0.214761 -1.281174
    43 0.960001 0.000000 0.000000 -0.000012 -0.000009 -0.797298
    44 3.768501 0.151955 -0.072739 -0.084949 -0.177602 -0.644873
    45 2.037999 0.000000 0.000000 -0.000004 -0.031660 -1.425514
    46 1.067001 0.000002 0.000000 -0.003429 0.022223 -0.934717
    47 3.783909 -0.023951 -0.794449 -0.321526 -0.122640 -0.062418
    48 1.629001 -0.000004 0.000000 -0.000003 0.126411 -0.583363
    49 0.956001 0.000000 0.000000 -0.051342 0.069097 -1.042848
    50 1.258941 -0.308544 -1.250050 1.282900 0.248609 -0.715173
    51 1.393001 -0.000002 0.000000 0.000000 -0.010078 0.141859
    52 1.100000 0.000002 -0.000004 0.000300 0.002007 1.187213
    53 4.271702 0.000000 0.000000 0.000000 0.000000 0.000000
    54 5.604149 0.000000 -0.000006 -0.030876 0.000000 0.000000
    55 5.604153 -0.000004 -0.000004 0.034930 0.000000 0.000000
    56 11.208298 0.000000 -0.000006 -0.057543 0.000000 0.000000
    57 5.560005 -0.700001 -0.500004 0.000000 0.000000 0.000000
    58 2.132023 1.532023 5.000000 0.000000 0.000000 0.000000
    59 2.000004 4.938047 2.578000 0.000000 0.000000 0.000000
    60 11.123047 0.000000 0.000004 0.000000 0.000000 -0.100063
    61 2.000004 4.938043 -2.578000 0.000000 0.000000 0.000000
    62 2.132027 1.532021 -5.000000 0.000000 0.000000 0.000000
    63 1.500004 0.000002 0.000000 0.000000 0.000000 0.000000
    64 11.208306 0.000000 0.000000 0.065171 0.000000 0.000000
    65 11.123055 0.000000 0.000000 0.000000 0.000000 -0.100081
    66 4.271699 -0.000004 0.000000 0.000000 0.000000 0.000000
    67 1.500000 0.000000 0.000000 0.000000 0.000000 0.000000
    68 5.560001 -0.700001 0.500004 0.000000 0.000000 0.000000
  time 4
    0 0.766275 2.363955 35.406634 1.645876 0.219356 0.265261
    1 3.984014 -0.000004 -0.000003 -1.643840 -0.529277 -1.211039
    2 15.940013 0.000000 0.000000 0.000000 0.000000 0.787905
    3 17.709564 0.000001 0.000000 -0.004508 0.002097 -1.385004
    4 6.204000 0.000001 0.000000 -0.011146 0.000934 -0.500515
    5 -3.984013 0.000004 0.000008 -0.906614 -0.227848 -1.685979
    6 15.940016 0.000000 0.000000 0.000000 0.000000 0.474324
    7 17.709564 -0.000001 -0.000001 0.158747 -0.070832 -1.228255
    8 6.204000 0.000000 -0.000001 -0.078650 -0.006185 -0.498943
    9 -0.410164 4.193256 -1.689857 1.570796 -0.027977 1.668938
    10 3.837410 0.000000 0.000000 0.000168 -0.117809 -0.112614
    11 3.617867 0.000000 0.000000 -0.097335 -0.060271 -0.012597
    12 7.539780 0.000000 0.000000 -0.119414 -0.141658 0.156559
    13 3.178299 0.000000 0.000000 3.141590 0.000000 0.224127
    14 2.970276 0.000000 0.000000 0.000000 0.000000 0.109880
    15 2.023708 0.907460 0.852579 2.243785 -1.267004 2.273657
    16 4.983665 0.000000 0.000001 -1.578757 -0.546985 -0.557987
    17 11.123055 0.000000 0.000000 0.000000 0.000000 -1.844799
    18 11.208294 -0.000001 -0.000006 1.086510 -0.198861 0.436958
    19 3.549240 0.198827 -1.489471 -0.463403 -0.186140 -1.428467
    20 1.219000 -0.000002 0.000000 -0.000005 0.066202 -0.827640
    21 0.680000 0.000000 0.000000 0.000003 0.000006 -0.594000
    22 3.698006 0.267558 -0.728981 -0.161994 -0.106334 -1.434469
    23 1.749001 0.000000 0.000000 0.000009 0.006397 -0.777634
    24 0.959999 0.000004 0.000000 0.000000 0.000009 -1.170580
    25 3.768501 0.152551 0.071384 0.049930 -0.030486 -1.249500
    26 2.038002 0.000000 0.000000 0.000004 0.033589 -1.110951
    27 1.066998 0.000000 0.000000 -0.000011 -0.000003 -1.111216
    28 3.783920 -0.017254 0.794552 0.283487 0.115906 -1.212806
    29 1.629000 -0.000004 0.000000 0.000003 -0.152214 -1.133717
    30 0.956001 0.000000 0.000000 0.000000 -0.000006 -1.021306
    31 1.258961 -0.297979 1.252590 -1.241289 -0.251338 -0.849490
    32 1.392998 0.000002 -0.000004 0.000000 -0.036075 0.257565
    33 1.099998 0.000000 0.000004 0.000000 0.000006 0.303667
    34 2.023712 0.907463 -0.852528 -0.865931 1.208211 3.782997
    35 4.983668 0.000004 -0.000002 0.786991 0.230940 -1.073460
    36 11.123051 -0.000002 0.000008 0.000000 0.000000 -1.885926
    37 11.208298 0.000000 0.000000 -1.417412 0.095581 -0.151753
    38 3.549271 0.211411 1.487671 0.498222 0.156931 -0.982248
    39 1.219001 0.000000 0.000004 0.000010 -0.456984 -1.112975
    40 0.680000 0.000000 0.000000 -0.000003 -0.000006 -0.672069
    41 3.698023 0.273718 0.726624 0.160532 0.000252 -0.910186
    42 1.748999 0.000002 0.000000 -0.000009 -0.214761 -1.281174
    43 0.960001 0.000000 0.000000 -0.000012 -0.000009 -0.797298
    44 3.768501 0.151955 -0.072739 -0.084949 -0.177602 -0.644873
    45 2.037999 0.000000 0.000000 -0.000004 -0.031660 -1.425514
    46 1.067001 0.000002 0.000000 -0.003429 0.022223 -0.934717
    47 3.783909 -0.023951 -0.794449 -0.321526 -0.122640 -0.062418
    48 1.629001 -0.000004 0.000000 -0.000003 0.126411 -0.583363
    49 0.956001 0.000000 0.000000 -0.051342 0.069097 -1.042848
    50 1.258941 -0.308544 -1.250050 1.282900 0.248609 -0.715173
    51 1.393001 -0.000002 0.000000 0.000000 -0.010078 0.141859
    52 1.100000 0.000002 -0.000004 0.000300 0.002007 1.187213
    53 4.271702 0.000000 0.000000 0.000000 0.000000 0.000000
    54 5.604149 0.000000 -0.000006 -0.030876 0.000000 0.000000
    55 5.604153 -0.000004 -0.000004 0.034930 0.000000 0.000000
    56 11.208298 0.000000 -0.000006 -0.057543 0.000000 0.000000
    57 5.560005 -0.700001 -0.500004 0.000000 0.000000 0.000000
    58 2.132023 1.532023 5.000000 0.000000 0.000000 0.000000
    59 2.000004 4.938047 2.578000 0.000000 0.000000 0.000000
    60 11.123047 0.000000 0.000004 0.000000 0.000000 -0.100063
    61 2.000004 4.938043 -2.578000 0.000000 0.000000 0.000000
    62 2.132027 1.532021 -5.000000 0.000000 0.000000 0.000000
    63 1.500004 0.000002 0.000000 0.000000 0.000000 0.000000
    64 11.208306 0.000000 0.000000 0.065171 0.000000 0.000000
    65 11.123055 0.000000 0.000000 0.000000 0.000000 -0.100081
    66 4.271699 -0.000004 0.000000 0.000000 0.000000 0.000000
    67 1.500000 0.000000 0.000000 0.000000 0.000000 0.000000
    68 5.560001 -0.700001 0.500004 0.000000 0.000000 0.000000
end
