version 1
nodes
  0 "ValveBiped.Bip01_Pelvis" -1
  1 "ValveBiped.Bip01_L_Thigh" 0
  2 "ValveBiped.Bip01_L_Calf" 1
  3 "ValveBiped.Bip01_L_Foot" 2
  4 "ValveBiped.Bip01_L_Toe0" 3
  5 "ValveBiped.Bip01_R_Thigh" 0
  6 "ValveBiped.Bip01_R_Calf" 5
  7 "ValveBiped.Bip01_R_Foot" 6
  8 "ValveBiped.Bip01_R_Toe0" 7
  9 "ValveBiped.Bip01_Spine" 0
  10 "ValveBiped.Bip01_Spine1" 9
  11 "ValveBiped.Bip01_Spine2" 10
  12 "ValveBiped.Bip01_Spine4" 11
  13 "ValveBiped.Bip01_Neck1" 12
  14 "ValveBiped.Bip01_Head1" 13
  15 "ValveBiped.Bip01_L_Clavicle" 12
  16 "ValveBiped.Bip01_L_UpperArm" 15
  17 "ValveBiped.Bip01_L_Forearm" 16
  18 "ValveBiped.Bip01_L_Hand" 17
  19 "ValveBiped.Bip01_L_Finger4" 18
  20 "ValveBiped.Bip01_L_Finger41" 19
  21 "ValveBiped.Bip01_L_Finger42" 20
  22 "ValveBiped.Bip01_L_Finger3" 18
  23 "ValveBiped.Bip01_L_Finger31" 22
  24 "ValveBiped.Bip01_L_Finger32" 23
  25 "ValveBiped.Bip01_L_Finger2" 18
  26 "ValveBiped.Bip01_L_Finger21" 25
  27 "ValveBiped.Bip01_L_Finger22" 26
  28 "ValveBiped.Bip01_L_Finger1" 18
  29 "ValveBiped.Bip01_L_Finger11" 28
  30 "ValveBiped.Bip01_L_Finger12" 29
  31 "ValveBiped.Bip01_L_Finger0" 18
  32 "ValveBiped.Bip01_L_Finger01" 31
  33 "ValveBiped.Bip01_L_Finger02" 32
  34 "ValveBiped.Bip01_R_Clavicle" 12
  35 "ValveBiped.Bip01_R_UpperArm" 34
  36 "ValveBiped.Bip01_R_Forearm" 35
  37 "ValveBiped.Bip01_R_Hand" 36
  38 "ValveBiped.Bip01_R_Finger4" 37
  39 "ValveBiped.Bip01_R_Finger41" 38
  40 "ValveBiped.Bip01_R_Finger42" 39
  41 "ValveBiped.Bip01_R_Finger3" 37
  42 "ValveBiped.Bip01_R_Finger31" 41
  43 "ValveBiped.Bip01_R_Finger32" 42
  44 "ValveBiped.Bip01_R_Finger2" 37
  45 "ValveBiped.Bip01_R_Finger21" 44
  46 "ValveBiped.Bip01_R_Finger22" 45
  47 "ValveBiped.Bip01_R_Finger1" 37
  48 "ValveBiped.Bip01_R_Finger11" 47
  49 "ValveBiped.Bip01_R_Finger12" 48
  50 "ValveBiped.Bip01_R_Finger0" 37
  51 "ValveBiped.Bip01_R_Finger01" 50
  52 "ValveBiped.Bip01_R_Finger02" 51
  53 "ValveBiped.Bip01_L_Trapezius" 15
  54 "ValveBiped.Bip01_L_Ulna" 17
  55 "ValveBiped.Bip01_R_Ulna" 36
  56 "ValveBiped.Bip01_L_Wrist" 17
  57 "ValveBiped.Bip01_L_Bicep" 16
  58 "ValveBiped.Bip01_L_Latt" 11
  59 "ValveBiped.Bip01_L_Pectoral" 11
  60 "ValveBiped.Bip01_R_Elbow" 35
  61 "ValveBiped.Bip01_R_Pectoral" 11
  62 "ValveBiped.Bip01_R_Latt" 11
  63 "ValveBiped.Bip01_L_Shoulder" 16
  64 "ValveBiped.Bip01_R_Wrist" 36
  65 "ValveBiped.Bip01_L_Elbow" 16
  66 "ValveBiped.Bip01_R_Trapezius" 34
  67 "ValveBiped.Bip01_R_Shoulder" 35
  68 "ValveBiped.Bip01_R_Bicep" 35
end
skeleton
  time 0
    0 0.461578 -1.103172 24.003633 1.537218 -0.010258 -0.307913
    1 3.984014 -0.000006 -0.000003 -2.124570 -1.149494 -1.152296
    2 15.940011 0.000000 0.000000 0.000000 0.000000 1.869421
    3 17.709560 0.000000 0.000000 -0.069717 -0.289953 -1.710863
    4 6.204000 0.000000 0.000000 -0.011146 0.000934 -0.500515
    5 -3.984013 0.000006 0.000007 -1.181428 -0.538874 -2.061553
    6 15.940012 0.000000 0.000000 0.000000 0.000000 1.806641
    7 17.709560 -0.000001 0.000000 0.235362 -0.102813 -2.182322
    8 6.204000 0.000000 0.000000 -0.078651 -0.006185 -0.498943
    9 0.007818 4.212788 -1.689857 1.474800 -0.027859 1.571243
    10 3.837408 0.000000 0.000000 -0.149412 0.047327 -0.083322
    11 3.617867 0.000000 0.000000 -0.238832 0.013710 0.333150
    12 7.539780 -0.000001 0.000000 -0.023370 0.122830 0.379160
    13 3.178295 0.000000 0.000000 3.141590 0.000000 0.224127
    14 2.970274 0.000000 0.000000 0.675035 -0.142343 0.452607
    15 2.023708 0.907461 0.852578 1.116708 -1.347698 3.412542
    16 4.983666 0.000000 0.000000 -1.794051 -0.806651 -1.312217
    17 11.123051 -0.000002 0.000000 0.000000 0.000000 -1.651867
    18 11.208292 -0.000004 -0.000001 -0.174477 0.229732 0.528662
    19 3.549244 0.198826 -1.489467 -0.272689 -0.071390 -0.003004
    20 1.219002 0.000000 0.000000 -0.416571 0.363228 -1.710881
    21 0.680000 -0.000002 0.000000 -0.030462 0.149154 -0.402247
    22 3.698008 0.267555 -0.728977 -0.055559 -0.097346 -0.073318
    23 1.748997 -0.000004 0.000000 -0.194800 0.216726 -1.463546
    24 0.960003 0.000001 0.000001 -0.005405 0.048654 -0.221708
    25 3.768501 0.152550 0.071384 0.099678 -0.097312 -0.126605
    26 2.038000 -0.000004 0.000001 -0.067373 0.068560 -1.553288
    27 1.067001 -0.000004 -0.000001 -0.003163 0.020598 -0.304747
    28 3.783921 -0.017254 0.794554 0.338436 -0.014271 -0.573565
    29 1.628998 0.000002 -0.000001 0.061352 -0.118477 -0.954967
    30 0.956001 0.000004 0.000000 0.029626 -0.087949 -0.649392
    31 1.258962 -0.297981 1.252589 -1.009606 -0.070537 -1.203497
    32 1.392998 0.000000 0.000000 0.003370 0.026652 0.251678
    33 1.099998 0.000000 0.000001 0.000000 0.000006 -0.000033
    34 2.023712 0.907463 -0.852529 -0.693334 1.189929 3.884390
    35 4.983665 0.000000 -0.000002 -0.908200 0.888334 -2.859430
    36 11.123048 0.000000 0.000006 0.000000 0.000000 -0.924265
    37 11.208292 -0.000002 0.000000 -0.996564 -0.132848 0.501323
    38 3.549271 0.211410 1.487671 0.410923 0.123007 -0.756633
    39 1.219000 -0.000001 0.000000 0.082428 -0.261839 -0.607002
    40 0.680000 -0.000001 -0.000004 0.205126 -0.375124 -0.993822
    41 3.698020 0.273716 0.726627 0.177574 -0.069922 -0.759508
    42 1.748998 0.000000 0.000004 0.051548 -0.155701 -0.638349
    43 0.960000 0.000000 0.000000 0.193935 -0.249767 -1.318440
    44 3.768498 0.151954 -0.072735 -0.136591 -0.008811 -0.777521
    45 2.037999 -0.000002 0.000000 0.018740 -0.055377 -0.652464
    46 1.067000 0.000002 0.000000 0.091849 -0.091056 -1.579546
    47 3.783906 -0.023951 -0.794449 -0.320016 0.260843 -0.059333
    48 1.629000 0.000000 0.000004 -0.019874 0.072253 -0.536673
    49 0.956002 -0.000002 0.000000 -0.066802 0.119804 -1.016557
    50 1.258938 -0.308544 -1.250050 1.056185 0.100071 -1.187502
    51 1.393000 -0.000004 0.000002 0.016659 0.092786 0.355094
    52 1.100001 0.000000 -0.000002 0.015880 0.090669 0.346573
    53 4.271699 0.000000 0.000000 0.000000 0.000000 0.000000
    54 5.604147 -0.000002 -0.000005 -0.030876 0.000000 0.000000
    55 5.604149 0.000000 0.000000 0.034930 0.000000 0.000000
    56 11.208290 0.000000 -0.000007 -0.057543 0.000000 0.000000
    57 5.560005 -0.699999 -0.500006 0.000000 0.000000 0.000000
    58 2.132023 1.532021 4.999999 0.000000 0.000000 0.000000
    59 2.000000 4.938045 2.578000 0.000000 0.000000 0.000000
    60 11.123049 0.000002 0.000004 0.000000 -0.000001 -0.100063
    61 2.000000 4.938040 -2.578000 0.000000 0.000000 0.000000
    62 2.132023 1.532021 -4.999999 0.000000 0.000000 0.000000
    63 1.500000 0.000000 -0.000001 0.000000 0.000000 0.000000
    64 11.208300 0.000002 0.000002 0.065171 0.000000 0.000000
    65 11.123055 0.000000 -0.000003 0.000000 0.000000 -0.100081
    66 4.271697 -0.000004 0.000000 0.000000 0.000000 0.000000
    67 1.500000 0.000000 -0.000004 0.000000 -0.000001 0.000000
    68 5.560003 -0.699999 0.500002 0.000000 -0.000001 0.000000
  time 1
    0 0.461578 -0.620532 24.003633 1.537218 -0.010258 -0.307913
    1 3.984014 -0.000006 -0.000003 -2.149494 -1.164324 -1.123496
    2 15.940011 0.000000 0.000000 0.000000 0.000000 1.861750
    3 17.709560 0.000000 0.000000 -0.070908 -0.287924 -1.684109
    4 6.204000 0.000000 0.000000 -0.011146 0.000934 -0.500515
    5 -3.984013 0.000006 0.000007 -1.177030 -0.566323 -2.056888
    6 15.940012 0.000000 0.000000 0.000000 0.000000 1.819161
    7 17.709560 -0.000001 0.000000 0.223858 -0.092054 -2.169915
    8 6.204000 0.000000 0.000000 -0.078651 -0.006185 -0.498943
    9 0.007818 4.212788 -1.689857 1.474800 -0.027859 1.571243
    10 3.837408 0.000000 0.000000 -0.114621 0.050251 -0.083717
    11 3.617867 0.000000 0.000000 -0.204069 0.017018 0.332401
    12 7.539780 -0.000001 0.000000 -0.023370 0.122830 0.379160
    13 3.178295 0.000000 0.000000 3.141590 0.000000 0.224127
    14 2.970274 0.000000 0.000000 0.607348 -0.157377 0.468233
    15 2.023708 0.907461 0.852578 1.116708 -1.347698 3.412542
    16 4.983666 0.000000 0.000000 -1.782866 -0.901007 -1.288866
    17 11.123051 -0.000002 0.000000 0.000000 0.000000 -1.527069
    18 11.208292 -0.000004 -0.000001 -0.176153 0.225178 0.528019
    19 3.549244 0.198826 -1.489467 -0.272689 -0.071390 -0.003004
    20 1.219002 0.000000 0.000000 -0.416584 0.363228 -1.710881
    21 0.680000 -0.000002 0.000000 -0.030462 0.149154 -0.402247
    22 3.698008 0.267555 -0.728977 -0.055559 -0.097346 -0.073318
    23 1.748997 -0.000004 0.000000 -0.194800 0.216726 -1.463546
    24 0.960003 0.000001 0.000001 -0.005405 0.048654 -0.221708
    25 3.768501 0.152550 0.071384 0.099678 -0.097312 -0.126605
    26 2.038000 -0.000004 0.000001 -0.067373 0.068560 -1.553288
    27 1.067001 -0.000004 -0.000001 -0.003163 0.020598 -0.304747
    28 3.783921 -0.017254 0.794554 0.338436 -0.014271 -0.573565
    29 1.628998 0.000002 -0.000001 0.061352 -0.118477 -0.954967
    30 0.956001 0.000004 0.000000 0.029626 -0.087949 -0.649392
    31 1.258962 -0.297981 1.252589 -1.009606 -0.070537 -1.203497
    32 1.392998 0.000000 0.000000 0.003370 0.026652 0.251678
    33 1.099998 0.000000 0.000001 0.000000 0.000006 -0.000033
    34 2.023712 0.907463 -0.852529 -0.693334 1.189929 3.884390
    35 4.983665 0.000000 -0.000002 -1.003779 0.848388 -3.007590
    36 11.123048 0.000000 0.000006 0.000000 0.000000 -0.698083
    37 11.208292 -0.000002 0.000000 -0.994522 -0.128897 0.500691
    38 3.549271 0.211410 1.487671 0.410923 0.123007 -0.756633
    39 1.219000 -0.000001 0.000000 0.082428 -0.261839 -0.607002
    40 0.680000 -0.000001 -0.000004 0.205126 -0.375124 -0.993822
    41 3.698020 0.273716 0.726627 0.177574 -0.069922 -0.759508
    42 1.748998 0.000000 0.000004 0.051548 -0.155701 -0.638349
    43 0.960000 0.000000 0.000000 0.193935 -0.249767 -1.318440
    44 3.768498 0.151954 -0.072735 -0.136591 -0.008811 -0.777521
    45 2.037999 -0.000002 0.000000 0.018740 -0.055377 -0.652464
    46 1.067000 0.000002 0.000000 0.091849 -0.091056 -1.579546
    47 3.783906 -0.023951 -0.794449 -0.320016 0.260843 -0.059333
    48 1.629000 0.000000 0.000004 -0.019874 0.072253 -0.536673
    49 0.956002 -0.000002 0.000000 -0.066802 0.119804 -1.016557
    50 1.258938 -0.308544 -1.250050 1.056185 0.100071 -1.187502
    51 1.393000 -0.000004 0.000002 0.016659 0.092786 0.355094
    52 1.100001 0.000000 -0.000002 0.015880 0.090669 0.346573
    53 4.271699 0.000000 0.000000 0.000000 0.000000 0.000000
    54 5.604147 -0.000002 -0.000005 -0.030876 0.000000 0.000000
    55 5.604149 0.000000 0.000000 0.034930 0.000000 0.000000
    56 11.208290 0.000000 -0.000007 -0.057543 0.000000 0.000000
    57 5.560005 -0.699999 -0.500006 0.000000 0.000000 0.000000
    58 2.132023 1.532021 4.999999 0.000000 0.000000 0.000000
    59 2.000000 4.938045 2.578000 0.000000 0.000000 0.000000
    60 11.123049 0.000002 0.000004 0.000000 -0.000001 -0.100063
    61 2.000000 4.938040 -2.578000 0.000000 0.000000 0.000000
    62 2.132023 1.532021 -4.999999 0.000000 0.000000 0.000000
    63 1.500000 0.000000 -0.000001 0.000000 0.000000 0.000000
    64 11.208300 0.000002 0.000002 0.065171 0.000000 0.000000
    65 11.123055 0.000000 -0.000003 0.000000 0.000000 -0.100081
    66 4.271697 -0.000004 0.000000 0.000000 0.000000 0.000000
    67 1.500000 0.000000 -0.000004 0.000000 -0.000001 0.000000
    68 5.560003 -0.699999 0.500002 0.000000 -0.000001 0.000000
  time 2
    0 0.461578 -0.699330 24.003633 1.537218 -0.010258 -0.307913
    1 3.984014 -0.000006 -0.000003 -2.145563 -1.162031 -1.128074
    2 15.940011 0.000000 0.000000 0.000000 0.000000 1.862966
    3 17.709560 0.000000 0.000000 -0.070725 -0.288233 -1.688304
    4 6.204000 0.000000 0.000000 -0.011146 0.000934 -0.500515
    5 -3.984013 0.000006 0.000007 -1.177699 -0.562022 -2.057554
    6 15.940012 0.000000 0.000000 0.000000 0.000000 1.817292
    7 17.709560 -0.000001 0.000000 0.225653 -0.093755 -2.171914
    8 6.204000 0.000000 0.000000 -0.078651 -0.006185 -0.498943
    9 0.007818 4.212788 -1.689857 1.474800 -0.027859 1.571243
    10 3.837408 0.000000 0.000000 -0.079889 0.053188 -0.083998
    11 3.617867 0.000000 0.000000 -0.169368 0.020350 0.331767
    12 7.539780 -0.000001 0.000000 -0.023370 0.122830 0.379160
    13 3.178295 0.000000 0.000000 3.141590 0.000000 0.224127
    14 2.970274 0.000000 0.000000 0.539398 -0.171328 0.485277
    15 2.023708 0.907461 0.852578 1.116708 -1.347698 3.412542
    16 4.983666 0.000000 0.000000 -1.705958 -0.947232 -1.350812
    17 11.123051 -0.000002 0.000000 0.000000 0.000000 -1.478871
    18 11.208292 -0.000004 -0.000001 -0.177754 0.221014 0.527296
    19 3.549244 0.198826 -1.489467 -0.272689 -0.071390 -0.003004
    20 1.219002 0.000000 0.000000 -0.416584 0.363228 -1.710881
    21 0.680000 -0.000002 0.000000 -0.030462 0.149154 -0.402247
    22 3.698008 0.267555 -0.728977 -0.055559 -0.097346 -0.073318
    23 1.748997 -0.000004 0.000000 -0.194800 0.216726 -1.463546
    24 0.960003 0.000001 0.000001 -0.005405 0.048654 -0.221708
    25 3.768501 0.152550 0.071384 0.099678 -0.097312 -0.126605
    26 2.038000 -0.000004 0.000001 -0.067373 0.068560 -1.553288
    27 1.067001 -0.000004 -0.000001 -0.003163 0.020598 -0.304747
    28 3.783921 -0.017254 0.794554 0.338436 -0.014271 -0.573565
    29 1.628998 0.000002 -0.000001 0.061352 -0.118477 -0.954967
    30 0.956001 0.000004 0.000000 0.029626 -0.087949 -0.649392
    31 1.258962 -0.297981 1.252589 -1.009606 -0.070537 -1.203497
    32 1.392998 0.000000 0.000000 0.003370 0.026652 0.251678
    33 1.099998 0.000000 0.000001 0.000000 0.000006 -0.000033
    34 2.023712 0.907463 -0.852529 -0.693334 1.189929 3.884390
    35 4.983665 0.000000 -0.000002 -1.052038 0.864791 -3.088693
    36 11.123048 0.000000 0.000006 0.000000 0.000000 -0.599478
    37 11.208292 -0.000002 0.000000 -0.992541 -0.125250 0.500144
    38 3.549271 0.211410 1.487671 0.410923 0.123007 -0.756633
    39 1.219000 -0.000001 0.000000 0.082428 -0.261839 -0.607002
    40 0.680000 -0.000001 -0.000004 0.205126 -0.375124 -0.993822
    41 3.698020 0.273716 0.726627 0.177574 -0.069922 -0.759508
    42 1.748998 0.000000 0.000004 0.051548 -0.155701 -0.638349
    43 0.960000 0.000000 0.000000 0.193935 -0.249767 -1.318440
    44 3.768498 0.151954 -0.072735 -0.136591 -0.008811 -0.777521
    45 2.037999 -0.000002 0.000000 0.018740 -0.055377 -0.652464
    46 1.067000 0.000002 0.000000 0.091849 -0.091056 -1.579546
    47 3.783906 -0.023951 -0.794449 -0.320016 0.260843 -0.059333
    48 1.629000 0.000000 0.000004 -0.019874 0.072253 -0.536673
    49 0.956002 -0.000002 0.000000 -0.066802 0.119804 -1.016557
    50 1.258938 -0.308544 -1.250050 1.056185 0.100071 -1.187502
    51 1.393000 -0.000004 0.000002 0.016659 0.092786 0.355094
    52 1.100001 0.000000 -0.000002 0.015880 0.090669 0.346573
    53 4.271699 0.000000 0.000000 0.000000 0.000000 0.000000
    54 5.604147 -0.000002 -0.000005 -0.030876 0.000000 0.000000
    55 5.604149 0.000000 0.000000 0.034930 0.000000 0.000000
    56 11.208290 0.000000 -0.000007 -0.057543 0.000000 0.000000
    57 5.560005 -0.699999 -0.500006 0.000000 0.000000 0.000000
    58 2.132023 1.532021 4.999999 0.000000 0.000000 0.000000
    59 2.000000 4.938045 2.578000 0.000000 0.000000 0.000000
    60 11.123049 0.000002 0.000004 0.000000 -0.000001 -0.100063
    61 2.000000 4.938040 -2.578000 0.000000 0.000000 0.000000
    62 2.132023 1.532021 -4.999999 0.000000 0.000000 0.000000
    63 1.500000 0.000000 -0.000001 0.000000 0.000000 0.000000
    64 11.208300 0.000002 0.000002 0.065171 0.000000 0.000000
    65 11.123055 0.000000 -0.000003 0.000000 0.000000 -0.100081
    66 4.271697 -0.000004 0.000000 0.000000 0.000000 0.000000
    67 1.500000 0.000000 -0.000004 0.000000 -0.000001 0.000000
    68 5.560003 -0.699999 0.500002 0.000000 -0.000001 0.000000
  time 3
    0 0.461578 -0.866777 24.003633 1.537218 -0.010258 -0.307913
    1 3.984014 -0.000006 -0.000003 -2.136936 -1.157006 -1.137991
    2 15.940011 0.000000 0.000000 0.000000 0.000000 1.865700
    3 17.709560 0.000000 0.000000 -0.070267 -0.288955 -1.697563
    4 6.204000 0.000000 0.000000 -0.011146 0.000934 -0.500515
    5 -3.984013 0.000006 0.000007 -1.179325 -0.552550 -2.059172
    6 15.940012 0.000000 0.000000 0.000000 0.000000 1.812983
    7 17.709560 -0.000001 0.000000 0.229651 -0.097452 -2.176221
    8 6.204000 0.000000 0.000000 -0.078651 -0.006185 -0.498943
    9 0.007818 4.212788 -1.689857 1.474800 -0.027859 1.571243
    10 3.837408 0.000000 0.000000 -0.079889 0.053188 -0.083998
    11 3.617867 0.000000 0.000000 -0.169368 0.020350 0.331767
    12 7.539780 -0.000001 0.000000 -0.023370 0.122830 0.379160
    13 3.178295 0.000000 0.000000 3.141590 0.000000 0.224127
    14 2.970274 0.000000 0.000000 0.539398 -0.171328 0.485277
    15 2.023708 0.907461 0.852578 1.116708 -1.347698 3.412542
    16 4.983666 0.000000 0.000000 -1.738288 -0.973813 -1.311914
    17 11.123051 -0.000002 0.000000 0.000000 0.000000 -1.438228
    18 11.208292 -0.000004 -0.000001 -0.177754 0.221014 0.527296
    19 3.549244 0.198826 -1.489467 -0.272689 -0.071390 -0.003004
    20 1.219002 0.000000 0.000000 -0.416584 0.363228 -1.710881
    21 0.680000 -0.000002 0.000000 -0.030462 0.149154 -0.402247
    22 3.698008 0.267555 -0.728977 -0.055559 -0.097346 -0.073318
    23 1.748997 -0.000004 0.000000 -0.194800 0.216726 -1.463546
    24 0.960003 0.000001 0.000001 -0.005417 0.048654 -0.221708
    25 3.768501 0.152550 0.071384 0.099678 -0.097312 -0.126605
    26 2.038000 -0.000004 0.000001 -0.067373 0.068560 -1.553288
    27 1.067001 -0.000004 -0.000001 -0.003163 0.020598 -0.304747
    28 3.783921 -0.017254 0.794554 0.338436 -0.014271 -0.573565
    29 1.628998 0.000002 -0.000001 0.061352 -0.118477 -0.954967
    30 0.956001 0.000004 0.000000 0.029626 -0.087949 -0.649392
    31 1.258962 -0.297981 1.252589 -1.009606 -0.070537 -1.203497
    32 1.392998 0.000000 0.000000 0.003370 0.026652 0.251678
    33 1.099998 0.000000 0.000001 0.000000 0.000006 -0.000033
    34 2.023712 0.907463 -0.852529 -0.693334 1.189929 3.884390
    35 4.983665 0.000000 -0.000002 -1.081624 0.820136 -3.128002
    36 11.123048 0.000000 0.000006 0.000000 0.000000 -0.507020
    37 11.208292 -0.000002 0.000000 -0.992541 -0.125250 0.500144
    38 3.549271 0.211410 1.487671 0.410923 0.123007 -0.756633
    39 1.219000 -0.000001 0.000000 0.082428 -0.261839 -0.607002
    40 0.680000 -0.000001 -0.000004 0.205126 -0.375124 -0.993822
    41 3.698020 0.273716 0.726627 0.177574 -0.069922 -0.759508
    42 1.748998 0.000000 0.000004 0.051548 -0.155701 -0.638349
    43 0.960000 0.000000 0.000000 0.193935 -0.249767 -1.318440
    44 3.768498 0.151954 -0.072735 -0.136591 -0.008811 -0.777521
    45 2.037999 -0.000002 0.000000 0.018740 -0.055377 -0.652464
    46 1.067000 0.000002 0.000000 0.091849 -0.091056 -1.579546
    47 3.783906 -0.023951 -0.794449 -0.320016 0.260843 -0.059333
    48 1.629000 0.000000 0.000004 -0.019874 0.072253 -0.536673
    49 0.956002 -0.000002 0.000000 -0.066802 0.119804 -1.016557
    50 1.258938 -0.308544 -1.250050 1.056185 0.100071 -1.187502
    51 1.393000 -0.000004 0.000002 0.016659 0.092786 0.355094
    52 1.100001 0.000000 -0.000002 0.015880 0.090669 0.346573
    53 4.271699 0.000000 0.000000 0.000000 0.000000 0.000000
    54 5.604147 -0.000002 -0.000005 -0.030876 0.000000 0.000000
    55 5.604149 0.000000 0.000000 0.034930 0.000000 0.000000
    56 11.208290 0.000000 -0.000007 -0.057543 0.000000 0.000000
    57 5.560005 -0.699999 -0.500006 0.000000 0.000000 0.000000
    58 2.132023 1.532021 4.999999 0.000000 0.000000 0.000000
    59 2.000000 4.938045 2.578000 0.000000 0.000000 0.000000
    60 11.123049 0.000002 0.000004 0.000000 -0.000001 -0.100063
    61 2.000000 4.938040 -2.578000 0.000000 0.000000 0.000000
    62 2.132023 1.532021 -4.999999 0.000000 0.000000 0.000000
    63 1.500000 0.000000 -0.000001 0.000000 0.000000 0.000000
    64 11.208300 0.000002 0.000002 0.065171 0.000000 0.000000
    65 11.123055 0.000000 -0.000003 0.000000 0.000000 -0.100081
    66 4.271697 -0.000004 0.000000 0.000000 0.000000 0.000000
    67 1.500000 0.000000 -0.000004 0.000000 -0.000001 0.000000
    68 5.560003 -0.699999 0.500002 0.000000 -0.000001 0.000000
  time 4
    0 0.461578 -1.024374 24.003633 1.537218 -0.010258 -0.307913
    1 3.984014 -0.000006 -0.000003 -2.128405 -1.151835 -1.147814
    2 15.940011 0.000000 0.000000 0.000000 0.000000 1.868282
    3 17.709560 0.000000 0.000000 -0.069901 -0.289643 -1.706720
    4 6.204000 0.000000 0.000000 -0.011146 0.000934 -0.500515
    5 -3.984013 0.000006 0.000007 -1.180759 -0.543127 -2.060791
    6 15.940012 0.000000 0.000000 0.000000 0.000000 1.808593
    7 17.709560 -0.000001 0.000000 0.233567 -0.101149 -2.180425
    8 6.204000 0.000000 0.000000 -0.078651 -0.006185 -0.498943
    9 0.007818 4.212788 -1.689857 1.474800 -0.027859 1.571243
    10 3.837408 0.000000 0.000000 -0.079889 0.053188 -0.083998
    11 3.617867 0.000000 0.000000 -0.169368 0.020350 0.331767
    12 7.539780 -0.000001 0.000000 -0.023370 0.122830 0.379160
    13 3.178295 0.000000 0.000000 3.141590 0.000000 0.224127
    14 2.970274 0.000000 0.000000 0.539398 -0.171328 0.485277
    15 2.023708 0.907461 0.852578 1.116708 -1.347698 3.412542
    16 4.983666 0.000000 0.000000 -1.762210 -0.991604 -1.283241
    17 11.123051 -0.000002 0.000000 0.000000 0.000000 -1.410037
    18 11.208292 -0.000004 -0.000001 -0.177754 0.221014 0.527296
    19 3.549244 0.198826 -1.489467 -0.272689 -0.071390 -0.003004
    20 1.219002 0.000000 0.000000 -0.416584 0.363228 -1.710881
    21 0.680000 -0.000002 0.000000 -0.030462 0.149154 -0.402247
    22 3.698008 0.267555 -0.728977 -0.055559 -0.097346 -0.073318
    23 1.748997 -0.000004 0.000000 -0.194800 0.216726 -1.463546
    24 0.960003 0.000001 0.000001 -0.005417 0.048654 -0.221708
    25 3.768501 0.152550 0.071384 0.099678 -0.097312 -0.126605
    26 2.038000 -0.000004 0.000001 -0.067373 0.068560 -1.553288
    27 1.067001 -0.000004 -0.000001 -0.003163 0.020598 -0.304747
    28 3.783921 -0.017254 0.794554 0.338436 -0.014271 -0.573565
    29 1.628998 0.000002 -0.000001 0.061352 -0.118477 -0.954967
    30 0.956001 0.000004 0.000000 0.029626 -0.087949 -0.649392
    31 1.258962 -0.297981 1.252589 -1.009606 -0.070537 -1.203497
    32 1.392998 0.000000 0.000000 0.003370 0.026652 0.251678
    33 1.099998 0.000000 0.000001 0.000000 0.000006 -0.000033
    34 2.023712 0.907463 -0.852529 -0.693334 1.189929 3.884390
    35 4.983665 0.000000 -0.000002 -1.101576 0.785262 -3.155579
    36 11.123048 0.000000 0.000006 0.000000 0.000000 -0.435025
    37 11.208292 -0.000002 0.000000 -0.992541 -0.125250 0.500144
    38 3.549271 0.211410 1.487671 0.410923 0.123007 -0.756633
    39 1.219000 -0.000001 0.000000 0.082428 -0.261839 -0.607002
    40 0.680000 -0.000001 -0.000004 0.205126 -0.375124 -0.993822
    41 3.698020 0.273716 0.726627 0.177574 -0.069922 -0.759508
    42 1.748998 0.000000 0.000004 0.051548 -0.155701 -0.638349
    43 0.960000 0.000000 0.000000 0.193935 -0.249767 -1.318440
    44 3.768498 0.151954 -0.072735 -0.136591 -0.008811 -0.777521
    45 2.037999 -0.000002 0.000000 0.018740 -0.055377 -0.652464
    46 1.067000 0.000002 0.000000 0.091849 -0.091056 -1.579546
    47 3.783906 -0.023951 -0.794449 -0.320016 0.260843 -0.059333
    48 1.629000 0.000000 0.000004 -0.019874 0.072253 -0.536673
    49 0.956002 -0.000002 0.000000 -0.066802 0.119804 -1.016557
    50 1.258938 -0.308544 -1.250050 1.056185 0.100071 -1.187502
    51 1.393000 -0.000004 0.000002 0.016659 0.092786 0.355094
    52 1.100001 0.000000 -0.000002 0.015880 0.090669 0.346573
    53 4.271699 0.000000 0.000000 0.000000 0.000000 0.000000
    54 5.604147 -0.000002 -0.000005 -0.030876 0.000000 0.000000
    55 5.604149 0.000000 0.000000 0.034930 0.000000 0.000000
    56 11.208290 0.000000 -0.000007 -0.057543 0.000000 0.000000
    57 5.560005 -0.699999 -0.500006 0.000000 0.000000 0.000000
    58 2.132023 1.532021 4.999999 0.000000 0.000000 0.000000
    59 2.000000 4.938045 2.578000 0.000000 0.000000 0.000000
    60 11.123049 0.000002 0.000004 0.000000 -0.000001 -0.100063
    61 2.000000 4.938040 -2.578000 0.000000 0.000000 0.000000
    62 2.132023 1.532021 -4.999999 0.000000 0.000000 0.000000
    63 1.500000 0.000000 -0.000001 0.000000 0.000000 0.000000
    64 11.208300 0.000002 0.000002 0.065171 0.000000 0.000000
    65 11.123055 0.000000 -0.000003 0.000000 0.000000 -0.100081
    66 4.271697 -0.000004 0.000000 0.000000 0.000000 0.000000
    67 1.500000 0.000000 -0.000004 0.000000 -0.000001 0.000000
    68 5.560003 -0.699999 0.500002 0.000000 -0.000001 0.000000
end
