version 1
nodes
  0 "ValveBiped.Bip01_Pelvis" -1
  1 "ValveBiped.Bip01_L_Thigh" 0
  2 "ValveBiped.Bip01_L_Calf" 1
  3 "ValveBiped.Bip01_L_Foot" 2
  4 "ValveBiped.Bip01_L_Toe0" 3
  5 "ValveBiped.Bip01_R_Thigh" 0
  6 "ValveBiped.Bip01_R_Calf" 5
  7 "ValveBiped.Bip01_R_Foot" 6
  8 "ValveBiped.Bip01_R_Toe0" 7
  9 "ValveBiped.Bip01_Spine" 0
  10 "ValveBiped.Bip01_Spine1" 9
  11 "ValveBiped.Bip01_Spine2" 10
  12 "ValveBiped.Bip01_Spine4" 11
  13 "ValveBiped.Bip01_Neck1" 12
  14 "ValveBiped.Bip01_Head1" 13
  15 "ValveBiped.Bip01_L_Clavicle" 12
  16 "ValveBiped.Bip01_L_UpperArm" 15
  17 "ValveBiped.Bip01_L_Forearm" 16
  18 "ValveBiped.Bip01_L_Hand" 17
  19 "ValveBiped.Bip01_L_Finger4" 18
  20 "ValveBiped.Bip01_L_Finger41" 19
  21 "ValveBiped.Bip01_L_Finger42" 20
  22 "ValveBiped.Bip01_L_Finger3" 18
  23 "ValveBiped.Bip01_L_Finger31" 22
  24 "ValveBiped.Bip01_L_Finger32" 23
  25 "ValveBiped.Bip01_L_Finger2" 18
  26 "ValveBiped.Bip01_L_Finger21" 25
  27 "ValveBiped.Bip01_L_Finger22" 26
  28 "ValveBiped.Bip01_L_Finger1" 18
  29 "ValveBiped.Bip01_L_Finger11" 28
  30 "ValveBiped.Bip01_L_Finger12" 29
  31 "ValveBiped.Bip01_L_Finger0" 18
  32 "ValveBiped.Bip01_L_Finger01" 31
  33 "ValveBiped.Bip01_L_Finger02" 32
  34 "ValveBiped.Bip01_R_Clavicle" 12
  35 "ValveBiped.Bip01_R_UpperArm" 34
  36 "ValveBiped.Bip01_R_Forearm" 35
  37 "ValveBiped.Bip01_R_Hand" 36
  38 "ValveBiped.Bip01_R_Finger4" 37
  39 "ValveBiped.Bip01_R_Finger41" 38
  40 "ValveBiped.Bip01_R_Finger42" 39
  41 "ValveBiped.Bip01_R_Finger3" 37
  42 "ValveBiped.Bip01_R_Finger31" 41
  43 "ValveBiped.Bip01_R_Finger32" 42
  44 "ValveBiped.Bip01_R_Finger2" 37
  45 "ValveBiped.Bip01_R_Finger21" 44
  46 "ValveBiped.Bip01_R_Finger22" 45
  47 "ValveBiped.Bip01_R_Finger1" 37
  48 "ValveBiped.Bip01_R_Finger11" 47
  49 "ValveBiped.Bip01_R_Finger12" 48
  50 "ValveBiped.Bip01_R_Finger0" 37
  51 "ValveBiped.Bip01_R_Finger01" 50
  52 "ValveBiped.Bip01_R_Finger02" 51
  53 "ValveBiped.Bip01_L_Trapezius" 15
  54 "ValveBiped.Bip01_L_Ulna" 17
  55 "ValveBiped.Bip01_R_Ulna" 36
  56 "ValveBiped.Bip01_L_Wrist" 17
  57 "ValveBiped.Bip01_L_Bicep" 16
  58 "ValveBiped.Bip01_L_Latt" 11
  59 "ValveBiped.Bip01_L_Pectoral" 11
  60 "ValveBiped.Bip01_R_Elbow" 35
  61 "ValveBiped.Bip01_R_Pectoral" 11
  62 "ValveBiped.Bip01_R_Latt" 11
  63 "ValveBiped.Bip01_L_Shoulder" 16
  64 "ValveBiped.Bip01_R_Wrist" 36
  65 "ValveBiped.Bip01_L_Elbow" 16
  66 "ValveBiped.Bip01_R_Trapezius" 34
  67 "ValveBiped.Bip01_R_Shoulder" 35
  68 "ValveBiped.Bip01_R_Bicep" 35
end
skeleton
  time 0
    0 -0.003280 0.000005 0.004468 0.000036 0.000000 -1.570796
    1 0.003424 -0.000004 -0.000003 -0.000059 0.000009 -0.000037
    2 0.002024 0.000000 0.000000 0.000000 0.000000 0.000009
    3 0.001991 0.000000 0.000000 0.000071 -0.000001 -0.000027
    4 0.000685 0.000000 0.000000 -0.000015 0.000011 -0.000031
    5 -0.003423 0.000008 0.000007 -0.000034 0.000010 -0.000038
    6 0.002028 0.000000 0.000000 0.000000 0.000000 0.000030
    7 0.001989 0.000000 0.000000 -0.000032 0.000006 -0.000017
    8 0.000685 0.000000 0.000000 -0.000007 -0.000001 -0.000014
    9 0.000005 0.001722 -0.002306 0.000047 -0.000001 0.000031
    10 0.001352 0.000000 0.000000 0.000000 0.000000 -0.000010
    11 0.000569 0.000000 0.000000 0.000000 0.000000 -0.000014
    12 0.000487 0.000000 0.000000 0.000000 0.000000 0.000010
    13 0.002417 0.000000 0.000000 -0.000002 0.000000 0.000013
    14 0.001431 0.000000 0.000000 0.000000 0.000000 0.000004
    15 0.000209 0.001183 0.000991 0.000020 -0.000040 0.000086
    16 0.003046 -0.000004 0.000000 -0.000017 0.000039 -0.000058
    17 0.001618 0.000000 0.000000 0.000000 0.000000 -0.000048
    18 0.000919 0.000000 -0.000004 0.000036 -0.000005 0.000055
    19 0.002261 0.003504 -0.001142 -0.000013 0.000019 0.000021
    20 0.000213 0.000000 0.000000 -0.000005 0.000011 -0.000032
    21 0.000290 0.000000 0.000000 0.000003 0.000006 -0.000039
    22 0.002582 0.001922 -0.002393 -0.000011 0.000010 -0.000035
    23 0.002855 0.000000 0.000000 0.000009 0.000009 -0.000015
    24 0.002939 0.000000 0.000000 0.000012 0.000009 -0.000023
    25 0.002761 0.000198 0.001069 0.000002 0.000002 -0.000009
    26 0.002780 0.000000 0.000000 0.000004 -0.000004 -0.000021
    27 0.000563 0.000000 0.000000 -0.000011 -0.000003 -0.000037
    28 0.002559 -0.001636 0.001561 0.000003 -0.000009 0.000034
    29 0.000045 0.000000 0.000000 0.000003 -0.000010 -0.000018
    30 0.002845 0.000000 0.000000 0.000000 -0.000006 -0.000028
    31 0.001112 -0.001101 0.002552 -0.000050 -0.000030 -0.000012
    32 0.002332 0.000000 0.000000 0.000000 0.000011 -0.000032
    33 0.002311 0.000000 0.000000 0.000000 0.000006 -0.000033
    34 0.000213 0.001184 -0.000939 -0.000030 0.000027 0.000055
    35 0.003045 -0.000004 0.000000 0.000017 -0.000040 -0.000028
    36 0.001614 0.000000 0.000000 0.000000 0.000000 -0.000018
    37 0.000924 0.000000 0.000000 -0.000014 0.000038 0.000023
    38 0.002289 0.000467 0.003249 0.000016 -0.000016 0.000039
    39 0.000214 0.000000 -0.000001 0.000010 -0.000011 -0.000033
    40 0.000292 -0.000002 0.000000 -0.000003 -0.000006 -0.000020
    41 0.002596 0.000274 0.000039 0.000011 -0.000003 -0.000031
    42 0.002855 0.000000 0.000000 -0.000009 -0.000009 -0.000003
    43 0.002939 0.000000 0.000000 0.000000 -0.000009 -0.000003
    44 0.002761 0.003513 -0.002425 -0.000002 -0.000002 -0.000010
    45 0.002782 0.000000 0.000000 -0.000004 0.000004 -0.000021
    46 0.000559 0.000000 0.000000 0.000011 0.000003 -0.000015
    47 0.002542 -0.000514 -0.001458 -0.000003 0.000004 0.000028
    48 0.000044 0.000000 0.000000 -0.000003 0.000010 -0.000030
    49 0.002847 -0.000002 0.000000 0.000000 0.000006 -0.000024
    50 0.001089 -0.003847 -0.000014 0.000011 0.000014 -0.000010
    51 0.002334 0.000000 0.000000 0.000000 -0.000011 0.000000
    52 0.002309 -0.000002 0.000000 0.000000 -0.000006 -0.000029
    53 0.000000 0.000000 0.000000 0.000000 0.000000 0.000000
    54 0.000000 0.000000 0.000000 0.000000 0.000000 0.000000
    55 0.000000 0.000000 0.000000 0.000000 0.000000 0.000000
    56 0.000000 0.000000 0.000000 0.000000 0.000000 0.000000
    57 0.000000 0.000000 0.000000 0.000000 0.000000 0.000000
    58 0.000000 0.000000 0.000000 0.000000 0.000000 0.000000
    59 0.000000 0.000000 0.000000 0.000000 0.000000 0.000000
    60 0.000000 0.000000 0.000000 0.000000 0.000000 0.000000
    61 0.000000 0.000000 0.000000 0.000000 0.000000 0.000000
    62 0.000000 0.000000 0.000000 0.000000 0.000000 0.000000
    63 0.000000 0.000000 0.000000 0.000000 0.000000 0.000000
    64 0.000000 0.000000 0.000000 0.000000 0.000000 0.000000
    65 0.000000 0.000000 0.000000 0.000000 0.000000 0.000000
    66 0.000000 0.000000 0.000000 0.000000 0.000000 0.000000
    67 0.000000 0.000000 0.000000 0.000000 0.000000 0.000000
    68 0.000000 0.000000 0.000000 0.000000 0.000000 0.000000
  time 1
    0 -0.003280 0.118203 0.004468 0.000036 0.000000 -1.570796
    1 0.003424 -0.000004 -0.000003 -0.000155 0.000107 -0.001945
    2 0.002024 0.000000 0.000000 0.000000 0.000000 -0.004093
    3 0.001991 0.000000 0.000000 -0.000387 -0.000689 0.005958
    4 0.000685 0.000000 0.000000 -0.000015 0.000011 -0.000031
    5 -0.003423 0.000008 0.000007 0.000731 -0.002165 -0.006321
    6 0.002028 0.000000 0.000000 0.000000 0.000000 0.005964
    7 0.001989 0.000000 0.000000 -0.002072 0.001226 -0.000273
    8 0.000685 0.000000 0.000000 -0.000007 -0.000001 -0.000014
    9 0.000005 0.001722 -0.002306 -0.004102 0.000458 0.000031
    10 0.001352 0.000000 0.000000 -0.024976 -0.000048 -0.002810
    11 0.000569 0.000000 0.000000 -0.025026 -0.000395 -0.002799
    12 0.000487 0.000000 0.000000 0.000000 0.000000 0.000010
    13 0.002417 0.000000 0.000000 -0.000002 0.000000 0.000013
    14 0.001431 0.000000 0.000000 -0.003148 -0.002617 -0.008934
    15 0.000209 0.001183 0.000991 0.000020 -0.000040 0.000086
    16 0.003046 -0.000004 0.000000 -0.010140 -0.011451 0.148816
    17 0.001618 0.000000 0.000000 0.000000 0.000000 -0.348278
    18 0.000919 0.000000 -0.000004 -0.008804 0.142990 0.111531
    19 0.002261 0.003504 -0.001142 -0.000013 0.000019 0.000021
    20 0.000213 0.000000 0.000000 -0.000005 0.000011 -0.000032
    21 0.000290 0.000000 0.000000 0.000003 0.000006 -0.000039
    22 0.002582 0.001922 -0.002393 -0.000011 0.000010 -0.000035
    23 0.002855 0.000000 0.000000 0.000009 0.000009 -0.000015
    24 0.002939 0.000000 0.000000 0.000000 0.000009 -0.000023
    25 0.002761 0.000198 0.001069 0.000002 0.000002 -0.000009
    26 0.002780 0.000000 0.000000 0.000004 -0.000004 -0.000021
    27 0.000563 0.000000 0.000000 -0.000011 -0.000003 -0.000037
    28 0.002559 -0.001636 0.001561 0.000003 -0.000009 0.000034
    29 0.000045 0.000000 0.000000 0.000003 -0.000010 -0.000018
    30 0.002845 0.000000 0.000000 0.000000 -0.000006 -0.000028
    31 0.001112 -0.001101 0.002552 -0.000050 -0.000030 -0.000012
    32 0.002332 0.000000 0.000000 0.000000 0.000011 -0.000032
    33 0.002311 0.000000 0.000000 0.000000 0.000006 -0.000033
    34 0.000213 0.001184 -0.000939 -0.005107 -0.065585 -0.066352
    35 0.003045 -0.000004 0.000000 -0.069130 0.049633 -0.005166
    36 0.001614 0.000000 0.000000 0.000000 0.000000 -0.063436
    37 0.000924 0.000000 0.000000 0.041116 0.063100 -0.036678
    38 0.002289 0.000467 0.003249 0.000016 -0.000016 0.000039
    39 0.000214 0.000000 -0.000001 0.000010 -0.000011 -0.000033
    40 0.000292 -0.000002 0.000000 -0.000003 -0.000006 -0.000020
    41 0.002596 0.000274 0.000039 0.000011 -0.000003 -0.000031
    42 0.002855 0.000000 0.000000 -0.000009 -0.000009 -0.000003
    43 0.002939 0.000000 0.000000 0.000000 -0.000009 -0.000003
    44 0.002761 0.003513 -0.002425 -0.000002 -0.000002 -0.000010
    45 0.002782 0.000000 0.000000 -0.000004 0.000004 -0.000021
    46 0.000559 0.000000 0.000000 0.000011 0.000003 -0.000015
    47 0.002542 -0.000514 -0.001458 -0.000003 0.000004 0.000028
    48 0.000044 0.000000 0.000000 -0.000003 0.000010 -0.000030
    49 0.002847 -0.000002 0.000000 0.000000 0.000006 -0.000024
    50 0.001089 -0.003847 -0.000014 0.000011 0.000014 -0.000010
    51 0.002334 0.000000 0.000000 0.000000 -0.000011 0.000000
    52 0.002309 -0.000002 0.000000 0.000000 -0.000006 -0.000029
    53 0.000000 0.000000 0.000000 0.000000 0.000000 0.000000
    54 0.000000 0.000000 0.000000 0.000000 0.000000 0.000000
    55 0.000000 0.000000 0.000000 0.000000 0.000000 0.000000
    56 0.000000 0.000000 0.000000 0.000000 0.000000 0.000000
    57 0.000000 0.000000 0.000000 0.000000 0.000000 0.000000
    58 0.000000 0.000000 0.000000 0.000000 0.000000 0.000000
    59 0.000000 0.000000 0.000000 0.000000 0.000000 0.000000
    60 0.000000 0.000000 0.000000 0.000000 0.000000 0.000000
    61 0.000000 0.000000 0.000000 0.000000 0.000000 0.000000
    62 0.000000 0.000000 0.000000 0.000000 0.000000 0.000000
    63 0.000000 0.000000 0.000000 0.000000 0.000000 0.000000
    64 0.000000 0.000000 0.000000 0.000000 0.000000 0.000000
    65 0.000000 0.000000 0.000000 0.000000 0.000000 0.000000
    66 0.000000 0.000000 0.000000 0.000000 0.000000 0.000000
    67 0.000000 0.000000 0.000000 0.000000 0.000000 0.000000
    68 0.000000 0.000000 0.000000 0.000000 0.000000 0.000000
  time 2
    0 -0.003280 0.246250 0.004468 0.000036 0.000000 -1.570796
    1 0.003424 -0.000004 -0.000003 -0.000251 0.000155 -0.003852
    2 0.002024 0.000000 0.000000 0.000000 0.000000 -0.008270
    3 0.001991 0.000000 0.000000 -0.000753 -0.001376 0.011994
    4 0.000685 0.000000 0.000000 -0.000015 0.000011 -0.000031
    5 -0.003423 0.000008 0.000007 0.001496 -0.004388 -0.012414
    6 0.002028 0.000000 0.000000 0.000000 0.000000 0.011818
    7 0.001989 0.000000 0.000000 -0.004030 0.002446 -0.000427
    8 0.000685 0.000000 0.000000 -0.000007 -0.000001 -0.000014
    9 0.000005 0.001722 -0.002306 -0.011844 0.001311 0.000031
    10 0.001352 0.000000 0.000000 0.000132 -0.000084 -0.015249
    11 0.000569 0.000000 0.000000 -0.000200 -0.000240 -0.015228
    12 0.000487 0.000000 0.000000 0.000000 0.000000 0.000010
    13 0.002417 0.000000 0.000000 -0.000002 0.000000 0.000013
    14 0.001431 0.000000 0.000000 -0.006296 -0.005252 -0.017872
    15 0.000209 0.001183 0.000991 0.000020 -0.000040 0.000086
    16 0.003046 -0.000004 0.000000 0.006760 -0.020240 -0.004171
    17 0.001618 0.000000 0.000000 0.000000 0.000000 -0.091688
    18 0.000919 0.000000 -0.000004 0.009638 0.033781 0.023926
    19 0.002261 0.003504 -0.001142 -0.000013 0.000019 0.000021
    20 0.000213 0.000000 0.000000 -0.000005 0.000011 -0.000032
    21 0.000290 0.000000 0.000000 0.000003 0.000006 -0.000039
    22 0.002582 0.001922 -0.002393 -0.000011 0.000010 -0.000035
    23 0.002855 0.000000 0.000000 0.000009 0.000009 -0.000015
    24 0.002939 0.000000 0.000000 0.000000 0.000009 -0.000023
    25 0.002761 0.000198 0.001069 0.000002 0.000002 -0.000009
    26 0.002780 0.000000 0.000000 0.000004 -0.000004 -0.000021
    27 0.000563 0.000000 0.000000 -0.000011 -0.000003 -0.000037
    28 0.002559 -0.001636 0.001561 0.000003 -0.000009 0.000034
    29 0.000045 0.000000 0.000000 0.000003 -0.000010 -0.000018
    30 0.002845 0.000000 0.000000 0.000000 -0.000006 -0.000028
    31 0.001112 -0.001101 0.002552 -0.000050 -0.000030 -0.000012
    32 0.002332 0.000000 0.000000 0.000000 0.000011 -0.000032
    33 0.002311 0.000000 0.000000 0.000000 0.000006 -0.000033
    34 0.000213 0.001184 -0.000939 -0.003979 -0.051403 -0.052095
    35 0.003045 -0.000004 0.000000 -0.059155 0.071469 -0.066485
    36 0.001614 0.000000 0.000000 0.000000 0.000000 0.025848
    37 0.000924 0.000000 0.000000 0.067716 0.072711 -0.007772
    38 0.002289 0.000467 0.003249 0.000016 -0.000016 0.000039
    39 0.000214 0.000000 -0.000001 0.000010 -0.000011 -0.000033
    40 0.000292 -0.000002 0.000000 -0.000003 -0.000006 -0.000020
    41 0.002596 0.000274 0.000039 0.000011 -0.000003 -0.000031
    42 0.002855 0.000000 0.000000 -0.000009 -0.000009 -0.000003
    43 0.002939 0.000000 0.000000 0.000000 -0.000009 -0.000003
    44 0.002761 0.003513 -0.002425 -0.000002 -0.000002 -0.000010
    45 0.002782 0.000000 0.000000 -0.000004 0.000004 -0.000021
    46 0.000559 0.000000 0.000000 0.000011 0.000003 -0.000015
    47 0.002542 -0.000514 -0.001458 -0.000003 0.000004 0.000028
    48 0.000044 0.000000 0.000000 -0.000003 0.000010 -0.000030
    49 0.002847 -0.000002 0.000000 0.000000 0.000006 -0.000024
    50 0.001089 -0.003847 -0.000014 0.000011 0.000014 -0.000010
    51 0.002334 0.000000 0.000000 0.000000 -0.000011 0.000000
    52 0.002309 -0.000002 0.000000 0.000000 -0.000006 -0.000029
    53 0.000000 0.000000 0.000000 0.000000 0.000000 0.000000
    54 0.000000 0.000000 0.000000 0.000000 0.000000 0.000000
    55 0.000000 0.000000 0.000000 0.000000 0.000000 0.000000
    56 0.000000 0.000000 0.000000 0.000000 0.000000 0.000000
    57 0.000000 0.000000 0.000000 0.000000 0.000000 0.000000
    58 0.000000 0.000000 0.000000 0.000000 0.000000 0.000000
    59 0.000000 0.000000 0.000000 0.000000 0.000000 0.000000
    60 0.000000 0.000000 0.000000 0.000000 0.000000 0.000000
    61 0.000000 0.000000 0.000000 0.000000 0.000000 0.000000
    62 0.000000 0.000000 0.000000 0.000000 0.000000 0.000000
    63 0.000000 0.000000 0.000000 0.000000 0.000000 0.000000
    64 0.000000 0.000000 0.000000 0.000000 0.000000 0.000000
    65 0.000000 0.000000 0.000000 0.000000 0.000000 0.000000
    66 0.000000 0.000000 0.000000 0.000000 0.000000 0.000000
    67 0.000000 0.000000 0.000000 0.000000 0.000000 0.000000
    68 0.000000 0.000000 0.000000 0.000000 0.000000 0.000000
  time 3
    0 -0.003280 0.206851 0.004468 0.000036 0.000000 -1.570796
    1 0.003424 -0.000004 -0.000003 -0.000155 0.000155 -0.003280
    2 0.002024 0.000000 0.000000 0.000000 0.000000 -0.006979
    3 0.001991 0.000000 0.000000 -0.000662 -0.001170 0.010101
    4 0.000685 0.000000 0.000000 -0.000015 0.000011 -0.000031
    5 -0.003423 0.000008 0.000007 0.001209 -0.003711 -0.010510
    6 0.002028 0.000000 0.000000 0.000000 0.000000 0.010029
    7 0.001989 0.000000 0.000000 -0.003459 0.002076 -0.000376
    8 0.000685 0.000000 0.000000 -0.000007 -0.000001 -0.000014
    9 0.000005 0.001722 -0.002306 -0.015931 0.001770 0.000031
    10 0.001352 0.000000 0.000000 0.000060 -0.000048 -0.008560
    11 0.000569 0.000000 0.000000 -0.000123 -0.000132 -0.008562
    12 0.000487 0.000000 0.000000 0.000000 0.000000 0.000010
    13 0.002417 0.000000 0.000000 6.283183 0.000000 0.000013
    14 0.001431 0.000000 0.000000 -0.003542 -0.002924 -0.010013
    15 0.000209 0.001183 0.000991 0.000020 -0.000040 0.000086
    16 0.003046 -0.000004 0.000000 -0.003282 -0.003349 0.100422
    17 0.001618 0.000000 0.000000 0.000000 0.000000 -0.283081
    18 0.000919 0.000000 -0.000004 -0.007890 0.105864 0.077373
    19 0.002261 0.003504 -0.001142 -0.000013 0.000019 0.000021
    20 0.000213 0.000000 0.000000 -0.000005 0.000011 -0.000032
    21 0.000290 0.000000 0.000000 0.000003 0.000006 -0.000039
    22 0.002582 0.001922 -0.002393 -0.000011 0.000010 -0.000035
    23 0.002855 0.000000 0.000000 0.000009 0.000009 -0.000015
    24 0.002939 0.000000 0.000000 0.000000 0.000009 -0.000023
    25 0.002761 0.000198 0.001069 0.000002 0.000002 -0.000009
    26 0.002780 0.000000 0.000000 0.000004 -0.000004 -0.000021
    27 0.000563 0.000000 0.000000 -0.000011 -0.000003 -0.000037
    28 0.002559 -0.001636 0.001561 0.000003 -0.000009 0.000034
    29 0.000045 0.000000 0.000000 0.000003 -0.000010 -0.000018
    30 0.002845 0.000000 0.000000 0.000000 -0.000006 -0.000028
    31 0.001112 -0.001101 0.002552 -0.000050 -0.000030 -0.000012
    32 0.002332 0.000000 0.000000 0.000000 0.000011 -0.000032
    33 0.002311 0.000000 0.000000 0.000000 0.000006 -0.000033
    34 0.000213 0.001184 -0.000939 -0.001816 -0.022698 -0.023018
    35 0.003045 -0.000004 0.000000 -0.035281 0.010360 0.037141
    36 0.001614 0.000000 0.000000 0.000000 0.000000 -0.076538
    37 0.000924 0.000000 0.000000 0.009773 0.074041 0.015319
    38 0.002289 0.000467 0.003249 0.000016 -0.000016 0.000039
    39 0.000214 0.000000 -0.000001 0.000010 -0.000011 -0.000033
    40 0.000292 -0.000002 0.000000 -0.000003 -0.000006 -0.000020
    41 0.002596 0.000274 0.000039 0.000011 -0.000003 -0.000031
    42 0.002855 0.000000 0.000000 -0.000009 -0.000009 -0.000003
    43 0.002939 0.000000 0.000000 0.000000 -0.000009 -0.000003
    44 0.002761 0.003513 -0.002425 -0.000002 -0.000002 -0.000010
    45 0.002782 0.000000 0.000000 -0.000004 0.000004 -0.000021
    46 0.000559 0.000000 0.000000 0.000011 0.000003 -0.000015
    47 0.002542 -0.000514 -0.001458 -0.000003 0.000004 0.000028
    48 0.000044 0.000000 0.000000 -0.000003 0.000010 -0.000030
    49 0.002847 -0.000002 0.000000 0.000000 0.000006 -0.000024
    50 0.001089 -0.003847 -0.000014 0.000011 0.000014 -0.000010
    51 0.002334 0.000000 0.000000 0.000000 -0.000011 0.000000
    52 0.002309 -0.000002 0.000000 0.000000 -0.000006 -0.000029
    53 0.000000 0.000000 0.000000 0.000000 0.000000 0.000000
    54 0.000000 0.000000 0.000000 0.000000 0.000000 0.000000
    55 0.000000 0.000000 0.000000 0.000000 0.000000 0.000000
    56 0.000000 0.000000 0.000000 0.000000 0.000000 0.000000
    57 0.000000 0.000000 0.000000 0.000000 0.000000 0.000000
    58 0.000000 0.000000 0.000000 0.000000 0.000000 0.000000
    59 0.000000 0.000000 0.000000 0.000000 0.000000 0.000000
    60 0.000000 0.000000 0.000000 0.000000 0.000000 0.000000
    61 0.000000 0.000000 0.000000 0.000000 0.000000 0.000000
    62 0.000000 0.000000 0.000000 0.000000 0.000000 0.000000
    63 0.000000 0.000000 0.000000 0.000000 0.000000 0.000000
    64 0.000000 0.000000 0.000000 0.000000 0.000000 0.000000
    65 0.000000 0.000000 0.000000 0.000000 0.000000 0.000000
    66 0.000000 0.000000 0.000000 0.000000 0.000000 0.000000
    67 0.000000 0.000000 0.000000 0.000000 0.000000 0.000000
    68 0.000000 0.000000 0.000000 0.000000 0.000000 0.000000
  time 4
    0 -0.003280 0.118203 0.004468 0.000036 0.000000 -1.570796
    1 0.003424 -0.000004 -0.000003 -0.000155 0.000107 -0.001945
    2 0.002024 0.000000 0.000000 0.000000 0.000000 -0.004093
    3 0.001991 0.000000 0.000000 -0.000387 -0.000689 0.005958
    4 0.000685 0.000000 0.000000 -0.000015 0.000011 -0.000031
    5 -0.003423 0.000008 0.000007 0.000731 -0.002165 -0.006226
    6 0.002028 0.000000 0.000000 0.000000 0.000000 0.005964
    7 0.001989 0.000000 0.000000 -0.002072 0.001226 -0.000273
    8 0.000685 0.000000 0.000000 -0.000007 -0.000001 -0.000014
    9 0.000005 0.001722 -0.002306 0.000047 -0.000014 0.000031
    10 0.001352 0.000000 0.000000 0.000000 0.000000 0.000007
    11 0.000569 0.000000 0.000000 0.000000 0.000000 0.000005
    12 0.000487 0.000000 0.000000 0.000000 0.000000 0.000010
    13 0.002417 0.000000 0.000000 -0.000002 0.000000 0.000013
    14 0.001431 0.000000 0.000000 0.000000 0.000000 0.000035
    15 0.000209 0.001183 0.000991 0.000020 -0.000040 0.000086
    16 0.003046 -0.000004 0.000000 0.001943 -0.009068 -0.009374
    17 0.001618 0.000000 0.000000 0.000000 0.000000 -0.044329
    18 0.000919 0.000000 -0.000004 0.008495 0.008756 0.006726
    19 0.002261 0.003504 -0.001142 -0.000013 0.000019 0.000021
    20 0.000213 0.000000 0.000000 -0.000005 0.000011 -0.000032
    21 0.000290 0.000000 0.000000 0.000003 0.000006 -0.000039
    22 0.002582 0.001922 -0.002393 -0.000011 0.000010 -0.000035
    23 0.002855 0.000000 0.000000 0.000009 0.000009 -0.000015
    24 0.002939 0.000000 0.000000 0.000012 0.000009 -0.000023
    25 0.002761 0.000198 0.001069 0.000002 0.000002 -0.000009
    26 0.002780 0.000000 0.000000 0.000004 -0.000004 -0.000021
    27 0.000563 0.000000 0.000000 -0.000011 -0.000003 -0.000037
    28 0.002559 -0.001636 0.001561 0.000003 -0.000009 0.000034
    29 0.000045 0.000000 0.000000 0.000003 -0.000010 -0.000018
    30 0.002845 0.000000 0.000000 0.000000 -0.000006 -0.000028
    31 0.001112 -0.001101 0.002552 -0.000050 -0.000030 -0.000012
    32 0.002332 0.000000 0.000000 0.000000 0.000011 -0.000032
    33 0.002311 0.000000 0.000000 0.000000 0.000006 -0.000033
    34 0.000213 0.001184 -0.000939 -0.000030 0.000070 0.000055
    35 0.003045 -0.000004 0.000000 0.000103 -0.000143 0.000058
    36 0.001614 0.000000 0.000000 0.000000 0.000000 -0.000086
    37 0.000924 0.000000 0.000000 0.000046 0.051019 0.006175
    38 0.002289 0.000467 0.003249 0.000016 -0.000016 0.000039
    39 0.000214 0.000000 -0.000001 0.000010 -0.000011 -0.000033
    40 0.000292 -0.000002 0.000000 -0.000003 -0.000006 -0.000020
    41 0.002596 0.000274 0.000039 0.000011 -0.000003 -0.000031
    42 0.002855 0.000000 0.000000 -0.000009 -0.000009 -0.000003
    43 0.002939 0.000000 0.000000 0.000000 -0.000009 -0.000003
    44 0.002761 0.003513 -0.002425 -0.000002 -0.000002 -0.000010
    45 0.002782 0.000000 0.000000 -0.000004 0.000004 -0.000021
    46 0.000559 0.000000 0.000000 0.000011 0.000003 -0.000015
    47 0.002542 -0.000514 -0.001458 -0.000003 0.000004 0.000028
    48 0.000044 0.000000 0.000000 -0.000003 0.000010 -0.000030
    49 0.002847 -0.000002 0.000000 0.000000 0.000006 -0.000024
    50 0.001089 -0.003847 -0.000014 0.000011 0.000014 -0.000010
    51 0.002334 0.000000 0.000000 0.000000 -0.000011 0.000000
    52 0.002309 -0.000002 0.000000 0.000000 -0.000006 -0.000029
    53 0.000000 0.000000 0.000000 0.000000 0.000000 0.000000
    54 0.000000 0.000000 0.000000 0.000000 0.000000 0.000000
    55 0.000000 0.000000 0.000000 0.000000 0.000000 0.000000
    56 0.000000 0.000000 0.000000 0.000000 0.000000 0.000000
    57 0.000000 0.000000 0.000000 0.000000 0.000000 0.000000
    58 0.000000 0.000000 0.000000 0.000000 0.000000 0.000000
    59 0.000000 0.000000 0.000000 0.000000 0.000000 0.000000
    60 0.000000 0.000000 0.000000 0.000000 0.000000 0.000000
    61 0.000000 0.000000 0.000000 0.000000 0.000000 0.000000
    62 0.000000 0.000000 0.000000 0.000000 0.000000 0.000000
    63 0.000000 0.000000 0.000000 0.000000 0.000000 0.000000
    64 0.000000 0.000000 0.000000 0.000000 0.000000 0.000000
    65 0.000000 0.000000 0.000000 0.000000 0.000000 0.000000
    66 0.000000 0.000000 0.000000 0.000000 0.000000 0.000000
    67 0.000000 0.000000 0.000000 0.000000 0.000000 0.000000
    68 0.000000 0.000000 0.000000 0.000000 0.000000 0.000000
  time 5
    0 -0.003280 0.029554 0.004468 0.000036 0.000000 -1.570796
    1 0.003424 -0.000004 -0.000003 -0.000059 0.000058 -0.000610
    2 0.002024 0.000000 0.000000 0.000000 0.000000 -0.001207
    3 0.001991 0.000000 0.000000 -0.000112 -0.000242 0.001814
    4 0.000685 0.000000 0.000000 -0.000015 0.000011 -0.000031
    5 -0.003423 0.000008 0.000007 0.000157 -0.000667 -0.001942
    6 0.002028 0.000000 0.000000 0.000000 0.000000 0.001899
    7 0.001989 0.000000 0.000000 -0.000685 0.000375 -0.000119
    8 0.000685 0.000000 0.000000 -0.000007 -0.000001 -0.000014
    9 0.000005 0.001722 -0.002306 0.001348 -0.000159 0.000031
    10 0.001352 0.000000 0.000000 0.000000 0.000000 0.000946
    11 0.000569 0.000000 0.000000 0.000000 0.000012 0.000947
    12 0.000487 0.000000 0.000000 0.000000 0.000000 0.000010
    13 0.002417 0.000000 0.000000 6.283183 0.000000 0.000013
    14 0.001431 0.000000 0.000000 0.000394 0.000325 0.001144
    15 0.000209 0.001183 0.000991 0.000020 -0.000040 0.000086
    16 0.003046 -0.000004 0.000000 -0.001241 0.014230 0.104475
    17 0.001618 0.000000 0.000000 0.000000 0.000000 -0.220473
    18 0.000919 0.000000 -0.000004 -0.020311 0.079321 0.058646
    19 0.002261 0.003504 -0.001142 -0.000013 0.000019 0.000021
    20 0.000213 0.000000 0.000000 -0.000005 0.000011 -0.000032
    21 0.000290 0.000000 0.000000 0.000003 0.000006 -0.000039
    22 0.002582 0.001922 -0.002393 -0.000011 0.000010 -0.000035
    23 0.002855 0.000000 0.000000 0.000009 0.000009 -0.000015
    24 0.002939 0.000000 0.000000 0.000000 0.000009 -0.000023
    25 0.002761 0.000198 0.001069 0.000002 0.000002 -0.000009
    26 0.002780 0.000000 0.000000 0.000004 -0.000004 -0.000021
    27 0.000563 0.000000 0.000000 -0.000011 -0.000003 -0.000037
    28 0.002559 -0.001636 0.001561 0.000003 -0.000009 0.000034
    29 0.000045 0.000000 0.000000 0.000003 -0.000010 -0.000018
    30 0.002845 0.000000 0.000000 0.000000 -0.000006 -0.000028
    31 0.001112 -0.001101 0.002552 -0.000050 -0.000030 -0.000012
    32 0.002332 0.000000 0.000000 0.000000 0.000011 -0.000032
    33 0.002311 0.000000 0.000000 0.000000 0.000006 -0.000033
    34 0.000213 0.001184 -0.000939 0.000158 0.003274 0.003338
    35 0.003045 -0.000004 0.000000 -0.002540 -0.039675 0.070969
    36 0.001614 0.000000 0.000000 0.000000 0.000000 -0.090924
    37 0.000924 0.000000 0.000000 -0.038862 0.021882 0.026274
    38 0.002289 0.000467 0.003249 0.000016 -0.000016 0.000039
    39 0.000214 0.000000 -0.000001 0.000010 -0.000011 -0.000033
    40 0.000292 -0.000002 0.000000 -0.000003 -0.000006 -0.000020
    41 0.002596 0.000274 0.000039 0.000011 -0.000003 -0.000031
    42 0.002855 0.000000 0.000000 -0.000009 -0.000009 -0.000003
    43 0.002939 0.000000 0.000000 -0.000012 -0.000009 -0.000003
    44 0.002761 0.003513 -0.002425 -0.000002 -0.000002 -0.000010
    45 0.002782 0.000000 0.000000 -0.000004 0.000004 -0.000021
    46 0.000559 0.000000 0.000000 0.000011 0.000003 -0.000015
    47 0.002542 -0.000514 -0.001458 -0.000003 0.000004 0.000028
    48 0.000044 0.000000 0.000000 -0.000003 0.000010 -0.000030
    49 0.002847 -0.000002 0.000000 0.000000 0.000006 -0.000024
    50 0.001089 -0.003847 -0.000014 0.000011 0.000014 -0.000010
    51 0.002334 0.000000 0.000000 0.000000 -0.000011 0.000000
    52 0.002309 -0.000002 0.000000 0.000000 -0.000006 -0.000029
    53 0.000000 0.000000 0.000000 0.000000 0.000000 0.000000
    54 0.000000 0.000000 0.000000 0.000000 0.000000 0.000000
    55 0.000000 0.000000 0.000000 0.000000 0.000000 0.000000
    56 0.000000 0.000000 0.000000 0.000000 0.000000 0.000000
    57 0.000000 0.000000 0.000000 0.000000 0.000000 0.000000
    58 0.000000 0.000000 0.000000 0.000000 0.000000 0.000000
    59 0.000000 0.000000 0.000000 0.000000 0.000000 0.000000
    60 0.000000 0.000000 0.000000 0.000000 0.000000 0.000000
    61 0.000000 0.000000 0.000000 0.000000 0.000000 0.000000
    62 0.000000 0.000000 0.000000 0.000000 0.000000 0.000000
    63 0.000000 0.000000 0.000000 0.000000 0.000000 0.000000
    64 0.000000 0.000000 0.000000 0.000000 0.000000 0.000000
    65 0.000000 0.000000 0.000000 0.000000 0.000000 0.000000
    66 0.000000 0.000000 0.000000 0.000000 0.000000 0.000000
    67 0.000000 0.000000 0.000000 0.000000 0.000000 0.000000
    68 0.000000 0.000000 0.000000 0.000000 0.000000 0.000000
  time 6
    0 -0.003280 0.029554 0.004468 0.000036 0.000000 -1.570796
    1 0.003424 -0.000004 -0.000003 -0.000059 0.000058 -0.000610
    2 0.002024 0.000000 0.000000 0.000000 0.000000 -0.001207
    3 0.001991 0.000000 0.000000 -0.000112 -0.000242 0.001814
    4 0.000685 0.000000 0.000000 -0.000015 0.000011 -0.000031
    5 -0.003423 0.000008 0.000007 0.000157 -0.000667 -0.001942
    6 0.002028 0.000000 0.000000 0.000000 0.000000 0.001899
    7 0.001989 0.000000 0.000000 -0.000685 0.000375 -0.000119
    8 0.000685 0.000000 0.000000 -0.000007 -0.000001 -0.000014
    9 0.000005 0.001722 -0.002306 0.001348 -0.000159 0.000031
    10 0.001352 0.000000 0.000000 0.000000 0.000000 0.000946
    11 0.000569 0.000000 0.000000 0.000000 0.000012 0.000947
    12 0.000487 0.000000 0.000000 0.000000 0.000000 0.000010
    13 0.002417 0.000000 0.000000 6.283183 0.000000 0.000013
    14 0.001431 0.000000 0.000000 0.000394 0.000325 0.001144
    15 0.000209 0.001183 0.000991 0.000020 -0.000040 0.000086
    16 0.003046 -0.000004 0.000000 -0.000017 0.000728 -0.002235
    17 0.001618 0.000000 0.000000 0.000000 0.000000 -0.000048
    18 0.000919 0.000000 -0.000004 0.461160 0.012833 0.536619
    19 0.002261 0.003504 -0.001142 -0.000013 0.000019 0.000021
    20 0.000213 0.000000 0.000000 -0.000005 0.000011 -0.000032
    21 0.000290 0.000000 0.000000 0.000003 0.000006 -0.000039
    22 0.002582 0.001922 -0.002393 -0.000011 0.000010 -0.000035
    23 0.002855 0.000000 0.000000 0.000009 0.000009 -0.000015
    24 0.002939 0.000000 0.000000 0.000000 0.000009 -0.000023
    25 0.002761 0.000198 0.001069 0.000002 0.000002 -0.000009
    26 0.002780 0.000000 0.000000 0.000004 -0.000004 -0.000021
    27 0.000563 0.000000 0.000000 -0.000011 -0.000003 -0.000037
    28 0.002559 -0.001636 0.001561 0.000003 -0.000009 0.000034
    29 0.000045 0.000000 0.000000 0.000003 -0.000010 -0.000018
    30 0.002845 0.000000 0.000000 0.000000 -0.000006 -0.000028
    31 0.001112 -0.001101 0.002552 -0.000050 -0.000030 -0.000012
    32 0.002332 0.000000 0.000000 0.000000 0.000011 -0.000032
    33 0.002311 0.000000 0.000000 0.000000 0.000006 -0.000033
    34 0.000213 0.001184 -0.000939 0.000158 0.003274 0.003338
    35 0.003045 -0.000004 0.000000 0.004622 0.000219 0.003741
    36 0.001614 0.000000 0.000000 0.000000 0.000000 -0.000018
    37 0.000924 0.000000 0.000000 -0.822196 0.287616 -0.606239
    38 0.002289 0.000467 0.003249 0.000016 -0.000016 0.000039
    39 0.000214 0.000000 -0.000001 0.000010 -0.000011 -0.000033
    40 0.000292 -0.000002 0.000000 -0.000003 -0.000006 -0.000020
    41 0.002596 0.000274 0.000039 0.000011 -0.000003 -0.000031
    42 0.002855 0.000000 0.000000 -0.000009 -0.000009 -0.000003
    43 0.002939 0.000000 0.000000 0.000000 -0.000009 -0.000003
    44 0.002761 0.003513 -0.002425 -0.000002 -0.000002 -0.000010
    45 0.002782 0.000000 0.000000 -0.000004 0.000004 -0.000021
    46 0.000559 0.000000 0.000000 0.000011 0.000003 -0.000015
    47 0.002542 -0.000514 -0.001458 -0.000003 0.000004 0.000028
    48 0.000044 0.000000 0.000000 -0.000003 0.000010 -0.000030
    49 0.002847 -0.000002 0.000000 0.000000 0.000006 -0.000024
    50 0.001089 -0.003847 -0.000014 0.000011 0.000014 -0.000010
    51 0.002334 0.000000 0.000000 0.000000 -0.000011 0.000000
    52 0.002309 -0.000002 0.000000 0.000000 -0.000006 -0.000029
    53 0.000000 0.000000 0.000000 0.000000 0.000000 0.000000
    54 0.000000 0.000000 0.000000 0.000000 0.000000 0.000000
    55 0.000000 0.000000 0.000000 0.000000 0.000000 0.000000
    56 0.000000 0.000000 0.000000 0.000000 0.000000 0.000000
    57 0.000000 0.000000 0.000000 0.000000 0.000000 0.000000
    58 0.000000 0.000000 0.000000 0.000000 0.000000 0.000000
    59 0.000000 0.000000 0.000000 0.000000 0.000000 0.000000
    60 0.000000 0.000000 0.000000 0.000000 0.000000 0.000000
    61 0.000000 0.000000 0.000000 0.000000 0.000000 0.000000
    62 0.000000 0.000000 0.000000 0.000000 0.000000 0.000000
    63 0.000000 0.000000 0.000000 0.000000 0.000000 0.000000
    64 0.000000 0.000000 0.000000 0.000000 0.000000 0.000000
    65 0.000000 0.000000 0.000000 0.000000 0.000000 0.000000
    66 0.000000 0.000000 0.000000 0.000000 0.000000 0.000000
    67 0.000000 0.000000 0.000000 0.000000 0.000000 0.000000
    68 0.000000 0.000000 0.000000 0.000000 0.000000 0.000000
end
