version 1
nodes
  0 "ValveBiped.Bip01_Pelvis" -1
  1 "ValveBiped.Bip01_L_Thigh" 0
  2 "ValveBiped.Bip01_L_Calf" 1
  3 "ValveBiped.Bip01_L_Foot" 2
  4 "ValveBiped.Bip01_L_Toe0" 3
  5 "ValveBiped.Bip01_R_Thigh" 0
  6 "ValveBiped.Bip01_R_Calf" 5
  7 "ValveBiped.Bip01_R_Foot" 6
  8 "ValveBiped.Bip01_R_Toe0" 7
  9 "ValveBiped.Bip01_Spine" 0
  10 "ValveBiped.Bip01_Spine1" 9
  11 "ValveBiped.Bip01_Spine2" 10
  12 "ValveBiped.Bip01_Spine4" 11
  13 "ValveBiped.Bip01_Neck1" 12
  14 "ValveBiped.Bip01_Head1" 13
  15 "ValveBiped.Bip01_L_Clavicle" 12
  16 "ValveBiped.Bip01_L_UpperArm" 15
  17 "ValveBiped.Bip01_L_Forearm" 16
  18 "ValveBiped.Bip01_L_Hand" 17
  19 "ValveBiped.Bip01_L_Finger4" 18
  20 "ValveBiped.Bip01_L_Finger41" 19
  21 "ValveBiped.Bip01_L_Finger42" 20
  22 "ValveBiped.Bip01_L_Finger3" 18
  23 "ValveBiped.Bip01_L_Finger31" 22
  24 "ValveBiped.Bip01_L_Finger32" 23
  25 "ValveBiped.Bip01_L_Finger2" 18
  26 "ValveBiped.Bip01_L_Finger21" 25
  27 "ValveBiped.Bip01_L_Finger22" 26
  28 "ValveBiped.Bip01_L_Finger1" 18
  29 "ValveBiped.Bip01_L_Finger11" 28
  30 "ValveBiped.Bip01_L_Finger12" 29
  31 "ValveBiped.Bip01_L_Finger0" 18
  32 "ValveBiped.Bip01_L_Finger01" 31
  33 "ValveBiped.Bip01_L_Finger02" 32
  34 "ValveBiped.Bip01_R_Clavicle" 12
  35 "ValveBiped.Bip01_R_UpperArm" 34
  36 "ValveBiped.Bip01_R_Forearm" 35
  37 "ValveBiped.Bip01_R_Hand" 36
  38 "ValveBiped.Bip01_R_Finger4" 37
  39 "ValveBiped.Bip01_R_Finger41" 38
  40 "ValveBiped.Bip01_R_Finger42" 39
  41 "ValveBiped.Bip01_R_Finger3" 37
  42 "ValveBiped.Bip01_R_Finger31" 41
  43 "ValveBiped.Bip01_R_Finger32" 42
  44 "ValveBiped.Bip01_R_Finger2" 37
  45 "ValveBiped.Bip01_R_Finger21" 44
  46 "ValveBiped.Bip01_R_Finger22" 45
  47 "ValveBiped.Bip01_R_Finger1" 37
  48 "ValveBiped.Bip01_R_Finger11" 47
  49 "ValveBiped.Bip01_R_Finger12" 48
  50 "ValveBiped.Bip01_R_Finger0" 37
  51 "ValveBiped.Bip01_R_Finger01" 50
  52 "ValveBiped.Bip01_R_Finger02" 51
  53 "ValveBiped.Bip01_L_Trapezius" 15
  54 "ValveBiped.Bip01_L_Ulna" 17
  55 "ValveBiped.Bip01_R_Ulna" 36
  56 "ValveBiped.Bip01_L_Wrist" 17
  57 "ValveBiped.Bip01_L_Bicep" 16
  58 "ValveBiped.Bip01_L_Latt" 11
  59 "ValveBiped.Bip01_L_Pectoral" 11
  60 "ValveBiped.Bip01_R_Elbow" 35
  61 "ValveBiped.Bip01_R_Pectoral" 11
  62 "ValveBiped.Bip01_R_Latt" 11
  63 "ValveBiped.Bip01_L_Shoulder" 16
  64 "ValveBiped.Bip01_R_Wrist" 36
  65 "ValveBiped.Bip01_L_Elbow" 16
  66 "ValveBiped.Bip01_R_Trapezius" 34
  67 "ValveBiped.Bip01_R_Shoulder" 35
  68 "ValveBiped.Bip01_R_Bicep" 35
end
skeleton
  time 0
    0 -0.000005 -0.656618 37.913784 1.570796 0.000000 0.000000
    1 3.984014 -0.000004 -0.000003 -1.570796 0.014790 -1.611082
    2 15.940014 0.000000 0.000000 0.000000 0.000000 0.114481
    3 17.709564 0.000000 0.000000 0.017106 -0.070056 -1.201068
    4 6.203999 0.000001 0.000000 -0.011146 0.000934 -0.500515
    5 -3.984013 0.000008 0.000007 -1.570796 0.014791 -1.530513
    6 15.940012 0.000000 0.000000 0.000000 0.000000 0.114480
    7 17.709557 0.000000 0.000000 -0.006396 0.070030 -1.204018
    8 6.203998 0.000000 0.000000 -0.078650 -0.006185 -0.498943
    9 0.000005 4.212788 -1.689857 1.570796 -0.027977 1.570796
    10 3.837410 0.000000 0.000000 0.000000 0.000000 -0.112614
    11 3.617867 0.000000 0.000000 0.000000 0.000000 -0.012635
    12 7.539780 0.000000 0.000000 0.000000 0.000000 0.155813
    13 3.178299 0.000000 0.000000 3.141589 0.000000 0.224127
    14 2.970272 0.000000 0.000000 0.000000 0.000000 0.109880
    15 2.023708 0.907460 0.852579 1.638071 -1.332999 2.900402
    16 4.983668 0.000000 0.000000 -1.304272 -0.046080 -0.831416
    17 11.123053 0.000000 -0.000002 0.000000 0.000000 -1.871522
    18 11.208296 -0.000004 -0.000002 1.258431 0.188920 0.182259
    19 3.549244 0.198826 -1.489468 -0.406577 0.205280 -0.517778
    20 1.219000 0.000000 0.000002 -0.004612 0.097482 -0.644616
    21 0.680000 0.000000 0.000002 0.011364 0.086978 -0.627598
    22 3.698008 0.267557 -0.728979 -0.142040 0.204226 -0.627118
    23 1.749000 0.000001 0.000000 0.000213 0.027094 -0.429434
    24 0.960000 0.000000 0.000000 0.002325 0.039402 -0.653859
    25 3.768502 0.152550 0.071384 0.089455 0.067584 -0.438002
    26 2.038002 0.000002 0.000000 0.001514 -0.004366 -0.756609
    27 1.067000 -0.000002 0.000004 -0.001245 -0.005672 -0.456842
    28 3.783922 -0.017255 0.794556 0.240570 -0.263119 0.242521
    29 1.629000 0.000000 -0.000002 0.018831 -0.066668 -0.562724
    30 0.956001 0.000000 0.000002 0.000000 -0.069720 -0.440703
    31 1.258962 -0.297979 1.252590 -1.366210 -0.331975 -0.426583
    32 1.393000 0.000002 -0.000002 0.000000 0.002024 -0.075838
    33 1.099999 0.000002 0.000002 0.000000 0.013129 -0.338672
    34 2.023712 0.907462 -0.852528 -1.710587 1.334993 2.899636
    35 4.983668 -0.000002 0.000000 1.509592 0.054083 -0.912625
    36 11.123051 0.000000 0.000005 0.000000 0.000000 -1.953531
    37 11.208297 0.000002 0.000000 -1.021962 0.145536 0.270330
    38 3.549271 0.211410 1.487667 0.503444 -0.452521 -0.883188
    39 1.219000 0.000000 0.000000 0.004612 -0.097482 -0.828942
    40 0.680000 -0.000001 0.000000 -0.011364 -0.086978 -1.056139
    41 3.698021 0.273716 0.726624 0.163684 -0.152604 -0.964260
    42 1.748999 0.000000 0.000000 -0.000213 -0.027094 -0.590621
    43 0.960000 0.000000 0.000002 -0.002325 -0.039402 -1.050662
    44 3.768501 0.151954 -0.072741 -0.079340 -0.095640 -0.767749
    45 2.037999 -0.000001 0.000000 -0.001514 0.004366 -0.875096
    46 1.067000 0.000002 0.000000 0.001245 0.005672 -0.885274
    47 3.783907 -0.023952 -0.794451 -0.350493 0.055079 -0.422615
    48 1.629001 0.000001 0.000002 -0.018831 0.066668 -0.481240
    49 0.956000 -0.000002 0.000000 0.000000 0.069720 -0.617589
    50 1.258940 -0.308544 -1.250051 1.341618 0.179231 -0.451187
    51 1.393002 0.000000 0.000002 0.000000 -0.002024 -0.216980
    52 1.099998 0.000000 -0.000004 0.000000 -0.013129 -0.144486
    53 4.271700 0.000000 0.000000 0.000000 0.000000 0.000000
    54 5.604149 0.000002 -0.000006 -0.030876 0.000000 0.000000
    55 5.604153 0.000000 0.000000 0.034930 0.000000 0.000000
    56 11.208297 0.000000 -0.000006 -0.057543 0.000000 0.000000
    57 5.560003 -0.700000 -0.500004 0.000000 0.000000 0.000000
    58 2.132027 1.532022 5.000000 0.000000 0.000000 0.000000
    59 2.000008 4.938046 2.578000 0.000000 0.000000 0.000000
    60 11.123055 -0.000001 0.000004 0.000000 0.000000 -0.100063
    61 2.000000 4.938041 -2.578000 0.000000 0.000000 0.000000
    62 2.132023 1.532021 -5.000000 0.000000 0.000000 0.000000
    63 1.500000 0.000000 0.000000 0.000000 0.000000 0.000000
    64 11.208303 0.000002 0.000002 0.065171 0.000000 0.000000
    65 11.123056 0.000000 -0.000002 0.000000 0.000000 -0.100081
    66 4.271698 -0.000004 0.000000 0.000000 0.000000 0.000000
    67 1.500002 0.000000 -0.000004 0.000000 0.000000 0.000000
    68 5.560005 -0.700001 0.500002 0.000000 0.000000 0.000000
  time 1
    0 -0.000005 -0.656618 37.913784 1.570796 0.000000 0.000000
    1 3.984014 -0.000004 -0.000003 -1.570796 0.014790 -1.611082
    2 15.940014 0.000000 0.000000 0.000000 0.000000 0.114481
    3 17.709564 0.000000 0.000000 0.017106 -0.070056 -1.201068
    4 6.203999 0.000001 0.000000 -0.011146 0.000934 -0.500515
    5 -3.984013 0.000008 0.000007 -1.570796 0.014791 -1.530513
    6 15.940012 0.000000 0.000000 0.000000 0.000000 0.114480
    7 17.709557 0.000000 0.000000 -0.006396 0.070030 -1.204018
    8 6.203998 0.000000 0.000000 -0.078650 -0.006185 -0.498943
    9 0.000005 4.212788 -1.689857 1.570796 -0.027977 1.570796
    10 3.837410 0.000000 0.000000 0.000000 0.000000 -0.112614
    11 3.617867 0.000000 0.000000 0.000000 0.000000 -0.012635
    12 7.539780 0.000000 0.000000 0.000000 0.000000 0.155813
    13 3.178299 0.000000 0.000000 3.141589 0.000000 0.224127
    14 2.970272 0.000000 0.000000 0.000000 0.000000 0.109880
    15 2.023708 0.907460 0.852579 1.637975 -1.332494 2.900497
    16 4.983668 0.000000 0.000000 -1.304272 -0.046080 -0.830932
    17 11.123053 0.000000 -0.000002 0.000000 0.000000 -1.871522
    18 11.208296 -0.000004 -0.000002 1.258355 0.190004 0.182178
    19 3.549244 0.198826 -1.489468 -0.406577 0.205280 -0.517778
    20 1.219000 0.000000 0.000002 -0.004612 0.097482 -0.644616
    21 0.680000 0.000000 0.000002 0.011364 0.086978 -0.627598
    22 3.698008 0.267557 -0.728979 -0.142040 0.204226 -0.627118
    23 1.749000 0.000001 0.000000 0.000213 0.027094 -0.429434
    24 0.960000 0.000000 0.000000 0.002325 0.039402 -0.653859
    25 3.768502 0.152550 0.071384 0.089455 0.067584 -0.438002
    26 2.038002 0.000002 0.000000 0.001514 -0.004366 -0.756609
    27 1.067000 -0.000002 0.000004 -0.001245 -0.005672 -0.456842
    28 3.783922 -0.017255 0.794556 0.240570 -0.263119 0.242521
    29 1.629000 0.000000 -0.000002 0.018831 -0.066668 -0.562724
    30 0.956001 0.000000 0.000002 0.000000 -0.069720 -0.440703
    31 1.258962 -0.297979 1.252590 -1.366210 -0.331975 -0.426583
    32 1.393000 0.000002 -0.000002 0.000000 0.002024 -0.075838
    33 1.099999 0.000002 0.000002 0.000000 0.013129 -0.338672
    34 2.023712 0.907462 -0.852528 -1.710587 1.334993 2.899636
    35 4.983668 -0.000002 0.000000 1.508995 0.054187 -0.911683
    36 11.123051 0.000000 0.000005 0.000000 0.000000 -1.953531
    37 11.208297 0.000002 0.000000 -1.016979 0.147018 0.271468
    38 3.549271 0.211410 1.487667 0.503444 -0.452521 -0.883188
    39 1.219000 0.000000 0.000000 0.004612 -0.097482 -0.828942
    40 0.680000 -0.000001 0.000000 -0.011364 -0.086978 -1.056139
    41 3.698021 0.273716 0.726624 0.163684 -0.152604 -0.964260
    42 1.748999 0.000000 0.000000 -0.000213 -0.027094 -0.590621
    43 0.960000 0.000000 0.000002 -0.002325 -0.039402 -1.050662
    44 3.768501 0.151954 -0.072741 -0.079340 -0.095640 -0.767749
    45 2.037999 -0.000001 0.000000 -0.001514 0.004366 -0.875096
    46 1.067000 0.000002 0.000000 0.001245 0.005672 -0.885274
    47 3.783907 -0.023952 -0.794451 -0.350493 0.055079 -0.422615
    48 1.629001 0.000001 0.000002 -0.018831 0.066668 -0.481240
    49 0.956000 -0.000002 0.000000 0.000000 0.069720 -0.617589
    50 1.258940 -0.308544 -1.250051 1.341618 0.179231 -0.451187
    51 1.393002 0.000000 0.000002 0.000000 -0.002024 -0.216980
    52 1.099998 0.000000 -0.000004 0.000000 -0.013129 -0.144486
    53 4.271700 0.000000 0.000000 0.000000 0.000000 0.000000
    54 5.604149 0.000002 -0.000006 -0.030876 0.000000 0.000000
    55 5.604153 0.000000 0.000000 0.034930 0.000000 0.000000
    56 11.208297 0.000000 -0.000006 -0.057543 0.000000 0.000000
    57 5.560003 -0.700000 -0.500004 0.000000 0.000000 0.000000
    58 2.132027 1.532022 5.000000 0.000000 0.000000 0.000000
    59 2.000008 4.938046 2.578000 0.000000 0.000000 0.000000
    60 11.123055 -0.000001 0.000004 0.000000 0.000000 -0.100063
    61 2.000000 4.938041 -2.578000 0.000000 0.000000 0.000000
    62 2.132023 1.532021 -5.000000 0.000000 0.000000 0.000000
    63 1.500000 0.000000 0.000000 0.000000 0.000000 0.000000
    64 11.208303 0.000002 0.000002 0.065171 0.000000 0.000000
    65 11.123056 0.000000 -0.000002 0.000000 0.000000 -0.100081
    66 4.271698 -0.000004 0.000000 0.000000 0.000000 0.000000
    67 1.500002 0.000000 -0.000004 0.000000 0.000000 0.000000
    68 5.560005 -0.700001 0.500002 0.000000 0.000000 0.000000
  time 2
    0 -0.000005 -0.656618 37.913784 1.570796 0.000000 0.000000
    1 3.984014 -0.000004 -0.000003 -1.570796 0.014790 -1.611082
    2 15.940014 0.000000 0.000000 0.000000 0.000000 0.114481
    3 17.709564 0.000000 0.000000 0.017106 -0.070056 -1.201068
    4 6.203999 0.000001 0.000000 -0.011146 0.000934 -0.500515
    5 -3.984013 0.000008 0.000007 -1.570796 0.014791 -1.530513
    6 15.940012 0.000000 0.000000 0.000000 0.000000 0.114480
    7 17.709557 0.000000 0.000000 -0.006396 0.070030 -1.204018
    8 6.203998 0.000000 0.000000 -0.078650 -0.006185 -0.498943
    9 0.000005 4.212788 -1.689857 1.570796 -0.027977 1.570796
    10 3.837410 0.000000 0.000000 0.000000 0.000000 -0.112614
    11 3.617867 0.000000 0.000000 0.000000 0.000000 -0.012635
    12 7.539780 0.000000 0.000000 0.000000 0.000000 0.155813
    13 3.178299 0.000000 0.000000 3.141589 0.000000 0.224127
    14 2.970272 0.000000 0.000000 0.000000 0.000000 0.109880
    15 2.023708 0.907460 0.852579 1.638071 -1.332999 2.900402
    16 4.983668 0.000000 0.000000 -1.304272 -0.046080 -0.831416
    17 11.123053 0.000000 -0.000002 0.000000 0.000000 -1.871522
    18 11.208296 -0.000004 -0.000002 1.258431 0.188920 0.182259
    19 3.549244 0.198826 -1.489468 -0.406577 0.205280 -0.517778
    20 1.219000 0.000000 0.000002 -0.004612 0.097482 -0.644616
    21 0.680000 0.000000 0.000002 0.011364 0.086978 -0.627598
    22 3.698008 0.267557 -0.728979 -0.142040 0.204226 -0.627118
    23 1.749000 0.000001 0.000000 0.000213 0.027094 -0.429434
    24 0.960000 0.000000 0.000000 0.002325 0.039402 -0.653859
    25 3.768502 0.152550 0.071384 0.089455 0.067584 -0.438002
    26 2.038002 0.000002 0.000000 0.001514 -0.004366 -0.756609
    27 1.067000 -0.000002 0.000004 -0.001245 -0.005672 -0.456842
    28 3.783922 -0.017255 0.794556 0.240570 -0.263119 0.242521
    29 1.629000 0.000000 -0.000002 0.018831 -0.066668 -0.562724
    30 0.956001 0.000000 0.000002 0.000000 -0.069720 -0.440703
    31 1.258962 -0.297979 1.252590 -1.366210 -0.331975 -0.426583
    32 1.393000 0.000002 -0.000002 0.000000 0.002024 -0.075838
    33 1.099999 0.000002 0.000002 0.000000 0.013129 -0.338672
    34 2.023712 0.907462 -0.852528 -1.710587 1.334993 2.899636
    35 4.983668 -0.000002 0.000000 1.509592 0.054083 -0.912625
    36 11.123051 0.000000 0.000005 0.000000 0.000000 -1.953531
    37 11.208297 0.000002 0.000000 -1.021962 0.145536 0.270330
    38 3.549271 0.211410 1.487667 0.503444 -0.452521 -0.883188
    39 1.219000 0.000000 0.000000 0.004612 -0.097482 -0.828942
    40 0.680000 -0.000001 0.000000 -0.011364 -0.086978 -1.056139
    41 3.698021 0.273716 0.726624 0.163684 -0.152604 -0.964260
    42 1.748999 0.000000 0.000000 -0.000213 -0.027094 -0.590621
    43 0.960000 0.000000 0.000002 -0.002325 -0.039402 -1.050662
    44 3.768501 0.151954 -0.072741 -0.079340 -0.095640 -0.767749
    45 2.037999 -0.000001 0.000000 -0.001514 0.004366 -0.875096
    46 1.067000 0.000002 0.000000 0.001245 0.005672 -0.885274
    47 3.783907 -0.023952 -0.794451 -0.350493 0.055079 -0.422615
    48 1.629001 0.000001 0.000002 -0.018831 0.066668 -0.481240
    49 0.956000 -0.000002 0.000000 0.000000 0.069720 -0.617589
    50 1.258940 -0.308544 -1.250051 1.341618 0.179231 -0.451187
    51 1.393002 0.000000 0.000002 0.000000 -0.002024 -0.216980
    52 1.099998 0.000000 -0.000004 0.000000 -0.013129 -0.144486
    53 4.271700 0.000000 0.000000 0.000000 0.000000 0.000000
    54 5.604149 0.000002 -0.000006 -0.030876 0.000000 0.000000
    55 5.604153 0.000000 0.000000 0.034930 0.000000 0.000000
    56 11.208297 0.000000 -0.000006 -0.057543 0.000000 0.000000
    57 5.560003 -0.700000 -0.500004 0.000000 0.000000 0.000000
    58 2.132027 1.532022 5.000000 0.000000 0.000000 0.000000
    59 2.000008 4.938046 2.578000 0.000000 0.000000 0.000000
    60 11.123055 -0.000001 0.000004 0.000000 0.000000 -0.100063
    61 2.000000 4.938041 -2.578000 0.000000 0.000000 0.000000
    62 2.132023 1.532021 -5.000000 0.000000 0.000000 0.000000
    63 1.500000 0.000000 0.000000 0.000000 0.000000 0.000000
    64 11.208303 0.000002 0.000002 0.065171 0.000000 0.000000
    65 11.123056 0.000000 -0.000002 0.000000 0.000000 -0.100081
    66 4.271698 -0.000004 0.000000 0.000000 0.000000 0.000000
    67 1.500002 0.000000 -0.000004 0.000000 0.000000 0.000000
    68 5.560005 -0.700001 0.500002 0.000000 0.000000 0.000000
end
