version 1
nodes
  0 "ValveBiped.Bip01_Pelvis" -1
  1 "ValveBiped.Bip01_L_Thigh" 0
  2 "ValveBiped.Bip01_L_Calf" 1
  3 "ValveBiped.Bip01_L_Foot" 2
  4 "ValveBiped.Bip01_L_Toe0" 3
  5 "ValveBiped.Bip01_R_Thigh" 0
  6 "ValveBiped.Bip01_R_Calf" 5
  7 "ValveBiped.Bip01_R_Foot" 6
  8 "ValveBiped.Bip01_R_Toe0" 7
  9 "ValveBiped.Bip01_Spine" 0
  10 "ValveBiped.Bip01_Spine1" 9
  11 "ValveBiped.Bip01_Spine2" 10
  12 "ValveBiped.Bip01_Spine4" 11
  13 "ValveBiped.Bip01_Neck1" 12
  14 "ValveBiped.Bip01_Head1" 13
  15 "ValveBiped.Bip01_L_Clavicle" 12
  16 "ValveBiped.Bip01_L_UpperArm" 15
  17 "ValveBiped.Bip01_L_Forearm" 16
  18 "ValveBiped.Bip01_L_Hand" 17
  19 "ValveBiped.Bip01_L_Finger4" 18
  20 "ValveBiped.Bip01_L_Finger41" 19
  21 "ValveBiped.Bip01_L_Finger42" 20
  22 "ValveBiped.Bip01_L_Finger3" 18
  23 "ValveBiped.Bip01_L_Finger31" 22
  24 "ValveBiped.Bip01_L_Finger32" 23
  25 "ValveBiped.Bip01_L_Finger2" 18
  26 "ValveBiped.Bip01_L_Finger21" 25
  27 "ValveBiped.Bip01_L_Finger22" 26
  28 "ValveBiped.Bip01_L_Finger1" 18
  29 "ValveBiped.Bip01_L_Finger11" 28
  30 "ValveBiped.Bip01_L_Finger12" 29
  31 "ValveBiped.Bip01_L_Finger0" 18
  32 "ValveBiped.Bip01_L_Finger01" 31
  33 "ValveBiped.Bip01_L_Finger02" 32
  34 "ValveBiped.Bip01_R_Clavicle" 12
  35 "ValveBiped.Bip01_R_UpperArm" 34
  36 "ValveBiped.Bip01_R_Forearm" 35
  37 "ValveBiped.Bip01_R_Hand" 36
  38 "ValveBiped.Bip01_R_Finger4" 37
  39 "ValveBiped.Bip01_R_Finger41" 38
  40 "ValveBiped.Bip01_R_Finger42" 39
  41 "ValveBiped.Bip01_R_Finger3" 37
  42 "ValveBiped.Bip01_R_Finger31" 41
  43 "ValveBiped.Bip01_R_Finger32" 42
  44 "ValveBiped.Bip01_R_Finger2" 37
  45 "ValveBiped.Bip01_R_Finger21" 44
  46 "ValveBiped.Bip01_R_Finger22" 45
  47 "ValveBiped.Bip01_R_Finger1" 37
  48 "ValveBiped.Bip01_R_Finger11" 47
  49 "ValveBiped.Bip01_R_Finger12" 48
  50 "ValveBiped.Bip01_R_Finger0" 37
  51 "ValveBiped.Bip01_R_Finger01" 50
  52 "ValveBiped.Bip01_R_Finger02" 51
  53 "ValveBiped.Bip01_L_Trapezius" 15
  54 "ValveBiped.Bip01_L_Ulna" 17
  55 "ValveBiped.Bip01_R_Ulna" 36
  56 "ValveBiped.Bip01_L_Wrist" 17
  57 "ValveBiped.Bip01_L_Bicep" 16
  58 "ValveBiped.Bip01_L_Latt" 11
  59 "ValveBiped.Bip01_L_Pectoral" 11
  60 "ValveBiped.Bip01_R_Elbow" 35
  61 "ValveBiped.Bip01_R_Pectoral" 11
  62 "ValveBiped.Bip01_R_Latt" 11
  63 "ValveBiped.Bip01_L_Shoulder" 16
  64 "ValveBiped.Bip01_R_Wrist" 36
  65 "ValveBiped.Bip01_L_Elbow" 16
  66 "ValveBiped.Bip01_R_Trapezius" 34
  67 "ValveBiped.Bip01_R_Shoulder" 35
  68 "ValveBiped.Bip01_R_Bicep" 35
end
skeleton
  time 0
    0 -0.000005 -0.987560 37.913784 1.575850 0.000000 0.000000
    1 3.984014 -0.000004 -0.000003 -1.570593 0.013137 -1.611079
    2 15.940010 0.000000 0.000000 0.000000 0.000000 0.126656
    3 17.709560 0.000000 0.000000 0.017005 -0.070032 -1.215888
    4 6.204000 0.000000 0.000000 -0.011067 0.000925 -0.500976
    5 -3.984013 0.000008 0.000007 -1.570999 0.013137 -1.530516
    6 15.940010 0.000000 0.000000 0.000000 0.000000 0.126656
    7 17.709557 0.000000 0.000000 -0.006306 0.070007 -1.218835
    8 6.203999 0.000000 0.000000 -0.078598 -0.006175 -0.499410
    9 0.000005 4.212784 -1.689857 1.570796 -0.027977 1.570796
    10 3.837410 0.000000 0.000000 0.000000 0.000000 -0.121789
    11 3.617867 0.000000 0.000000 0.000000 0.000000 -0.025189
    12 7.539780 0.000000 0.000000 0.000000 0.000000 0.155813
    13 3.178295 0.000000 0.000000 3.141590 0.000000 0.198360
    14 2.970272 0.000000 0.000000 0.000000 0.000000 0.091429
    15 2.023705 0.907460 0.852579 1.638357 -1.334137 2.900115
    16 4.983668 0.000000 0.000000 -1.212264 -0.284749 -0.899766
    17 11.123055 0.000000 0.000000 0.000000 0.000000 -2.115437
    18 11.208290 -0.000002 0.000000 0.439857 0.338042 -0.384588
    19 3.549244 0.198827 -1.489468 -0.472247 0.063924 -0.818721
    20 1.219000 0.000000 0.000000 -0.004612 0.097482 -1.230557
    21 0.680000 0.000000 -0.000004 0.011364 0.086978 -1.036818
    22 3.698006 0.267558 -0.728981 -0.164778 0.147480 -0.995501
    23 1.749000 0.000000 0.000000 0.000213 0.027094 -1.054101
    24 0.959999 0.000000 0.000000 0.002325 0.039402 -1.101805
    25 3.768501 0.152550 0.071384 0.074637 0.103123 -0.865117
    26 2.038002 0.000000 0.000000 0.001514 -0.004366 -1.439418
    27 1.066998 -0.000002 0.000000 -0.001245 -0.005672 -0.962932
    28 3.783924 -0.017254 0.794556 0.348233 0.068437 -0.758275
    29 1.629000 0.000000 0.000000 0.018831 -0.066668 -1.332711
    30 0.956001 0.000002 0.000000 0.000000 -0.069720 -1.033966
    31 1.258963 -0.297979 1.252590 -1.245154 -0.163242 -0.922791
    32 1.393000 0.000000 0.000000 0.000000 0.002024 0.349110
    33 1.100000 0.000000 0.000000 0.000000 0.013129 0.596758
    34 2.023708 0.907462 -0.852528 -1.710117 1.334138 2.900104
    35 4.983667 -0.000004 -0.000002 1.100051 -0.046260 -0.834489
    36 11.123051 -0.000001 0.000006 0.000000 0.000000 -1.930521
    37 11.208298 0.000000 0.000000 -0.671514 -0.380773 -0.244588
    38 3.549271 0.211411 1.487671 0.492429 0.054648 -1.044092
    39 1.219000 0.000000 0.000004 0.004612 -0.097482 -1.485811
    40 0.680000 0.000000 -0.000004 -0.011364 -0.086978 -1.292072
    41 3.698021 0.273717 0.726624 0.167569 -0.105308 -1.247603
    42 1.748999 -0.000001 -0.000004 -0.000213 -0.027094 -1.309355
    43 0.960000 0.000000 0.000000 -0.002325 -0.039402 -1.357060
    44 3.768501 0.151955 -0.072739 -0.059051 -0.120244 -1.121068
    45 2.037999 0.000000 0.000000 -0.001514 0.004366 -1.694673
    46 1.067001 0.000002 0.000000 0.001245 0.005672 -1.218186
    47 3.783908 -0.023952 -0.794453 -0.321318 -0.152718 -1.000776
    48 1.629000 0.000002 0.000000 -0.018831 0.066668 -1.587965
    49 0.956001 0.000000 0.000000 0.000000 0.069720 -1.289220
    50 1.258940 -0.308544 -1.250053 1.322032 0.226765 -0.566102
    51 1.393000 0.000000 0.000002 0.000000 -0.002024 0.427650
    52 1.100000 0.000000 -0.000004 0.000000 -0.013129 0.125519
    53 4.271701 0.000000 0.000000 0.000000 0.000000 0.000000
    54 5.604149 0.000000 -0.000004 -0.030876 0.000000 0.000000
    55 5.604152 0.000000 0.000002 0.034930 0.000000 0.000000
    56 11.208294 0.000000 -0.000004 -0.057543 0.000000 0.000000
    57 5.560005 -0.700001 -0.500004 0.000000 0.000000 0.000000
    58 2.132027 1.532022 5.000000 0.000000 0.000000 0.000000
    59 2.000004 4.938046 2.578000 0.000000 0.000000 0.000000
    60 11.123051 -0.000001 0.000004 0.000000 0.000000 -0.100063
    61 2.000004 4.938041 -2.578000 0.000000 0.000000 0.000000
    62 2.132027 1.532021 -5.000000 0.000000 0.000000 0.000000
    63 1.500000 0.000000 0.000000 0.000000 0.000000 0.000000
    64 11.208304 0.000000 0.000002 0.065171 0.000000 0.000000
    65 11.123055 0.000000 0.000000 0.000000 0.000000 -0.100081
    66 4.271698 -0.000008 0.000000 0.000000 0.000000 0.000000
    67 1.500000 0.000000 -0.000004 0.000000 -0.000001 0.000000
    68 5.560001 -0.700001 0.500002 0.000000 -0.000001 0.000000
end
