version 1
nodes
  0 "ValveBiped.Bip01_Pelvis" -1
  1 "ValveBiped.Bip01_L_Thigh" 0
  2 "ValveBiped.Bip01_L_Calf" 1
  3 "ValveBiped.Bip01_L_Foot" 2
  4 "ValveBiped.Bip01_L_Toe0" 3
  5 "ValveBiped.Bip01_R_Thigh" 0
  6 "ValveBiped.Bip01_R_Calf" 5
  7 "ValveBiped.Bip01_R_Foot" 6
  8 "ValveBiped.Bip01_R_Toe0" 7
  9 "ValveBiped.Bip01_Spine" 0
  10 "ValveBiped.Bip01_Spine1" 9
  11 "ValveBiped.Bip01_Spine2" 10
  12 "ValveBiped.Bip01_Spine4" 11
  13 "ValveBiped.Bip01_Neck1" 12
  14 "ValveBiped.Bip01_Head1" 13
  15 "ValveBiped.Bip01_L_Clavicle" 12
  16 "ValveBiped.Bip01_L_UpperArm" 15
  17 "ValveBiped.Bip01_L_Forearm" 16
  18 "ValveBiped.Bip01_L_Hand" 17
  19 "ValveBiped.Bip01_L_Finger4" 18
  20 "ValveBiped.Bip01_L_Finger41" 19
  21 "ValveBiped.Bip01_L_Finger42" 20
  22 "ValveBiped.Bip01_L_Finger3" 18
  23 "ValveBiped.Bip01_L_Finger31" 22
  24 "ValveBiped.Bip01_L_Finger32" 23
  25 "ValveBiped.Bip01_L_Finger2" 18
  26 "ValveBiped.Bip01_L_Finger21" 25
  27 "ValveBiped.Bip01_L_Finger22" 26
  28 "ValveBiped.Bip01_L_Finger1" 18
  29 "ValveBiped.Bip01_L_Finger11" 28
  30 "ValveBiped.Bip01_L_Finger12" 29
  31 "ValveBiped.Bip01_L_Finger0" 18
  32 "ValveBiped.Bip01_L_Finger01" 31
  33 "ValveBiped.Bip01_L_Finger02" 32
  34 "ValveBiped.Bip01_R_Clavicle" 12
  35 "ValveBiped.Bip01_R_UpperArm" 34
  36 "ValveBiped.Bip01_R_Forearm" 35
  37 "ValveBiped.Bip01_R_Hand" 36
  38 "ValveBiped.Bip01_R_Finger4" 37
  39 "ValveBiped.Bip01_R_Finger41" 38
  40 "ValveBiped.Bip01_R_Finger42" 39
  41 "ValveBiped.Bip01_R_Finger3" 37
  42 "ValveBiped.Bip01_R_Finger31" 41
  43 "ValveBiped.Bip01_R_Finger32" 42
  44 "ValveBiped.Bip01_R_Finger2" 37
  45 "ValveBiped.Bip01_R_Finger21" 44
  46 "ValveBiped.Bip01_R_Finger22" 45
  47 "ValveBiped.Bip01_R_Finger1" 37
  48 "ValveBiped.Bip01_R_Finger11" 47
  49 "ValveBiped.Bip01_R_Finger12" 48
  50 "ValveBiped.Bip01_R_Finger0" 37
  51 "ValveBiped.Bip01_R_Finger01" 50
  52 "ValveBiped.Bip01_R_Finger02" 51
  53 "ValveBiped.Bip01_L_Trapezius" 15
  54 "ValveBiped.Bip01_L_Ulna" 17
  55 "ValveBiped.Bip01_R_Ulna" 36
  56 "ValveBiped.Bip01_L_Wrist" 17
  57 "ValveBiped.Bip01_L_Bicep" 16
  58 "ValveBiped.Bip01_L_Latt" 11
  59 "ValveBiped.Bip01_L_Pectoral" 11
  60 "ValveBiped.Bip01_R_Elbow" 35
  61 "ValveBiped.Bip01_R_Pectoral" 11
  62 "ValveBiped.Bip01_R_Latt" 11
  63 "ValveBiped.Bip01_L_Shoulder" 16
  64 "ValveBiped.Bip01_R_Wrist" 36
  65 "ValveBiped.Bip01_L_Elbow" 16
  66 "ValveBiped.Bip01_R_Trapezius" 34
  67 "ValveBiped.Bip01_R_Shoulder" 35
  68 "ValveBiped.Bip01_R_Bicep" 35
end
skeleton
  time 0
    0 4.716246 4.318955 37.561695 1.553343 0.000000 0.000000
    1 3.984014 -0.000004 -0.000003 -1.571684 -0.071776 -1.621473
    2 15.940012 0.000000 0.000000 0.000000 0.000000 0.262030
    3 17.709560 0.000000 0.000000 -0.470448 -0.782027 -1.066318
    4 6.204000 0.000001 0.000001 -0.011146 0.000934 -0.500515
    5 -3.984013 0.000008 0.000007 -1.827504 -0.081634 -1.610708
    6 15.940010 0.000000 0.000000 0.000000 0.000000 0.290328
    7 17.709560 0.000000 0.000000 0.184739 0.196955 -1.251348
    8 6.203999 0.000000 0.000000 -0.078650 -0.006185 -0.498943
    9 0.000005 4.212784 -1.689857 1.570842 0.024383 1.571135
    10 3.837410 0.000000 0.000000 0.000001 -0.000404 -0.071252
    11 3.617870 0.000000 0.000000 0.000805 0.000268 0.161167
    12 7.539780 0.000000 0.000000 0.000000 0.000000 0.208173
    13 3.178299 0.000000 0.000000 3.141589 0.000000 0.224127
    14 2.970276 0.000000 0.000000 0.000000 0.000000 0.109880
    15 2.023708 0.907459 0.852579 1.638357 -1.334136 2.900115
    16 4.983666 0.000000 0.000000 -1.548794 -0.128840 -0.992752
    17 11.123051 0.000000 -0.000001 0.000000 0.000000 -2.206950
    18 11.208298 0.000000 -0.000004 1.135206 -0.199468 0.389377
    19 3.549244 0.198826 -1.489470 -0.290680 0.147066 -0.157749
    20 1.219001 0.000001 -0.000002 -0.004612 0.097482 -0.857488
    21 0.680000 0.000001 0.000000 0.011364 0.086978 -0.467392
    22 3.698009 0.267557 -0.728977 -0.117867 0.193734 -0.400710
    23 1.749001 -0.000001 0.000000 0.000213 0.027094 -0.681034
    24 0.960000 0.000000 0.000000 0.002325 0.039402 -0.532358
    25 3.768504 0.152550 0.071384 0.091505 0.211291 -0.065497
    26 2.038002 0.000001 0.000000 0.001514 -0.004366 -1.066337
    27 1.067001 -0.000002 0.000000 -0.001245 -0.005672 -0.393484
    28 3.783923 -0.017254 0.794554 0.278178 0.104808 0.154899
    29 1.629000 0.000000 0.000000 0.018831 -0.066668 -0.468773
    30 0.955999 0.000004 0.000000 0.000000 -0.069720 -0.170028
    31 1.258962 -0.297980 1.252590 -1.331029 0.039259 -0.742087
    32 1.393001 0.000000 0.000000 0.000000 0.002024 0.329446
    33 1.100000 0.000000 0.000002 0.000000 0.013129 0.145121
    34 2.023708 0.907463 -0.852528 -1.710117 1.334138 2.900104
    35 4.983668 0.000000 -0.000001 1.349469 0.264677 -1.018049
    36 11.123049 0.000000 0.000005 0.000000 0.000000 -1.847160
    37 11.208296 0.000002 0.000000 -1.144092 0.008130 -0.084081
    38 3.549271 0.211410 1.487671 0.359869 -0.049284 -0.325258
    39 1.219000 0.000000 0.000002 0.004612 -0.097482 -0.425502
    40 0.679999 0.000000 0.000002 -0.011364 -0.086978 -0.310297
    41 3.698022 0.273717 0.726625 0.131674 -0.098702 -0.528594
    42 1.748999 0.000000 -0.000002 -0.000213 -0.027094 -0.249035
    43 0.960001 0.000000 -0.000002 -0.002325 -0.039402 -0.375279
    44 3.768500 0.151955 -0.072741 -0.090833 -0.163209 -0.405118
    45 2.037999 -0.000001 0.000000 -0.001514 0.004366 -0.634357
    46 1.067000 0.000001 -0.000002 0.001245 0.005672 -0.236408
    47 3.783908 -0.023951 -0.794451 -0.352230 -0.226935 -0.220133
    48 1.629000 0.000000 0.000002 -0.018831 0.066668 -0.468773
    49 0.956000 0.000000 0.000002 0.000000 0.069720 -0.170028
    50 1.258940 -0.308544 -1.250050 1.322465 0.079108 -0.589578
    51 1.393002 -0.000002 0.000001 0.000000 -0.002024 -0.043589
    52 1.099998 0.000004 -0.000002 0.000000 -0.013129 -0.286815
    53 4.271699 0.000000 0.000000 0.000000 0.000000 0.000000
    54 5.604150 0.000000 -0.000005 -0.030876 0.000000 0.000000
    55 5.604152 0.000000 0.000000 0.034930 0.000000 0.000000
    56 11.208298 0.000002 -0.000006 -0.057543 0.000000 0.000000
    57 5.560001 -0.700001 -0.500004 0.000000 0.000000 0.000000
    58 2.132023 1.532023 5.000001 0.000000 0.000000 0.000000
    59 2.000008 4.938047 2.578001 0.000000 0.000000 0.000000
    60 11.123049 -0.000001 0.000003 0.000000 0.000000 -0.100063
    61 2.000000 4.938042 -2.578000 0.000000 0.000000 0.000000
    62 2.132023 1.532021 -5.000000 0.000000 0.000000 0.000000
    63 1.500000 0.000000 0.000001 0.000000 0.000000 0.000000
    64 11.208303 0.000002 0.000001 0.065171 0.000000 0.000000
    65 11.123051 0.000000 -0.000001 0.000000 0.000000 -0.100081
    66 4.271698 -0.000008 0.000000 0.000000 0.000000 0.000000
    67 1.500002 0.000000 -0.000004 0.000000 0.000000 0.000000
    68 5.560003 -0.700001 0.500002 0.000000 0.000000 0.000000
  time 1
    0 4.716246 4.318955 37.561695 1.553343 0.000000 0.000000
    1 3.984014 -0.000004 -0.000003 -1.571684 -0.071776 -1.621473
    2 15.940012 0.000000 0.000000 0.000000 0.000000 0.262030
    3 17.709560 0.000000 0.000000 -0.470448 -0.782027 -1.066318
    4 6.204000 0.000001 0.000001 -0.011146 0.000934 -0.500515
    5 -3.984013 0.000008 0.000007 -1.827504 -0.081634 -1.610708
    6 15.940010 0.000000 0.000000 0.000000 0.000000 0.290328
    7 17.709560 0.000000 0.000000 0.184739 0.196955 -1.251348
    8 6.203999 0.000000 0.000000 -0.078650 -0.006185 -0.498943
    9 0.000005 4.212784 -1.689857 1.570842 0.024383 1.571135
    10 3.837410 0.000000 0.000000 0.000001 -0.000404 -0.071252
    11 3.617870 0.000000 0.000000 0.000805 0.000268 0.161167
    12 7.539780 0.000000 0.000000 0.000000 0.000000 0.208173
    13 3.178299 0.000000 0.000000 3.141589 0.000000 0.224127
    14 2.970276 0.000000 0.000000 0.000000 0.000000 0.109880
    15 2.023708 0.907459 0.852579 1.638357 -1.334136 2.900115
    16 4.983666 0.000000 0.000000 -1.549447 -0.131223 -0.992691
    17 11.123051 0.000000 -0.000001 0.000000 0.000000 -2.205971
    18 11.208298 0.000000 -0.000004 1.135206 -0.199468 0.389377
    19 3.549244 0.198826 -1.489470 -0.290680 0.147066 -0.157749
    20 1.219001 0.000001 -0.000002 -0.004612 0.097482 -0.857488
    21 0.680000 0.000001 0.000000 0.011364 0.086978 -0.467392
    22 3.698009 0.267557 -0.728977 -0.117867 0.193734 -0.400710
    23 1.749001 -0.000001 0.000000 0.000213 0.027094 -0.681034
    24 0.960000 0.000000 0.000000 0.002325 0.039402 -0.532358
    25 3.768504 0.152550 0.071384 0.091505 0.211291 -0.065497
    26 2.038002 0.000001 0.000000 0.001514 -0.004366 -1.066337
    27 1.067001 -0.000002 0.000000 -0.001245 -0.005672 -0.393484
    28 3.783923 -0.017254 0.794554 0.278178 0.104808 0.154899
    29 1.629000 0.000000 0.000000 0.018831 -0.066668 -0.468773
    30 0.955999 0.000004 0.000000 0.000000 -0.069720 -0.170028
    31 1.258962 -0.297980 1.252590 -1.331029 0.039259 -0.742087
    32 1.393001 0.000000 0.000000 0.000000 0.002024 0.329446
    33 1.100000 0.000000 0.000002 0.000000 0.013129 0.145121
    34 2.023708 0.907463 -0.852528 -1.710117 1.334138 2.900104
    35 4.983668 0.000000 -0.000001 1.349810 0.270731 -1.017450
    36 11.123049 0.000000 0.000005 0.000000 0.000000 -1.846350
    37 11.208296 0.000002 0.000000 -1.144092 0.008130 -0.084081
    38 3.549271 0.211410 1.487671 0.359869 -0.049284 -0.325258
    39 1.219000 0.000000 0.000002 0.004612 -0.097482 -0.425502
    40 0.679999 0.000000 0.000002 -0.011364 -0.086978 -0.310297
    41 3.698022 0.273717 0.726625 0.131674 -0.098702 -0.528594
    42 1.748999 0.000000 -0.000002 -0.000213 -0.027094 -0.249035
    43 0.960001 0.000000 -0.000002 -0.002325 -0.039402 -0.375279
    44 3.768500 0.151955 -0.072741 -0.090833 -0.163209 -0.405118
    45 2.037999 -0.000001 0.000000 -0.001514 0.004366 -0.634357
    46 1.067000 0.000001 -0.000002 0.001245 0.005672 -0.236408
    47 3.783908 -0.023951 -0.794451 -0.352230 -0.226935 -0.220133
    48 1.629000 0.000000 0.000002 -0.018831 0.066668 -0.468773
    49 0.956000 0.000000 0.000002 0.000000 0.069720 -0.170028
    50 1.258940 -0.308544 -1.250050 1.322465 0.079108 -0.589578
    51 1.393002 -0.000002 0.000001 0.000000 -0.002024 -0.043589
    52 1.099998 0.000004 -0.000002 0.000000 -0.013129 -0.286815
    53 4.271699 0.000000 0.000000 0.000000 0.000000 0.000000
    54 5.604150 0.000000 -0.000005 -0.030876 0.000000 0.000000
    55 5.604152 0.000000 0.000000 0.034930 0.000000 0.000000
    56 11.208298 0.000002 -0.000006 -0.057543 0.000000 0.000000
    57 5.560001 -0.700001 -0.500004 0.000000 0.000000 0.000000
    58 2.132023 1.532023 5.000001 0.000000 0.000000 0.000000
    59 2.000008 4.938047 2.578001 0.000000 0.000000 0.000000
    60 11.123049 -0.000001 0.000003 0.000000 0.000000 -0.100063
    61 2.000000 4.938042 -2.578000 0.000000 0.000000 0.000000
    62 2.132023 1.532021 -5.000000 0.000000 0.000000 0.000000
    63 1.500000 0.000000 0.000001 0.000000 0.000000 0.000000
    64 11.208303 0.000002 0.000001 0.065171 0.000000 0.000000
    65 11.123051 0.000000 -0.000001 0.000000 0.000000 -0.100081
    66 4.271698 -0.000008 0.000000 0.000000 0.000000 0.000000
    67 1.500002 0.000000 -0.000004 0.000000 0.000000 0.000000
    68 5.560003 -0.700001 0.500002 0.000000 0.000000 0.000000
  time 2
    0 4.716246 4.318955 37.561695 1.553343 0.000000 0.000000
    1 3.984014 -0.000004 -0.000003 -1.571684 -0.071776 -1.621473
    2 15.940012 0.000000 0.000000 0.000000 0.000000 0.262030
    3 17.709560 0.000000 0.000000 -0.470448 -0.782027 -1.066318
    4 6.204000 0.000001 0.000001 -0.011146 0.000934 -0.500515
    5 -3.984013 0.000008 0.000007 -1.827504 -0.081634 -1.610708
    6 15.940010 0.000000 0.000000 0.000000 0.000000 0.290328
    7 17.709560 0.000000 0.000000 0.184739 0.196955 -1.251348
    8 6.203999 0.000000 0.000000 -0.078650 -0.006185 -0.498943
    9 0.000005 4.212784 -1.689857 1.570842 0.024383 1.571135
    10 3.837410 0.000000 0.000000 0.000001 -0.000404 -0.071252
    11 3.617870 0.000000 0.000000 0.000805 0.000268 0.161167
    12 7.539780 0.000000 0.000000 0.000000 0.000000 0.208173
    13 3.178299 0.000000 0.000000 3.141589 0.000000 0.224127
    14 2.970276 0.000000 0.000000 0.000000 0.000000 0.109880
    15 2.023708 0.907459 0.852579 1.638357 -1.334136 2.900115
    16 4.983666 0.000000 0.000000 -1.549529 -0.131753 -0.992691
    17 11.123051 0.000000 -0.000001 0.000000 0.000000 -2.205831
    18 11.208298 0.000000 -0.000004 1.135206 -0.199468 0.389377
    19 3.549244 0.198826 -1.489470 -0.290680 0.147066 -0.157749
    20 1.219001 0.000001 -0.000002 -0.004612 0.097482 -0.857488
    21 0.680000 0.000001 0.000000 0.011364 0.086978 -0.467392
    22 3.698009 0.267557 -0.728977 -0.117867 0.193734 -0.400710
    23 1.749001 -0.000001 0.000000 0.000213 0.027094 -0.681034
    24 0.960000 0.000000 0.000000 0.002325 0.039402 -0.532358
    25 3.768504 0.152550 0.071384 0.091505 0.211291 -0.065497
    26 2.038002 0.000001 0.000000 0.001514 -0.004366 -1.066337
    27 1.067001 -0.000002 0.000000 -0.001245 -0.005672 -0.393484
    28 3.783923 -0.017254 0.794554 0.278178 0.104808 0.154899
    29 1.629000 0.000000 0.000000 0.018831 -0.066668 -0.468773
    30 0.955999 0.000004 0.000000 0.000000 -0.069720 -0.170028
    31 1.258962 -0.297980 1.252590 -1.331029 0.039259 -0.742087
    32 1.393001 0.000000 0.000000 0.000000 0.002024 0.329446
    33 1.100000 0.000000 0.000002 0.000000 0.013129 0.145121
    34 2.023708 0.907463 -0.852528 -1.710117 1.334138 2.900104
    35 4.983668 0.000000 -0.000001 1.349639 0.271714 -1.018049
    36 11.123049 0.000000 0.000005 0.000000 0.000000 -1.847430
    37 11.208296 0.000002 0.000000 -1.144092 0.008130 -0.084081
    38 3.549271 0.211410 1.487671 0.359869 -0.049284 -0.325258
    39 1.219000 0.000000 0.000002 0.004612 -0.097482 -0.425502
    40 0.679999 0.000000 0.000002 -0.011364 -0.086978 -0.310297
    41 3.698022 0.273717 0.726625 0.131674 -0.098702 -0.528594
    42 1.748999 0.000000 -0.000002 -0.000213 -0.027094 -0.249035
    43 0.960001 0.000000 -0.000002 -0.002325 -0.039402 -0.375279
    44 3.768500 0.151955 -0.072741 -0.090833 -0.163209 -0.405118
    45 2.037999 -0.000001 0.000000 -0.001514 0.004366 -0.634357
    46 1.067000 0.000001 -0.000002 0.001245 0.005672 -0.236408
    47 3.783908 -0.023951 -0.794451 -0.352230 -0.226935 -0.220133
    48 1.629000 0.000000 0.000002 -0.018831 0.066668 -0.468773
    49 0.956000 0.000000 0.000002 0.000000 0.069720 -0.170028
    50 1.258940 -0.308544 -1.250050 1.322465 0.079108 -0.589578
    51 1.393002 -0.000002 0.000001 0.000000 -0.002024 -0.043589
    52 1.099998 0.000004 -0.000002 0.000000 -0.013129 -0.286815
    53 4.271699 0.000000 0.000000 0.000000 0.000000 0.000000
    54 5.604150 0.000000 -0.000005 -0.030876 0.000000 0.000000
    55 5.604152 0.000000 0.000000 0.034930 0.000000 0.000000
    56 11.208298 0.000002 -0.000006 -0.057543 0.000000 0.000000
    57 5.560001 -0.700001 -0.500004 0.000000 0.000000 0.000000
    58 2.132023 1.532023 5.000001 0.000000 0.000000 0.000000
    59 2.000008 4.938047 2.578001 0.000000 0.000000 0.000000
    60 11.123049 -0.000001 0.000003 0.000000 0.000000 -0.100063
    61 2.000000 4.938042 -2.578000 0.000000 0.000000 0.000000
    62 2.132023 1.532021 -5.000000 0.000000 0.000000 0.000000
    63 1.500000 0.000000 0.000001 0.000000 0.000000 0.000000
    64 11.208303 0.000002 0.000001 0.065171 0.000000 0.000000
    65 11.123051 0.000000 -0.000001 0.000000 0.000000 -0.100081
    66 4.271698 -0.000008 0.000000 0.000000 0.000000 0.000000
    67 1.500002 0.000000 -0.000004 0.000000 0.000000 0.000000
    68 5.560003 -0.700001 0.500002 0.000000 0.000000 0.000000
  time 3
    0 4.716246 4.318955 37.561695 1.553343 0.000000 0.000000
    1 3.984014 -0.000004 -0.000003 -1.571684 -0.071776 -1.621473
    2 15.940012 0.000000 0.000000 0.000000 0.000000 0.262030
    3 17.709560 0.000000 0.000000 -0.470448 -0.782027 -1.066318
    4 6.204000 0.000001 0.000001 -0.011146 0.000934 -0.500515
    5 -3.984013 0.000008 0.000007 -1.827504 -0.081634 -1.610708
    6 15.940010 0.000000 0.000000 0.000000 0.000000 0.290328
    7 17.709560 0.000000 0.000000 0.184739 0.196955 -1.251348
    8 6.203999 0.000000 0.000000 -0.078650 -0.006185 -0.498943
    9 0.000005 4.212784 -1.689857 1.570842 0.024383 1.571135
    10 3.837410 0.000000 0.000000 0.000001 -0.000404 -0.071252
    11 3.617870 0.000000 0.000000 0.000805 0.000268 0.161167
    12 7.539780 0.000000 0.000000 0.000000 0.000000 0.208173
    13 3.178299 0.000000 0.000000 3.141589 0.000000 0.224127
    14 2.970276 0.000000 0.000000 0.000000 0.000000 0.109880
    15 2.023708 0.907459 0.852579 1.638357 -1.334136 2.900115
    16 4.983666 0.000000 0.000000 -1.549039 -0.130799 -0.992752
    17 11.123051 0.000000 -0.000001 0.000000 0.000000 -2.206460
    18 11.208298 0.000000 -0.000004 1.135206 -0.199468 0.389377
    19 3.549244 0.198826 -1.489470 -0.290680 0.147066 -0.157749
    20 1.219001 0.000001 -0.000002 -0.004612 0.097482 -0.857488
    21 0.680000 0.000001 0.000000 0.011364 0.086978 -0.467392
    22 3.698009 0.267557 -0.728977 -0.117867 0.193734 -0.400710
    23 1.749001 -0.000001 0.000000 0.000213 0.027094 -0.681034
    24 0.960000 0.000000 0.000000 0.002325 0.039402 -0.532358
    25 3.768504 0.152550 0.071384 0.091505 0.211291 -0.065497
    26 2.038002 0.000001 0.000000 0.001514 -0.004366 -1.066337
    27 1.067001 -0.000002 0.000000 -0.001245 -0.005672 -0.393484
    28 3.783923 -0.017254 0.794554 0.278178 0.104808 0.154899
    29 1.629000 0.000000 0.000000 0.018831 -0.066668 -0.468773
    30 0.955999 0.000004 0.000000 0.000000 -0.069720 -0.170028
    31 1.258962 -0.297980 1.252590 -1.331029 0.039259 -0.742087
    32 1.393001 0.000000 0.000000 0.000000 0.002024 0.329446
    33 1.100000 0.000000 0.000002 0.000000 0.013129 0.145121
    34 2.023708 0.907463 -0.852528 -1.710117 1.334138 2.900104
    35 4.983668 0.000000 -0.000001 1.349128 0.268454 -1.019591
    36 11.123049 0.000000 0.000005 0.000000 0.000000 -1.849997
    37 11.208296 0.000002 0.000000 -1.144092 0.008130 -0.084081
    38 3.549271 0.211410 1.487671 0.359869 -0.049284 -0.325258
    39 1.219000 0.000000 0.000002 0.004612 -0.097482 -0.425502
    40 0.679999 0.000000 0.000002 -0.011364 -0.086978 -0.310297
    41 3.698022 0.273717 0.726625 0.131674 -0.098702 -0.528594
    42 1.748999 0.000000 -0.000002 -0.000213 -0.027094 -0.249035
    43 0.960001 0.000000 -0.000002 -0.002325 -0.039402 -0.375279
    44 3.768500 0.151955 -0.072741 -0.090833 -0.163209 -0.405118
    45 2.037999 -0.000001 0.000000 -0.001514 0.004366 -0.634357
    46 1.067000 0.000001 -0.000002 0.001245 0.005672 -0.236408
    47 3.783908 -0.023951 -0.794451 -0.352230 -0.226935 -0.220133
    48 1.629000 0.000000 0.000002 -0.018831 0.066668 -0.468773
    49 0.956000 0.000000 0.000002 0.000000 0.069720 -0.170028
    50 1.258940 -0.308544 -1.250050 1.322465 0.079141 -0.589578
    51 1.393002 -0.000002 0.000001 0.000000 -0.002024 -0.043589
    52 1.099998 0.000004 -0.000002 0.000000 -0.013129 -0.286815
    53 4.271699 0.000000 0.000000 0.000000 0.000000 0.000000
    54 5.604150 0.000000 -0.000005 -0.030876 0.000000 0.000000
    55 5.604152 0.000000 0.000000 0.034930 0.000000 0.000000
    56 11.208298 0.000002 -0.000006 -0.057543 0.000000 0.000000
    57 5.560001 -0.700001 -0.500004 0.000000 0.000000 0.000000
    58 2.132023 1.532023 5.000001 0.000000 0.000000 0.000000
    59 2.000008 4.938047 2.578001 0.000000 0.000000 0.000000
    60 11.123049 -0.000001 0.000003 0.000000 0.000000 -0.100063
    61 2.000000 4.938042 -2.578000 0.000000 0.000000 0.000000
    62 2.132023 1.532021 -5.000000 0.000000 0.000000 0.000000
    63 1.500000 0.000000 0.000001 0.000000 0.000000 0.000000
    64 11.208303 0.000002 0.000001 0.065171 0.000000 0.000000
    65 11.123051 0.000000 -0.000001 0.000000 0.000000 -0.100081
    66 4.271698 -0.000008 0.000000 0.000000 0.000000 0.000000
    67 1.500002 0.000000 -0.000004 0.000000 0.000000 0.000000
    68 5.560003 -0.700001 0.500002 0.000000 0.000000 0.000000
  time 4
    0 4.716246 4.318955 37.561695 1.553343 0.000000 0.000000
    1 3.984014 -0.000004 -0.000003 -1.571684 -0.071776 -1.621473
    2 15.940012 0.000000 0.000000 0.000000 0.000000 0.262030
    3 17.709560 0.000000 0.000000 -0.470448 -0.782027 -1.066318
    4 6.204000 0.000001 0.000001 -0.011146 0.000934 -0.500515
    5 -3.984013 0.000008 0.000007 -1.827504 -0.081634 -1.610708
    6 15.940010 0.000000 0.000000 0.000000 0.000000 0.290328
    7 17.709560 0.000000 0.000000 0.184739 0.196955 -1.251348
    8 6.203999 0.000000 0.000000 -0.078650 -0.006185 -0.498943
    9 0.000005 4.212784 -1.689857 1.570842 0.024383 1.571135
    10 3.837410 0.000000 0.000000 0.000001 -0.000404 -0.071252
    11 3.617870 0.000000 0.000000 0.000805 0.000268 0.161167
    12 7.539780 0.000000 0.000000 0.000000 0.000000 0.208173
    13 3.178299 0.000000 0.000000 3.141589 0.000000 0.224127
    14 2.970276 0.000000 0.000000 0.000000 0.000000 0.109880
    15 2.023708 0.907459 0.852579 1.638357 -1.334136 2.900115
    16 4.983666 0.000000 0.000000 -1.548631 -0.129688 -0.992812
    17 11.123051 0.000000 -0.000001 0.000000 0.000000 -2.207020
    18 11.208298 0.000000 -0.000004 1.135206 -0.199468 0.389377
    19 3.549244 0.198826 -1.489470 -0.290680 0.147066 -0.157749
    20 1.219001 0.000001 -0.000002 -0.004612 0.097482 -0.857488
    21 0.680000 0.000001 0.000000 0.011364 0.086978 -0.467392
    22 3.698009 0.267557 -0.728977 -0.117867 0.193734 -0.400710
    23 1.749001 -0.000001 0.000000 0.000213 0.027094 -0.681034
    24 0.960000 0.000000 0.000000 0.002325 0.039402 -0.532358
    25 3.768504 0.152550 0.071384 0.091505 0.211291 -0.065497
    26 2.038002 0.000001 0.000000 0.001514 -0.004366 -1.066337
    27 1.067001 -0.000002 0.000000 -0.001245 -0.005672 -0.393484
    28 3.783923 -0.017254 0.794554 0.278178 0.104808 0.154899
    29 1.629000 0.000000 0.000000 0.018831 -0.066668 -0.468773
    30 0.955999 0.000004 0.000000 0.000000 -0.069720 -0.170028
    31 1.258962 -0.297980 1.252590 -1.331029 0.039259 -0.742087
    32 1.393001 0.000000 0.000000 0.000000 0.002024 0.329446
    33 1.100000 0.000000 0.000002 0.000000 0.013129 0.145121
    34 2.023708 0.907463 -0.852528 -1.710117 1.334138 2.900104
    35 4.983668 0.000000 -0.000001 1.348702 0.265298 -1.020704
    36 11.123049 0.000000 0.000005 0.000000 0.000000 -1.852023
    37 11.208296 0.000002 0.000000 -1.144092 0.008130 -0.084081
    38 3.549271 0.211410 1.487671 0.359869 -0.049284 -0.325258
    39 1.219000 0.000000 0.000002 0.004612 -0.097482 -0.425502
    40 0.679999 0.000000 0.000002 -0.011364 -0.086978 -0.310297
    41 3.698022 0.273717 0.726625 0.131674 -0.098702 -0.528594
    42 1.748999 0.000000 -0.000002 -0.000213 -0.027094 -0.249035
    43 0.960001 0.000000 -0.000002 -0.002325 -0.039402 -0.375279
    44 3.768500 0.151955 -0.072741 -0.090833 -0.163209 -0.405118
    45 2.037999 -0.000001 0.000000 -0.001514 0.004366 -0.634357
    46 1.067000 0.000001 -0.000002 0.001245 0.005672 -0.236408
    47 3.783908 -0.023951 -0.794451 -0.352230 -0.226935 -0.220133
    48 1.629000 0.000000 0.000002 -0.018831 0.066668 -0.468773
    49 0.956000 0.000000 0.000002 0.000000 0.069720 -0.170028
    50 1.258940 -0.308544 -1.250050 1.322465 0.079108 -0.589578
    51 1.393002 -0.000002 0.000001 0.000000 -0.002024 -0.043589
    52 1.099998 0.000004 -0.000002 0.000000 -0.013129 -0.286815
    53 4.271699 0.000000 0.000000 0.000000 0.000000 0.000000
    54 5.604150 0.000000 -0.000005 -0.030876 0.000000 0.000000
    55 5.604152 0.000000 0.000000 0.034930 0.000000 0.000000
    56 11.208298 0.000002 -0.000006 -0.057543 0.000000 0.000000
    57 5.560001 -0.700001 -0.500004 0.000000 0.000000 0.000000
    58 2.132023 1.532023 5.000001 0.000000 0.000000 0.000000
    59 2.000008 4.938047 2.578001 0.000000 0.000000 0.000000
    60 11.123049 -0.000001 0.000003 0.000000 0.000000 -0.100063
    61 2.000000 4.938042 -2.578000 0.000000 0.000000 0.000000
    62 2.132023 1.532021 -5.000000 0.000000 0.000000 0.000000
    63 1.500000 0.000000 0.000001 0.000000 0.000000 0.000000
    64 11.208303 0.000002 0.000001 0.065171 0.000000 0.000000
    65 11.123051 0.000000 -0.000001 0.000000 0.000000 -0.100081
    66 4.271698 -0.000008 0.000000 0.000000 0.000000 0.000000
    67 1.500002 0.000000 -0.000004 0.000000 0.000000 0.000000
    68 5.560003 -0.700001 0.500002 0.000000 0.000000 0.000000
  time 5
    0 4.716246 4.318955 37.561695 1.553343 0.000000 0.000000
    1 3.984014 -0.000004 -0.000003 -1.571684 -0.071776 -1.621473
    2 15.940012 0.000000 0.000000 0.000000 0.000000 0.262030
    3 17.709560 0.000000 0.000000 -0.470448 -0.782027 -1.066318
    4 6.204000 0.000001 0.000001 -0.011146 0.000934 -0.500515
    5 -3.984013 0.000008 0.000007 -1.827504 -0.081634 -1.610708
    6 15.940010 0.000000 0.000000 0.000000 0.000000 0.290328
    7 17.709560 0.000000 0.000000 0.184739 0.196955 -1.251348
    8 6.203999 0.000000 0.000000 -0.078650 -0.006185 -0.498943
    9 0.000005 4.212784 -1.689857 1.570842 0.024383 1.571135
    10 3.837410 0.000000 0.000000 0.000001 -0.000404 -0.071252
    11 3.617870 0.000000 0.000000 0.000805 0.000268 0.161167
    12 7.539780 0.000000 0.000000 0.000000 0.000000 0.208173
    13 3.178299 0.000000 0.000000 3.141589 0.000000 0.224127
    14 2.970276 0.000000 0.000000 0.000000 0.000000 0.109880
    15 2.023708 0.907459 0.852579 1.638357 -1.334136 2.900115
    16 4.983666 0.000000 0.000000 -1.548304 -0.128576 -0.992873
    17 11.123051 0.000000 -0.000001 0.000000 0.000000 -2.207580
    18 11.208298 0.000000 -0.000004 1.135206 -0.199468 0.389377
    19 3.549244 0.198826 -1.489470 -0.290680 0.147066 -0.157749
    20 1.219001 0.000001 -0.000002 -0.004612 0.097482 -0.857488
    21 0.680000 0.000001 0.000000 0.011364 0.086978 -0.467392
    22 3.698009 0.267557 -0.728977 -0.117867 0.193734 -0.400710
    23 1.749001 -0.000001 0.000000 0.000213 0.027094 -0.681034
    24 0.960000 0.000000 0.000000 0.002325 0.039402 -0.532358
    25 3.768504 0.152550 0.071384 0.091505 0.211291 -0.065497
    26 2.038002 0.000001 0.000000 0.001514 -0.004366 -1.066337
    27 1.067001 -0.000002 0.000000 -0.001245 -0.005672 -0.393484
    28 3.783923 -0.017254 0.794554 0.278178 0.104808 0.154899
    29 1.629000 0.000000 0.000000 0.018831 -0.066668 -0.468773
    30 0.955999 0.000004 0.000000 0.000000 -0.069720 -0.170028
    31 1.258962 -0.297980 1.252590 -1.331029 0.039259 -0.742087
    32 1.393001 0.000000 0.000000 0.000000 0.002024 0.329446
    33 1.100000 0.000000 0.000002 0.000000 0.013129 0.145121
    34 2.023708 0.907463 -0.852528 -1.710117 1.334138 2.900104
    35 4.983668 0.000000 -0.000001 1.348446 0.262297 -1.021389
    36 11.123049 0.000000 0.000005 0.000000 0.000000 -1.853509
    37 11.208296 0.000002 0.000000 -1.144092 0.008130 -0.084081
    38 3.549271 0.211410 1.487671 0.359869 -0.049284 -0.325258
    39 1.219000 0.000000 0.000002 0.004612 -0.097482 -0.425502
    40 0.679999 0.000000 0.000002 -0.011364 -0.086978 -0.310297
    41 3.698022 0.273717 0.726625 0.131674 -0.098702 -0.528594
    42 1.748999 0.000000 -0.000002 -0.000213 -0.027094 -0.249035
    43 0.960001 0.000000 -0.000002 -0.002325 -0.039402 -0.375279
    44 3.768500 0.151955 -0.072741 -0.090833 -0.163209 -0.405118
    45 2.037999 -0.000001 0.000000 -0.001514 0.004366 -0.634357
    46 1.067000 0.000001 -0.000002 0.001245 0.005672 -0.236408
    47 3.783908 -0.023951 -0.794451 -0.352230 -0.226935 -0.220133
    48 1.629000 0.000000 0.000002 -0.018831 0.066668 -0.468773
    49 0.956000 0.000000 0.000002 0.000000 0.069720 -0.170028
    50 1.258940 -0.308544 -1.250050 1.322465 0.079108 -0.589578
    51 1.393002 -0.000002 0.000001 0.000000 -0.002024 -0.043589
    52 1.099998 0.000004 -0.000002 0.000000 -0.013129 -0.286815
    53 4.271699 0.000000 0.000000 0.000000 0.000000 0.000000
    54 5.604150 0.000000 -0.000005 -0.030876 0.000000 0.000000
    55 5.604152 0.000000 0.000000 0.034930 0.000000 0.000000
    56 11.208298 0.000002 -0.000006 -0.057543 0.000000 0.000000
    57 5.560001 -0.700001 -0.500004 0.000000 0.000000 0.000000
    58 2.132023 1.532023 5.000001 0.000000 0.000000 0.000000
    59 2.000008 4.938047 2.578001 0.000000 0.000000 0.000000
    60 11.123049 -0.000001 0.000003 0.000000 0.000000 -0.100063
    61 2.000000 4.938042 -2.578000 0.000000 0.000000 0.000000
    62 2.132023 1.532021 -5.000000 0.000000 0.000000 0.000000
    63 1.500000 0.000000 0.000001 0.000000 0.000000 0.000000
    64 11.208303 0.000002 0.000001 0.065171 0.000000 0.000000
    65 11.123051 0.000000 -0.000001 0.000000 0.000000 -0.100081
    66 4.271698 -0.000008 0.000000 0.000000 0.000000 0.000000
    67 1.500002 0.000000 -0.000004 0.000000 0.000000 0.000000
    68 5.560003 -0.700001 0.500002 0.000000 0.000000 0.000000
  time 6
    0 4.716246 4.318955 37.561695 1.553343 0.000000 0.000000
    1 3.984014 -0.000004 -0.000003 -1.571684 -0.071776 -1.621473
    2 15.940012 0.000000 0.000000 0.000000 0.000000 0.262030
    3 17.709560 0.000000 0.000000 -0.470448 -0.782027 -1.066318
    4 6.204000 0.000001 0.000001 -0.011146 0.000934 -0.500515
    5 -3.984013 0.000008 0.000007 -1.827504 -0.081634 -1.610708
    6 15.940010 0.000000 0.000000 0.000000 0.000000 0.290328
    7 17.709560 0.000000 0.000000 0.184739 0.196955 -1.251348
    8 6.203999 0.000000 0.000000 -0.078650 -0.006185 -0.498943
    9 0.000005 4.212784 -1.689857 1.570842 0.024383 1.571135
    10 3.837410 0.000000 0.000000 0.000001 -0.000404 -0.071252
    11 3.617870 0.000000 0.000000 0.000805 0.000268 0.161167
    12 7.539780 0.000000 0.000000 0.000000 0.000000 0.208173
    13 3.178299 0.000000 0.000000 3.141589 0.000000 0.224127
    14 2.970276 0.000000 0.000000 0.000000 0.000000 0.109880
    15 2.023708 0.907459 0.852579 1.638357 -1.334136 2.900115
    16 4.983666 0.000000 0.000000 -1.548059 -0.127411 -0.992873
    17 11.123051 0.000000 -0.000001 0.000000 0.000000 -2.208139
    18 11.208298 0.000000 -0.000004 1.135206 -0.199468 0.389377
    19 3.549244 0.198826 -1.489470 -0.290680 0.147066 -0.157749
    20 1.219001 0.000001 -0.000002 -0.004612 0.097482 -0.857488
    21 0.680000 0.000001 0.000000 0.011364 0.086978 -0.467392
    22 3.698009 0.267557 -0.728977 -0.117867 0.193734 -0.400710
    23 1.749001 -0.000001 0.000000 0.000213 0.027094 -0.681034
    24 0.960000 0.000000 0.000000 0.002325 0.039402 -0.532358
    25 3.768504 0.152550 0.071384 0.091505 0.211291 -0.065497
    26 2.038002 0.000001 0.000000 0.001514 -0.004366 -1.066337
    27 1.067001 -0.000002 0.000000 -0.001245 -0.005672 -0.393484
    28 3.783923 -0.017254 0.794554 0.278178 0.104808 0.154899
    29 1.629000 0.000000 0.000000 0.018831 -0.066668 -0.468773
    30 0.955999 0.000004 0.000000 0.000000 -0.069720 -0.170028
    31 1.258962 -0.297980 1.252590 -1.331029 0.039259 -0.742087
    32 1.393001 0.000000 0.000000 0.000000 0.002024 0.329446
    33 1.100000 0.000000 0.000002 0.000000 0.013129 0.145121
    34 2.023708 0.907463 -0.852528 -1.710117 1.334138 2.900104
    35 4.983668 0.000000 -0.000001 1.348275 0.259451 -1.021818
    36 11.123049 0.000000 0.000005 0.000000 0.000000 -1.854522
    37 11.208296 0.000002 0.000000 -1.144092 0.008130 -0.084081
    38 3.549271 0.211410 1.487671 0.359869 -0.049284 -0.325258
    39 1.219000 0.000000 0.000002 0.004612 -0.097482 -0.425502
    40 0.679999 0.000000 0.000002 -0.011364 -0.086978 -0.310297
    41 3.698022 0.273717 0.726625 0.131674 -0.098702 -0.528594
    42 1.748999 0.000000 -0.000002 -0.000213 -0.027094 -0.249035
    43 0.960001 0.000000 -0.000002 -0.002325 -0.039402 -0.375279
    44 3.768500 0.151955 -0.072741 -0.090833 -0.163209 -0.405118
    45 2.037999 -0.000001 0.000000 -0.001514 0.004366 -0.634357
    46 1.067000 0.000001 -0.000002 0.001245 0.005672 -0.236408
    47 3.783908 -0.023951 -0.794451 -0.352230 -0.226935 -0.220133
    48 1.629000 0.000000 0.000002 -0.018831 0.066668 -0.468773
    49 0.956000 0.000000 0.000002 0.000000 0.069720 -0.170028
    50 1.258940 -0.308544 -1.250050 1.322465 0.079108 -0.589578
    51 1.393002 -0.000002 0.000001 0.000000 -0.002024 -0.043589
    52 1.099998 0.000004 -0.000002 0.000000 -0.013129 -0.286815
    53 4.271699 0.000000 0.000000 0.000000 0.000000 0.000000
    54 5.604150 0.000000 -0.000005 -0.030876 0.000000 0.000000
    55 5.604152 0.000000 0.000000 0.034930 0.000000 0.000000
    56 11.208298 0.000002 -0.000006 -0.057543 0.000000 0.000000
    57 5.560001 -0.700001 -0.500004 0.000000 0.000000 0.000000
    58 2.132023 1.532023 5.000001 0.000000 0.000000 0.000000
    59 2.000008 4.938047 2.578001 0.000000 0.000000 0.000000
    60 11.123049 -0.000001 0.000003 0.000000 0.000000 -0.100063
    61 2.000000 4.938042 -2.578000 0.000000 0.000000 0.000000
    62 2.132023 1.532021 -5.000000 0.000000 0.000000 0.000000
    63 1.500000 0.000000 0.000001 0.000000 0.000000 0.000000
    64 11.208303 0.000002 0.000001 0.065171 0.000000 0.000000
    65 11.123051 0.000000 -0.000001 0.000000 0.000000 -0.100081
    66 4.271698 -0.000008 0.000000 0.000000 0.000000 0.000000
    67 1.500002 0.000000 -0.000004 0.000000 0.000000 0.000000
    68 5.560003 -0.700001 0.500002 0.000000 0.000000 0.000000
  time 7
    0 4.716246 4.318955 37.561695 1.553343 0.000000 0.000000
    1 3.984014 -0.000004 -0.000003 -1.571684 -0.071776 -1.621473
    2 15.940012 0.000000 0.000000 0.000000 0.000000 0.262030
    3 17.709560 0.000000 0.000000 -0.470448 -0.782027 -1.066318
    4 6.204000 0.000001 0.000001 -0.011146 0.000934 -0.500515
    5 -3.984013 0.000008 0.000007 -1.827504 -0.081634 -1.610708
    6 15.940010 0.000000 0.000000 0.000000 0.000000 0.290328
    7 17.709560 0.000000 0.000000 0.184739 0.196955 -1.251348
    8 6.203999 0.000000 0.000000 -0.078650 -0.006185 -0.498943
    9 0.000005 4.212784 -1.689857 1.570842 0.024383 1.571135
    10 3.837410 0.000000 0.000000 0.000001 -0.000404 -0.071252
    11 3.617870 0.000000 0.000000 0.000805 0.000268 0.161167
    12 7.539780 0.000000 0.000000 0.000000 0.000000 0.208173
    13 3.178299 0.000000 0.000000 3.141589 0.000000 0.224127
    14 2.970276 0.000000 0.000000 0.000000 0.000000 0.109880
    15 2.023708 0.907459 0.852579 1.638357 -1.334136 2.900115
    16 4.983666 0.000000 0.000000 -1.547733 -0.126405 -0.992873
    17 11.123051 0.000000 -0.000001 0.000000 0.000000 -2.208559
    18 11.208298 0.000000 -0.000004 1.135206 -0.199468 0.389377
    19 3.549244 0.198826 -1.489470 -0.290680 0.147066 -0.157749
    20 1.219001 0.000001 -0.000002 -0.004612 0.097482 -0.857488
    21 0.680000 0.000001 0.000000 0.011364 0.086978 -0.467392
    22 3.698009 0.267557 -0.728977 -0.117867 0.193734 -0.400710
    23 1.749001 -0.000001 0.000000 0.000213 0.027094 -0.681034
    24 0.960000 0.000000 0.000000 0.002325 0.039402 -0.532358
    25 3.768504 0.152550 0.071384 0.091505 0.211291 -0.065497
    26 2.038002 0.000001 0.000000 0.001514 -0.004366 -1.066337
    27 1.067001 -0.000002 0.000000 -0.001245 -0.005672 -0.393484
    28 3.783923 -0.017254 0.794554 0.278178 0.104808 0.154899
    29 1.629000 0.000000 0.000000 0.018831 -0.066668 -0.468773
    30 0.955999 0.000004 0.000000 0.000000 -0.069720 -0.170028
    31 1.258962 -0.297980 1.252590 -1.331029 0.039259 -0.742087
    32 1.393001 0.000000 0.000000 0.000000 0.002024 0.329446
    33 1.100000 0.000000 0.000002 0.000000 0.013129 0.145121
    34 2.023708 0.907463 -0.852528 -1.710117 1.334138 2.900104
    35 4.983668 0.000000 -0.000001 1.348105 0.256915 -1.022075
    36 11.123049 0.000000 0.000005 0.000000 0.000000 -1.855062
    37 11.208296 0.000002 0.000000 -1.144092 0.008130 -0.084081
    38 3.549271 0.211410 1.487671 0.359869 -0.049284 -0.325258
    39 1.219000 0.000000 0.000002 0.004612 -0.097482 -0.425502
    40 0.679999 0.000000 0.000002 -0.011364 -0.086978 -0.310297
    41 3.698022 0.273717 0.726625 0.131674 -0.098702 -0.528594
    42 1.748999 0.000000 -0.000002 -0.000213 -0.027094 -0.249035
    43 0.960001 0.000000 -0.000002 -0.002325 -0.039402 -0.375279
    44 3.768500 0.151955 -0.072741 -0.090833 -0.163209 -0.405118
    45 2.037999 -0.000001 0.000000 -0.001514 0.004366 -0.634357
    46 1.067000 0.000001 -0.000002 0.001245 0.005672 -0.236408
    47 3.783908 -0.023951 -0.794451 -0.352230 -0.226935 -0.220133
    48 1.629000 0.000000 0.000002 -0.018831 0.066668 -0.468773
    49 0.956000 0.000000 0.000002 0.000000 0.069720 -0.170028
    50 1.258940 -0.308544 -1.250050 1.322465 0.079108 -0.589578
    51 1.393002 -0.000002 0.000001 0.000000 -0.002024 -0.043589
    52 1.099998 0.000004 -0.000002 0.000000 -0.013129 -0.286815
    53 4.271699 0.000000 0.000000 0.000000 0.000000 0.000000
    54 5.604150 0.000000 -0.000005 -0.030876 0.000000 0.000000
    55 5.604152 0.000000 0.000000 0.034930 0.000000 0.000000
    56 11.208298 0.000002 -0.000006 -0.057543 0.000000 0.000000
    57 5.560001 -0.700001 -0.500004 0.000000 0.000000 0.000000
    58 2.132023 1.532023 5.000001 0.000000 0.000000 0.000000
    59 2.000008 4.938047 2.578001 0.000000 0.000000 0.000000
    60 11.123049 -0.000001 0.000003 0.000000 0.000000 -0.100063
    61 2.000000 4.938042 -2.578000 0.000000 0.000000 0.000000
    62 2.132023 1.532021 -5.000000 0.000000 0.000000 0.000000
    63 1.500000 0.000000 0.000001 0.000000 0.000000 0.000000
    64 11.208303 0.000002 0.000001 0.065171 0.000000 0.000000
    65 11.123051 0.000000 -0.000001 0.000000 0.000000 -0.100081
    66 4.271698 -0.000008 0.000000 0.000000 0.000000 0.000000
    67 1.500002 0.000000 -0.000004 0.000000 0.000000 0.000000
    68 5.560003 -0.700001 0.500002 0.000000 0.000000 0.000000
  time 8
    0 4.716246 4.318955 37.561695 1.553343 0.000000 0.000000
    1 3.984014 -0.000004 -0.000003 -1.571684 -0.071776 -1.621473
    2 15.940012 0.000000 0.000000 0.000000 0.000000 0.262030
    3 17.709560 0.000000 0.000000 -0.470448 -0.782027 -1.066318
    4 6.204000 0.000001 0.000001 -0.011146 0.000934 -0.500515
    5 -3.984013 0.000008 0.000007 -1.827504 -0.081634 -1.610708
    6 15.940010 0.000000 0.000000 0.000000 0.000000 0.290328
    7 17.709560 0.000000 0.000000 0.184739 0.196955 -1.251348
    8 6.203999 0.000000 0.000000 -0.078650 -0.006185 -0.498943
    9 0.000005 4.212784 -1.689857 1.570842 0.024383 1.571135
    10 3.837410 0.000000 0.000000 0.000001 -0.000404 -0.071252
    11 3.617870 0.000000 0.000000 0.000805 0.000268 0.161167
    12 7.539780 0.000000 0.000000 0.000000 0.000000 0.208173
    13 3.178299 0.000000 0.000000 3.141589 0.000000 0.224127
    14 2.970276 0.000000 0.000000 0.000000 0.000000 0.109880
    15 2.023708 0.907459 0.852579 1.638357 -1.334136 2.900115
    16 4.983666 0.000000 0.000000 -1.547488 -0.125504 -0.992933
    17 11.123051 0.000000 -0.000001 0.000000 0.000000 -2.208909
    18 11.208298 0.000000 -0.000004 1.135206 -0.199468 0.389377
    19 3.549244 0.198826 -1.489470 -0.290680 0.147066 -0.157749
    20 1.219001 0.000001 -0.000002 -0.004612 0.097482 -0.857488
    21 0.680000 0.000001 0.000000 0.011364 0.086978 -0.467392
    22 3.698009 0.267557 -0.728977 -0.117867 0.193734 -0.400710
    23 1.749001 -0.000001 0.000000 0.000213 0.027094 -0.681034
    24 0.960000 0.000000 0.000000 0.002325 0.039402 -0.532358
    25 3.768504 0.152550 0.071384 0.091505 0.211291 -0.065497
    26 2.038002 0.000001 0.000000 0.001514 -0.004366 -1.066337
    27 1.067001 -0.000002 0.000000 -0.001245 -0.005672 -0.393484
    28 3.783923 -0.017254 0.794554 0.278178 0.104808 0.154899
    29 1.629000 0.000000 0.000000 0.018831 -0.066668 -0.468773
    30 0.955999 0.000004 0.000000 0.000000 -0.069720 -0.170028
    31 1.258962 -0.297980 1.252590 -1.331029 0.039259 -0.742087
    32 1.393001 0.000000 0.000000 0.000000 0.002024 0.329446
    33 1.100000 0.000000 0.000002 0.000000 0.013129 0.145121
    34 2.023708 0.907463 -0.852528 -1.710117 1.334138 2.900104
    35 4.983668 0.000000 -0.000001 1.348019 0.254639 -1.022332
    36 11.123049 0.000000 0.000005 0.000000 0.000000 -1.855062
    37 11.208296 0.000002 0.000000 -1.144092 0.008130 -0.084081
    38 3.549271 0.211410 1.487671 0.359869 -0.049284 -0.325258
    39 1.219000 0.000000 0.000002 0.004612 -0.097482 -0.425502
    40 0.679999 0.000000 0.000002 -0.011364 -0.086978 -0.310297
    41 3.698022 0.273717 0.726625 0.131674 -0.098702 -0.528594
    42 1.748999 0.000000 -0.000002 -0.000213 -0.027094 -0.249035
    43 0.960001 0.000000 -0.000002 -0.002325 -0.039402 -0.375279
    44 3.768500 0.151955 -0.072741 -0.090833 -0.163209 -0.405118
    45 2.037999 -0.000001 0.000000 -0.001514 0.004366 -0.634357
    46 1.067000 0.000001 -0.000002 0.001245 0.005672 -0.236408
    47 3.783908 -0.023951 -0.794451 -0.352230 -0.226935 -0.220133
    48 1.629000 0.000000 0.000002 -0.018831 0.066668 -0.468773
    49 0.956000 0.000000 0.000002 0.000000 0.069720 -0.170028
    50 1.258940 -0.308544 -1.250050 1.322465 0.079141 -0.589578
    51 1.393002 -0.000002 0.000001 0.000000 -0.002024 -0.043589
    52 1.099998 0.000004 -0.000002 0.000000 -0.013129 -0.286815
    53 4.271699 0.000000 0.000000 0.000000 0.000000 0.000000
    54 5.604150 0.000000 -0.000005 -0.030876 0.000000 0.000000
    55 5.604152 0.000000 0.000000 0.034930 0.000000 0.000000
    56 11.208298 0.000002 -0.000006 -0.057543 0.000000 0.000000
    57 5.560001 -0.700001 -0.500004 0.000000 0.000000 0.000000
    58 2.132023 1.532023 5.000001 0.000000 0.000000 0.000000
    59 2.000008 4.938047 2.578001 0.000000 0.000000 0.000000
    60 11.123049 -0.000001 0.000003 0.000000 0.000000 -0.100063
    61 2.000000 4.938042 -2.578000 0.000000 0.000000 0.000000
    62 2.132023 1.532021 -5.000000 0.000000 0.000000 0.000000
    63 1.500000 0.000000 0.000001 0.000000 0.000000 0.000000
    64 11.208303 0.000002 0.000001 0.065171 0.000000 0.000000
    65 11.123051 0.000000 -0.000001 0.000000 0.000000 -0.100081
    66 4.271698 -0.000008 0.000000 0.000000 0.000000 0.000000
    67 1.500002 0.000000 -0.000004 0.000000 0.000000 0.000000
    68 5.560003 -0.700001 0.500002 0.000000 0.000000 0.000000
  time 9
    0 4.716246 4.318955 37.561695 1.553343 0.000000 0.000000
    1 3.984014 -0.000004 -0.000003 -1.571684 -0.071776 -1.621473
    2 15.940012 0.000000 0.000000 0.000000 0.000000 0.262030
    3 17.709560 0.000000 0.000000 -0.470448 -0.782027 -1.066318
    4 6.204000 0.000001 0.000001 -0.011146 0.000934 -0.500515
    5 -3.984013 0.000008 0.000007 -1.827504 -0.081634 -1.610708
    6 15.940010 0.000000 0.000000 0.000000 0.000000 0.290328
    7 17.709560 0.000000 0.000000 0.184739 0.196955 -1.251348
    8 6.203999 0.000000 0.000000 -0.078650 -0.006185 -0.498943
    9 0.000005 4.212784 -1.689857 1.570842 0.024383 1.571135
    10 3.837410 0.000000 0.000000 0.000001 -0.000404 -0.071252
    11 3.617870 0.000000 0.000000 0.000805 0.000268 0.161167
    12 7.539780 0.000000 0.000000 0.000000 0.000000 0.208173
    13 3.178299 0.000000 0.000000 3.141589 0.000000 0.224127
    14 2.970276 0.000000 0.000000 0.000000 0.000000 0.109880
    15 2.023708 0.907459 0.852579 1.638357 -1.334136 2.900115
    16 4.983666 0.000000 0.000000 -1.547814 -0.126193 -0.992873
    17 11.123051 0.000000 -0.000001 0.000000 0.000000 -2.208419
    18 11.208298 0.000000 -0.000004 1.135206 -0.199468 0.389377
    19 3.549244 0.198826 -1.489470 -0.290680 0.147066 -0.157749
    20 1.219001 0.000001 -0.000002 -0.004612 0.097482 -0.857488
    21 0.680000 0.000001 0.000000 0.011364 0.086978 -0.467392
    22 3.698009 0.267557 -0.728977 -0.117867 0.193734 -0.400710
    23 1.749001 -0.000001 0.000000 0.000213 0.027094 -0.681034
    24 0.960000 0.000000 0.000000 0.002325 0.039402 -0.532358
    25 3.768504 0.152550 0.071384 0.091505 0.211291 -0.065497
    26 2.038002 0.000001 0.000000 0.001514 -0.004366 -1.066337
    27 1.067001 -0.000002 0.000000 -0.001245 -0.005672 -0.393484
    28 3.783923 -0.017254 0.794554 0.278178 0.104808 0.154899
    29 1.629000 0.000000 0.000000 0.018831 -0.066668 -0.468773
    30 0.955999 0.000004 0.000000 0.000000 -0.069720 -0.170028
    31 1.258962 -0.297980 1.252590 -1.331029 0.039259 -0.742087
    32 1.393001 0.000000 0.000000 0.000000 0.002024 0.329446
    33 1.100000 0.000000 0.000002 0.000000 0.013129 0.145121
    34 2.023708 0.907463 -0.852528 -1.710117 1.334138 2.900104
    35 4.983668 0.000000 -0.000001 1.348446 0.256915 -1.021047
    36 11.123049 0.000000 0.000005 0.000000 0.000000 -1.852563
    37 11.208296 0.000002 0.000000 -1.144092 0.008130 -0.084081
    38 3.549271 0.211410 1.487671 0.359869 -0.049284 -0.325258
    39 1.219000 0.000000 0.000002 0.004612 -0.097482 -0.425502
    40 0.679999 0.000000 0.000002 -0.011364 -0.086978 -0.310297
    41 3.698022 0.273717 0.726625 0.131674 -0.098702 -0.528594
    42 1.748999 0.000000 -0.000002 -0.000213 -0.027094 -0.249035
    43 0.960001 0.000000 -0.000002 -0.002325 -0.039402 -0.375279
    44 3.768500 0.151955 -0.072741 -0.090833 -0.163209 -0.405118
    45 2.037999 -0.000001 0.000000 -0.001514 0.004366 -0.634357
    46 1.067000 0.000001 -0.000002 0.001245 0.005672 -0.236408
    47 3.783908 -0.023951 -0.794451 -0.352230 -0.226935 -0.220133
    48 1.629000 0.000000 0.000002 -0.018831 0.066668 -0.468773
    49 0.956000 0.000000 0.000002 0.000000 0.069720 -0.170028
    50 1.258940 -0.308544 -1.250050 1.322465 0.079108 -0.589578
    51 1.393002 -0.000002 0.000001 0.000000 -0.002024 -0.043589
    52 1.099998 0.000004 -0.000002 0.000000 -0.013129 -0.286815
    53 4.271699 0.000000 0.000000 0.000000 0.000000 0.000000
    54 5.604150 0.000000 -0.000005 -0.030876 0.000000 0.000000
    55 5.604152 0.000000 0.000000 0.034930 0.000000 0.000000
    56 11.208298 0.000002 -0.000006 -0.057543 0.000000 0.000000
    57 5.560001 -0.700001 -0.500004 0.000000 0.000000 0.000000
    58 2.132023 1.532023 5.000001 0.000000 0.000000 0.000000
    59 2.000008 4.938047 2.578001 0.000000 0.000000 0.000000
    60 11.123049 -0.000001 0.000003 0.000000 0.000000 -0.100063
    61 2.000000 4.938042 -2.578000 0.000000 0.000000 0.000000
    62 2.132023 1.532021 -5.000000 0.000000 0.000000 0.000000
    63 1.500000 0.000000 0.000001 0.000000 0.000000 0.000000
    64 11.208303 0.000002 0.000001 0.065171 0.000000 0.000000
    65 11.123051 0.000000 -0.000001 0.000000 0.000000 -0.100081
    66 4.271698 -0.000008 0.000000 0.000000 0.000000 0.000000
    67 1.500002 0.000000 -0.000004 0.000000 0.000000 0.000000
    68 5.560003 -0.700001 0.500002 0.000000 0.000000 0.000000
  time 10
    0 4.716246 4.318955 37.561695 1.553343 0.000000 0.000000
    1 3.984014 -0.000004 -0.000003 -1.571684 -0.071776 -1.621473
    2 15.940012 0.000000 0.000000 0.000000 0.000000 0.262030
    3 17.709560 0.000000 0.000000 -0.470448 -0.782027 -1.066318
    4 6.204000 0.000001 0.000001 -0.011146 0.000934 -0.500515
    5 -3.984013 0.000008 0.000007 -1.827504 -0.081634 -1.610708
    6 15.940010 0.000000 0.000000 0.000000 0.000000 0.290328
    7 17.709560 0.000000 0.000000 0.184739 0.196955 -1.251348
    8 6.203999 0.000000 0.000000 -0.078650 -0.006185 -0.498943
    9 0.000005 4.212784 -1.689857 1.570842 0.024383 1.571135
    10 3.837410 0.000000 0.000000 0.000001 -0.000404 -0.071252
    11 3.617870 0.000000 0.000000 0.000805 0.000268 0.161167
    12 7.539780 0.000000 0.000000 0.000000 0.000000 0.208173
    13 3.178299 0.000000 0.000000 3.141589 0.000000 0.224127
    14 2.970276 0.000000 0.000000 0.000000 0.000000 0.109880
    15 2.023708 0.907459 0.852579 1.638357 -1.334136 2.900115
    16 4.983666 0.000000 0.000000 -1.548794 -0.128840 -0.992752
    17 11.123051 0.000000 -0.000001 0.000000 0.000000 -2.206950
    18 11.208298 0.000000 -0.000004 1.135206 -0.199468 0.389377
    19 3.549244 0.198826 -1.489470 -0.290680 0.147066 -0.157749
    20 1.219001 0.000001 -0.000002 -0.004612 0.097482 -0.857488
    21 0.680000 0.000001 0.000000 0.011364 0.086978 -0.467392
    22 3.698009 0.267557 -0.728977 -0.117867 0.193734 -0.400710
    23 1.749001 -0.000001 0.000000 0.000213 0.027094 -0.681034
    24 0.960000 0.000000 0.000000 0.002325 0.039402 -0.532358
    25 3.768504 0.152550 0.071384 0.091505 0.211291 -0.065497
    26 2.038002 0.000001 0.000000 0.001514 -0.004366 -1.066337
    27 1.067001 -0.000002 0.000000 -0.001245 -0.005672 -0.393484
    28 3.783923 -0.017254 0.794554 0.278178 0.104808 0.154899
    29 1.629000 0.000000 0.000000 0.018831 -0.066668 -0.468773
    30 0.955999 0.000004 0.000000 0.000000 -0.069720 -0.170028
    31 1.258962 -0.297980 1.252590 -1.331029 0.039259 -0.742087
    32 1.393001 0.000000 0.000000 0.000000 0.002024 0.329446
    33 1.100000 0.000000 0.000002 0.000000 0.013129 0.145121
    34 2.023708 0.907463 -0.852528 -1.710117 1.334138 2.900104
    35 4.983668 0.000000 -0.000001 1.349469 0.264677 -1.018049
    36 11.123049 0.000000 0.000005 0.000000 0.000000 -1.847160
    37 11.208296 0.000002 0.000000 -1.144092 0.008130 -0.084081
    38 3.549271 0.211410 1.487671 0.359869 -0.049284 -0.325258
    39 1.219000 0.000000 0.000002 0.004612 -0.097482 -0.425502
    40 0.679999 0.000000 0.000002 -0.011364 -0.086978 -0.310297
    41 3.698022 0.273717 0.726625 0.131674 -0.098702 -0.528594
    42 1.748999 0.000000 -0.000002 -0.000213 -0.027094 -0.249035
    43 0.960001 0.000000 -0.000002 -0.002325 -0.039402 -0.375279
    44 3.768500 0.151955 -0.072741 -0.090833 -0.163209 -0.405118
    45 2.037999 -0.000001 0.000000 -0.001514 0.004366 -0.634357
    46 1.067000 0.000001 -0.000002 0.001245 0.005672 -0.236408
    47 3.783908 -0.023951 -0.794451 -0.352230 -0.226935 -0.220133
    48 1.629000 0.000000 0.000002 -0.018831 0.066668 -0.468773
    49 0.956000 0.000000 0.000002 0.000000 0.069720 -0.170028
    50 1.258940 -0.308544 -1.250050 1.322465 0.079108 -0.589578
    51 1.393002 -0.000002 0.000001 0.000000 -0.002024 -0.043589
    52 1.099998 0.000004 -0.000002 0.000000 -0.013129 -0.286815
    53 4.271699 0.000000 0.000000 0.000000 0.000000 0.000000
    54 5.604150 0.000000 -0.000005 -0.030876 0.000000 0.000000
    55 5.604152 0.000000 0.000000 0.034930 0.000000 0.000000
    56 11.208298 0.000002 -0.000006 -0.057543 0.000000 0.000000
    57 5.560001 -0.700001 -0.500004 0.000000 0.000000 0.000000
    58 2.132023 1.532023 5.000001 0.000000 0.000000 0.000000
    59 2.000008 4.938047 2.578001 0.000000 0.000000 0.000000
    60 11.123049 -0.000001 0.000003 0.000000 0.000000 -0.100063
    61 2.000000 4.938042 -2.578000 0.000000 0.000000 0.000000
    62 2.132023 1.532021 -5.000000 0.000000 0.000000 0.000000
    63 1.500000 0.000000 0.000001 0.000000 0.000000 0.000000
    64 11.208303 0.000002 0.000001 0.065171 0.000000 0.000000
    65 11.123051 0.000000 -0.000001 0.000000 0.000000 -0.100081
    66 4.271698 -0.000008 0.000000 0.000000 0.000000 0.000000
    67 1.500002 0.000000 -0.000004 0.000000 0.000000 0.000000
    68 5.560003 -0.700001 0.500002 0.000000 0.000000 0.000000
end
