version 1
nodes
  0 "ValveBiped.Bip01_Pelvis" -1
  1 "ValveBiped.Bip01_L_Thigh" 0
  2 "ValveBiped.Bip01_L_Calf" 1
  3 "ValveBiped.Bip01_L_Foot" 2
  4 "ValveBiped.Bip01_L_Toe0" 3
  5 "ValveBiped.Bip01_R_Thigh" 0
  6 "ValveBiped.Bip01_R_Calf" 5
  7 "ValveBiped.Bip01_R_Foot" 6
  8 "ValveBiped.Bip01_R_Toe0" 7
  9 "ValveBiped.Bip01_Spine" 0
  10 "ValveBiped.Bip01_Spine1" 9
  11 "ValveBiped.Bip01_Spine2" 10
  12 "ValveBiped.Bip01_Spine4" 11
  13 "ValveBiped.Bip01_Neck1" 12
  14 "ValveBiped.Bip01_Head1" 13
  15 "ValveBiped.Bip01_L_Clavicle" 12
  16 "ValveBiped.Bip01_L_UpperArm" 15
  17 "ValveBiped.Bip01_L_Forearm" 16
  18 "ValveBiped.Bip01_L_Hand" 17
  19 "ValveBiped.Bip01_L_Finger4" 18
  20 "ValveBiped.Bip01_L_Finger41" 19
  21 "ValveBiped.Bip01_L_Finger42" 20
  22 "ValveBiped.Bip01_L_Finger3" 18
  23 "ValveBiped.Bip01_L_Finger31" 22
  24 "ValveBiped.Bip01_L_Finger32" 23
  25 "ValveBiped.Bip01_L_Finger2" 18
  26 "ValveBiped.Bip01_L_Finger21" 25
  27 "ValveBiped.Bip01_L_Finger22" 26
  28 "ValveBiped.Bip01_L_Finger1" 18
  29 "ValveBiped.Bip01_L_Finger11" 28
  30 "ValveBiped.Bip01_L_Finger12" 29
  31 "ValveBiped.Bip01_L_Finger0" 18
  32 "ValveBiped.Bip01_L_Finger01" 31
  33 "ValveBiped.Bip01_L_Finger02" 32
  34 "ValveBiped.Bip01_R_Clavicle" 12
  35 "ValveBiped.Bip01_R_UpperArm" 34
  36 "ValveBiped.Bip01_R_Forearm" 35
  37 "ValveBiped.Bip01_R_Hand" 36
  38 "ValveBiped.Bip01_R_Finger4" 37
  39 "ValveBiped.Bip01_R_Finger41" 38
  40 "ValveBiped.Bip01_R_Finger42" 39
  41 "ValveBiped.Bip01_R_Finger3" 37
  42 "ValveBiped.Bip01_R_Finger31" 41
  43 "ValveBiped.Bip01_R_Finger32" 42
  44 "ValveBiped.Bip01_R_Finger2" 37
  45 "ValveBiped.Bip01_R_Finger21" 44
  46 "ValveBiped.Bip01_R_Finger22" 45
  47 "ValveBiped.Bip01_R_Finger1" 37
  48 "ValveBiped.Bip01_R_Finger11" 47
  49 "ValveBiped.Bip01_R_Finger12" 48
  50 "ValveBiped.Bip01_R_Finger0" 37
  51 "ValveBiped.Bip01_R_Finger01" 50
  52 "ValveBiped.Bip01_R_Finger02" 51
  53 "ValveBiped.Bip01_L_Trapezius" 15
  54 "ValveBiped.Bip01_L_Ulna" 17
  55 "ValveBiped.Bip01_R_Ulna" 36
  56 "ValveBiped.Bip01_L_Wrist" 17
  57 "ValveBiped.Bip01_L_Bicep" 16
  58 "ValveBiped.Bip01_L_Latt" 11
  59 "ValveBiped.Bip01_L_Pectoral" 11
  60 "ValveBiped.Bip01_R_Elbow" 35
  61 "ValveBiped.Bip01_R_Pectoral" 11
  62 "ValveBiped.Bip01_R_Latt" 11
  63 "ValveBiped.Bip01_L_Shoulder" 16
  64 "ValveBiped.Bip01_R_Wrist" 36
  65 "ValveBiped.Bip01_L_Elbow" 16
  66 "ValveBiped.Bip01_R_Trapezius" 34
  67 "ValveBiped.Bip01_R_Shoulder" 35
  68 "ValveBiped.Bip01_R_Bicep" 35
end
skeleton
  time 0
    0 -2.224971 0.385903 35.034283 1.806506 0.155720 -0.132768
    1 3.984014 -0.000004 -0.000003 -1.980941 -1.173171 -0.939516
    2 15.940015 0.000000 0.000000 0.000000 0.000000 2.235108
    3 17.709566 0.000002 0.000000 -0.080693 0.127244 -1.154341
    4 6.203999 0.000000 0.000000 -0.004994 0.003972 -1.024136
    5 -3.984014 0.000004 0.000008 -1.584122 -0.109940 -1.363618
    6 15.940014 0.000000 0.000000 0.000000 0.000000 0.470897
    7 17.709562 0.000001 0.000000 -0.103664 -0.058091 -1.511848
    8 6.203999 0.000000 0.000000 -0.077514 -0.006371 -0.648585
    9 0.000005 4.212788 -1.689857 1.485019 -0.268502 1.609575
    10 3.837410 0.000000 0.000000 0.064909 0.059180 0.136203
    11 3.617867 0.000002 0.000000 0.064157 0.059995 0.317897
    12 7.539778 0.000004 0.000000 -0.004590 0.025455 0.336985
    13 3.178297 0.000004 0.000000 3.141590 0.000000 0.515051
    14 2.970274 0.000000 0.000000 -0.394186 -0.176453 0.241084
    15 2.023706 0.907463 0.852579 3.489337 -1.155566 1.071793
    16 4.983668 0.000000 0.000000 -4.129545 -1.014796 1.146048
    17 11.123056 0.000000 -0.000001 0.000000 0.000000 -2.252910
    18 11.208294 -0.000002 -0.000005 1.481259 0.318469 -0.053553
    19 3.549244 0.198824 -1.489468 -0.175073 0.232953 -0.626189
    20 1.219000 0.000000 0.000001 -0.000005 0.004673 -0.753602
    21 0.679999 0.000000 -0.000001 0.000003 0.002403 -0.334299
    22 3.698009 0.267555 -0.728979 0.013736 0.025125 -0.537198
    23 1.749001 0.000000 0.000000 0.000009 0.002909 -0.561614
    24 0.960000 0.000000 0.000000 0.000012 0.004802 -0.744639
    25 3.768505 0.152550 0.071384 0.091073 -0.102658 -0.336059
    26 2.037998 0.000000 0.000002 0.000004 0.004994 -0.680299
    27 1.067000 -0.000004 0.000002 -0.000011 0.002789 -0.530205
    28 3.783924 -0.017258 0.794556 0.361171 -0.307773 -0.424207
    29 1.629000 -0.000002 0.000000 0.000003 0.005096 -0.876192
    30 0.956001 0.000004 0.000000 0.000000 0.003254 -0.558126
    31 1.258965 -0.297981 1.252590 -1.418869 -0.585409 -0.411852
    32 1.393001 0.000000 0.000000 -0.392970 0.058136 -0.103163
    33 1.100001 -0.000002 0.000004 0.000000 -0.003290 1.086696
    34 2.023710 0.907463 -0.852528 -3.728453 1.316326 0.888294
    35 4.983670 0.000000 0.000000 1.473014 -0.212237 -1.615657
    36 11.123052 0.000000 0.000006 0.000000 0.000000 -2.090564
    37 11.208302 0.000000 0.000000 -1.330288 0.115183 0.719507
    38 3.549271 0.211411 1.487669 0.494305 -0.097767 -1.141905
    39 1.219000 -0.000002 0.000000 0.000010 -0.007094 -0.826619
    40 0.679999 0.000000 0.000000 -0.000003 -0.003649 -0.935209
    41 3.698021 0.273715 0.726623 0.166728 -0.127400 -1.076953
    42 1.748999 -0.000004 0.000000 -0.000009 -0.004407 -0.870468
    43 0.959999 0.000002 -0.000001 0.000000 -0.007271 -1.448846
    44 3.768501 0.151954 -0.072741 0.103796 -0.274162 -0.673801
    45 2.038000 0.000000 0.000000 -0.000004 -0.007583 -1.320319
    46 1.067001 0.000002 0.000000 0.000011 -0.004239 -1.170285
    47 3.783909 -0.023951 -0.794452 -0.315426 0.154384 -0.106038
    48 1.629002 0.000000 0.000001 -0.000003 -0.007732 -0.850763
    49 0.956001 0.000002 0.000001 0.000000 -0.004920 -0.732089
    50 1.258938 -0.308545 -1.250052 1.175434 0.303545 -0.981076
    51 1.393002 0.000002 0.000000 0.000000 0.200216 0.487536
    52 1.099998 -0.000001 -0.000002 0.000000 0.201946 0.621916
    53 4.271701 0.000000 0.000000 0.000000 0.000000 0.000000
    54 5.604149 -0.000002 -0.000005 -0.030876 0.000000 0.000000
    55 5.604155 0.000000 0.000001 0.034930 0.000000 0.000000
    56 11.208298 -0.000004 -0.000007 -0.057543 0.000000 0.000000
    57 5.560003 -0.700001 -0.500005 0.000000 0.000000 0.000000
    58 2.132025 1.532021 5.000001 0.000000 0.000000 0.000000
    59 2.000006 4.938047 2.578001 0.000000 0.000000 0.000000
    60 11.123053 0.000000 0.000004 0.000000 0.000000 -0.100063
    61 2.000004 4.938042 -2.578001 0.000000 0.000000 0.000000
    62 2.132025 1.532021 -5.000001 0.000000 0.000000 0.000000
    63 1.500000 0.000000 0.000000 0.000000 0.000000 0.000000
    64 11.208307 -0.000002 0.000002 0.065171 0.000000 0.000000
    65 11.123056 0.000000 -0.000002 0.000000 0.000000 -0.100081
    66 4.271699 -0.000004 0.000000 0.000000 0.000000 0.000000
    67 1.500000 0.000000 -0.000003 0.000000 0.000000 0.000000
    68 5.560004 -0.700001 0.500003 0.000000 0.000000 0.000000
  time 1
    0 -2.224971 0.385903 35.034283 1.806506 0.155720 -0.132768
    1 3.984014 -0.000004 -0.000003 -1.980941 -1.173171 -0.939516
    2 15.940015 0.000000 0.000000 0.000000 0.000000 2.235108
    3 17.709566 0.000002 0.000000 -0.080693 0.127244 -1.154341
    4 6.203999 0.000000 0.000000 -0.004994 0.003972 -1.024136
    5 -3.984014 0.000004 0.000008 -1.584122 -0.109940 -1.363618
    6 15.940014 0.000000 0.000000 0.000000 0.000000 0.470897
    7 17.709562 0.000001 0.000000 -0.103664 -0.058091 -1.511848
    8 6.203999 0.000000 0.000000 -0.077514 -0.006371 -0.648585
    9 0.000005 4.212788 -1.689857 1.488858 -0.268594 1.585065
    10 3.837410 0.000000 0.000000 0.100922 0.048382 0.138526
    11 3.617867 0.000002 0.000000 0.100304 0.049652 0.320241
    12 7.539778 0.000004 0.000000 0.014190 0.029734 0.336985
    13 3.178297 0.000004 0.000000 3.141590 0.000000 0.515051
    14 2.970274 0.000000 0.000000 -0.414781 -0.177536 0.254368
    15 2.023706 0.907463 0.852579 3.439297 -1.165548 1.117596
    16 4.983668 0.000000 0.000000 -4.177143 -1.029040 1.211441
    17 11.123056 0.000000 -0.000001 0.000000 0.000000 -2.252910
    18 11.208294 -0.000002 -0.000005 1.481259 0.318469 -0.053553
    19 3.549244 0.198824 -1.489468 -0.175073 0.232953 -0.626189
    20 1.219000 0.000000 0.000001 -0.000005 0.004673 -0.753602
    21 0.679999 0.000000 -0.000001 0.000003 0.002403 -0.334299
    22 3.698009 0.267555 -0.728979 0.013736 0.025125 -0.537198
    23 1.749001 0.000000 0.000000 0.000009 0.002909 -0.561614
    24 0.960000 0.000000 0.000000 0.000012 0.004802 -0.744639
    25 3.768505 0.152550 0.071384 0.091073 -0.102658 -0.336059
    26 2.037998 0.000000 0.000002 0.000004 0.004994 -0.680299
    27 1.067000 -0.000004 0.000002 -0.000011 0.002789 -0.530205
    28 3.783924 -0.017258 0.794556 0.361171 -0.307773 -0.424207
    29 1.629000 -0.000002 0.000000 0.000003 0.005096 -0.876192
    30 0.956001 0.000004 0.000000 0.000000 0.003254 -0.558126
    31 1.258965 -0.297981 1.252590 -1.418869 -0.585409 -0.411852
    32 1.393001 0.000000 0.000000 -0.392982 0.058136 -0.103163
    33 1.100001 -0.000002 0.000004 0.000000 -0.003290 1.086696
    34 2.023710 0.907463 -0.852528 -3.644692 1.324485 0.970740
    35 4.983670 0.000000 0.000000 1.484269 -0.212755 -1.631158
    36 11.123052 0.000000 0.000006 0.000000 0.000000 -2.144459
    37 11.208302 0.000000 0.000000 -1.331249 0.111080 0.707667
    38 3.549271 0.211411 1.487669 0.494305 -0.097767 -1.141905
    39 1.219000 -0.000002 0.000000 0.000010 -0.007094 -0.826619
    40 0.679999 0.000000 0.000000 -0.000003 -0.003649 -0.935209
    41 3.698021 0.273715 0.726623 0.166728 -0.127400 -1.076953
    42 1.748999 -0.000004 0.000000 -0.000009 -0.004407 -0.870468
    43 0.959999 0.000002 -0.000001 -0.000012 -0.007271 -1.448846
    44 3.768501 0.151954 -0.072741 0.103796 -0.274162 -0.673801
    45 2.038000 0.000000 0.000000 -0.000004 -0.007583 -1.320319
    46 1.067001 0.000002 0.000000 0.000011 -0.004239 -1.170285
    47 3.783909 -0.023951 -0.794452 -0.315426 0.154384 -0.106038
    48 1.629002 0.000000 0.000001 -0.000003 -0.007732 -0.850763
    49 0.956001 0.000002 0.000001 0.000000 -0.004920 -0.732089
    50 1.258938 -0.308545 -1.250052 1.175434 0.303545 -0.981076
    51 1.393002 0.000002 0.000000 0.000000 0.200216 0.487536
    52 1.099998 -0.000001 -0.000002 0.000000 0.201946 0.621916
    53 4.271701 0.000000 0.000000 0.000000 0.000000 0.000000
    54 5.604149 -0.000002 -0.000005 -0.030876 0.000000 0.000000
    55 5.604155 0.000000 0.000001 0.034930 0.000000 0.000000
    56 11.208298 -0.000004 -0.000007 -0.057543 0.000000 0.000000
    57 5.560003 -0.700001 -0.500005 0.000000 0.000000 0.000000
    58 2.132025 1.532021 5.000001 0.000000 0.000000 0.000000
    59 2.000006 4.938047 2.578001 0.000000 0.000000 0.000000
    60 11.123053 0.000000 0.000004 0.000000 0.000000 -0.100063
    61 2.000004 4.938042 -2.578001 0.000000 0.000000 0.000000
    62 2.132025 1.532021 -5.000001 0.000000 0.000000 0.000000
    63 1.500000 0.000000 0.000000 0.000000 0.000000 0.000000
    64 11.208307 -0.000002 0.000002 0.065171 0.000000 0.000000
    65 11.123056 0.000000 -0.000002 0.000000 0.000000 -0.100081
    66 4.271699 -0.000004 0.000000 0.000000 0.000000 0.000000
    67 1.500000 0.000000 -0.000003 0.000000 0.000000 0.000000
    68 5.560004 -0.700001 0.500003 0.000000 0.000000 0.000000
  time 2
    0 -2.224971 0.385903 35.034283 1.806506 0.155720 -0.132768
    1 3.984014 -0.000004 -0.000003 -1.980941 -1.173171 -0.939516
    2 15.940015 0.000000 0.000000 0.000000 0.000000 2.235108
    3 17.709566 0.000002 0.000000 -0.080693 0.127244 -1.154341
    4 6.203999 0.000000 0.000000 -0.004994 0.003972 -1.024136
    5 -3.984014 0.000004 0.000008 -1.584122 -0.109940 -1.363618
    6 15.940014 0.000000 0.000000 0.000000 0.000000 0.470897
    7 17.709562 0.000001 0.000000 -0.103664 -0.058091 -1.511848
    8 6.203999 0.000000 0.000000 -0.077514 -0.006371 -0.648585
    9 0.000005 4.212788 -1.689857 1.497715 -0.268489 1.529332
    10 3.837410 0.000000 0.000000 0.114321 0.044391 0.134868
    11 3.617867 0.000002 0.000000 0.113748 0.045829 0.316610
    12 7.539778 0.000004 0.000000 0.021189 0.031328 0.336985
    13 3.178297 0.000004 0.000000 3.141590 0.000000 0.515051
    14 2.970274 0.000000 0.000000 -0.420421 -0.186524 0.275480
    15 2.023706 0.907463 0.852579 3.475516 -1.162600 1.083911
    16 4.983668 0.000000 0.000000 -4.194533 -1.010613 1.228560
    17 11.123056 0.000000 -0.000001 0.000000 0.000000 -2.252910
    18 11.208294 -0.000002 -0.000005 1.481259 0.318469 -0.053553
    19 3.549244 0.198824 -1.489468 -0.175073 0.232953 -0.626189
    20 1.219000 0.000000 0.000001 -0.000005 0.004673 -0.753602
    21 0.679999 0.000000 -0.000001 0.000003 0.002403 -0.334299
    22 3.698009 0.267555 -0.728979 0.013736 0.025125 -0.537198
    23 1.749001 0.000000 0.000000 0.000009 0.002909 -0.561614
    24 0.960000 0.000000 0.000000 0.000012 0.004802 -0.744639
    25 3.768505 0.152550 0.071384 0.091073 -0.102658 -0.336059
    26 2.037998 0.000000 0.000002 0.000004 0.004994 -0.680299
    27 1.067000 -0.000004 0.000002 -0.000011 0.002789 -0.530205
    28 3.783924 -0.017258 0.794556 0.361171 -0.307773 -0.424207
    29 1.629000 -0.000002 0.000000 0.000003 0.005096 -0.876192
    30 0.956001 0.000004 0.000000 0.000000 0.003254 -0.558126
    31 1.258965 -0.297981 1.252590 -1.418869 -0.585409 -0.411852
    32 1.393001 0.000000 0.000000 -0.392970 0.058136 -0.103163
    33 1.100001 -0.000002 0.000004 0.000000 -0.003290 1.086696
    34 2.023710 0.907463 -0.852528 -3.693106 1.316070 0.923468
    35 4.983670 0.000000 0.000000 1.500469 -0.191126 -1.669697
    36 11.123052 0.000000 0.000006 0.000000 0.000000 -2.200312
    37 11.208302 0.000000 0.000000 -1.333350 0.099417 0.675601
    38 3.549271 0.211411 1.487669 0.494305 -0.097767 -1.141905
    39 1.219000 -0.000002 0.000000 0.000010 -0.007094 -0.826619
    40 0.679999 0.000000 0.000000 -0.000003 -0.003649 -0.935209
    41 3.698021 0.273715 0.726623 0.166728 -0.127400 -1.076953
    42 1.748999 -0.000004 0.000000 -0.000009 -0.004407 -0.870468
    43 0.959999 0.000002 -0.000001 0.000000 -0.007271 -1.448846
    44 3.768501 0.151954 -0.072741 0.103796 -0.274162 -0.673801
    45 2.038000 0.000000 0.000000 -0.000004 -0.007583 -1.320319
    46 1.067001 0.000002 0.000000 0.000011 -0.004239 -1.170285
    47 3.783909 -0.023951 -0.794452 -0.315426 0.154384 -0.106038
    48 1.629002 0.000000 0.000001 -0.000003 -0.007732 -0.850763
    49 0.956001 0.000002 0.000001 0.000000 -0.004920 -0.732089
    50 1.258938 -0.308545 -1.250052 1.175434 0.303545 -0.981076
    51 1.393002 0.000002 0.000000 0.000000 0.200216 0.487536
    52 1.099998 -0.000001 -0.000002 0.000000 0.201946 0.621916
    53 4.271701 0.000000 0.000000 0.000000 0.000000 0.000000
    54 5.604149 -0.000002 -0.000005 -0.030876 0.000000 0.000000
    55 5.604155 0.000000 0.000001 0.034930 0.000000 0.000000
    56 11.208298 -0.000004 -0.000007 -0.057543 0.000000 0.000000
    57 5.560003 -0.700001 -0.500005 0.000000 0.000000 0.000000
    58 2.132025 1.532021 5.000001 0.000000 0.000000 0.000000
    59 2.000006 4.938047 2.578001 0.000000 0.000000 0.000000
    60 11.123053 0.000000 0.000004 0.000000 0.000000 -0.100063
    61 2.000004 4.938042 -2.578001 0.000000 0.000000 0.000000
    62 2.132025 1.532021 -5.000001 0.000000 0.000000 0.000000
    63 1.500000 0.000000 0.000000 0.000000 0.000000 0.000000
    64 11.208307 -0.000002 0.000002 0.065171 0.000000 0.000000
    65 11.123056 0.000000 -0.000002 0.000000 0.000000 -0.100081
    66 4.271699 -0.000004 0.000000 0.000000 0.000000 0.000000
    67 1.500000 0.000000 -0.000003 0.000000 0.000000 0.000000
    68 5.560004 -0.700001 0.500003 0.000000 0.000000 0.000000
  time 3
    0 -2.224971 0.385903 35.034283 1.806506 0.155720 -0.132768
    1 3.984014 -0.000004 -0.000003 -1.980941 -1.173171 -0.939516
    2 15.940015 0.000000 0.000000 0.000000 0.000000 2.235108
    3 17.709566 0.000002 0.000000 -0.080693 0.127244 -1.154341
    4 6.203999 0.000000 0.000000 -0.004994 0.003972 -1.024136
    5 -3.984014 0.000004 0.000008 -1.584122 -0.109940 -1.363618
    6 15.940014 0.000000 0.000000 0.000000 0.000000 0.470897
    7 17.709562 0.000001 0.000000 -0.103664 -0.058091 -1.511848
    8 6.203999 0.000000 0.000000 -0.077514 -0.006371 -0.648585
    9 0.000005 4.212788 -1.689857 1.507438 -0.267806 1.467484
    10 3.837410 0.000000 0.000000 0.100826 0.046896 0.126680
    11 3.617867 0.000002 0.000000 0.100227 0.048154 0.308408
    12 7.539778 0.000004 0.000000 0.014142 0.029722 0.336985
    13 3.178297 0.000004 0.000000 3.141590 0.000000 0.515051
    14 2.970274 0.000000 0.000000 -0.412026 -0.188672 0.285558
    15 2.023706 0.907463 0.852579 3.555389 -1.149502 1.010435
    16 4.983668 0.000000 0.000000 -4.161386 -0.980644 1.189724
    17 11.123056 0.000000 -0.000001 0.000000 0.000000 -2.252910
    18 11.208294 -0.000002 -0.000005 1.481259 0.318469 -0.053553
    19 3.549244 0.198824 -1.489468 -0.175073 0.232953 -0.626189
    20 1.219000 0.000000 0.000001 -0.000005 0.004673 -0.753602
    21 0.679999 0.000000 -0.000001 0.000003 0.002403 -0.334299
    22 3.698009 0.267555 -0.728979 0.013736 0.025125 -0.537198
    23 1.749001 0.000000 0.000000 0.000009 0.002909 -0.561614
    24 0.960000 0.000000 0.000000 0.000000 0.004802 -0.744639
    25 3.768505 0.152550 0.071384 0.091073 -0.102658 -0.336059
    26 2.037998 0.000000 0.000002 0.000004 0.004994 -0.680299
    27 1.067000 -0.000004 0.000002 -0.000011 0.002789 -0.530205
    28 3.783924 -0.017258 0.794556 0.361171 -0.307773 -0.424207
    29 1.629000 -0.000002 0.000000 0.000003 0.005096 -0.876192
    30 0.956001 0.000004 0.000000 0.000000 0.003254 -0.558126
    31 1.258965 -0.297981 1.252590 -1.418869 -0.585409 -0.411852
    32 1.393001 0.000000 0.000000 -0.392970 0.058136 -0.103163
    33 1.100001 -0.000002 0.000004 0.000000 -0.003290 1.086696
    34 2.023710 0.907463 -0.852528 -3.806103 1.297659 0.813071
    35 4.983670 0.000000 0.000000 1.508910 -0.165203 -1.715600
    36 11.123052 0.000000 0.000006 0.000000 0.000000 -2.249344
    37 11.208302 0.000000 0.000000 -1.334671 0.080651 0.628661
    38 3.549271 0.211411 1.487669 0.494305 -0.097767 -1.141905
    39 1.219000 -0.000002 0.000000 0.000010 -0.007094 -0.826619
    40 0.679999 0.000000 0.000000 -0.000003 -0.003649 -0.935209
    41 3.698021 0.273715 0.726623 0.166728 -0.127400 -1.076953
    42 1.748999 -0.000004 0.000000 -0.000009 -0.004407 -0.870468
    43 0.959999 0.000002 -0.000001 -0.000012 -0.007271 -1.448846
    44 3.768501 0.151954 -0.072741 0.103796 -0.274162 -0.673801
    45 2.038000 0.000000 0.000000 -0.000004 -0.007583 -1.320319
    46 1.067001 0.000002 0.000000 0.000011 -0.004239 -1.170285
    47 3.783909 -0.023951 -0.794452 -0.315426 0.154384 -0.106038
    48 1.629002 0.000000 0.000001 -0.000003 -0.007732 -0.850763
    49 0.956001 0.000002 0.000001 0.000000 -0.004920 -0.732089
    50 1.258938 -0.308545 -1.250052 1.175434 0.303545 -0.981076
    51 1.393002 0.000002 0.000000 0.000000 0.200216 0.487536
    52 1.099998 -0.000001 -0.000002 0.000000 0.201946 0.621916
    53 4.271701 0.000000 0.000000 0.000000 0.000000 0.000000
    54 5.604149 -0.000002 -0.000005 -0.030876 0.000000 0.000000
    55 5.604155 0.000000 0.000001 0.034930 0.000000 0.000000
    56 11.208298 -0.000004 -0.000007 -0.057543 0.000000 0.000000
    57 5.560003 -0.700001 -0.500005 0.000000 0.000000 0.000000
    58 2.132025 1.532021 5.000001 0.000000 0.000000 0.000000
    59 2.000006 4.938047 2.578001 0.000000 0.000000 0.000000
    60 11.123053 0.000000 0.000004 0.000000 0.000000 -0.100063
    61 2.000004 4.938042 -2.578001 0.000000 0.000000 0.000000
    62 2.132025 1.532021 -5.000001 0.000000 0.000000 0.000000
    63 1.500000 0.000000 0.000000 0.000000 0.000000 0.000000
    64 11.208307 -0.000002 0.000002 0.065171 0.000000 0.000000
    65 11.123056 0.000000 -0.000002 0.000000 0.000000 -0.100081
    66 4.271699 -0.000004 0.000000 0.000000 0.000000 0.000000
    67 1.500000 0.000000 -0.000003 0.000000 0.000000 0.000000
    68 5.560004 -0.700001 0.500003 0.000000 0.000000 0.000000
  time 4
    0 -2.224971 0.385903 35.034283 1.806506 0.155720 -0.132768
    1 3.984014 -0.000004 -0.000003 -1.980941 -1.173171 -0.939516
    2 15.940015 0.000000 0.000000 0.000000 0.000000 2.235108
    3 17.709566 0.000002 0.000000 -0.080693 0.127244 -1.154341
    4 6.203999 0.000000 0.000000 -0.004994 0.003972 -1.024136
    5 -3.984014 0.000004 0.000008 -1.584122 -0.109940 -1.363618
    6 15.940014 0.000000 0.000000 0.000000 0.000000 0.470897
    7 17.709562 0.000001 0.000000 -0.103664 -0.058091 -1.511848
    8 6.203999 0.000000 0.000000 -0.077514 -0.006371 -0.648585
    9 0.000005 4.212788 -1.689857 1.512145 -0.267268 1.437753
    10 3.837410 0.000000 0.000000 0.064741 0.053547 0.117883
    11 3.617867 0.000002 0.000000 0.064049 0.054362 0.299571
    12 7.539778 0.000004 0.000000 -0.004686 0.025431 0.336985
    13 3.178297 0.000004 0.000000 3.141590 0.000000 0.515051
    14 2.970274 0.000000 0.000000 -0.383517 -0.219226 0.281798
    15 2.023706 0.907463 0.852579 3.642123 -1.129160 0.931710
    16 4.983668 0.000000 0.000000 -4.081784 -0.951309 1.100859
    17 11.123056 0.000000 -0.000001 0.000000 0.000000 -2.252910
    18 11.208294 -0.000002 -0.000005 1.481259 0.318469 -0.053553
    19 3.549244 0.198824 -1.489468 -0.175073 0.232953 -0.626189
    20 1.219000 0.000000 0.000001 -0.000005 0.004673 -0.753602
    21 0.679999 0.000000 -0.000001 0.000003 0.002403 -0.334299
    22 3.698009 0.267555 -0.728979 0.013736 0.025125 -0.537198
    23 1.749001 0.000000 0.000000 0.000009 0.002909 -0.561614
    24 0.960000 0.000000 0.000000 0.000000 0.004802 -0.744639
    25 3.768505 0.152550 0.071384 0.091073 -0.102658 -0.336059
    26 2.037998 0.000000 0.000002 0.000004 0.004994 -0.680299
    27 1.067000 -0.000004 0.000002 -0.000011 0.002789 -0.530205
    28 3.783924 -0.017258 0.794556 0.361171 -0.307773 -0.424207
    29 1.629000 -0.000002 0.000000 0.000003 0.005096 -0.876192
    30 0.956001 0.000004 0.000000 0.000000 0.003254 -0.558126
    31 1.258965 -0.297981 1.252590 -1.418869 -0.585409 -0.411852
    32 1.393001 0.000000 0.000000 -0.392970 0.058136 -0.103163
    33 1.100001 -0.000002 0.000004 0.000000 -0.003290 1.086696
    34 2.023710 0.907463 -0.852528 -3.925868 1.273396 0.696108
    35 4.983670 0.000000 0.000000 1.503965 -0.149163 -1.750970
    36 11.123052 0.000000 0.000006 0.000000 0.000000 -2.267782
    37 11.208302 0.000000 0.000000 -1.333530 0.055540 0.572197
    38 3.549271 0.211411 1.487669 0.494305 -0.097767 -1.141905
    39 1.219000 -0.000002 0.000000 0.000010 -0.007094 -0.826619
    40 0.679999 0.000000 0.000000 -0.000003 -0.003649 -0.935209
    41 3.698021 0.273715 0.726623 0.166728 -0.127400 -1.076953
    42 1.748999 -0.000004 0.000000 -0.000009 -0.004407 -0.870468
    43 0.959999 0.000002 -0.000001 0.000000 -0.007271 -1.448846
    44 3.768501 0.151954 -0.072741 0.103796 -0.274162 -0.673801
    45 2.038000 0.000000 0.000000 -0.000004 -0.007583 -1.320319
    46 1.067001 0.000002 0.000000 0.000011 -0.004239 -1.170285
    47 3.783909 -0.023951 -0.794452 -0.315426 0.154384 -0.106038
    48 1.629002 0.000000 0.000001 -0.000003 -0.007732 -0.850763
    49 0.956001 0.000002 0.000001 0.000000 -0.004920 -0.732089
    50 1.258938 -0.308545 -1.250052 1.175434 0.303545 -0.981076
    51 1.393002 0.000002 0.000000 0.000000 0.200216 0.487536
    52 1.099998 -0.000001 -0.000002 0.000000 0.201946 0.621916
    53 4.271701 0.000000 0.000000 0.000000 0.000000 0.000000
    54 5.604149 -0.000002 -0.000005 -0.030876 0.000000 0.000000
    55 5.604155 0.000000 0.000001 0.034930 0.000000 0.000000
    56 11.208298 -0.000004 -0.000007 -0.057543 0.000000 0.000000
    57 5.560003 -0.700001 -0.500005 0.000000 0.000000 0.000000
    58 2.132025 1.532021 5.000001 0.000000 0.000000 0.000000
    59 2.000006 4.938047 2.578001 0.000000 0.000000 0.000000
    60 11.123053 0.000000 0.000004 0.000000 0.000000 -0.100063
    61 2.000004 4.938042 -2.578001 0.000000 0.000000 0.000000
    62 2.132025 1.532021 -5.000001 0.000000 0.000000 0.000000
    63 1.500000 0.000000 0.000000 0.000000 0.000000 0.000000
    64 11.208307 -0.000002 0.000002 0.065171 0.000000 0.000000
    65 11.123056 0.000000 -0.000002 0.000000 0.000000 -0.100081
    66 4.271699 -0.000004 0.000000 0.000000 0.000000 0.000000
    67 1.500000 0.000000 -0.000003 0.000000 0.000000 0.000000
    68 5.560004 -0.700001 0.500003 0.000000 0.000000 0.000000
  time 5
    0 -2.224971 0.385903 35.034283 1.806506 0.155720 -0.132768
    1 3.984014 -0.000004 -0.000003 -1.980941 -1.173171 -0.939516
    2 15.940015 0.000000 0.000000 0.000000 0.000000 2.235108
    3 17.709566 0.000002 0.000000 -0.080693 0.127244 -1.154341
    4 6.203999 0.000000 0.000000 -0.004994 0.003972 -1.024136
    5 -3.984014 0.000004 0.000008 -1.584122 -0.109940 -1.363618
    6 15.940014 0.000000 0.000000 0.000000 0.000000 0.470897
    7 17.709562 0.000001 0.000000 -0.103664 -0.058091 -1.511848
    8 6.203999 0.000000 0.000000 -0.077514 -0.006371 -0.648585
    9 0.000005 4.212788 -1.689857 1.513074 -0.267137 1.431588
    10 3.837410 0.000000 0.000000 0.012536 0.063267 0.113484
    11 3.617867 0.000002 0.000000 0.011736 0.063422 0.295133
    12 7.539778 0.000004 0.000000 -0.031927 0.019223 0.336880
    13 3.178297 0.000004 0.000000 3.141590 0.000000 0.515051
    14 2.970274 0.000000 0.000000 -0.342502 -0.260520 0.276189
    15 2.023706 0.907463 0.852579 3.706460 -1.108270 0.874456
    16 4.983668 0.000000 0.000000 -3.972136 -0.923987 0.988886
    17 11.123056 0.000000 -0.000001 0.000000 0.000000 -2.252910
    18 11.208294 -0.000002 -0.000005 1.481259 0.318469 -0.053553
    19 3.549244 0.198824 -1.489468 -0.175073 0.232953 -0.626189
    20 1.219000 0.000000 0.000001 -0.000005 0.004673 -0.753602
    21 0.679999 0.000000 -0.000001 0.000003 0.002403 -0.334299
    22 3.698009 0.267555 -0.728979 0.013736 0.025125 -0.537198
    23 1.749001 0.000000 0.000000 0.000009 0.002909 -0.561614
    24 0.960000 0.000000 0.000000 0.000012 0.004802 -0.744639
    25 3.768505 0.152550 0.071384 0.091073 -0.102658 -0.336059
    26 2.037998 0.000000 0.000002 0.000004 0.004994 -0.680299
    27 1.067000 -0.000004 0.000002 -0.000011 0.002789 -0.530205
    28 3.783924 -0.017258 0.794556 0.361171 -0.307773 -0.424207
    29 1.629000 -0.000002 0.000000 0.000003 0.005096 -0.876192
    30 0.956001 0.000004 0.000000 0.000000 0.003254 -0.558126
    31 1.258965 -0.297981 1.252590 -1.418869 -0.585409 -0.411852
    32 1.393001 0.000000 0.000000 -0.392970 0.058136 -0.103163
    33 1.100001 -0.000002 0.000004 0.000000 -0.003290 1.086696
    34 2.023710 0.907463 -0.852528 -4.016491 1.251782 0.607378
    35 4.983670 0.000000 0.000000 1.481029 -0.143212 -1.765187
    36 11.123052 0.000000 0.000006 0.000000 0.000000 -2.242860
    37 11.208302 0.000000 0.000000 -1.328667 0.025719 0.511352
    38 3.549271 0.211411 1.487669 0.494305 -0.097767 -1.141905
    39 1.219000 -0.000002 0.000000 0.000010 -0.007094 -0.826619
    40 0.679999 0.000000 0.000000 -0.000003 -0.003649 -0.935209
    41 3.698021 0.273715 0.726623 0.166728 -0.127400 -1.076953
    42 1.748999 -0.000004 0.000000 -0.000009 -0.004407 -0.870468
    43 0.959999 0.000002 -0.000001 -0.000012 -0.007271 -1.448846
    44 3.768501 0.151954 -0.072741 0.103796 -0.274162 -0.673801
    45 2.038000 0.000000 0.000000 -0.000004 -0.007583 -1.320319
    46 1.067001 0.000002 0.000000 0.000011 -0.004239 -1.170285
    47 3.783909 -0.023951 -0.794452 -0.315426 0.154384 -0.106038
    48 1.629002 0.000000 0.000001 -0.000003 -0.007732 -0.850763
    49 0.956001 0.000002 0.000001 0.000000 -0.004920 -0.732089
    50 1.258938 -0.308545 -1.250052 1.175434 0.303545 -0.981076
    51 1.393002 0.000002 0.000000 0.000000 0.200216 0.487536
    52 1.099998 -0.000001 -0.000002 0.000000 0.201946 0.621916
    53 4.271701 0.000000 0.000000 0.000000 0.000000 0.000000
    54 5.604149 -0.000002 -0.000005 -0.030876 0.000000 0.000000
    55 5.604155 0.000000 0.000001 0.034930 0.000000 0.000000
    56 11.208298 -0.000004 -0.000007 -0.057543 0.000000 0.000000
    57 5.560003 -0.700001 -0.500005 0.000000 0.000000 0.000000
    58 2.132025 1.532021 5.000001 0.000000 0.000000 0.000000
    59 2.000006 4.938047 2.578001 0.000000 0.000000 0.000000
    60 11.123053 0.000000 0.000004 0.000000 0.000000 -0.100063
    61 2.000004 4.938042 -2.578001 0.000000 0.000000 0.000000
    62 2.132025 1.532021 -5.000001 0.000000 0.000000 0.000000
    63 1.500000 0.000000 0.000000 0.000000 0.000000 0.000000
    64 11.208307 -0.000002 0.000002 0.065171 0.000000 0.000000
    65 11.123056 0.000000 -0.000002 0.000000 0.000000 -0.100081
    66 4.271699 -0.000004 0.000000 0.000000 0.000000 0.000000
    67 1.500000 0.000000 -0.000003 0.000000 0.000000 0.000000
    68 5.560004 -0.700001 0.500003 0.000000 0.000000 0.000000
  time 6
    0 -2.224971 0.385903 35.034283 1.806506 0.155720 -0.132768
    1 3.984014 -0.000004 -0.000003 -1.980941 -1.173171 -0.939516
    2 15.940015 0.000000 0.000000 0.000000 0.000000 2.235108
    3 17.709566 0.000002 0.000000 -0.080693 0.127244 -1.154341
    4 6.203999 0.000000 0.000000 -0.004994 0.003972 -1.024136
    5 -3.984014 0.000004 0.000008 -1.584122 -0.109940 -1.363618
    6 15.940014 0.000000 0.000000 0.000000 0.000000 0.470897
    7 17.709562 0.000001 0.000000 -0.103664 -0.058091 -1.511848
    8 6.203999 0.000000 0.000000 -0.077514 -0.006371 -0.648585
    9 0.000005 4.212788 -1.689857 1.514685 -0.266914 1.421396
    10 3.837410 0.000000 0.000000 -0.049305 0.075059 0.115725
    11 3.617867 0.000002 0.000000 -0.050237 0.074436 0.297400
    12 7.539778 0.000004 0.000000 -0.064201 0.011865 0.336642
    13 3.178297 0.000004 0.000000 3.141590 0.000000 0.515051
    14 2.970274 0.000000 0.000000 -0.296459 -0.297680 0.270055
    15 2.023706 0.907463 0.852579 3.727238 -1.095762 0.857184
    16 4.983668 0.000000 0.000000 -3.850814 -0.903178 0.888951
    17 11.123056 0.000000 -0.000001 0.000000 0.000000 -2.252910
    18 11.208294 -0.000002 -0.000005 1.481259 0.318469 -0.053553
    19 3.549244 0.198824 -1.489468 -0.175073 0.232953 -0.626189
    20 1.219000 0.000000 0.000001 -0.000005 0.004673 -0.753602
    21 0.679999 0.000000 -0.000001 0.000003 0.002403 -0.334299
    22 3.698009 0.267555 -0.728979 0.013736 0.025125 -0.537198
    23 1.749001 0.000000 0.000000 0.000009 0.002909 -0.561614
    24 0.960000 0.000000 0.000000 0.000012 0.004802 -0.744639
    25 3.768505 0.152550 0.071384 0.091073 -0.102658 -0.336059
    26 2.037998 0.000000 0.000002 0.000004 0.004994 -0.680299
    27 1.067000 -0.000004 0.000002 -0.000011 0.002789 -0.530205
    28 3.783924 -0.017258 0.794556 0.361171 -0.307773 -0.424207
    29 1.629000 -0.000002 0.000000 0.000003 0.005096 -0.876192
    30 0.956001 0.000004 0.000000 0.000000 0.003254 -0.558126
    31 1.258965 -0.297981 1.252590 -1.418869 -0.585409 -0.411852
    32 1.393001 0.000000 0.000000 -0.392970 0.058136 -0.103163
    33 1.100001 -0.000002 0.000004 0.000000 -0.003290 1.086696
    34 2.023710 0.907463 -0.852528 -4.060017 1.244606 0.564045
    35 4.983670 0.000000 0.000000 1.442405 -0.144299 -1.755253
    36 11.123052 0.000000 0.000006 0.000000 0.000000 -2.193896
    37 11.208302 0.000000 0.000000 -1.319720 -0.006420 0.451097
    38 3.549271 0.211411 1.487669 0.494305 -0.097767 -1.141905
    39 1.219000 -0.000002 0.000000 0.000010 -0.007094 -0.826619
    40 0.679999 0.000000 0.000000 -0.000003 -0.003649 -0.935209
    41 3.698021 0.273715 0.726623 0.166728 -0.127400 -1.076953
    42 1.748999 -0.000004 0.000000 -0.000009 -0.004407 -0.870468
    43 0.959999 0.000002 -0.000001 -0.000012 -0.007271 -1.448846
    44 3.768501 0.151954 -0.072741 0.103796 -0.274162 -0.673801
    45 2.038000 0.000000 0.000000 -0.000004 -0.007583 -1.320319
    46 1.067001 0.000002 0.000000 0.000011 -0.004239 -1.170285
    47 3.783909 -0.023951 -0.794452 -0.315426 0.154384 -0.106038
    48 1.629002 0.000000 0.000001 -0.000003 -0.007732 -0.850763
    49 0.956001 0.000002 0.000001 0.000000 -0.004920 -0.732089
    50 1.258938 -0.308545 -1.250052 1.175434 0.303545 -0.981076
    51 1.393002 0.000002 0.000000 0.000000 0.200216 0.487536
    52 1.099998 -0.000001 -0.000002 0.000000 0.201946 0.621916
    53 4.271701 0.000000 0.000000 0.000000 0.000000 0.000000
    54 5.604149 -0.000002 -0.000005 -0.030876 0.000000 0.000000
    55 5.604155 0.000000 0.000001 0.034930 0.000000 0.000000
    56 11.208298 -0.000004 -0.000007 -0.057543 0.000000 0.000000
    57 5.560003 -0.700001 -0.500005 0.000000 0.000000 0.000000
    58 2.132025 1.532021 5.000001 0.000000 0.000000 0.000000
    59 2.000006 4.938047 2.578001 0.000000 0.000000 0.000000
    60 11.123053 0.000000 0.000004 0.000000 0.000000 -0.100063
    61 2.000004 4.938042 -2.578001 0.000000 0.000000 0.000000
    62 2.132025 1.532021 -5.000001 0.000000 0.000000 0.000000
    63 1.500000 0.000000 0.000000 0.000000 0.000000 0.000000
    64 11.208307 -0.000002 0.000002 0.065171 0.000000 0.000000
    65 11.123056 0.000000 -0.000002 0.000000 0.000000 -0.100081
    66 4.271699 -0.000004 0.000000 0.000000 0.000000 0.000000
    67 1.500000 0.000000 -0.000003 0.000000 0.000000 0.000000
    68 5.560004 -0.700001 0.500003 0.000000 0.000000 0.000000
  time 7
    0 -2.224971 0.385903 35.034283 1.806506 0.155720 -0.132768
    1 3.984014 -0.000004 -0.000003 -1.980941 -1.173171 -0.939516
    2 15.940015 0.000000 0.000000 0.000000 0.000000 2.235108
    3 17.709566 0.000002 0.000000 -0.080693 0.127244 -1.154341
    4 6.203999 0.000000 0.000000 -0.004994 0.003972 -1.024136
    5 -3.984014 0.000004 0.000008 -1.584122 -0.109940 -1.363618
    6 15.940014 0.000000 0.000000 0.000000 0.000000 0.470897
    7 17.709562 0.000001 0.000000 -0.103664 -0.058091 -1.511848
    8 6.203999 0.000000 0.000000 -0.077514 -0.006371 -0.648585
    9 0.000005 4.212788 -1.689857 1.522736 -0.265549 1.369889
    10 3.837410 0.000000 0.000000 -0.114345 0.088015 0.122199
    11 3.617867 0.000002 0.000000 -0.115440 0.086565 0.303912
    12 7.539778 0.000004 0.000000 -0.098154 0.004123 0.336254
    13 3.178297 0.000004 0.000000 3.141590 0.000000 0.515051
    14 2.970274 0.000000 0.000000 -0.250154 -0.327423 0.264230
    15 2.023706 0.907463 0.852579 3.678152 -1.101069 0.902892
    16 4.983668 0.000000 0.000000 -3.725165 -0.914298 0.822590
    17 11.123056 0.000000 -0.000001 0.000000 0.000000 -2.252910
    18 11.208294 -0.000002 -0.000005 1.481259 0.318469 -0.053553
    19 3.549244 0.198824 -1.489468 -0.175073 0.232953 -0.626189
    20 1.219000 0.000000 0.000001 -0.000005 0.004673 -0.753602
    21 0.679999 0.000000 -0.000001 0.000003 0.002403 -0.334299
    22 3.698009 0.267555 -0.728979 0.013736 0.025125 -0.537198
    23 1.749001 0.000000 0.000000 0.000009 0.002909 -0.561614
    24 0.960000 0.000000 0.000000 0.000012 0.004802 -0.744639
    25 3.768505 0.152550 0.071384 0.091073 -0.102658 -0.336059
    26 2.037998 0.000000 0.000002 0.000004 0.004994 -0.680299
    27 1.067000 -0.000004 0.000002 -0.000011 0.002789 -0.530205
    28 3.783924 -0.017258 0.794556 0.361171 -0.307773 -0.424207
    29 1.629000 -0.000002 0.000000 0.000003 0.005096 -0.876192
    30 0.956001 0.000004 0.000000 0.000000 0.003254 -0.558126
    31 1.258965 -0.297981 1.252590 -1.418869 -0.585409 -0.411852
    32 1.393001 0.000000 0.000000 -0.392970 0.058136 -0.103163
    33 1.100001 -0.000002 0.000004 0.000000 -0.003290 1.086696
    34 2.023710 0.907463 -0.852528 -4.030874 1.265793 0.590870
    35 4.983670 0.000000 0.000000 1.400115 -0.167842 -1.719026
    36 11.123052 0.000000 0.000006 0.000000 0.000000 -2.144864
    37 11.208302 0.000000 0.000000 -1.307892 -0.037685 0.396108
    38 3.549271 0.211411 1.487669 0.494305 -0.097767 -1.141905
    39 1.219000 -0.000002 0.000000 0.000010 -0.007094 -0.826619
    40 0.679999 0.000000 0.000000 -0.000003 -0.003649 -0.935209
    41 3.698021 0.273715 0.726623 0.166728 -0.127400 -1.076953
    42 1.748999 -0.000004 0.000000 -0.000009 -0.004407 -0.870468
    43 0.959999 0.000002 -0.000001 0.000000 -0.007271 -1.448846
    44 3.768501 0.151954 -0.072741 0.103796 -0.274162 -0.673801
    45 2.038000 0.000000 0.000000 -0.000004 -0.007583 -1.320319
    46 1.067001 0.000002 0.000000 0.000011 -0.004239 -1.170285
    47 3.783909 -0.023951 -0.794452 -0.315426 0.154384 -0.106038
    48 1.629002 0.000000 0.000001 -0.000003 -0.007732 -0.850763
    49 0.956001 0.000002 0.000001 0.000000 -0.004920 -0.732089
    50 1.258938 -0.308545 -1.250052 1.175434 0.303545 -0.981076
    51 1.393002 0.000002 0.000000 0.000000 0.200216 0.487536
    52 1.099998 -0.000001 -0.000002 0.000000 0.201946 0.621916
    53 4.271701 0.000000 0.000000 0.000000 0.000000 0.000000
    54 5.604149 -0.000002 -0.000005 -0.030876 0.000000 0.000000
    55 5.604155 0.000000 0.000001 0.034930 0.000000 0.000000
    56 11.208298 -0.000004 -0.000007 -0.057543 0.000000 0.000000
    57 5.560003 -0.700001 -0.500005 0.000000 0.000000 0.000000
    58 2.132025 1.532021 5.000001 0.000000 0.000000 0.000000
    59 2.000006 4.938047 2.578001 0.000000 0.000000 0.000000
    60 11.123053 0.000000 0.000004 0.000000 0.000000 -0.100063
    61 2.000004 4.938042 -2.578001 0.000000 0.000000 0.000000
    62 2.132025 1.532021 -5.000001 0.000000 0.000000 0.000000
    63 1.500000 0.000000 0.000000 0.000000 0.000000 0.000000
    64 11.208307 -0.000002 0.000002 0.065171 0.000000 0.000000
    65 11.123056 0.000000 -0.000002 0.000000 0.000000 -0.100081
    66 4.271699 -0.000004 0.000000 0.000000 0.000000 0.000000
    67 1.500000 0.000000 -0.000003 0.000000 0.000000 0.000000
    68 5.560004 -0.700001 0.500003 0.000000 0.000000 0.000000
  time 8
    0 -2.224971 0.385903 35.034283 1.806506 0.155720 -0.132768
    1 3.984014 -0.000004 -0.000003 -1.980941 -1.173171 -0.939516
    2 15.940015 0.000000 0.000000 0.000000 0.000000 2.235108
    3 17.709566 0.000002 0.000000 -0.080693 0.127244 -1.154341
    4 6.203999 0.000000 0.000000 -0.004994 0.003972 -1.024136
    5 -3.984014 0.000004 0.000008 -1.584122 -0.109940 -1.363618
    6 15.940014 0.000000 0.000000 0.000000 0.000000 0.470897
    7 17.709562 0.000001 0.000000 -0.103664 -0.058091 -1.511848
    8 6.203999 0.000000 0.000000 -0.077514 -0.006371 -0.648585
    9 0.000005 4.212788 -1.689857 1.532088 -0.263411 1.308786
    10 3.837410 0.000000 0.000000 -0.176114 0.101198 0.130601
    11 3.617867 0.000002 0.000000 -0.177367 0.098981 0.312403
    12 7.539778 0.000004 0.000000 -0.130380 -0.003248 0.335762
    13 3.178297 0.000004 0.000000 3.141590 0.000000 0.515051
    14 2.970274 0.000000 0.000000 -0.208134 -0.347510 0.245430
    15 2.023706 0.907463 0.852579 3.574737 -1.116315 0.997553
    16 4.983668 0.000000 0.000000 -3.598209 -0.944744 0.761129
    17 11.123056 0.000000 -0.000001 0.000000 0.000000 -2.252910
    18 11.208294 -0.000002 -0.000005 1.481259 0.318469 -0.053553
    19 3.549244 0.198824 -1.489468 -0.175073 0.232953 -0.626189
    20 1.219000 0.000000 0.000001 -0.000005 0.004673 -0.753602
    21 0.679999 0.000000 -0.000001 0.000003 0.002403 -0.334299
    22 3.698009 0.267555 -0.728979 0.013736 0.025125 -0.537198
    23 1.749001 0.000000 0.000000 0.000009 0.002909 -0.561614
    24 0.960000 0.000000 0.000000 0.000012 0.004802 -0.744639
    25 3.768505 0.152550 0.071384 0.091073 -0.102658 -0.336059
    26 2.037998 0.000000 0.000002 0.000004 0.004994 -0.680299
    27 1.067000 -0.000004 0.000002 -0.000011 0.002789 -0.530205
    28 3.783924 -0.017258 0.794556 0.361171 -0.307773 -0.424207
    29 1.629000 -0.000002 0.000000 0.000003 0.005096 -0.876192
    30 0.956001 0.000004 0.000000 0.000000 0.003254 -0.558126
    31 1.258965 -0.297981 1.252590 -1.418869 -0.585409 -0.411852
    32 1.393001 0.000000 0.000000 -0.392970 0.058136 -0.103163
    33 1.100001 -0.000002 0.000004 0.000000 -0.003290 1.086696
    34 2.023710 0.907463 -0.852528 -3.930663 1.305433 0.687292
    35 4.983670 0.000000 0.000000 1.353050 -0.213065 -1.646231
    36 11.123052 0.000000 0.000006 0.000000 0.000000 -2.096777
    37 11.208302 0.000000 0.000000 -1.295462 -0.064468 0.351064
    38 3.549271 0.211411 1.487669 0.494305 -0.097767 -1.141905
    39 1.219000 -0.000002 0.000000 0.000010 -0.007094 -0.826619
    40 0.679999 0.000000 0.000000 -0.000003 -0.003649 -0.935209
    41 3.698021 0.273715 0.726623 0.166728 -0.127400 -1.076953
    42 1.748999 -0.000004 0.000000 -0.000009 -0.004407 -0.870468
    43 0.959999 0.000002 -0.000001 0.000000 -0.007271 -1.448846
    44 3.768501 0.151954 -0.072741 0.103796 -0.274162 -0.673801
    45 2.038000 0.000000 0.000000 -0.000004 -0.007583 -1.320319
    46 1.067001 0.000002 0.000000 0.000011 -0.004239 -1.170285
    47 3.783909 -0.023951 -0.794452 -0.315426 0.154384 -0.106038
    48 1.629002 0.000000 0.000001 -0.000003 -0.007732 -0.850763
    49 0.956001 0.000002 0.000001 0.000000 -0.004920 -0.732089
    50 1.258938 -0.308545 -1.250052 1.175434 0.303545 -0.981076
    51 1.393002 0.000002 0.000000 0.000000 0.200216 0.487536
    52 1.099998 -0.000001 -0.000002 0.000000 0.201946 0.621916
    53 4.271701 0.000000 0.000000 0.000000 0.000000 0.000000
    54 5.604149 -0.000002 -0.000005 -0.030876 0.000000 0.000000
    55 5.604155 0.000000 0.000001 0.034930 0.000000 0.000000
    56 11.208298 -0.000004 -0.000007 -0.057543 0.000000 0.000000
    57 5.560003 -0.700001 -0.500005 0.000000 0.000000 0.000000
    58 2.132025 1.532021 5.000001 0.000000 0.000000 0.000000
    59 2.000006 4.938047 2.578001 0.000000 0.000000 0.000000
    60 11.123053 0.000000 0.000004 0.000000 0.000000 -0.100063
    61 2.000004 4.938042 -2.578001 0.000000 0.000000 0.000000
    62 2.132025 1.532021 -5.000001 0.000000 0.000000 0.000000
    63 1.500000 0.000000 0.000000 0.000000 0.000000 0.000000
    64 11.208307 -0.000002 0.000002 0.065171 0.000000 0.000000
    65 11.123056 0.000000 -0.000002 0.000000 0.000000 -0.100081
    66 4.271699 -0.000004 0.000000 0.000000 0.000000 0.000000
    67 1.500000 0.000000 -0.000003 0.000000 0.000000 0.000000
    68 5.560004 -0.700001 0.500003 0.000000 0.000000 0.000000
  time 9
    0 -2.224971 0.385903 35.034283 1.806506 0.155720 -0.132768
    1 3.984014 -0.000004 -0.000003 -1.980941 -1.173171 -0.939516
    2 15.940015 0.000000 0.000000 0.000000 0.000000 2.235108
    3 17.709566 0.000002 0.000000 -0.080693 0.127244 -1.154341
    4 6.203999 0.000000 0.000000 -0.004994 0.003972 -1.024136
    5 -3.984014 0.000004 0.000008 -1.584122 -0.109940 -1.363618
    6 15.940014 0.000000 0.000000 0.000000 0.000000 0.470897
    7 17.709562 0.000001 0.000000 -0.103664 -0.058091 -1.511848
    8 6.203999 0.000000 0.000000 -0.077514 -0.006371 -0.648585
    9 0.000005 4.212788 -1.689857 1.535556 -0.262466 1.286016
    10 3.837410 0.000000 0.000000 -0.228151 0.113674 0.137010
    11 3.617867 0.000002 0.000000 -0.229526 0.110798 0.318954
    12 7.539778 0.000004 0.000000 -0.157513 -0.009468 0.335240
    13 3.178297 0.000004 0.000000 3.141590 0.000000 0.515051
    14 2.970274 0.000000 0.000000 -0.173022 -0.363176 0.207335
    15 2.023706 0.907463 0.852579 3.466747 -1.127812 1.096507
    16 4.983668 0.000000 0.000000 -3.496155 -0.962111 0.703116
    17 11.123056 0.000000 -0.000001 0.000000 0.000000 -2.252910
    18 11.208294 -0.000002 -0.000005 1.481259 0.318469 -0.053553
    19 3.549244 0.198824 -1.489468 -0.175073 0.232953 -0.626189
    20 1.219000 0.000000 0.000001 -0.000005 0.004673 -0.753602
    21 0.679999 0.000000 -0.000001 0.000003 0.002403 -0.334299
    22 3.698009 0.267555 -0.728979 0.013736 0.025125 -0.537198
    23 1.749001 0.000000 0.000000 0.000009 0.002909 -0.561614
    24 0.960000 0.000000 0.000000 0.000012 0.004802 -0.744639
    25 3.768505 0.152550 0.071384 0.091073 -0.102658 -0.336059
    26 2.037998 0.000000 0.000002 0.000004 0.004994 -0.680299
    27 1.067000 -0.000004 0.000002 -0.000011 0.002789 -0.530205
    28 3.783924 -0.017258 0.794556 0.361171 -0.307773 -0.424207
    29 1.629000 -0.000002 0.000000 0.000003 0.005096 -0.876192
    30 0.956001 0.000004 0.000000 0.000000 0.003254 -0.558126
    31 1.258965 -0.297981 1.252590 -1.418869 -0.585409 -0.411852
    32 1.393001 0.000000 0.000000 -0.392970 0.058136 -0.103163
    33 1.100001 -0.000002 0.000004 0.000000 -0.003290 1.086696
    34 2.023710 0.907463 -0.852528 -3.796326 1.340717 0.818323
    35 4.983670 0.000000 0.000000 1.299420 -0.250734 -1.552111
    36 11.123052 0.000000 0.000006 0.000000 0.000000 -2.050650
    37 11.208302 0.000000 0.000000 -1.285555 -0.083044 0.320515
    38 3.549271 0.211411 1.487669 0.494305 -0.097767 -1.141905
    39 1.219000 -0.000002 0.000000 0.000010 -0.007094 -0.826619
    40 0.679999 0.000000 0.000000 -0.000003 -0.003649 -0.935209
    41 3.698021 0.273715 0.726623 0.166728 -0.127400 -1.076953
    42 1.748999 -0.000004 0.000000 -0.000009 -0.004407 -0.870468
    43 0.959999 0.000002 -0.000001 -0.000012 -0.007271 -1.448846
    44 3.768501 0.151954 -0.072741 0.103796 -0.274162 -0.673801
    45 2.038000 0.000000 0.000000 -0.000004 -0.007583 -1.320319
    46 1.067001 0.000002 0.000000 0.000011 -0.004239 -1.170285
    47 3.783909 -0.023951 -0.794452 -0.315426 0.154384 -0.106038
    48 1.629002 0.000000 0.000001 -0.000003 -0.007732 -0.850763
    49 0.956001 0.000002 0.000001 0.000000 -0.004920 -0.732089
    50 1.258938 -0.308545 -1.250052 1.175434 0.303545 -0.981076
    51 1.393002 0.000002 0.000000 0.000000 0.200216 0.487536
    52 1.099998 -0.000001 -0.000002 0.000000 0.201946 0.621916
    53 4.271701 0.000000 0.000000 0.000000 0.000000 0.000000
    54 5.604149 -0.000002 -0.000005 -0.030876 0.000000 0.000000
    55 5.604155 0.000000 0.000001 0.034930 0.000000 0.000000
    56 11.208298 -0.000004 -0.000007 -0.057543 0.000000 0.000000
    57 5.560003 -0.700001 -0.500005 0.000000 0.000000 0.000000
    58 2.132025 1.532021 5.000001 0.000000 0.000000 0.000000
    59 2.000006 4.938047 2.578001 0.000000 0.000000 0.000000
    60 11.123053 0.000000 0.000004 0.000000 0.000000 -0.100063
    61 2.000004 4.938042 -2.578001 0.000000 0.000000 0.000000
    62 2.132025 1.532021 -5.000001 0.000000 0.000000 0.000000
    63 1.500000 0.000000 0.000000 0.000000 0.000000 0.000000
    64 11.208307 -0.000002 0.000002 0.065171 0.000000 0.000000
    65 11.123056 0.000000 -0.000002 0.000000 0.000000 -0.100081
    66 4.271699 -0.000004 0.000000 0.000000 0.000000 0.000000
    67 1.500000 0.000000 -0.000003 0.000000 0.000000 0.000000
    68 5.560004 -0.700001 0.500003 0.000000 0.000000 0.000000
  time 10
    0 -2.224971 0.385903 35.034283 1.806506 0.155720 -0.132768
    1 3.984014 -0.000004 -0.000003 -1.980941 -1.173171 -0.939516
    2 15.940015 0.000000 0.000000 0.000000 0.000000 2.235108
    3 17.709566 0.000002 0.000000 -0.080693 0.127244 -1.154341
    4 6.203999 0.000000 0.000000 -0.004994 0.003972 -1.024136
    5 -3.984014 0.000004 0.000008 -1.584122 -0.109940 -1.363618
    6 15.940014 0.000000 0.000000 0.000000 0.000000 0.470897
    7 17.709562 0.000001 0.000000 -0.103664 -0.058091 -1.511848
    8 6.203999 0.000000 0.000000 -0.077514 -0.006371 -0.648585
    9 0.000005 4.212788 -1.689857 1.531283 -0.263621 1.314255
    10 3.837410 0.000000 0.000000 -0.263985 0.124340 0.139201
    11 3.617867 0.000002 0.000000 -0.265488 0.121032 0.321240
    12 7.539778 0.000004 0.000000 -0.176197 -0.013770 0.334837
    13 3.178297 0.000004 0.000000 3.141590 0.000000 0.515051
    14 2.970274 0.000000 0.000000 -0.146962 -0.380303 0.216859
    15 2.023706 0.907463 0.852579 3.416136 -1.130171 1.143074
    16 4.983668 0.000000 0.000000 -3.452476 -0.956287 0.676136
    17 11.123056 0.000000 -0.000001 0.000000 0.000000 -2.252910
    18 11.208294 -0.000002 -0.000005 1.481259 0.318469 -0.053553
    19 3.549244 0.198824 -1.489468 -0.175073 0.232953 -0.626189
    20 1.219000 0.000000 0.000001 -0.000005 0.004673 -0.753602
    21 0.679999 0.000000 -0.000001 0.000003 0.002403 -0.334299
    22 3.698009 0.267555 -0.728979 0.013736 0.025125 -0.537198
    23 1.749001 0.000000 0.000000 0.000009 0.002909 -0.561614
    24 0.960000 0.000000 0.000000 0.000012 0.004802 -0.744639
    25 3.768505 0.152550 0.071384 0.091073 -0.102658 -0.336059
    26 2.037998 0.000000 0.000002 0.000004 0.004994 -0.680299
    27 1.067000 -0.000004 0.000002 -0.000011 0.002789 -0.530205
    28 3.783924 -0.017258 0.794556 0.361171 -0.307773 -0.424207
    29 1.629000 -0.000002 0.000000 0.000003 0.005096 -0.876192
    30 0.956001 0.000004 0.000000 0.000000 0.003254 -0.558126
    31 1.258965 -0.297981 1.252590 -1.418869 -0.585409 -0.411852
    32 1.393001 0.000000 0.000000 -0.392970 0.058136 -0.103163
    33 1.100001 -0.000002 0.000004 0.000000 -0.003290 1.086696
    34 2.023710 0.907463 -0.852528 -3.726009 1.356009 0.887169
    35 4.983670 0.000000 0.000000 1.250309 -0.256426 -1.482912
    36 11.123052 0.000000 0.000006 0.000000 0.000000 -2.011613
    37 11.208302 0.000000 0.000000 -1.281652 -0.089996 0.309264
    38 3.549271 0.211411 1.487669 0.494305 -0.097767 -1.141905
    39 1.219000 -0.000002 0.000000 0.000010 -0.007094 -0.826619
    40 0.679999 0.000000 0.000000 -0.000003 -0.003649 -0.935209
    41 3.698021 0.273715 0.726623 0.166728 -0.127400 -1.076953
    42 1.748999 -0.000004 0.000000 -0.000009 -0.004407 -0.870468
    43 0.959999 0.000002 -0.000001 0.000000 -0.007271 -1.448846
    44 3.768501 0.151954 -0.072741 0.103796 -0.274162 -0.673801
    45 2.038000 0.000000 0.000000 -0.000004 -0.007583 -1.320319
    46 1.067001 0.000002 0.000000 0.000011 -0.004239 -1.170285
    47 3.783909 -0.023951 -0.794452 -0.315426 0.154384 -0.106038
    48 1.629002 0.000000 0.000001 -0.000003 -0.007732 -0.850763
    49 0.956001 0.000002 0.000001 0.000000 -0.004920 -0.732089
    50 1.258938 -0.308545 -1.250052 1.175434 0.303545 -0.981076
    51 1.393002 0.000002 0.000000 0.000000 0.200216 0.487536
    52 1.099998 -0.000001 -0.000002 0.000000 0.201946 0.621916
    53 4.271701 0.000000 0.000000 0.000000 0.000000 0.000000
    54 5.604149 -0.000002 -0.000005 -0.030876 0.000000 0.000000
    55 5.604155 0.000000 0.000001 0.034930 0.000000 0.000000
    56 11.208298 -0.000004 -0.000007 -0.057543 0.000000 0.000000
    57 5.560003 -0.700001 -0.500005 0.000000 0.000000 0.000000
    58 2.132025 1.532021 5.000001 0.000000 0.000000 0.000000
    59 2.000006 4.938047 2.578001 0.000000 0.000000 0.000000
    60 11.123053 0.000000 0.000004 0.000000 0.000000 -0.100063
    61 2.000004 4.938042 -2.578001 0.000000 0.000000 0.000000
    62 2.132025 1.532021 -5.000001 0.000000 0.000000 0.000000
    63 1.500000 0.000000 0.000000 0.000000 0.000000 0.000000
    64 11.208307 -0.000002 0.000002 0.065171 0.000000 0.000000
    65 11.123056 0.000000 -0.000002 0.000000 0.000000 -0.100081
    66 4.271699 -0.000004 0.000000 0.000000 0.000000 0.000000
    67 1.500000 0.000000 -0.000003 0.000000 0.000000 0.000000
    68 5.560004 -0.700001 0.500003 0.000000 0.000000 0.000000
  time 11
    0 -2.224971 0.385903 35.034283 1.806506 0.155720 -0.132768
    1 3.984014 -0.000004 -0.000003 -1.980941 -1.173171 -0.939516
    2 15.940015 0.000000 0.000000 0.000000 0.000000 2.235108
    3 17.709566 0.000002 0.000000 -0.080693 0.127244 -1.154341
    4 6.203999 0.000000 0.000000 -0.004994 0.003972 -1.024136
    5 -3.984014 0.000004 0.000008 -1.584122 -0.109940 -1.363618
    6 15.940014 0.000000 0.000000 0.000000 0.000000 0.470897
    7 17.709562 0.000001 0.000000 -0.103664 -0.058091 -1.511848
    8 6.203999 0.000000 0.000000 -0.077514 -0.006371 -0.648585
    9 0.000005 4.212788 -1.689857 1.522860 -0.265523 1.369044
    10 3.837410 0.000000 0.000000 -0.277156 0.131950 0.135132
    11 3.617867 0.000002 0.000000 -0.278747 0.128487 0.317187
    12 7.539778 0.000004 0.000000 -0.183053 -0.015352 0.334673
    13 3.178297 0.000004 0.000000 3.141590 0.000000 0.515051
    14 2.970274 0.000000 0.000000 -0.134063 -0.397539 0.237755
    15 2.023706 0.907463 0.852579 3.448924 -1.124948 1.113302
    16 4.983668 0.000000 0.000000 -3.474356 -0.940508 0.684605
    17 11.123056 0.000000 -0.000001 0.000000 0.000000 -2.252910
    18 11.208294 -0.000002 -0.000005 1.481259 0.318469 -0.053553
    19 3.549244 0.198824 -1.489468 -0.175073 0.232953 -0.626189
    20 1.219000 0.000000 0.000001 -0.000005 0.004673 -0.753602
    21 0.679999 0.000000 -0.000001 0.000003 0.002403 -0.334299
    22 3.698009 0.267555 -0.728979 0.013736 0.025125 -0.537198
    23 1.749001 0.000000 0.000000 0.000009 0.002909 -0.561614
    24 0.960000 0.000000 0.000000 0.000012 0.004802 -0.744639
    25 3.768505 0.152550 0.071384 0.091073 -0.102658 -0.336059
    26 2.037998 0.000000 0.000002 0.000004 0.004994 -0.680299
    27 1.067000 -0.000004 0.000002 -0.000011 0.002789 -0.530205
    28 3.783924 -0.017258 0.794556 0.361171 -0.307773 -0.424207
    29 1.629000 -0.000002 0.000000 0.000003 0.005096 -0.876192
    30 0.956001 0.000004 0.000000 0.000000 0.003254 -0.558126
    31 1.258965 -0.297981 1.252590 -1.418869 -0.585409 -0.411852
    32 1.393001 0.000000 0.000000 -0.392970 0.058136 -0.103163
    33 1.100001 -0.000002 0.000004 0.000000 -0.003290 1.086696
    34 2.023710 0.907463 -0.852528 -3.786079 1.348577 0.827890
    35 4.983670 0.000000 0.000000 1.224048 -0.236505 -1.468867
    36 11.123052 0.000000 0.000006 0.000000 0.000000 -1.983383
    37 11.208302 0.000000 0.000000 -1.287597 -0.079359 0.326541
    38 3.549271 0.211411 1.487669 0.494305 -0.097767 -1.141905
    39 1.219000 -0.000002 0.000000 0.000010 -0.007094 -0.826619
    40 0.679999 0.000000 0.000000 -0.000003 -0.003649 -0.935209
    41 3.698021 0.273715 0.726623 0.166728 -0.127400 -1.076953
    42 1.748999 -0.000004 0.000000 -0.000009 -0.004407 -0.870468
    43 0.959999 0.000002 -0.000001 0.000000 -0.007271 -1.448846
    44 3.768501 0.151954 -0.072741 0.103796 -0.274162 -0.673801
    45 2.038000 0.000000 0.000000 -0.000004 -0.007583 -1.320319
    46 1.067001 0.000002 0.000000 0.000011 -0.004239 -1.170285
    47 3.783909 -0.023951 -0.794452 -0.315426 0.154384 -0.106038
    48 1.629002 0.000000 0.000001 -0.000003 -0.007732 -0.850763
    49 0.956001 0.000002 0.000001 0.000000 -0.004920 -0.732089
    50 1.258938 -0.308545 -1.250052 1.175434 0.303545 -0.981076
    51 1.393002 0.000002 0.000000 0.000000 0.200216 0.487536
    52 1.099998 -0.000001 -0.000002 0.000000 0.201946 0.621916
    53 4.271701 0.000000 0.000000 0.000000 0.000000 0.000000
    54 5.604149 -0.000002 -0.000005 -0.030876 0.000000 0.000000
    55 5.604155 0.000000 0.000001 0.034930 0.000000 0.000000
    56 11.208298 -0.000004 -0.000007 -0.057543 0.000000 0.000000
    57 5.560003 -0.700001 -0.500005 0.000000 0.000000 0.000000
    58 2.132025 1.532021 5.000001 0.000000 0.000000 0.000000
    59 2.000006 4.938047 2.578001 0.000000 0.000000 0.000000
    60 11.123053 0.000000 0.000004 0.000000 0.000000 -0.100063
    61 2.000004 4.938042 -2.578001 0.000000 0.000000 0.000000
    62 2.132025 1.532021 -5.000001 0.000000 0.000000 0.000000
    63 1.500000 0.000000 0.000000 0.000000 0.000000 0.000000
    64 11.208307 -0.000002 0.000002 0.065171 0.000000 0.000000
    65 11.123056 0.000000 -0.000002 0.000000 0.000000 -0.100081
    66 4.271699 -0.000004 0.000000 0.000000 0.000000 0.000000
    67 1.500000 0.000000 -0.000003 0.000000 0.000000 0.000000
    68 5.560004 -0.700001 0.500003 0.000000 0.000000 0.000000
  time 12
    0 -2.224971 0.385903 35.034283 1.806506 0.155720 -0.132768
    1 3.984014 -0.000004 -0.000003 -1.980941 -1.173171 -0.939516
    2 15.940015 0.000000 0.000000 0.000000 0.000000 2.235108
    3 17.709566 0.000002 0.000000 -0.080693 0.127244 -1.154341
    4 6.203999 0.000000 0.000000 -0.004994 0.003972 -1.024136
    5 -3.984014 0.000004 0.000008 -1.584122 -0.109940 -1.363618
    6 15.940014 0.000000 0.000000 0.000000 0.000000 0.470897
    7 17.709562 0.000001 0.000000 -0.103664 -0.058091 -1.511848
    8 6.203999 0.000000 0.000000 -0.077514 -0.006371 -0.648585
    9 0.000005 4.212788 -1.689857 1.514251 -0.266980 1.424279
    10 3.837410 0.000000 0.000000 -0.263421 0.134899 0.126285
    11 3.617867 0.000002 0.000000 -0.265058 0.131603 0.308292
    12 7.539778 0.000004 0.000000 -0.175898 -0.013698 0.334837
    13 3.178297 0.000004 0.000000 3.141590 0.000000 0.515051
    14 2.970274 0.000000 0.000000 -0.137386 -0.413330 0.248697
    15 2.023706 0.907463 0.852579 3.526604 -1.115304 1.042688
    16 4.983668 0.000000 0.000000 -3.548407 -0.930606 0.717392
    17 11.123056 0.000000 -0.000001 0.000000 0.000000 -2.252910
    18 11.208294 -0.000002 -0.000005 1.481259 0.318469 -0.053553
    19 3.549244 0.198824 -1.489468 -0.175073 0.232953 -0.626189
    20 1.219000 0.000000 0.000001 -0.000005 0.004673 -0.753602
    21 0.679999 0.000000 -0.000001 0.000003 0.002403 -0.334299
    22 3.698009 0.267555 -0.728979 0.013736 0.025125 -0.537198
    23 1.749001 0.000000 0.000000 0.000009 0.002909 -0.561614
    24 0.960000 0.000000 0.000000 0.000000 0.004802 -0.744639
    25 3.768505 0.152550 0.071384 0.091073 -0.102658 -0.336059
    26 2.037998 0.000000 0.000002 0.000004 0.004994 -0.680299
    27 1.067000 -0.000004 0.000002 -0.000011 0.002789 -0.530205
    28 3.783924 -0.017258 0.794556 0.361171 -0.307773 -0.424207
    29 1.629000 -0.000002 0.000000 0.000003 0.005096 -0.876192
    30 0.956001 0.000004 0.000000 0.000000 0.003254 -0.558126
    31 1.258965 -0.297981 1.252590 -1.418869 -0.585409 -0.411852
    32 1.393001 0.000000 0.000000 -0.392970 0.058136 -0.103163
    33 1.100001 -0.000002 0.000004 0.000000 -0.003290 1.086696
    34 2.023710 0.907463 -0.852528 -3.898982 1.325083 0.717118
    35 4.983670 0.000000 0.000000 1.233256 -0.214773 -1.493617
    36 11.123052 0.000000 0.000006 0.000000 0.000000 -1.965553
    37 11.208302 0.000000 0.000000 -1.301587 -0.051855 0.372048
    38 3.549271 0.211411 1.487669 0.494305 -0.097767 -1.141905
    39 1.219000 -0.000002 0.000000 0.000010 -0.007094 -0.826619
    40 0.679999 0.000000 0.000000 -0.000003 -0.003649 -0.935209
    41 3.698021 0.273715 0.726623 0.166728 -0.127400 -1.076953
    42 1.748999 -0.000004 0.000000 -0.000009 -0.004407 -0.870468
    43 0.959999 0.000002 -0.000001 -0.000012 -0.007271 -1.448846
    44 3.768501 0.151954 -0.072741 0.103796 -0.274162 -0.673801
    45 2.038000 0.000000 0.000000 -0.000004 -0.007583 -1.320319
    46 1.067001 0.000002 0.000000 0.000011 -0.004239 -1.170285
    47 3.783909 -0.023951 -0.794452 -0.315426 0.154371 -0.106038
    48 1.629002 0.000000 0.000001 -0.000003 -0.007732 -0.850763
    49 0.956001 0.000002 0.000001 0.000000 -0.004920 -0.732089
    50 1.258938 -0.308545 -1.250052 1.175434 0.303545 -0.981076
    51 1.393002 0.000002 0.000000 0.000000 0.200216 0.487536
    52 1.099998 -0.000001 -0.000002 0.000000 0.201946 0.621916
    53 4.271701 0.000000 0.000000 0.000000 0.000000 0.000000
    54 5.604149 -0.000002 -0.000005 -0.030876 0.000000 0.000000
    55 5.604155 0.000000 0.000001 0.034930 0.000000 0.000000
    56 11.208298 -0.000004 -0.000007 -0.057543 0.000000 0.000000
    57 5.560003 -0.700001 -0.500005 0.000000 0.000000 0.000000
    58 2.132025 1.532021 5.000001 0.000000 0.000000 0.000000
    59 2.000006 4.938047 2.578001 0.000000 0.000000 0.000000
    60 11.123053 0.000000 0.000004 0.000000 0.000000 -0.100063
    61 2.000004 4.938042 -2.578001 0.000000 0.000000 0.000000
    62 2.132025 1.532021 -5.000001 0.000000 0.000000 0.000000
    63 1.500000 0.000000 0.000000 0.000000 0.000000 0.000000
    64 11.208307 -0.000002 0.000002 0.065171 0.000000 0.000000
    65 11.123056 0.000000 -0.000002 0.000000 0.000000 -0.100081
    66 4.271699 -0.000004 0.000000 0.000000 0.000000 0.000000
    67 1.500000 0.000000 -0.000003 0.000000 0.000000 0.000000
    68 5.560004 -0.700001 0.500003 0.000000 0.000000 0.000000
  time 13
    0 -2.224971 0.385903 35.034283 1.806506 0.155720 -0.132768
    1 3.984014 -0.000004 -0.000003 -1.980941 -1.173171 -0.939516
    2 15.940015 0.000000 0.000000 0.000000 0.000000 2.235108
    3 17.709566 0.000002 0.000000 -0.080693 0.127244 -1.154341
    4 6.203999 0.000000 0.000000 -0.004994 0.003972 -1.024136
    5 -3.984014 0.000004 0.000008 -1.584122 -0.109940 -1.363618
    6 15.940014 0.000000 0.000000 0.000000 0.000000 0.470897
    7 17.709562 0.000001 0.000000 -0.103664 -0.058091 -1.511848
    8 6.203999 0.000000 0.000000 -0.077514 -0.006371 -0.648585
    9 0.000005 4.212788 -1.689857 1.509358 -0.267597 1.455303
    10 3.837410 0.000000 0.000000 -0.227180 0.131591 0.117488
    11 3.617867 0.000002 0.000000 -0.228788 0.128738 0.299379
    12 7.539778 0.000004 0.000000 -0.156998 -0.009348 0.335255
    13 3.178297 0.000004 0.000000 3.141590 0.000000 0.515051
    14 2.970274 0.000000 0.000000 -0.160823 -0.406490 0.250947
    15 2.023706 0.907463 0.852579 3.616198 -1.102627 0.961101
    16 4.983668 0.000000 0.000000 -3.652747 -0.931242 0.765424
    17 11.123056 0.000000 -0.000001 0.000000 0.000000 -2.252910
    18 11.208294 -0.000002 -0.000005 1.481259 0.318469 -0.053553
    19 3.549244 0.198824 -1.489468 -0.175073 0.232953 -0.626189
    20 1.219000 0.000000 0.000001 -0.000005 0.004673 -0.753602
    21 0.679999 0.000000 -0.000001 0.000003 0.002403 -0.334299
    22 3.698009 0.267555 -0.728979 0.013736 0.025125 -0.537198
    23 1.749001 0.000000 0.000000 0.000009 0.002909 -0.561614
    24 0.960000 0.000000 0.000000 0.000000 0.004802 -0.744639
    25 3.768505 0.152550 0.071384 0.091073 -0.102658 -0.336059
    26 2.037998 0.000000 0.000002 0.000004 0.004994 -0.680299
    27 1.067000 -0.000004 0.000002 -0.000011 0.002789 -0.530205
    28 3.783924 -0.017258 0.794556 0.361171 -0.307773 -0.424207
    29 1.629000 -0.000002 0.000000 0.000003 0.005096 -0.876192
    30 0.956001 0.000004 0.000000 0.000000 0.003254 -0.558126
    31 1.258965 -0.297981 1.252590 -1.418869 -0.585409 -0.411852
    32 1.393001 0.000000 0.000000 -0.392970 0.058136 -0.103163
    33 1.100001 -0.000002 0.000004 0.000000 -0.003290 1.086696
    34 2.023710 0.907463 -0.852528 -4.001732 1.292661 0.617227
    35 4.983670 0.000000 0.000000 1.276569 -0.201734 -1.546886
    36 11.123052 0.000000 0.000006 0.000000 0.000000 -1.958394
    37 11.208302 0.000000 0.000000 -1.316958 -0.014474 0.436686
    38 3.549271 0.211411 1.487669 0.494305 -0.097767 -1.141905
    39 1.219000 -0.000002 0.000000 0.000010 -0.007094 -0.826619
    40 0.679999 0.000000 0.000000 -0.000003 -0.003649 -0.935209
    41 3.698021 0.273715 0.726623 0.166728 -0.127400 -1.076953
    42 1.748999 -0.000004 0.000000 -0.000009 -0.004407 -0.870468
    43 0.959999 0.000002 -0.000001 -0.000012 -0.007271 -1.448846
    44 3.768501 0.151954 -0.072741 0.103796 -0.274162 -0.673801
    45 2.038000 0.000000 0.000000 -0.000004 -0.007583 -1.320319
    46 1.067001 0.000002 0.000000 0.000011 -0.004239 -1.170285
    47 3.783909 -0.023951 -0.794452 -0.315426 0.154371 -0.106038
    48 1.629002 0.000000 0.000001 -0.000003 -0.007732 -0.850763
    49 0.956001 0.000002 0.000001 0.000000 -0.004920 -0.732089
    50 1.258938 -0.308545 -1.250052 1.175434 0.303545 -0.981076
    51 1.393002 0.000002 0.000000 0.000000 0.200216 0.487536
    52 1.099998 -0.000001 -0.000002 0.000000 0.201946 0.621916
    53 4.271701 0.000000 0.000000 0.000000 0.000000 0.000000
    54 5.604149 -0.000002 -0.000005 -0.030876 0.000000 0.000000
    55 5.604155 0.000000 0.000001 0.034930 0.000000 0.000000
    56 11.208298 -0.000004 -0.000007 -0.057543 0.000000 0.000000
    57 5.560003 -0.700001 -0.500005 0.000000 0.000000 0.000000
    58 2.132025 1.532021 5.000001 0.000000 0.000000 0.000000
    59 2.000006 4.938047 2.578001 0.000000 0.000000 0.000000
    60 11.123053 0.000000 0.000004 0.000000 0.000000 -0.100063
    61 2.000004 4.938042 -2.578001 0.000000 0.000000 0.000000
    62 2.132025 1.532021 -5.000001 0.000000 0.000000 0.000000
    63 1.500000 0.000000 0.000000 0.000000 0.000000 0.000000
    64 11.208307 -0.000002 0.000002 0.065171 0.000000 0.000000
    65 11.123056 0.000000 -0.000002 0.000000 0.000000 -0.100081
    66 4.271699 -0.000004 0.000000 0.000000 0.000000 0.000000
    67 1.500000 0.000000 -0.000003 0.000000 0.000000 0.000000
    68 5.560004 -0.700001 0.500003 0.000000 0.000000 0.000000
  time 14
    0 -2.224971 0.385903 35.034283 1.806506 0.155720 -0.132768
    1 3.984014 -0.000004 -0.000003 -1.980941 -1.173171 -0.939516
    2 15.940015 0.000000 0.000000 0.000000 0.000000 2.235108
    3 17.709566 0.000002 0.000000 -0.080693 0.127244 -1.154341
    4 6.203999 0.000000 0.000000 -0.004994 0.003972 -1.024136
    5 -3.984014 0.000004 0.000008 -1.584122 -0.109940 -1.363618
    6 15.940014 0.000000 0.000000 0.000000 0.000000 0.470897
    7 17.709562 0.000001 0.000000 -0.103664 -0.058091 -1.511848
    8 6.203999 0.000000 0.000000 -0.077514 -0.006371 -0.648585
    9 0.000005 4.212788 -1.689857 1.507748 -0.267767 1.465644
    10 3.837410 0.000000 0.000000 -0.174867 0.122339 0.113501
    11 3.617867 0.000002 0.000000 -0.176382 0.120134 0.295287
    12 7.539778 0.000004 0.000000 -0.129709 -0.003092 0.335777
    13 3.178297 0.000004 0.000000 3.141590 0.000000 0.515051
    14 2.970274 0.000000 0.000000 -0.202887 -0.368446 0.257419
    15 2.023706 0.907463 0.852579 3.689399 -1.091551 0.894209
    16 4.983668 0.000000 0.000000 -3.775539 -0.936801 0.835657
    17 11.123056 0.000000 -0.000001 0.000000 0.000000 -2.252910
    18 11.208294 -0.000002 -0.000005 1.481259 0.318469 -0.053553
    19 3.549244 0.198824 -1.489468 -0.175073 0.232953 -0.626189
    20 1.219000 0.000000 0.000001 -0.000005 0.004673 -0.753602
    21 0.679999 0.000000 -0.000001 0.000003 0.002403 -0.334299
    22 3.698009 0.267555 -0.728979 0.013736 0.025125 -0.537198
    23 1.749001 0.000000 0.000000 0.000009 0.002909 -0.561614
    24 0.960000 0.000000 0.000000 0.000012 0.004802 -0.744639
    25 3.768505 0.152550 0.071384 0.091073 -0.102658 -0.336059
    26 2.037998 0.000000 0.000002 0.000004 0.004994 -0.680299
    27 1.067000 -0.000004 0.000002 -0.000011 0.002789 -0.530205
    28 3.783924 -0.017258 0.794556 0.361171 -0.307773 -0.424207
    29 1.629000 -0.000002 0.000000 0.000003 0.005096 -0.876192
    30 0.956001 0.000004 0.000000 0.000000 0.003254 -0.558126
    31 1.258965 -0.297981 1.252590 -1.418869 -0.585409 -0.411852
    32 1.393001 0.000000 0.000000 -0.392970 0.058136 -0.103163
    33 1.100001 -0.000002 0.000004 0.000000 -0.003290 1.086696
    34 2.023710 0.907463 -0.852528 -4.064905 1.262546 0.556729
    35 4.983670 0.000000 0.000000 1.341710 -0.189471 -1.612402
    36 11.123052 0.000000 0.000006 0.000000 0.000000 -1.962041
    37 11.208302 0.000000 0.000000 -1.328667 0.025719 0.511352
    38 3.549271 0.211411 1.487669 0.494305 -0.097767 -1.141905
    39 1.219000 -0.000002 0.000000 0.000010 -0.007094 -0.826619
    40 0.679999 0.000000 0.000000 -0.000003 -0.003649 -0.935209
    41 3.698021 0.273715 0.726623 0.166728 -0.127400 -1.076953
    42 1.748999 -0.000004 0.000000 -0.000009 -0.004407 -0.870468
    43 0.959999 0.000002 -0.000001 0.000000 -0.007271 -1.448846
    44 3.768501 0.151954 -0.072741 0.103796 -0.274162 -0.673801
    45 2.038000 0.000000 0.000000 -0.000004 -0.007583 -1.320319
    46 1.067001 0.000002 0.000000 0.000011 -0.004239 -1.170285
    47 3.783909 -0.023951 -0.794452 -0.315426 0.154384 -0.106038
    48 1.629002 0.000000 0.000001 -0.000003 -0.007732 -0.850763
    49 0.956001 0.000002 0.000001 0.000000 -0.004920 -0.732089
    50 1.258938 -0.308545 -1.250052 1.175434 0.303545 -0.981076
    51 1.393002 0.000002 0.000000 0.000000 0.200216 0.487536
    52 1.099998 -0.000001 -0.000002 0.000000 0.201946 0.621916
    53 4.271701 0.000000 0.000000 0.000000 0.000000 0.000000
    54 5.604149 -0.000002 -0.000005 -0.030876 0.000000 0.000000
    55 5.604155 0.000000 0.000001 0.034930 0.000000 0.000000
    56 11.208298 -0.000004 -0.000007 -0.057543 0.000000 0.000000
    57 5.560003 -0.700001 -0.500005 0.000000 0.000000 0.000000
    58 2.132025 1.532021 5.000001 0.000000 0.000000 0.000000
    59 2.000006 4.938047 2.578001 0.000000 0.000000 0.000000
    60 11.123053 0.000000 0.000004 0.000000 0.000000 -0.100063
    61 2.000004 4.938042 -2.578001 0.000000 0.000000 0.000000
    62 2.132025 1.532021 -5.000001 0.000000 0.000000 0.000000
    63 1.500000 0.000000 0.000000 0.000000 0.000000 0.000000
    64 11.208307 -0.000002 0.000002 0.065171 0.000000 0.000000
    65 11.123056 0.000000 -0.000002 0.000000 0.000000 -0.100081
    66 4.271699 -0.000004 0.000000 0.000000 0.000000 0.000000
    67 1.500000 0.000000 -0.000003 0.000000 0.000000 0.000000
    68 5.560004 -0.700001 0.500003 0.000000 0.000000 0.000000
  time 15
    0 -2.224971 0.385903 35.034283 1.806506 0.155720 -0.132768
    1 3.984014 -0.000004 -0.000003 -1.980941 -1.173171 -0.939516
    2 15.940015 0.000000 0.000000 0.000000 0.000000 2.235108
    3 17.709566 0.000002 0.000000 -0.080693 0.127244 -1.154341
    4 6.203999 0.000000 0.000000 -0.004994 0.003972 -1.024136
    5 -3.984014 0.000004 0.000008 -1.584122 -0.109940 -1.363618
    6 15.940014 0.000000 0.000000 0.000000 0.000000 0.470897
    7 17.709562 0.000001 0.000000 -0.103664 -0.058091 -1.511848
    8 6.203999 0.000000 0.000000 -0.077514 -0.006371 -0.648585
    9 0.000005 4.212788 -1.689857 1.506014 -0.267938 1.476632
    10 3.837410 0.000000 0.000000 -0.112955 0.108401 0.116548
    11 3.617867 0.000002 0.000000 -0.114317 0.106974 0.298226
    12 7.539778 0.000004 0.000000 -0.097411 0.004290 0.336269
    13 3.178297 0.000004 0.000000 3.141590 0.000000 0.515051
    14 2.970274 0.000000 0.000000 -0.254964 -0.312840 0.265556
    15 2.023706 0.907463 0.852579 3.722663 -1.089782 0.862909
    16 4.983668 0.000000 0.000000 -3.901433 -0.939078 0.925005
    17 11.123056 0.000000 -0.000001 0.000000 0.000000 -2.252910
    18 11.208294 -0.000002 -0.000005 1.481259 0.318469 -0.053553
    19 3.549244 0.198824 -1.489468 -0.175073 0.232953 -0.626189
    20 1.219000 0.000000 0.000001 -0.000005 0.004673 -0.753602
    21 0.679999 0.000000 -0.000001 0.000003 0.002403 -0.334299
    22 3.698009 0.267555 -0.728979 0.013736 0.025125 -0.537198
    23 1.749001 0.000000 0.000000 0.000009 0.002909 -0.561614
    24 0.960000 0.000000 0.000000 0.000012 0.004802 -0.744639
    25 3.768505 0.152550 0.071384 0.091073 -0.102658 -0.336059
    26 2.037998 0.000000 0.000002 0.000004 0.004994 -0.680299
    27 1.067000 -0.000004 0.000002 -0.000011 0.002789 -0.530205
    28 3.783924 -0.017258 0.794556 0.361171 -0.307773 -0.424207
    29 1.629000 -0.000002 0.000000 0.000003 0.005096 -0.876192
    30 0.956001 0.000004 0.000000 0.000000 0.003254 -0.558126
    31 1.258965 -0.297981 1.252590 -1.418869 -0.585409 -0.411852
    32 1.393001 0.000000 0.000000 -0.392970 0.058136 -0.103163
    33 1.100001 -0.000002 0.000004 0.000000 -0.003290 1.086696
    34 2.023710 0.907463 -0.852528 -4.077690 1.247510 0.545661
    35 4.983670 0.000000 0.000000 1.408982 -0.171619 -1.662845
    36 11.123052 0.000000 0.000006 0.000000 0.000000 -1.977034
    37 11.208302 0.000000 0.000000 -1.334131 0.062340 0.586903
    38 3.549271 0.211411 1.487669 0.494305 -0.097767 -1.141905
    39 1.219000 -0.000002 0.000000 0.000010 -0.007094 -0.826619
    40 0.679999 0.000000 0.000000 -0.000003 -0.003649 -0.935209
    41 3.698021 0.273715 0.726623 0.166728 -0.127400 -1.076953
    42 1.748999 -0.000004 0.000000 -0.000009 -0.004407 -0.870468
    43 0.959999 0.000002 -0.000001 -0.000012 -0.007271 -1.448846
    44 3.768501 0.151954 -0.072741 0.103796 -0.274162 -0.673801
    45 2.038000 0.000000 0.000000 -0.000004 -0.007583 -1.320319
    46 1.067001 0.000002 0.000000 0.000011 -0.004239 -1.170285
    47 3.783909 -0.023951 -0.794452 -0.315426 0.154384 -0.106038
    48 1.629002 0.000000 0.000001 -0.000003 -0.007732 -0.850763
    49 0.956001 0.000002 0.000001 0.000000 -0.004920 -0.732089
    50 1.258938 -0.308545 -1.250052 1.175434 0.303545 -0.981076
    51 1.393002 0.000002 0.000000 0.000000 0.200216 0.487536
    52 1.099998 -0.000001 -0.000002 0.000000 0.201946 0.621916
    53 4.271701 0.000000 0.000000 0.000000 0.000000 0.000000
    54 5.604149 -0.000002 -0.000005 -0.030876 0.000000 0.000000
    55 5.604155 0.000000 0.000001 0.034930 0.000000 0.000000
    56 11.208298 -0.000004 -0.000007 -0.057543 0.000000 0.000000
    57 5.560003 -0.700001 -0.500005 0.000000 0.000000 0.000000
    58 2.132025 1.532021 5.000001 0.000000 0.000000 0.000000
    59 2.000006 4.938047 2.578001 0.000000 0.000000 0.000000
    60 11.123053 0.000000 0.000004 0.000000 0.000000 -0.100063
    61 2.000004 4.938042 -2.578001 0.000000 0.000000 0.000000
    62 2.132025 1.532021 -5.000001 0.000000 0.000000 0.000000
    63 1.500000 0.000000 0.000000 0.000000 0.000000 0.000000
    64 11.208307 -0.000002 0.000002 0.065171 0.000000 0.000000
    65 11.123056 0.000000 -0.000002 0.000000 0.000000 -0.100081
    66 4.271699 -0.000004 0.000000 0.000000 0.000000 0.000000
    67 1.500000 0.000000 -0.000003 0.000000 0.000000 0.000000
    68 5.560004 -0.700001 0.500003 0.000000 0.000000 0.000000
  time 16
    0 -2.224971 0.385903 35.034283 1.806506 0.155720 -0.132768
    1 3.984014 -0.000004 -0.000003 -1.980941 -1.173171 -0.939516
    2 15.940015 0.000000 0.000000 0.000000 0.000000 2.235108
    3 17.709566 0.000002 0.000000 -0.080693 0.127244 -1.154341
    4 6.203999 0.000000 0.000000 -0.004994 0.003972 -1.024136
    5 -3.984014 0.000004 0.000008 -1.584122 -0.109940 -1.363618
    6 15.940014 0.000000 0.000000 0.000000 0.000000 0.470897
    7 17.709562 0.000001 0.000000 -0.103664 -0.058091 -1.511848
    8 6.203999 0.000000 0.000000 -0.077514 -0.006371 -0.648585
    9 0.000005 4.212788 -1.689857 1.499325 -0.268410 1.519090
    10 3.837410 0.000000 0.000000 -0.047902 0.091598 0.123122
    11 3.617867 0.000002 0.000000 -0.049068 0.090987 0.304777
    12 7.539778 0.000004 0.000000 -0.063470 0.012033 0.336656
    13 3.178297 0.000004 0.000000 3.141590 0.000000 0.515051
    14 2.970274 0.000000 0.000000 -0.309183 -0.252687 0.273353
    15 2.023706 0.907463 0.852579 3.686253 -1.106544 0.894113
    16 4.983668 0.000000 0.000000 -4.003569 -0.948556 1.008183
    17 11.123056 0.000000 -0.000001 0.000000 0.000000 -2.252910
    18 11.208294 -0.000002 -0.000005 1.481259 0.318469 -0.053553
    19 3.549244 0.198824 -1.489468 -0.175073 0.232953 -0.626189
    20 1.219000 0.000000 0.000001 -0.000005 0.004673 -0.753602
    21 0.679999 0.000000 -0.000001 0.000003 0.002403 -0.334299
    22 3.698009 0.267555 -0.728979 0.013736 0.025125 -0.537198
    23 1.749001 0.000000 0.000000 0.000009 0.002909 -0.561614
    24 0.960000 0.000000 0.000000 0.000012 0.004802 -0.744639
    25 3.768505 0.152550 0.071384 0.091073 -0.102658 -0.336059
    26 2.037998 0.000000 0.000002 0.000004 0.004994 -0.680299
    27 1.067000 -0.000004 0.000002 -0.000011 0.002789 -0.530205
    28 3.783924 -0.017258 0.794556 0.361171 -0.307773 -0.424207
    29 1.629000 -0.000002 0.000000 0.000003 0.005096 -0.876192
    30 0.956001 0.000004 0.000000 0.000000 0.003254 -0.558126
    31 1.258965 -0.297981 1.252590 -1.418869 -0.585409 -0.411852
    32 1.393001 0.000000 0.000000 -0.392970 0.058136 -0.103163
    33 1.100001 -0.000002 0.000004 0.000000 -0.003290 1.086696
    34 2.023710 0.907463 -0.852528 -4.016021 1.261051 0.606628
    35 4.983670 0.000000 0.000000 1.455621 -0.167480 -1.662674
    36 11.123052 0.000000 0.000006 0.000000 0.000000 -2.004116
    37 11.208302 0.000000 0.000000 -1.334191 0.090870 0.653648
    38 3.549271 0.211411 1.487669 0.494305 -0.097767 -1.141905
    39 1.219000 -0.000002 0.000000 0.000010 -0.007094 -0.826619
    40 0.679999 0.000000 0.000000 -0.000003 -0.003649 -0.935209
    41 3.698021 0.273715 0.726623 0.166728 -0.127400 -1.076953
    42 1.748999 -0.000004 0.000000 -0.000009 -0.004407 -0.870468
    43 0.959999 0.000002 -0.000001 -0.000012 -0.007271 -1.448846
    44 3.768501 0.151954 -0.072741 0.103796 -0.274162 -0.673801
    45 2.038000 0.000000 0.000000 -0.000004 -0.007583 -1.320319
    46 1.067001 0.000002 0.000000 0.000011 -0.004239 -1.170285
    47 3.783909 -0.023951 -0.794452 -0.315426 0.154384 -0.106038
    48 1.629002 0.000000 0.000001 -0.000003 -0.007732 -0.850763
    49 0.956001 0.000002 0.000001 0.000000 -0.004920 -0.732089
    50 1.258938 -0.308545 -1.250052 1.175434 0.303545 -0.981076
    51 1.393002 0.000002 0.000000 0.000000 0.200216 0.487536
    52 1.099998 -0.000001 -0.000002 0.000000 0.201946 0.621916
    53 4.271701 0.000000 0.000000 0.000000 0.000000 0.000000
    54 5.604149 -0.000002 -0.000005 -0.030876 0.000000 0.000000
    55 5.604155 0.000000 0.000001 0.034930 0.000000 0.000000
    56 11.208298 -0.000004 -0.000007 -0.057543 0.000000 0.000000
    57 5.560003 -0.700001 -0.500005 0.000000 0.000000 0.000000
    58 2.132025 1.532021 5.000001 0.000000 0.000000 0.000000
    59 2.000006 4.938047 2.578001 0.000000 0.000000 0.000000
    60 11.123053 0.000000 0.000004 0.000000 0.000000 -0.100063
    61 2.000004 4.938042 -2.578001 0.000000 0.000000 0.000000
    62 2.132025 1.532021 -5.000001 0.000000 0.000000 0.000000
    63 1.500000 0.000000 0.000000 0.000000 0.000000 0.000000
    64 11.208307 -0.000002 0.000002 0.065171 0.000000 0.000000
    65 11.123056 0.000000 -0.000002 0.000000 0.000000 -0.100081
    66 4.271699 -0.000004 0.000000 0.000000 0.000000 0.000000
    67 1.500000 0.000000 -0.000003 0.000000 0.000000 0.000000
    68 5.560004 -0.700001 0.500003 0.000000 0.000000 0.000000
  time 17
    0 -2.224971 0.385903 35.034283 1.806506 0.155720 -0.132768
    1 3.984014 -0.000004 -0.000003 -1.980941 -1.173171 -0.939516
    2 15.940015 0.000000 0.000000 0.000000 0.000000 2.235108
    3 17.709566 0.000002 0.000000 -0.080693 0.127244 -1.154341
    4 6.203999 0.000000 0.000000 -0.004994 0.003972 -1.024136
    5 -3.984014 0.000004 0.000008 -1.584122 -0.109940 -1.363618
    6 15.940014 0.000000 0.000000 0.000000 0.000000 0.470897
    7 17.709562 0.000001 0.000000 -0.103664 -0.058091 -1.511848
    8 6.203999 0.000000 0.000000 -0.077514 -0.006371 -0.648585
    9 0.000005 4.212788 -1.689857 1.489849 -0.268607 1.579099
    10 3.837410 0.000000 0.000000 0.013794 0.074245 0.130420
    11 3.617867 0.000002 0.000000 0.012859 0.074412 0.312058
    12 7.539778 0.000004 0.000000 -0.031256 0.019379 0.336880
    13 3.178297 0.000004 0.000000 3.141590 0.000000 0.515051
    14 2.970274 0.000000 0.000000 -0.358200 -0.201792 0.266973
    15 2.023706 0.907463 0.852579 3.592179 -1.133624 0.978277
    16 4.983668 0.000000 0.000000 -4.076395 -0.977943 1.078840
    17 11.123056 0.000000 -0.000001 0.000000 0.000000 -2.252910
    18 11.208294 -0.000002 -0.000005 1.481259 0.318469 -0.053553
    19 3.549244 0.198824 -1.489468 -0.175073 0.232953 -0.626189
    20 1.219000 0.000000 0.000001 -0.000005 0.004673 -0.753602
    21 0.679999 0.000000 -0.000001 0.000003 0.002403 -0.334299
    22 3.698009 0.267555 -0.728979 0.013736 0.025125 -0.537198
    23 1.749001 0.000000 0.000000 0.000009 0.002909 -0.561614
    24 0.960000 0.000000 0.000000 0.000012 0.004802 -0.744639
    25 3.768505 0.152550 0.071384 0.091073 -0.102658 -0.336059
    26 2.037998 0.000000 0.000002 0.000004 0.004994 -0.680299
    27 1.067000 -0.000004 0.000002 -0.000011 0.002789 -0.530205
    28 3.783924 -0.017258 0.794556 0.361171 -0.307773 -0.424207
    29 1.629000 -0.000002 0.000000 0.000003 0.005096 -0.876192
    30 0.956001 0.000004 0.000000 0.000000 0.003254 -0.558126
    31 1.258965 -0.297981 1.252590 -1.418869 -0.585409 -0.411852
    32 1.393001 0.000000 0.000000 -0.392970 0.058136 -0.103163
    33 1.100001 -0.000002 0.000004 0.000000 -0.003290 1.086696
    34 2.023710 0.907463 -0.852528 -3.883471 1.291508 0.736440
    35 4.983670 0.000000 0.000000 1.472844 -0.187453 -1.632528
    36 11.123052 0.000000 0.000006 0.000000 0.000000 -2.042815
    37 11.208302 0.000000 0.000000 -1.331729 0.108839 0.701304
    38 3.549271 0.211411 1.487669 0.494305 -0.097767 -1.141905
    39 1.219000 -0.000002 0.000000 0.000010 -0.007094 -0.826619
    40 0.679999 0.000000 0.000000 -0.000003 -0.003649 -0.935209
    41 3.698021 0.273715 0.726623 0.166728 -0.127400 -1.076953
    42 1.748999 -0.000004 0.000000 -0.000009 -0.004407 -0.870468
    43 0.959999 0.000002 -0.000001 -0.000012 -0.007271 -1.448846
    44 3.768501 0.151954 -0.072741 0.103796 -0.274162 -0.673801
    45 2.038000 0.000000 0.000000 -0.000004 -0.007583 -1.320319
    46 1.067001 0.000002 0.000000 0.000011 -0.004239 -1.170285
    47 3.783909 -0.023951 -0.794452 -0.315426 0.154384 -0.106038
    48 1.629002 0.000000 0.000001 -0.000003 -0.007732 -0.850763
    49 0.956001 0.000002 0.000001 0.000000 -0.004920 -0.732089
    50 1.258938 -0.308545 -1.250052 1.175434 0.303545 -0.981076
    51 1.393002 0.000002 0.000000 0.000000 0.200216 0.487536
    52 1.099998 -0.000001 -0.000002 0.000000 0.201946 0.621916
    53 4.271701 0.000000 0.000000 0.000000 0.000000 0.000000
    54 5.604149 -0.000002 -0.000005 -0.030876 0.000000 0.000000
    55 5.604155 0.000000 0.000001 0.034930 0.000000 0.000000
    56 11.208298 -0.000004 -0.000007 -0.057543 0.000000 0.000000
    57 5.560003 -0.700001 -0.500005 0.000000 0.000000 0.000000
    58 2.132025 1.532021 5.000001 0.000000 0.000000 0.000000
    59 2.000006 4.938047 2.578001 0.000000 0.000000 0.000000
    60 11.123053 0.000000 0.000004 0.000000 0.000000 -0.100063
    61 2.000004 4.938042 -2.578001 0.000000 0.000000 0.000000
    62 2.132025 1.532021 -5.000001 0.000000 0.000000 0.000000
    63 1.500000 0.000000 0.000000 0.000000 0.000000 0.000000
    64 11.208307 -0.000002 0.000002 0.065171 0.000000 0.000000
    65 11.123056 0.000000 -0.000002 0.000000 0.000000 -0.100081
    66 4.271699 -0.000004 0.000000 0.000000 0.000000 0.000000
    67 1.500000 0.000000 -0.000003 0.000000 0.000000 0.000000
    68 5.560004 -0.700001 0.500003 0.000000 0.000000 0.000000
  time 18
    0 -2.224971 0.385903 35.034283 1.806506 0.155720 -0.132768
    1 3.984014 -0.000004 -0.000003 -1.980941 -1.173171 -0.939516
    2 15.940015 0.000000 0.000000 0.000000 0.000000 2.235108
    3 17.709566 0.000002 0.000000 -0.080693 0.127244 -1.154341
    4 6.203999 0.000000 0.000000 -0.004994 0.003972 -1.024136
    5 -3.984014 0.000004 0.000008 -1.584122 -0.109940 -1.363618
    6 15.940014 0.000000 0.000000 0.000000 0.000000 0.470897
    7 17.709562 0.000001 0.000000 -0.103664 -0.058091 -1.511848
    8 6.203999 0.000000 0.000000 -0.077514 -0.006371 -0.648585
    9 0.000005 4.212788 -1.689857 1.485019 -0.268502 1.609575
    10 3.837410 0.000000 0.000000 0.065723 0.058928 0.136219
    11 3.617867 0.000002 0.000000 0.064972 0.059755 0.317897
    12 7.539778 0.000004 0.000000 -0.004171 0.025551 0.336985
    13 3.178297 0.000004 0.000000 3.141590 0.000000 0.515051
    14 2.970274 0.000000 0.000000 -0.394667 -0.176327 0.241146
    15 2.023706 0.907463 0.852579 3.487812 -1.155903 1.073319
    16 4.983668 0.000000 0.000000 -4.132484 -1.015749 1.150101
    17 11.123056 0.000000 -0.000001 0.000000 0.000000 -2.252910
    18 11.208294 -0.000002 -0.000005 1.481259 0.318469 -0.053553
    19 3.549244 0.198824 -1.489468 -0.175073 0.232953 -0.626189
    20 1.219000 0.000000 0.000001 -0.000005 0.004673 -0.753602
    21 0.679999 0.000000 -0.000001 0.000003 0.002403 -0.334299
    22 3.698009 0.267555 -0.728979 0.013736 0.025125 -0.537198
    23 1.749001 0.000000 0.000000 0.000009 0.002909 -0.561614
    24 0.960000 0.000000 0.000000 0.000012 0.004802 -0.744639
    25 3.768505 0.152550 0.071384 0.091073 -0.102658 -0.336059
    26 2.037998 0.000000 0.000002 0.000004 0.004994 -0.680299
    27 1.067000 -0.000004 0.000002 -0.000011 0.002789 -0.530205
    28 3.783924 -0.017258 0.794556 0.361171 -0.307773 -0.424207
    29 1.629000 -0.000002 0.000000 0.000003 0.005096 -0.876192
    30 0.956001 0.000004 0.000000 0.000000 0.003254 -0.558126
    31 1.258965 -0.297981 1.252590 -1.418869 -0.585409 -0.411852
    32 1.393001 0.000000 0.000000 -0.392970 0.058136 -0.103163
    33 1.100001 -0.000002 0.000004 0.000000 -0.003290 1.086696
    34 2.023710 0.907463 -0.852528 -3.725915 1.316668 0.890827
    35 4.983670 0.000000 0.000000 1.474805 -0.212186 -1.616256
    36 11.123052 0.000000 0.000006 0.000000 0.000000 -2.090564
    37 11.208302 0.000000 0.000000 -1.330288 0.115183 0.719507
    38 3.549271 0.211411 1.487669 0.494305 -0.097767 -1.141905
    39 1.219000 -0.000002 0.000000 0.000010 -0.007094 -0.826619
    40 0.679999 0.000000 0.000000 -0.000003 -0.003649 -0.935209
    41 3.698021 0.273715 0.726623 0.166728 -0.127400 -1.076953
    42 1.748999 -0.000004 0.000000 -0.000009 -0.004407 -0.870468
    43 0.959999 0.000002 -0.000001 0.000000 -0.007271 -1.448846
    44 3.768501 0.151954 -0.072741 0.103796 -0.274162 -0.673801
    45 2.038000 0.000000 0.000000 -0.000004 -0.007583 -1.320319
    46 1.067001 0.000002 0.000000 0.000011 -0.004239 -1.170285
    47 3.783909 -0.023951 -0.794452 -0.315426 0.154384 -0.106038
    48 1.629002 0.000000 0.000001 -0.000003 -0.007732 -0.850763
    49 0.956001 0.000002 0.000001 0.000000 -0.004920 -0.732089
    50 1.258938 -0.308545 -1.250052 1.175434 0.303545 -0.981076
    51 1.393002 0.000002 0.000000 0.000000 0.200216 0.487536
    52 1.099998 -0.000001 -0.000002 0.000000 0.201946 0.621916
    53 4.271701 0.000000 0.000000 0.000000 0.000000 0.000000
    54 5.604149 -0.000002 -0.000005 -0.030876 0.000000 0.000000
    55 5.604155 0.000000 0.000001 0.034930 0.000000 0.000000
    56 11.208298 -0.000004 -0.000007 -0.057543 0.000000 0.000000
    57 5.560003 -0.700001 -0.500005 0.000000 0.000000 0.000000
    58 2.132025 1.532021 5.000001 0.000000 0.000000 0.000000
    59 2.000006 4.938047 2.578001 0.000000 0.000000 0.000000
    60 11.123053 0.000000 0.000004 0.000000 0.000000 -0.100063
    61 2.000004 4.938042 -2.578001 0.000000 0.000000 0.000000
    62 2.132025 1.532021 -5.000001 0.000000 0.000000 0.000000
    63 1.500000 0.000000 0.000000 0.000000 0.000000 0.000000
    64 11.208307 -0.000002 0.000002 0.065171 0.000000 0.000000
    65 11.123056 0.000000 -0.000002 0.000000 0.000000 -0.100081
    66 4.271699 -0.000004 0.000000 0.000000 0.000000 0.000000
    67 1.500000 0.000000 -0.000003 0.000000 0.000000 0.000000
    68 5.560004 -0.700001 0.500003 0.000000 0.000000 0.000000
end
