version 1
nodes
  0 "ValveBiped.Bip01_Pelvis" -1
  1 "ValveBiped.Bip01_L_Thigh" 0
  2 "ValveBiped.Bip01_L_Calf" 1
  3 "ValveBiped.Bip01_L_Foot" 2
  4 "ValveBiped.Bip01_L_Toe0" 3
  5 "ValveBiped.Bip01_R_Thigh" 0
  6 "ValveBiped.Bip01_R_Calf" 5
  7 "ValveBiped.Bip01_R_Foot" 6
  8 "ValveBiped.Bip01_R_Toe0" 7
  9 "ValveBiped.Bip01_Spine" 0
  10 "ValveBiped.Bip01_Spine1" 9
  11 "ValveBiped.Bip01_Spine2" 10
  12 "ValveBiped.Bip01_Spine4" 11
  13 "ValveBiped.Bip01_Neck1" 12
  14 "ValveBiped.Bip01_Head1" 13
  15 "ValveBiped.Bip01_L_Clavicle" 12
  16 "ValveBiped.Bip01_L_UpperArm" 15
  17 "ValveBiped.Bip01_L_Forearm" 16
  18 "ValveBiped.Bip01_L_Hand" 17
  19 "ValveBiped.Bip01_L_Finger4" 18
  20 "ValveBiped.Bip01_L_Finger41" 19
  21 "ValveBiped.Bip01_L_Finger42" 20
  22 "ValveBiped.Bip01_L_Finger3" 18
  23 "ValveBiped.Bip01_L_Finger31" 22
  24 "ValveBiped.Bip01_L_Finger32" 23
  25 "ValveBiped.Bip01_L_Finger2" 18
  26 "ValveBiped.Bip01_L_Finger21" 25
  27 "ValveBiped.Bip01_L_Finger22" 26
  28 "ValveBiped.Bip01_L_Finger1" 18
  29 "ValveBiped.Bip01_L_Finger11" 28
  30 "ValveBiped.Bip01_L_Finger12" 29
  31 "ValveBiped.Bip01_L_Finger0" 18
  32 "ValveBiped.Bip01_L_Finger01" 31
  33 "ValveBiped.Bip01_L_Finger02" 32
  34 "ValveBiped.Bip01_R_Clavicle" 12
  35 "ValveBiped.Bip01_R_UpperArm" 34
  36 "ValveBiped.Bip01_R_Forearm" 35
  37 "ValveBiped.Bip01_R_Hand" 36
  38 "ValveBiped.Bip01_R_Finger4" 37
  39 "ValveBiped.Bip01_R_Finger41" 38
  40 "ValveBiped.Bip01_R_Finger42" 39
  41 "ValveBiped.Bip01_R_Finger3" 37
  42 "ValveBiped.Bip01_R_Finger31" 41
  43 "ValveBiped.Bip01_R_Finger32" 42
  44 "ValveBiped.Bip01_R_Finger2" 37
  45 "ValveBiped.Bip01_R_Finger21" 44
  46 "ValveBiped.Bip01_R_Finger22" 45
  47 "ValveBiped.Bip01_R_Finger1" 37
  48 "ValveBiped.Bip01_R_Finger11" 47
  49 "ValveBiped.Bip01_R_Finger12" 48
  50 "ValveBiped.Bip01_R_Finger0" 37
  51 "ValveBiped.Bip01_R_Finger01" 50
  52 "ValveBiped.Bip01_R_Finger02" 51
  53 "ValveBiped.Bip01_L_Trapezius" 15
  54 "ValveBiped.Bip01_L_Ulna" 17
  55 "ValveBiped.Bip01_R_Ulna" 36
  56 "ValveBiped.Bip01_L_Wrist" 17
  57 "ValveBiped.Bip01_L_Bicep" 16
  58 "ValveBiped.Bip01_L_Latt" 11
  59 "ValveBiped.Bip01_L_Pectoral" 11
  60 "ValveBiped.Bip01_R_Elbow" 35
  61 "ValveBiped.Bip01_R_Pectoral" 11
  62 "ValveBiped.Bip01_R_Latt" 11
  63 "ValveBiped.Bip01_L_Shoulder" 16
  64 "ValveBiped.Bip01_R_Wrist" 36
  65 "ValveBiped.Bip01_L_Elbow" 16
  66 "ValveBiped.Bip01_R_Trapezius" 34
  67 "ValveBiped.Bip01_R_Shoulder" 35
  68 "ValveBiped.Bip01_R_Bicep" 35
end
skeleton
  time 0
    0 -1.410550 4.342934 32.804596 2.463999 0.353236 -0.186769
    1 3.984015 -0.000005 -0.000004 2.543157 -0.947767 0.658833
    2 15.940014 0.000002 0.000001 0.000000 0.000000 2.105294
    3 17.709566 0.000000 0.000000 0.105839 0.097388 -1.002293
    4 6.204000 0.000000 0.000000 -0.004994 0.003972 -1.024136
    5 -3.984015 0.000007 0.000006 -2.214499 -0.982700 -0.751615
    6 15.940014 0.000000 0.000001 0.000000 0.000000 0.929210
    7 17.709562 0.000002 0.000001 -0.122776 -0.043493 -1.616834
    8 6.204000 -0.000001 0.000000 -0.077514 -0.006371 -0.648585
    9 -0.871115 2.994000 -3.295375 1.755233 0.231115 1.674755
    10 3.837408 0.000000 0.000000 -0.031927 0.058581 0.101095
    11 3.617865 0.000000 0.000000 -0.032655 0.058173 0.201060
    12 7.539780 0.000000 0.000000 -0.079733 0.036169 0.301415
    13 3.178297 0.000000 -0.000001 3.141590 0.000000 0.335341
    14 2.970275 0.000000 0.000001 0.401182 -0.004602 0.981830
    15 2.023706 0.907463 0.852579 2.736554 -1.146891 1.770201
    16 4.983669 0.000000 0.000000 -2.093030 -0.713777 -0.607591
    17 11.123051 0.000001 -0.000001 0.000000 0.000000 -1.507063
    18 11.208296 -0.001759 -0.000006 1.306746 0.170791 -0.194686
    19 3.549242 0.198825 -1.489468 -0.449521 -0.213492 -1.502175
    20 1.218999 0.000000 0.000000 -0.000005 0.184250 -0.756130
    21 0.679999 -0.000001 0.000000 0.000003 0.002403 -1.130222
    22 3.698008 0.267557 -0.728979 -0.159022 -0.128597 -1.500848
    23 1.749000 0.000000 0.000004 0.000009 0.083290 -1.128379
    24 0.959999 -0.000001 0.000000 0.000000 0.004802 -1.316700
    25 3.768503 0.152550 0.071384 0.023947 -0.021726 -1.562896
    26 2.038001 0.000002 0.000002 0.000004 0.004994 -1.252366
    27 1.067001 -0.000001 0.000002 -0.000011 0.002789 -1.102295
    28 3.783922 -0.017254 0.794554 0.192440 0.061256 -1.577964
    29 1.629000 0.000002 0.000002 0.000003 0.005096 -1.248867
    30 0.956001 0.000001 0.000000 0.000000 0.003254 -1.130186
    31 1.258961 -0.297979 1.252588 -1.253674 -0.300823 -0.782383
    32 1.392998 0.000002 -0.000002 0.000000 0.300692 0.663312
    33 1.100001 0.000000 0.000004 0.000000 -0.003290 1.086696
    34 2.023710 0.907463 -0.852529 -2.575642 1.371900 2.025278
    35 4.983669 0.000002 0.000000 1.343671 0.297689 -0.990130
    36 11.123051 -0.000004 0.000005 0.000000 0.000000 -1.684936
    37 11.208298 0.000401 0.000002 -1.466888 0.245334 -0.510926
    38 3.549271 0.211411 1.487673 0.494305 -0.097767 -1.141905
    39 1.219000 0.000000 0.000002 0.000010 -0.007094 -0.936359
    40 0.680000 0.000000 0.000000 -0.000003 -0.003649 -0.567372
    41 3.698021 0.273715 0.726625 0.166728 -0.127400 -1.076953
    42 1.748999 0.000000 0.000002 -0.000009 -0.004407 -0.757418
    43 0.960001 0.000000 0.000000 -0.000012 -0.007271 -1.258531
    44 3.768501 0.151954 -0.072739 -0.077950 -0.287333 -0.840906
    45 2.038000 -0.000003 0.000000 -0.000004 0.115787 -1.062702
    46 1.066999 0.000002 -0.000002 0.000011 -0.004239 -1.185375
    47 3.783907 -0.023952 -0.794449 -0.316445 0.173356 -0.112326
    48 1.629000 0.000000 0.000000 -0.000003 -0.007732 -0.686546
    49 0.956001 -0.000002 0.000000 0.000000 -0.004920 -1.090657
    50 1.258940 -0.308544 -1.250050 1.202586 0.210776 -0.999947
    51 1.393002 -0.000002 0.000002 0.000000 0.200216 0.487536
    52 1.100000 0.000000 -0.000004 0.000000 0.201946 0.966012
    53 4.271702 0.000000 -0.000002 0.000000 0.000000 0.000000
    54 5.604150 0.000000 -0.000006 -0.030876 0.000000 0.000000
    55 5.604153 0.000002 0.000001 0.034930 0.000000 0.000000
    56 11.208296 0.000000 -0.000007 -0.057543 0.000000 0.000000
    57 5.560001 -0.700000 -0.500006 0.000000 0.000000 0.000000
    58 2.132025 1.532024 5.000000 0.000000 0.000000 0.000000
    59 2.000006 4.938047 2.578001 0.000000 0.000000 0.000000
    60 11.123053 -0.000004 0.000002 0.000000 0.000000 -0.100063
    61 2.000002 4.938044 -2.578001 0.000000 0.000000 0.000000
    62 2.132025 1.532024 -5.000000 0.000000 0.000000 0.000000
    63 1.500004 0.000000 0.000000 0.000000 0.000000 0.000000
    64 11.208303 0.000000 0.000003 0.065171 0.000000 0.000000
    65 11.123055 0.000000 -0.000003 0.000000 0.000000 -0.100081
    66 4.271700 -0.000004 0.000004 0.000000 0.000000 0.000000
    67 1.500000 0.000000 -0.000004 0.000000 0.000000 0.000000
    68 5.560005 -0.700005 0.500002 0.000000 0.000000 0.000000
  time 1
    0 -1.410550 4.342934 32.804596 2.463999 0.353236 -0.186769
    1 3.984015 -0.000005 -0.000004 2.543157 -0.947767 0.658833
    2 15.940014 0.000002 0.000001 0.000000 0.000000 2.105294
    3 17.709566 0.000000 0.000000 0.105839 0.097388 -1.002293
    4 6.204000 0.000000 0.000000 -0.004994 0.003972 -1.024136
    5 -3.984015 0.000007 0.000006 -2.214499 -0.982700 -0.751615
    6 15.940014 0.000000 0.000001 0.000000 0.000000 0.929210
    7 17.709562 0.000002 0.000001 -0.122776 -0.043493 -1.616834
    8 6.204000 -0.000001 0.000000 -0.077514 -0.006371 -0.648585
    9 -0.824239 3.064315 -3.248498 1.763656 0.213624 1.616138
    10 3.837408 0.000000 0.000000 -0.006220 0.048262 0.103402
    11 3.617865 0.000000 0.000000 -0.006829 0.048178 0.203366
    12 7.539780 0.000000 0.000000 -0.066047 0.041179 0.301579
    13 3.178297 0.000000 -0.000001 3.141590 0.000000 0.335341
    14 2.970275 0.000000 0.000001 0.352253 0.002292 0.976775
    15 2.023706 0.907463 0.852579 2.736554 -1.146891 1.770201
    16 4.983669 0.000000 0.000000 -2.084702 -0.746288 -0.606805
    17 11.123051 0.000001 -0.000001 0.000000 0.000000 -1.466839
    18 11.208296 -0.001759 -0.000006 1.296230 0.178164 -0.234069
    19 3.549242 0.198825 -1.489468 -0.449521 -0.213492 -1.502175
    20 1.218999 0.000000 0.000000 -0.000005 0.184250 -0.756130
    21 0.679999 -0.000001 0.000000 0.000003 0.002403 -1.130222
    22 3.698008 0.267557 -0.728979 -0.159022 -0.128597 -1.500848
    23 1.749000 0.000000 0.000004 0.000009 0.083290 -1.128379
    24 0.959999 -0.000001 0.000000 0.000012 0.004802 -1.316700
    25 3.768503 0.152550 0.071384 0.023947 -0.021726 -1.562943
    26 2.038001 0.000002 0.000002 0.000004 0.004994 -1.252366
    27 1.067001 -0.000001 0.000002 -0.000011 0.002789 -1.102295
    28 3.783922 -0.017254 0.794554 0.192440 0.061256 -1.578014
    29 1.629000 0.000002 0.000002 0.000003 0.005096 -1.248867
    30 0.956001 0.000001 0.000000 0.000000 0.003254 -1.130186
    31 1.258961 -0.297979 1.252588 -1.253674 -0.300823 -0.782383
    32 1.392998 0.000002 -0.000002 0.000000 0.300692 0.663312
    33 1.100001 0.000000 0.000004 0.000000 -0.003290 1.086696
    34 2.023710 0.907463 -0.852529 -2.575642 1.371900 2.025278
    35 4.983669 0.000002 0.000000 1.364816 0.293342 -1.007173
    36 11.123051 -0.000004 0.000005 0.000000 0.000000 -1.678587
    37 11.208298 0.000401 0.000002 -1.494688 0.241307 -0.517584
    38 3.549271 0.211411 1.487673 0.494305 -0.097767 -1.141905
    39 1.219000 0.000000 0.000002 0.000010 -0.007094 -0.936359
    40 0.680000 0.000000 0.000000 -0.000003 -0.003649 -0.567372
    41 3.698021 0.273715 0.726625 0.166728 -0.127400 -1.076953
    42 1.748999 0.000000 0.000002 -0.000009 -0.004407 -0.757418
    43 0.960001 0.000000 0.000000 -0.000012 -0.007271 -1.258531
    44 3.768501 0.151954 -0.072739 -0.077950 -0.287333 -0.840906
    45 2.038000 -0.000003 0.000000 -0.000004 0.115787 -1.062702
    46 1.066999 0.000002 -0.000002 0.000011 -0.004239 -1.185375
    47 3.783907 -0.023952 -0.794449 -0.316445 0.173356 -0.112326
    48 1.629000 0.000000 0.000000 -0.000003 -0.007732 -0.686546
    49 0.956001 -0.000002 0.000000 0.000000 -0.004920 -1.090657
    50 1.258940 -0.308544 -1.250050 1.202586 0.210776 -0.999947
    51 1.393002 -0.000002 0.000002 0.000000 0.200216 0.487536
    52 1.100000 0.000000 -0.000004 0.000000 0.201946 0.966012
    53 4.271702 0.000000 -0.000002 0.000000 0.000000 0.000000
    54 5.604150 0.000000 -0.000006 -0.030876 0.000000 0.000000
    55 5.604153 0.000002 0.000001 0.034930 0.000000 0.000000
    56 11.208296 0.000000 -0.000007 -0.057543 0.000000 0.000000
    57 5.560001 -0.700000 -0.500006 0.000000 0.000000 0.000000
    58 2.132025 1.532024 5.000000 0.000000 0.000000 0.000000
    59 2.000006 4.938047 2.578001 0.000000 0.000000 0.000000
    60 11.123053 -0.000004 0.000002 0.000000 0.000000 -0.100063
    61 2.000002 4.938044 -2.578001 0.000000 0.000000 0.000000
    62 2.132025 1.532024 -5.000000 0.000000 0.000000 0.000000
    63 1.500004 0.000000 0.000000 0.000000 0.000000 0.000000
    64 11.208303 0.000000 0.000003 0.065171 0.000000 0.000000
    65 11.123055 0.000000 -0.000003 0.000000 0.000000 -0.100081
    66 4.271700 -0.000004 0.000004 0.000000 0.000000 0.000000
    67 1.500000 0.000000 -0.000004 0.000000 0.000000 0.000000
    68 5.560005 -0.700005 0.500002 0.000000 0.000000 0.000000
  time 2
    0 -1.410550 4.342934 32.804596 2.463999 0.353236 -0.186769
    1 3.984015 -0.000005 -0.000004 2.543157 -0.947767 0.658833
    2 15.940014 0.000002 0.000001 0.000000 0.000000 2.105294
    3 17.709566 0.000000 0.000000 0.105839 0.097388 -1.002293
    4 6.204000 0.000000 0.000000 -0.004994 0.003972 -1.024136
    5 -3.984015 0.000007 0.000006 -2.214499 -0.982700 -0.751615
    6 15.940014 0.000000 0.000001 0.000000 0.000000 0.929210
    7 17.709562 0.000002 0.000001 -0.122776 -0.043493 -1.616834
    8 6.204000 -0.000001 0.000000 -0.077514 -0.006371 -0.648585
    9 -0.621108 3.048690 -3.307094 1.735476 0.233832 1.513422
    10 3.837408 0.000000 0.000000 0.003332 0.044451 0.099744
    11 3.617865 0.000000 0.000000 0.002769 0.044487 0.199696
    12 7.539780 0.000000 0.000000 -0.060954 0.043049 0.301639
    13 3.178297 0.000000 -0.000001 3.141590 0.000000 0.335341
    14 2.970275 0.000000 0.000001 0.315086 0.015629 0.972614
    15 2.023706 0.907463 0.852579 2.736554 -1.146891 1.770201
    16 4.983669 0.000000 0.000000 -2.077762 -0.784782 -0.591984
    17 11.123051 0.000001 -0.000001 0.000000 0.000000 -1.449141
    18 11.208296 -0.001759 -0.000006 1.295315 0.187445 -0.253277
    19 3.549242 0.198825 -1.489468 -0.449521 -0.213492 -1.502175
    20 1.218999 0.000000 0.000000 -0.000005 0.184250 -0.756130
    21 0.679999 -0.000001 0.000000 0.000003 0.002403 -1.130222
    22 3.698008 0.267557 -0.728979 -0.159022 -0.128597 -1.500848
    23 1.749000 0.000000 0.000004 0.000009 0.083290 -1.128379
    24 0.959999 -0.000001 0.000000 0.000012 0.004802 -1.316700
    25 3.768503 0.152550 0.071384 0.023947 -0.021726 -1.562896
    26 2.038001 0.000002 0.000002 0.000004 0.004994 -1.252366
    27 1.067001 -0.000001 0.000002 -0.000011 0.002789 -1.102295
    28 3.783922 -0.017254 0.794554 0.192440 0.061256 -1.577964
    29 1.629000 0.000002 0.000002 0.000003 0.005096 -1.248867
    30 0.956001 0.000001 0.000000 0.000000 0.003254 -1.130186
    31 1.258961 -0.297979 1.252588 -1.253674 -0.300823 -0.782383
    32 1.392998 0.000002 -0.000002 0.000000 0.300692 0.663312
    33 1.100001 0.000000 0.000004 0.000000 -0.003290 1.086696
    34 2.023710 0.907463 -0.852529 -2.575642 1.371900 2.025278
    35 4.983669 0.000002 0.000000 1.386643 0.288271 -1.023873
    36 11.123051 -0.000004 0.000005 0.000000 0.000000 -1.680343
    37 11.208298 0.000401 0.000002 -1.520567 0.247993 -0.538273
    38 3.549271 0.211411 1.487673 0.494305 -0.097767 -1.141905
    39 1.219000 0.000000 0.000002 0.000010 -0.007094 -0.936359
    40 0.680000 0.000000 0.000000 -0.000003 -0.003649 -0.567372
    41 3.698021 0.273715 0.726625 0.166728 -0.127400 -1.076953
    42 1.748999 0.000000 0.000002 -0.000009 -0.004407 -0.757418
    43 0.960001 0.000000 0.000000 -0.000012 -0.007271 -1.258531
    44 3.768501 0.151954 -0.072739 -0.077950 -0.287333 -0.840906
    45 2.038000 -0.000003 0.000000 -0.000004 0.115787 -1.062702
    46 1.066999 0.000002 -0.000002 0.000011 -0.004239 -1.185375
    47 3.783907 -0.023952 -0.794449 -0.316445 0.173356 -0.112326
    48 1.629000 0.000000 0.000000 -0.000003 -0.007732 -0.686546
    49 0.956001 -0.000002 0.000000 0.000000 -0.004920 -1.090657
    50 1.258940 -0.308544 -1.250050 1.202586 0.210776 -0.999947
    51 1.393002 -0.000002 0.000002 0.000000 0.200216 0.487536
    52 1.100000 0.000000 -0.000004 0.000000 0.201946 0.966012
    53 4.271702 0.000000 -0.000002 0.000000 0.000000 0.000000
    54 5.604150 0.000000 -0.000006 -0.030876 0.000000 0.000000
    55 5.604153 0.000002 0.000001 0.034930 0.000000 0.000000
    56 11.208296 0.000000 -0.000007 -0.057543 0.000000 0.000000
    57 5.560001 -0.700000 -0.500006 0.000000 0.000000 0.000000
    58 2.132025 1.532024 5.000000 0.000000 0.000000 0.000000
    59 2.000006 4.938047 2.578001 0.000000 0.000000 0.000000
    60 11.123053 -0.000004 0.000002 0.000000 0.000000 -0.100063
    61 2.000002 4.938044 -2.578001 0.000000 0.000000 0.000000
    62 2.132025 1.532024 -5.000000 0.000000 0.000000 0.000000
    63 1.500004 0.000000 0.000000 0.000000 0.000000 0.000000
    64 11.208303 0.000000 0.000003 0.065171 0.000000 0.000000
    65 11.123055 0.000000 -0.000003 0.000000 0.000000 -0.100081
    66 4.271700 -0.000004 0.000004 0.000000 0.000000 0.000000
    67 1.500000 0.000000 -0.000004 0.000000 0.000000 0.000000
    68 5.560005 -0.700005 0.500002 0.000000 0.000000 0.000000
  time 3
    0 -1.410550 4.342934 32.804596 2.463999 0.353236 -0.186769
    1 3.984015 -0.000005 -0.000004 2.543157 -0.947767 0.658833
    2 15.940014 0.000002 0.000001 0.000000 0.000000 2.105294
    3 17.709566 0.000000 0.000000 0.105839 0.097388 -1.002293
    4 6.204000 0.000000 0.000000 -0.004994 0.003972 -1.024136
    5 -3.984015 0.000007 0.000006 -2.214499 -0.982700 -0.751615
    6 15.940014 0.000000 0.000001 0.000000 0.000000 0.929210
    7 17.709562 0.000002 0.000001 -0.122776 -0.043493 -1.616834
    8 6.204000 -0.000001 0.000000 -0.077514 -0.006371 -0.648585
    9 -0.351568 2.962749 -3.420379 1.684258 0.267621 1.429997
    10 3.837408 0.000000 0.000000 -0.006292 0.046848 0.091556
    11 3.617865 0.000000 0.000000 -0.006876 0.046764 0.191513
    12 7.539780 0.000000 0.000000 -0.066083 0.041167 0.301579
    13 3.178297 0.000000 -0.000001 3.141590 0.000000 0.335341
    14 2.970275 0.000000 0.000001 0.305816 0.025556 0.971258
    15 2.023706 0.907463 0.852579 2.736554 -1.146891 1.770201
    16 4.983669 0.000000 0.000000 -2.085355 -0.801250 -0.582608
    17 11.123051 0.000001 -0.000001 0.000000 0.000000 -1.470617
    18 11.208296 -0.001759 -0.000006 1.291733 0.204230 -0.254563
    19 3.549242 0.198825 -1.489468 -0.449521 -0.213492 -1.502175
    20 1.218999 0.000000 0.000000 -0.000005 0.184250 -0.756130
    21 0.679999 -0.000001 0.000000 0.000003 0.002403 -1.130222
    22 3.698008 0.267557 -0.728979 -0.159022 -0.128597 -1.500848
    23 1.749000 0.000000 0.000004 0.000009 0.083290 -1.128379
    24 0.959999 -0.000001 0.000000 0.000000 0.004802 -1.316700
    25 3.768503 0.152550 0.071384 0.023947 -0.021726 -1.562896
    26 2.038001 0.000002 0.000002 0.000004 0.004994 -1.252366
    27 1.067001 -0.000001 0.000002 -0.000011 0.002789 -1.102295
    28 3.783922 -0.017254 0.794554 0.192440 0.061256 -1.577964
    29 1.629000 0.000002 0.000002 0.000003 0.005096 -1.248867
    30 0.956001 0.000001 0.000000 0.000000 0.003254 -1.130186
    31 1.258961 -0.297979 1.252588 -1.253674 -0.300823 -0.782383
    32 1.392998 0.000002 -0.000002 0.000000 0.300692 0.663312
    33 1.100001 0.000000 0.000004 0.000000 -0.003290 1.086696
    34 2.023710 0.907463 -0.852529 -2.575642 1.371900 2.025278
    35 4.983669 0.000002 0.000000 1.388775 0.282062 -1.034321
    36 11.123051 -0.000004 0.000005 0.000000 0.000000 -1.700064
    37 11.208298 0.000401 0.000002 -1.554432 0.263569 -0.551588
    38 3.549271 0.211411 1.487673 0.494305 -0.097767 -1.141905
    39 1.219000 0.000000 0.000002 0.000010 -0.007094 -0.936359
    40 0.680000 0.000000 0.000000 -0.000003 -0.003649 -0.567372
    41 3.698021 0.273715 0.726625 0.166728 -0.127400 -1.076953
    42 1.748999 0.000000 0.000002 -0.000009 -0.004407 -0.757418
    43 0.960001 0.000000 0.000000 -0.000012 -0.007271 -1.258531
    44 3.768501 0.151954 -0.072739 -0.077950 -0.287333 -0.840906
    45 2.038000 -0.000003 0.000000 -0.000004 0.115787 -1.062702
    46 1.066999 0.000002 -0.000002 0.000011 -0.004239 -1.185375
    47 3.783907 -0.023952 -0.794449 -0.316445 0.173356 -0.112326
    48 1.629000 0.000000 0.000000 -0.000003 -0.007732 -0.686546
    49 0.956001 -0.000002 0.000000 0.000000 -0.004920 -1.090657
    50 1.258940 -0.308544 -1.250050 1.202586 0.210776 -0.999947
    51 1.393002 -0.000002 0.000002 0.000000 0.200216 0.487536
    52 1.100000 0.000000 -0.000004 0.000000 0.201946 0.966012
    53 4.271702 0.000000 -0.000002 0.000000 0.000000 0.000000
    54 5.604150 0.000000 -0.000006 -0.030876 0.000000 0.000000
    55 5.604153 0.000002 0.000001 0.034930 0.000000 0.000000
    56 11.208296 0.000000 -0.000007 -0.057543 0.000000 0.000000
    57 5.560001 -0.700000 -0.500006 0.000000 0.000000 0.000000
    58 2.132025 1.532024 5.000000 0.000000 0.000000 0.000000
    59 2.000006 4.938047 2.578001 0.000000 0.000000 0.000000
    60 11.123053 -0.000004 0.000002 0.000000 0.000000 -0.100063
    61 2.000002 4.938044 -2.578001 0.000000 0.000000 0.000000
    62 2.132025 1.532024 -5.000000 0.000000 0.000000 0.000000
    63 1.500004 0.000000 0.000000 0.000000 0.000000 0.000000
    64 11.208303 0.000000 0.000003 0.065171 0.000000 0.000000
    65 11.123055 0.000000 -0.000003 0.000000 0.000000 -0.100081
    66 4.271700 -0.000004 0.000004 0.000000 0.000000 0.000000
    67 1.500000 0.000000 -0.000004 0.000000 0.000000 0.000000
    68 5.560005 -0.700005 0.500002 0.000000 0.000000 0.000000
  time 4
    0 -1.410550 4.342934 32.804596 2.463999 0.353236 -0.186769
    1 3.984015 -0.000005 -0.000004 2.543157 -0.947767 0.658833
    2 15.940014 0.000002 0.000001 0.000000 0.000000 2.105294
    3 17.709566 0.000000 0.000000 0.105839 0.097388 -1.002293
    4 6.204000 0.000000 0.000000 -0.004994 0.003972 -1.024136
    5 -3.984015 0.000007 0.000006 -2.214499 -0.982700 -0.751615
    6 15.940014 0.000000 0.000001 0.000000 0.000000 0.929210
    7 17.709562 0.000002 0.000001 -0.122776 -0.043493 -1.616834
    8 6.204000 -0.000001 0.000000 -0.077514 -0.006371 -0.648585
    9 -0.179688 2.853371 -3.525851 1.631119 0.299979 1.394598
    10 3.837408 0.000000 0.000000 -0.032047 0.053212 0.082775
    11 3.617865 0.000000 0.000000 -0.032717 0.052804 0.182753
    12 7.539780 0.000000 0.000000 -0.079805 0.036134 0.301415
    13 3.178297 0.000000 -0.000001 3.141590 0.000000 0.335341
    14 2.970275 0.000000 0.000001 0.309708 0.013391 0.971412
    15 2.023706 0.907463 0.852579 2.736554 -1.146891 1.770201
    16 4.983669 0.000000 0.000000 -2.101357 -0.799291 -0.550062
    17 11.123051 0.000001 -0.000001 0.000000 0.000000 -1.542249
    18 11.208296 -0.001759 -0.000006 1.309871 0.209738 -0.187935
    19 3.549242 0.198825 -1.489468 -0.449521 -0.213492 -1.502175
    20 1.218999 0.000000 0.000000 -0.000005 0.184250 -0.756130
    21 0.679999 -0.000001 0.000000 0.000003 0.002403 -1.130222
    22 3.698008 0.267557 -0.728979 -0.159022 -0.128597 -1.500848
    23 1.749000 0.000000 0.000004 0.000009 0.083290 -1.128379
    24 0.959999 -0.000001 0.000000 0.000000 0.004802 -1.316700
    25 3.768503 0.152550 0.071384 0.023947 -0.021726 -1.562896
    26 2.038001 0.000002 0.000002 0.000004 0.004994 -1.252366
    27 1.067001 -0.000001 0.000002 -0.000011 0.002789 -1.102295
    28 3.783922 -0.017254 0.794554 0.192440 0.061256 -1.577964
    29 1.629000 0.000002 0.000002 0.000003 0.005096 -1.248867
    30 0.956001 0.000001 0.000000 0.000000 0.003254 -1.130186
    31 1.258961 -0.297979 1.252588 -1.253674 -0.300823 -0.782383
    32 1.392998 0.000002 -0.000002 0.000000 0.300692 0.663312
    33 1.100001 0.000000 0.000004 0.000000 -0.003290 1.086696
    34 2.023710 0.907463 -0.852529 -2.575642 1.371900 2.025278
    35 4.983669 0.000002 0.000000 1.382977 0.273369 -1.036291
    36 11.123051 -0.000004 0.000005 0.000000 0.000000 -1.737682
    37 11.208298 0.000401 0.000002 -1.548488 0.274320 -0.562249
    38 3.549271 0.211411 1.487673 0.494305 -0.097767 -1.141905
    39 1.219000 0.000000 0.000002 0.000010 -0.007094 -0.936359
    40 0.680000 0.000000 0.000000 -0.000003 -0.003649 -0.567372
    41 3.698021 0.273715 0.726625 0.166728 -0.127400 -1.076953
    42 1.748999 0.000000 0.000002 -0.000009 -0.004407 -0.757418
    43 0.960001 0.000000 0.000000 -0.000012 -0.007271 -1.258531
    44 3.768501 0.151954 -0.072739 -0.077950 -0.287333 -0.840906
    45 2.038000 -0.000003 0.000000 -0.000004 0.115787 -1.062702
    46 1.066999 0.000002 -0.000002 0.000011 -0.004239 -1.185375
    47 3.783907 -0.023952 -0.794449 -0.316445 0.173356 -0.112326
    48 1.629000 0.000000 0.000000 -0.000003 -0.007732 -0.686546
    49 0.956001 -0.000002 0.000000 0.000000 -0.004920 -1.090657
    50 1.258940 -0.308544 -1.250050 1.202586 0.210776 -0.999947
    51 1.393002 -0.000002 0.000002 0.000000 0.200216 0.487536
    52 1.100000 0.000000 -0.000004 0.000000 0.201946 0.966012
    53 4.271702 0.000000 -0.000002 0.000000 0.000000 0.000000
    54 5.604150 0.000000 -0.000006 -0.030876 0.000000 0.000000
    55 5.604153 0.000002 0.000001 0.034930 0.000000 0.000000
    56 11.208296 0.000000 -0.000007 -0.057543 0.000000 0.000000
    57 5.560001 -0.700000 -0.500006 0.000000 0.000000 0.000000
    58 2.132025 1.532024 5.000000 0.000000 0.000000 0.000000
    59 2.000006 4.938047 2.578001 0.000000 0.000000 0.000000
    60 11.123053 -0.000004 0.000002 0.000000 0.000000 -0.100063
    61 2.000002 4.938044 -2.578001 0.000000 0.000000 0.000000
    62 2.132025 1.532024 -5.000000 0.000000 0.000000 0.000000
    63 1.500004 0.000000 0.000000 0.000000 0.000000 0.000000
    64 11.208303 0.000000 0.000003 0.065171 0.000000 0.000000
    65 11.123055 0.000000 -0.000003 0.000000 0.000000 -0.100081
    66 4.271700 -0.000004 0.000004 0.000000 0.000000 0.000000
    67 1.500000 0.000000 -0.000004 0.000000 0.000000 0.000000
    68 5.560005 -0.700005 0.500002 0.000000 0.000000 0.000000
  time 5
    0 -1.410550 4.342934 32.804596 2.463999 0.353236 -0.186769
    1 3.984015 -0.000005 -0.000004 2.543157 -0.947767 0.658833
    2 15.940014 0.000002 0.000001 0.000000 0.000000 2.105294
    3 17.709566 0.000000 0.000000 0.105839 0.097388 -1.002293
    4 6.204000 0.000000 0.000000 -0.004994 0.003972 -1.024136
    5 -3.984015 0.000007 0.000006 -2.214499 -0.982700 -0.751615
    6 15.940014 0.000000 0.000001 0.000000 0.000000 0.929210
    7 17.709562 0.000002 0.000001 -0.122776 -0.043493 -1.616834
    8 6.204000 -0.000001 0.000000 -0.077514 -0.006371 -0.648585
    9 -0.078122 2.771337 -3.592259 1.581944 0.321644 1.396189
    10 3.837408 0.000000 0.000000 -0.069295 0.062500 0.078377
    11 3.617865 0.000000 0.000000 -0.070064 0.061625 0.178354
    12 7.539780 0.000000 0.000000 -0.099640 0.028871 0.301132
    13 3.178297 0.000000 -0.000001 3.141590 0.000000 0.335341
    14 2.970275 0.000000 0.000001 0.331571 -0.029219 0.972213
    15 2.023706 0.907463 0.852579 2.736554 -1.146891 1.770201
    16 4.983669 0.000000 0.000000 -2.122013 -0.788701 -0.501244
    17 11.123051 0.000001 -0.000001 0.000000 0.000000 -1.629062
    18 11.208296 -0.001759 -0.000006 1.345992 0.207656 -0.082728
    19 3.549242 0.198825 -1.489468 -0.449521 -0.213492 -1.502175
    20 1.218999 0.000000 0.000000 -0.000005 0.184250 -0.756130
    21 0.679999 -0.000001 0.000000 0.000003 0.002403 -1.130222
    22 3.698008 0.267557 -0.728979 -0.159022 -0.128597 -1.500848
    23 1.749000 0.000000 0.000004 0.000009 0.083290 -1.128379
    24 0.959999 -0.000001 0.000000 0.000012 0.004802 -1.316700
    25 3.768503 0.152550 0.071384 0.023947 -0.021726 -1.562896
    26 2.038001 0.000002 0.000002 0.000004 0.004994 -1.252366
    27 1.067001 -0.000001 0.000002 -0.000011 0.002789 -1.102295
    28 3.783922 -0.017254 0.794554 0.192440 0.061256 -1.577964
    29 1.629000 0.000002 0.000002 0.000003 0.005096 -1.248867
    30 0.956001 0.000001 0.000000 0.000000 0.003254 -1.130186
    31 1.258961 -0.297979 1.252588 -1.253674 -0.300823 -0.782383
    32 1.392998 0.000002 -0.000002 0.000000 0.300692 0.663312
    33 1.100001 0.000000 0.000004 0.000000 -0.003290 1.086696
    34 2.023710 0.907463 -0.852529 -2.575642 1.371900 2.025278
    35 4.983669 0.000002 0.000000 1.369591 0.268247 -1.032780
    36 11.123051 -0.000004 0.000005 0.000000 0.000000 -1.771721
    37 11.208298 0.000401 0.000002 -1.511621 0.284197 -0.578176
    38 3.549271 0.211411 1.487673 0.494305 -0.097767 -1.141905
    39 1.219000 0.000000 0.000002 0.000010 -0.007094 -0.936359
    40 0.680000 0.000000 0.000000 -0.000003 -0.003649 -0.567372
    41 3.698021 0.273715 0.726625 0.166728 -0.127400 -1.076953
    42 1.748999 0.000000 0.000002 -0.000009 -0.004407 -0.757418
    43 0.960001 0.000000 0.000000 -0.000012 -0.007271 -1.258531
    44 3.768501 0.151954 -0.072739 -0.077950 -0.287333 -0.840906
    45 2.038000 -0.000003 0.000000 -0.000004 0.115787 -1.062702
    46 1.066999 0.000002 -0.000002 0.000011 -0.004239 -1.185375
    47 3.783907 -0.023952 -0.794449 -0.316445 0.173356 -0.112326
    48 1.629000 0.000000 0.000000 -0.000003 -0.007732 -0.686546
    49 0.956001 -0.000002 0.000000 0.000000 -0.004920 -1.090657
    50 1.258940 -0.308544 -1.250050 1.202586 0.210776 -0.999947
    51 1.393002 -0.000002 0.000002 0.000000 0.200216 0.487536
    52 1.100000 0.000000 -0.000004 0.000000 0.201946 0.966012
    53 4.271702 0.000000 -0.000002 0.000000 0.000000 0.000000
    54 5.604150 0.000000 -0.000006 -0.030876 0.000000 0.000000
    55 5.604153 0.000002 0.000001 0.034930 0.000000 0.000000
    56 11.208296 0.000000 -0.000007 -0.057543 0.000000 0.000000
    57 5.560001 -0.700000 -0.500006 0.000000 0.000000 0.000000
    58 2.132025 1.532024 5.000000 0.000000 0.000000 0.000000
    59 2.000006 4.938047 2.578001 0.000000 0.000000 0.000000
    60 11.123053 -0.000004 0.000002 0.000000 0.000000 -0.100063
    61 2.000002 4.938044 -2.578001 0.000000 0.000000 0.000000
    62 2.132025 1.532024 -5.000000 0.000000 0.000000 0.000000
    63 1.500004 0.000000 0.000000 0.000000 0.000000 0.000000
    64 11.208303 0.000000 0.000003 0.065171 0.000000 0.000000
    65 11.123055 0.000000 -0.000003 0.000000 0.000000 -0.100081
    66 4.271700 -0.000004 0.000004 0.000000 0.000000 0.000000
    67 1.500000 0.000000 -0.000004 0.000000 0.000000 0.000000
    68 5.560005 -0.700005 0.500002 0.000000 0.000000 0.000000
  time 6
    0 -1.410550 4.342934 32.804596 2.463999 0.353236 -0.186769
    1 3.984015 -0.000005 -0.000004 2.543157 -0.947767 0.658833
    2 15.940014 0.000002 0.000001 0.000000 0.000000 2.105294
    3 17.709566 0.000000 0.000000 0.105839 0.097388 -1.002293
    4 6.204000 0.000000 0.000000 -0.004994 0.003972 -1.024136
    5 -3.984015 0.000007 0.000006 -2.214499 -0.982700 -0.751615
    6 15.940014 0.000000 0.000001 0.000000 0.000000 0.929210
    7 17.709562 0.000002 0.000001 -0.122776 -0.043493 -1.616834
    8 6.204000 -0.000001 0.000000 -0.077514 -0.006371 -0.648585
    9 0.050788 2.743993 -3.615697 1.523665 0.326328 1.391019
    10 3.837408 0.000000 0.000000 -0.113422 0.073777 0.080617
    11 3.617865 0.000000 0.000000 -0.114348 0.072339 0.180659
    12 7.539780 0.000000 0.000000 -0.123154 0.020242 0.300744
    13 3.178297 0.000000 -0.000001 3.141590 0.000000 0.335341
    14 2.970275 0.000000 0.000001 0.370224 -0.104587 0.987716
    15 2.023706 0.907463 0.852579 2.736554 -1.146891 1.770201
    16 4.983669 0.000000 0.000000 -2.134913 -0.770062 -0.454483
    17 11.123051 0.000001 -0.000001 0.000000 0.000000 -1.688733
    18 11.208296 -0.001759 -0.000006 1.380209 0.199285 0.010825
    19 3.549242 0.198825 -1.489468 -0.449521 -0.213492 -1.502175
    20 1.218999 0.000000 0.000000 -0.000005 0.184250 -0.756130
    21 0.679999 -0.000001 0.000000 0.000003 0.002403 -1.130222
    22 3.698008 0.267557 -0.728979 -0.159022 -0.128597 -1.500848
    23 1.749000 0.000000 0.000004 0.000009 0.083290 -1.128379
    24 0.959999 -0.000001 0.000000 0.000000 0.004802 -1.316700
    25 3.768503 0.152550 0.071384 0.023947 -0.021726 -1.562896
    26 2.038001 0.000002 0.000002 0.000004 0.004994 -1.252366
    27 1.067001 -0.000001 0.000002 -0.000011 0.002789 -1.102295
    28 3.783922 -0.017254 0.794554 0.192440 0.061256 -1.577964
    29 1.629000 0.000002 0.000002 0.000003 0.005096 -1.248867
    30 0.956001 0.000001 0.000000 0.000000 0.003254 -1.130186
    31 1.258961 -0.297979 1.252588 -1.253674 -0.300823 -0.782383
    32 1.392998 0.000002 -0.000002 0.000000 0.300692 0.663312
    33 1.100001 0.000000 0.000004 0.000000 -0.003290 1.086696
    34 2.023710 0.907463 -0.852529 -2.575642 1.371900 2.025278
    35 4.983669 0.000002 0.000000 1.349895 0.270368 -1.034750
    36 11.123051 -0.000004 0.000005 0.000000 0.000000 -1.780096
    37 11.208298 0.000401 0.000002 -1.463405 0.290465 -0.597096
    38 3.549271 0.211411 1.487673 0.494305 -0.097767 -1.141905
    39 1.219000 0.000000 0.000002 0.000010 -0.007094 -0.936359
    40 0.680000 0.000000 0.000000 -0.000003 -0.003649 -0.567372
    41 3.698021 0.273715 0.726625 0.166728 -0.127400 -1.076953
    42 1.748999 0.000000 0.000002 -0.000009 -0.004407 -0.757418
    43 0.960001 0.000000 0.000000 -0.000012 -0.007271 -1.258531
    44 3.768501 0.151954 -0.072739 -0.077950 -0.287333 -0.840906
    45 2.038000 -0.000003 0.000000 -0.000004 0.115787 -1.062702
    46 1.066999 0.000002 -0.000002 0.000011 -0.004239 -1.185375
    47 3.783907 -0.023952 -0.794449 -0.316445 0.173356 -0.112326
    48 1.629000 0.000000 0.000000 -0.000003 -0.007732 -0.686546
    49 0.956001 -0.000002 0.000000 0.000000 -0.004920 -1.090657
    50 1.258940 -0.308544 -1.250050 1.202586 0.210776 -0.999947
    51 1.393002 -0.000002 0.000002 0.000000 0.200216 0.487536
    52 1.100000 0.000000 -0.000004 0.000000 0.201946 0.966012
    53 4.271702 0.000000 -0.000002 0.000000 0.000000 0.000000
    54 5.604150 0.000000 -0.000006 -0.030876 0.000000 0.000000
    55 5.604153 0.000002 0.000001 0.034930 0.000000 0.000000
    56 11.208296 0.000000 -0.000007 -0.057543 0.000000 0.000000
    57 5.560001 -0.700000 -0.500006 0.000000 0.000000 0.000000
    58 2.132025 1.532024 5.000000 0.000000 0.000000 0.000000
    59 2.000006 4.938047 2.578001 0.000000 0.000000 0.000000
    60 11.123053 -0.000004 0.000002 0.000000 0.000000 -0.100063
    61 2.000002 4.938044 -2.578001 0.000000 0.000000 0.000000
    62 2.132025 1.532024 -5.000000 0.000000 0.000000 0.000000
    63 1.500004 0.000000 0.000000 0.000000 0.000000 0.000000
    64 11.208303 0.000000 0.000003 0.065171 0.000000 0.000000
    65 11.123055 0.000000 -0.000003 0.000000 0.000000 -0.100081
    66 4.271700 -0.000004 0.000004 0.000000 0.000000 0.000000
    67 1.500000 0.000000 -0.000004 0.000000 0.000000 0.000000
    68 5.560005 -0.700005 0.500002 0.000000 0.000000 0.000000
  time 7
    0 -1.410550 4.342934 32.804596 2.463999 0.353236 -0.186769
    1 3.984015 -0.000005 -0.000004 2.543157 -0.947767 0.658833
    2 15.940014 0.000002 0.000001 0.000000 0.000000 2.105294
    3 17.709566 0.000000 0.000000 0.105839 0.097388 -1.002293
    4 6.204000 0.000000 0.000000 -0.004994 0.003972 -1.024136
    5 -3.984015 0.000007 0.000006 -2.214499 -0.982700 -0.751615
    6 15.940014 0.000000 0.000001 0.000000 0.000000 0.929210
    7 17.709562 0.000002 0.000001 -0.122776 -0.043493 -1.616834
    8 6.204000 -0.000001 0.000000 -0.077514 -0.006371 -0.648585
    9 0.355485 2.786963 -3.564914 1.435039 0.296817 1.318680
    10 3.837408 0.000000 0.000000 -0.159838 0.086145 0.087092
    11 3.617865 0.000000 0.000000 -0.160893 0.084132 0.187191
    12 7.539780 0.000000 0.000000 -0.147866 0.011158 0.300267
    13 3.178297 0.000000 -0.000001 3.141590 0.000000 0.335341
    14 2.970275 0.000000 0.000001 0.412725 -0.174269 1.002849
    15 2.023706 0.907463 0.852579 2.736554 -1.146891 1.770201
    16 4.983669 0.000000 0.000000 -2.116461 -0.734109 -0.444865
    17 11.123051 0.000001 -0.000001 0.000000 0.000000 -1.659142
    18 11.208296 -0.001759 -0.000006 1.381276 0.191305 0.014040
    19 3.549242 0.198825 -1.489468 -0.449521 -0.213492 -1.502175
    20 1.218999 0.000000 0.000000 -0.000005 0.184250 -0.756130
    21 0.679999 -0.000001 0.000000 0.000003 0.002403 -1.130222
    22 3.698008 0.267557 -0.728979 -0.159022 -0.128597 -1.500848
    23 1.749000 0.000000 0.000004 0.000009 0.083290 -1.128379
    24 0.959999 -0.000001 0.000000 0.000000 0.004802 -1.316700
    25 3.768503 0.152550 0.071384 0.023947 -0.021726 -1.562943
    26 2.038001 0.000002 0.000002 0.000004 0.004994 -1.252366
    27 1.067001 -0.000001 0.000002 -0.000011 0.002789 -1.102295
    28 3.783922 -0.017254 0.794554 0.192440 0.061256 -1.577964
    29 1.629000 0.000002 0.000002 0.000003 0.005096 -1.248867
    30 0.956001 0.000001 0.000000 0.000000 0.003254 -1.130186
    31 1.258961 -0.297979 1.252588 -1.253674 -0.300823 -0.782383
    32 1.392998 0.000002 -0.000002 0.000000 0.300692 0.663312
    33 1.100001 0.000000 0.000004 0.000000 -0.003290 1.086696
    34 2.023710 0.907463 -0.852529 -2.575642 1.371900 2.025278
    35 4.983669 0.000002 0.000000 1.319201 0.287288 -1.059243
    36 11.123051 -0.000004 0.000005 0.000000 0.000000 -1.727079
    37 11.208298 0.000401 0.000002 -1.426478 0.292440 -0.605354
    38 3.549271 0.211411 1.487673 0.494305 -0.097767 -1.141905
    39 1.219000 0.000000 0.000002 0.000010 -0.007094 -0.936359
    40 0.680000 0.000000 0.000000 -0.000003 -0.003649 -0.567372
    41 3.698021 0.273715 0.726625 0.166728 -0.127400 -1.076953
    42 1.748999 0.000000 0.000002 -0.000009 -0.004407 -0.757418
    43 0.960001 0.000000 0.000000 -0.000012 -0.007271 -1.258531
    44 3.768501 0.151954 -0.072739 -0.077950 -0.287333 -0.840906
    45 2.038000 -0.000003 0.000000 -0.000004 0.115787 -1.062702
    46 1.066999 0.000002 -0.000002 0.000011 -0.004239 -1.185375
    47 3.783907 -0.023952 -0.794449 -0.316445 0.173356 -0.112326
    48 1.629000 0.000000 0.000000 -0.000003 -0.007732 -0.686546
    49 0.956001 -0.000002 0.000000 0.000000 -0.004920 -1.090657
    50 1.258940 -0.308544 -1.250050 1.202586 0.210776 -0.999947
    51 1.393002 -0.000002 0.000002 0.000000 0.200216 0.487536
    52 1.100000 0.000000 -0.000004 0.000000 0.201946 0.966012
    53 4.271702 0.000000 -0.000002 0.000000 0.000000 0.000000
    54 5.604150 0.000000 -0.000006 -0.030876 0.000000 0.000000
    55 5.604153 0.000002 0.000001 0.034930 0.000000 0.000000
    56 11.208296 0.000000 -0.000007 -0.057543 0.000000 0.000000
    57 5.560001 -0.700000 -0.500006 0.000000 0.000000 0.000000
    58 2.132025 1.532024 5.000000 0.000000 0.000000 0.000000
    59 2.000006 4.938047 2.578001 0.000000 0.000000 0.000000
    60 11.123053 -0.000004 0.000002 0.000000 0.000000 -0.100063
    61 2.000002 4.938044 -2.578001 0.000000 0.000000 0.000000
    62 2.132025 1.532024 -5.000000 0.000000 0.000000 0.000000
    63 1.500004 0.000000 0.000000 0.000000 0.000000 0.000000
    64 11.208303 0.000000 0.000003 0.065171 0.000000 0.000000
    65 11.123055 0.000000 -0.000003 0.000000 0.000000 -0.100081
    66 4.271700 -0.000004 0.000004 0.000000 0.000000 0.000000
    67 1.500000 0.000000 -0.000004 0.000000 0.000000 0.000000
    68 5.560005 -0.700005 0.500002 0.000000 0.000000 0.000000
  time 8
    0 -1.410550 4.342934 32.804596 2.463999 0.353236 -0.186769
    1 3.984015 -0.000005 -0.000004 2.543157 -0.947767 0.658833
    2 15.940014 0.000002 0.000001 0.000000 0.000000 2.105294
    3 17.709566 0.000000 0.000000 0.105839 0.097388 -1.002293
    4 6.204000 0.000000 0.000000 -0.004994 0.003972 -1.024136
    5 -3.984015 0.000007 0.000006 -2.214499 -0.982700 -0.751615
    6 15.940014 0.000000 0.000001 0.000000 0.000000 0.929210
    7 17.709562 0.000002 0.000001 -0.122776 -0.043493 -1.616834
    8 6.204000 -0.000001 0.000000 -0.077514 -0.006371 -0.648585
    9 0.699245 2.888528 -3.428191 1.353906 0.232441 1.235851
    10 3.837408 0.000000 0.000000 -0.203918 0.098753 0.095494
    11 3.617865 0.000000 0.000000 -0.205131 0.096188 0.195662
    12 7.539780 0.000000 0.000000 -0.171332 0.002529 0.299760
    13 3.178297 0.000000 -0.000001 3.141590 0.000000 0.335341
    14 2.970275 0.000000 0.000001 0.451423 -0.208596 0.995206
    15 2.023706 0.907463 0.852579 2.736554 -1.146891 1.770201
    16 4.983669 0.000000 0.000000 -2.095805 -0.705940 -0.448615
    17 11.123051 0.000001 -0.000001 0.000000 0.000000 -1.573169
    18 11.208296 -0.001759 -0.000006 1.359024 0.190828 -0.021404
    19 3.549242 0.198825 -1.489468 -0.449521 -0.213492 -1.502175
    20 1.218999 0.000000 0.000000 -0.000005 0.184250 -0.756130
    21 0.679999 -0.000001 0.000000 0.000003 0.002403 -1.130222
    22 3.698008 0.267557 -0.728979 -0.159022 -0.128597 -1.500848
    23 1.749000 0.000000 0.000004 0.000009 0.083290 -1.128379
    24 0.959999 -0.000001 0.000000 0.000000 0.004802 -1.316700
    25 3.768503 0.152550 0.071384 0.023947 -0.021726 -1.562943
    26 2.038001 0.000002 0.000002 0.000004 0.004994 -1.252366
    27 1.067001 -0.000001 0.000002 -0.000011 0.002789 -1.102295
    28 3.783922 -0.017254 0.794554 0.192440 0.061256 -1.577964
    29 1.629000 0.000002 0.000002 0.000003 0.005096 -1.248867
    30 0.956001 0.000001 0.000000 0.000000 0.003254 -1.130186
    31 1.258961 -0.297979 1.252588 -1.253674 -0.300823 -0.782383
    32 1.392998 0.000002 -0.000002 0.000000 0.300692 0.663312
    33 1.100001 0.000000 0.000004 0.000000 -0.003290 1.086696
    34 2.023710 0.907463 -0.852529 -2.575642 1.371900 2.025278
    35 4.983669 0.000002 0.000000 1.289615 0.307675 -1.082366
    36 11.123051 -0.000004 0.000005 0.000000 0.000000 -1.668862
    37 11.208298 0.000401 0.000002 -1.387030 0.294530 -0.574890
    38 3.549271 0.211411 1.487673 0.494305 -0.097767 -1.141905
    39 1.219000 0.000000 0.000002 0.000010 -0.007094 -0.936359
    40 0.680000 0.000000 0.000000 -0.000003 -0.003649 -0.567372
    41 3.698021 0.273715 0.726625 0.166728 -0.127400 -1.076953
    42 1.748999 0.000000 0.000002 -0.000009 -0.004407 -0.757418
    43 0.960001 0.000000 0.000000 -0.000012 -0.007271 -1.258531
    44 3.768501 0.151954 -0.072739 -0.077950 -0.287333 -0.840906
    45 2.038000 -0.000003 0.000000 -0.000004 0.115787 -1.062702
    46 1.066999 0.000002 -0.000002 0.000011 -0.004239 -1.185375
    47 3.783907 -0.023952 -0.794449 -0.316445 0.173356 -0.112326
    48 1.629000 0.000000 0.000000 -0.000003 -0.007732 -0.686546
    49 0.956001 -0.000002 0.000000 0.000000 -0.004920 -1.090657
    50 1.258940 -0.308544 -1.250050 1.202586 0.210776 -0.999947
    51 1.393002 -0.000002 0.000002 0.000000 0.200216 0.487536
    52 1.100000 0.000000 -0.000004 0.000000 0.201946 0.966012
    53 4.271702 0.000000 -0.000002 0.000000 0.000000 0.000000
    54 5.604150 0.000000 -0.000006 -0.030876 0.000000 0.000000
    55 5.604153 0.000002 0.000001 0.034930 0.000000 0.000000
    56 11.208296 0.000000 -0.000007 -0.057543 0.000000 0.000000
    57 5.560001 -0.700000 -0.500006 0.000000 0.000000 0.000000
    58 2.132025 1.532024 5.000000 0.000000 0.000000 0.000000
    59 2.000006 4.938047 2.578001 0.000000 0.000000 0.000000
    60 11.123053 -0.000004 0.000002 0.000000 0.000000 -0.100063
    61 2.000002 4.938044 -2.578001 0.000000 0.000000 0.000000
    62 2.132025 1.532024 -5.000000 0.000000 0.000000 0.000000
    63 1.500004 0.000000 0.000000 0.000000 0.000000 0.000000
    64 11.208303 0.000000 0.000003 0.065171 0.000000 0.000000
    65 11.123055 0.000000 -0.000003 0.000000 0.000000 -0.100081
    66 4.271700 -0.000004 0.000004 0.000000 0.000000 0.000000
    67 1.500000 0.000000 -0.000004 0.000000 0.000000 0.000000
    68 5.560005 -0.700005 0.500002 0.000000 0.000000 0.000000
  time 9
    0 -1.410550 4.342934 32.804596 2.463999 0.353236 -0.186769
    1 3.984015 -0.000005 -0.000004 2.543157 -0.947767 0.658833
    2 15.940014 0.000002 0.000001 0.000000 0.000000 2.105294
    3 17.709566 0.000000 0.000000 0.105839 0.097388 -1.002293
    4 6.204000 0.000000 0.000000 -0.004994 0.003972 -1.024136
    5 -3.984015 0.000007 0.000006 -2.214499 -0.982700 -0.751615
    6 15.940014 0.000000 0.000001 0.000000 0.000000 0.929210
    7 17.709562 0.000002 0.000001 -0.122776 -0.043493 -1.616834
    8 6.204000 -0.000001 0.000000 -0.077514 -0.006371 -0.648585
    9 0.867219 2.997907 -3.295375 1.312039 0.173313 1.217506
    10 3.837408 0.000000 0.000000 -0.241046 0.110666 0.101903
    11 3.617865 0.000000 0.000000 -0.242385 0.107646 0.202175
    12 7.539780 0.000000 0.000000 -0.191082 -0.004746 0.299298
    13 3.178297 0.000000 -0.000001 3.141590 0.000000 0.335341
    14 2.970275 0.000000 0.000001 0.512507 -0.220598 0.966203
    15 2.023706 0.907463 0.852579 2.736554 -1.146891 1.770201
    16 4.983669 0.000000 0.000000 -2.094744 -0.693020 -0.442445
    17 11.123051 0.000001 -0.000001 0.000000 0.000000 -1.534834
    18 11.208296 -0.001759 -0.000006 1.352241 0.194428 -0.012001
    19 3.549242 0.198825 -1.489468 -0.449521 -0.213492 -1.502175
    20 1.218999 0.000000 0.000000 -0.000005 0.184250 -0.756130
    21 0.679999 -0.000001 0.000000 0.000003 0.002403 -1.130222
    22 3.698008 0.267557 -0.728979 -0.159022 -0.128597 -1.500848
    23 1.749000 0.000000 0.000004 0.000009 0.083290 -1.128379
    24 0.959999 -0.000001 0.000000 0.000000 0.004802 -1.316700
    25 3.768503 0.152550 0.071384 0.023947 -0.021726 -1.562896
    26 2.038001 0.000002 0.000002 0.000004 0.004994 -1.252366
    27 1.067001 -0.000001 0.000002 -0.000011 0.002789 -1.102295
    28 3.783922 -0.017254 0.794554 0.192440 0.061256 -1.577964
    29 1.629000 0.000002 0.000002 0.000003 0.005096 -1.248867
    30 0.956001 0.000001 0.000000 0.000000 0.003254 -1.130186
    31 1.258961 -0.297979 1.252588 -1.253674 -0.300823 -0.782383
    32 1.392998 0.000002 -0.000002 0.000000 0.300692 0.663312
    33 1.100001 0.000000 0.000004 0.000000 -0.003290 1.086696
    34 2.023710 0.907463 -0.852529 -2.575642 1.371900 2.025278
    35 4.983669 0.000002 0.000000 1.269919 0.317868 -1.082538
    36 11.123051 -0.000004 0.000005 0.000000 0.000000 -1.656840
    37 11.208298 0.000401 0.000002 -1.343978 0.299810 -0.537641
    38 3.549271 0.211411 1.487673 0.494305 -0.097767 -1.141905
    39 1.219000 0.000000 0.000002 0.000010 -0.007094 -0.936359
    40 0.680000 0.000000 0.000000 -0.000003 -0.003649 -0.567372
    41 3.698021 0.273715 0.726625 0.166728 -0.127400 -1.076953
    42 1.748999 0.000000 0.000002 -0.000009 -0.004407 -0.757418
    43 0.960001 0.000000 0.000000 -0.000012 -0.007271 -1.258531
    44 3.768501 0.151954 -0.072739 -0.077950 -0.287333 -0.840906
    45 2.038000 -0.000003 0.000000 -0.000004 0.115787 -1.062702
    46 1.066999 0.000002 -0.000002 0.000011 -0.004239 -1.185375
    47 3.783907 -0.023952 -0.794449 -0.316445 0.173356 -0.112326
    48 1.629000 0.000000 0.000000 -0.000003 -0.007732 -0.686546
    49 0.956001 -0.000002 0.000000 0.000000 -0.004920 -1.090657
    50 1.258940 -0.308544 -1.250050 1.202586 0.210776 -0.999947
    51 1.393002 -0.000002 0.000002 0.000000 0.200216 0.487536
    52 1.100000 0.000000 -0.000004 0.000000 0.201946 0.966012
    53 4.271702 0.000000 -0.000002 0.000000 0.000000 0.000000
    54 5.604150 0.000000 -0.000006 -0.030876 0.000000 0.000000
    55 5.604153 0.000002 0.000001 0.034930 0.000000 0.000000
    56 11.208296 0.000000 -0.000007 -0.057543 0.000000 0.000000
    57 5.560001 -0.700000 -0.500006 0.000000 0.000000 0.000000
    58 2.132025 1.532024 5.000000 0.000000 0.000000 0.000000
    59 2.000006 4.938047 2.578001 0.000000 0.000000 0.000000
    60 11.123053 -0.000004 0.000002 0.000000 0.000000 -0.100063
    61 2.000002 4.938044 -2.578001 0.000000 0.000000 0.000000
    62 2.132025 1.532024 -5.000000 0.000000 0.000000 0.000000
    63 1.500004 0.000000 0.000000 0.000000 0.000000 0.000000
    64 11.208303 0.000000 0.000003 0.065171 0.000000 0.000000
    65 11.123055 0.000000 -0.000003 0.000000 0.000000 -0.100081
    66 4.271700 -0.000004 0.000004 0.000000 0.000000 0.000000
    67 1.500000 0.000000 -0.000004 0.000000 0.000000 0.000000
    68 5.560005 -0.700005 0.500002 0.000000 0.000000 0.000000
  time 10
    0 -1.410550 4.342934 32.804596 2.463999 0.353236 -0.186769
    1 3.984015 -0.000005 -0.000004 2.543157 -0.947767 0.658833
    2 15.940014 0.000002 0.000001 0.000000 0.000000 2.105294
    3 17.709566 0.000000 0.000000 0.105839 0.097388 -1.002293
    4 6.204000 0.000000 0.000000 -0.004994 0.003972 -1.024136
    5 -3.984015 0.000007 0.000006 -2.214499 -0.982700 -0.751615
    6 15.940014 0.000000 0.000001 0.000000 0.000000 0.929210
    7 17.709562 0.000002 0.000001 -0.122776 -0.043493 -1.616834
    8 6.204000 -0.000001 0.000000 -0.077514 -0.006371 -0.648585
    9 0.808623 3.064315 -3.248498 1.306156 0.156845 1.280348
    10 3.837408 0.000000 0.000000 -0.266621 0.120865 0.104077
    11 3.617865 0.000000 0.000000 -0.268073 0.117521 0.204422
    12 7.539780 0.000000 0.000000 -0.204685 -0.009767 0.298940
    13 3.178297 0.000000 -0.000001 3.141590 0.000000 0.335341
    14 2.970275 0.000000 0.000001 0.588764 -0.231806 0.953968
    15 2.023706 0.907463 0.852579 2.736554 -1.146891 1.770201
    16 4.983669 0.000000 0.000000 -2.101276 -0.674753 -0.438210
    17 11.123051 0.000001 -0.000001 0.000000 0.000000 -1.570301
    18 11.208296 -0.001759 -0.000006 1.372284 0.188833 0.026498
    19 3.549242 0.198825 -1.489468 -0.449521 -0.213492 -1.502175
    20 1.218999 0.000000 0.000000 -0.000005 0.184250 -0.756130
    21 0.679999 -0.000001 0.000000 0.000003 0.002403 -1.130222
    22 3.698008 0.267557 -0.728979 -0.159022 -0.128597 -1.500848
    23 1.749000 0.000000 0.000004 0.000009 0.083290 -1.128379
    24 0.959999 -0.000001 0.000000 0.000012 0.004802 -1.316700
    25 3.768503 0.152550 0.071384 0.023947 -0.021726 -1.562896
    26 2.038001 0.000002 0.000002 0.000004 0.004994 -1.252366
    27 1.067001 -0.000001 0.000002 -0.000011 0.002789 -1.102295
    28 3.783922 -0.017254 0.794554 0.192440 0.061256 -1.577964
    29 1.629000 0.000002 0.000002 0.000003 0.005096 -1.248867
    30 0.956001 0.000001 0.000000 0.000000 0.003254 -1.130186
    31 1.258961 -0.297979 1.252588 -1.253674 -0.300823 -0.782383
    32 1.392998 0.000002 -0.000002 0.000000 0.300692 0.663312
    33 1.100001 0.000000 0.000004 0.000000 -0.003290 1.086696
    34 2.023710 0.907463 -0.852529 -2.575642 1.371900 2.025278
    35 4.983669 0.000002 0.000000 1.254657 0.327648 -1.067893
    36 11.123051 -0.000004 0.000005 0.000000 0.000000 -1.653261
    37 11.208298 0.000401 0.000002 -1.319000 0.307902 -0.550113
    38 3.549271 0.211411 1.487673 0.494305 -0.097767 -1.141905
    39 1.219000 0.000000 0.000002 0.000010 -0.007094 -0.936359
    40 0.680000 0.000000 0.000000 -0.000003 -0.003649 -0.567372
    41 3.698021 0.273715 0.726625 0.166728 -0.127400 -1.076953
    42 1.748999 0.000000 0.000002 -0.000009 -0.004407 -0.757418
    43 0.960001 0.000000 0.000000 -0.000012 -0.007271 -1.258531
    44 3.768501 0.151954 -0.072739 -0.077950 -0.287333 -0.840906
    45 2.038000 -0.000003 0.000000 -0.000004 0.115787 -1.062702
    46 1.066999 0.000002 -0.000002 0.000011 -0.004239 -1.185375
    47 3.783907 -0.023952 -0.794449 -0.316445 0.173356 -0.112326
    48 1.629000 0.000000 0.000000 -0.000003 -0.007732 -0.686546
    49 0.956001 -0.000002 0.000000 0.000000 -0.004920 -1.090657
    50 1.258940 -0.308544 -1.250050 1.202586 0.210776 -0.999947
    51 1.393002 -0.000002 0.000002 0.000000 0.200216 0.487536
    52 1.100000 0.000000 -0.000004 0.000000 0.201946 0.966012
    53 4.271702 0.000000 -0.000002 0.000000 0.000000 0.000000
    54 5.604150 0.000000 -0.000006 -0.030876 0.000000 0.000000
    55 5.604153 0.000002 0.000001 0.034930 0.000000 0.000000
    56 11.208296 0.000000 -0.000007 -0.057543 0.000000 0.000000
    57 5.560001 -0.700000 -0.500006 0.000000 0.000000 0.000000
    58 2.132025 1.532024 5.000000 0.000000 0.000000 0.000000
    59 2.000006 4.938047 2.578001 0.000000 0.000000 0.000000
    60 11.123053 -0.000004 0.000002 0.000000 0.000000 -0.100063
    61 2.000002 4.938044 -2.578001 0.000000 0.000000 0.000000
    62 2.132025 1.532024 -5.000000 0.000000 0.000000 0.000000
    63 1.500004 0.000000 0.000000 0.000000 0.000000 0.000000
    64 11.208303 0.000000 0.000003 0.065171 0.000000 0.000000
    65 11.123055 0.000000 -0.000003 0.000000 0.000000 -0.100081
    66 4.271700 -0.000004 0.000004 0.000000 0.000000 0.000000
    67 1.500000 0.000000 -0.000004 0.000000 0.000000 0.000000
    68 5.560005 -0.700005 0.500002 0.000000 0.000000 0.000000
  time 11
    0 -1.410550 4.342934 32.804596 2.463999 0.353236 -0.186769
    1 3.984015 -0.000005 -0.000004 2.543157 -0.947767 0.658833
    2 15.940014 0.000002 0.000001 0.000000 0.000000 2.105294
    3 17.709566 0.000000 0.000000 0.105839 0.097388 -1.002293
    4 6.204000 0.000000 0.000000 -0.004994 0.003972 -1.024136
    5 -3.984015 0.000007 0.000006 -2.214499 -0.982700 -0.751615
    6 15.940014 0.000000 0.000001 0.000000 0.000000 0.929210
    7 17.709562 0.000002 0.000001 -0.122776 -0.043493 -1.616834
    8 6.204000 -0.000001 0.000000 -0.077514 -0.006371 -0.648585
    9 0.609399 3.036970 -3.314907 1.323311 0.183181 1.369044
    10 3.837408 0.000000 0.000000 -0.276029 0.128127 0.100024
    11 3.617865 0.000000 0.000000 -0.277563 0.124664 0.200388
    12 7.539780 0.000000 0.000000 -0.209682 -0.011625 0.298820
    13 3.178297 0.000000 -0.000001 3.141590 0.000000 0.335341
    14 2.970275 0.000000 0.000001 0.628467 -0.248572 0.923702
    15 2.023706 0.907463 0.852579 2.736554 -1.146891 1.770201
    16 4.983669 0.000000 0.000000 -2.106909 -0.658232 -0.432826
    17 11.123051 0.000001 -0.000001 0.000000 0.000000 -1.627103
    18 11.208296 -0.001759 -0.000006 1.395222 0.175171 0.065639
    19 3.549242 0.198825 -1.489468 -0.449521 -0.213492 -1.502175
    20 1.218999 0.000000 0.000000 -0.000005 0.184250 -0.756130
    21 0.679999 -0.000001 0.000000 0.000003 0.002403 -1.130222
    22 3.698008 0.267557 -0.728979 -0.159022 -0.128597 -1.500848
    23 1.749000 0.000000 0.000004 0.000009 0.083290 -1.128379
    24 0.959999 -0.000001 0.000000 0.000012 0.004802 -1.316700
    25 3.768503 0.152550 0.071384 0.023947 -0.021726 -1.562896
    26 2.038001 0.000002 0.000002 0.000004 0.004994 -1.252366
    27 1.067001 -0.000001 0.000002 -0.000011 0.002789 -1.102295
    28 3.783922 -0.017254 0.794554 0.192440 0.061256 -1.577964
    29 1.629000 0.000002 0.000002 0.000003 0.005096 -1.248867
    30 0.956001 0.000001 0.000000 0.000000 0.003254 -1.130186
    31 1.258961 -0.297979 1.252588 -1.253674 -0.300823 -0.782383
    32 1.392998 0.000002 -0.000002 0.000000 0.300692 0.663312
    33 1.100001 0.000000 0.000004 0.000000 -0.003290 1.086696
    34 2.023710 0.907463 -0.852529 -2.575642 1.371900 2.025278
    35 4.983669 0.000002 0.000000 1.247751 0.333443 -1.052135
    36 11.123051 -0.000004 0.000005 0.000000 0.000000 -1.653531
    37 11.208298 0.000401 0.000002 -1.310113 0.311853 -0.582432
    38 3.549271 0.211411 1.487673 0.494305 -0.097767 -1.141905
    39 1.219000 0.000000 0.000002 0.000010 -0.007094 -0.936359
    40 0.680000 0.000000 0.000000 -0.000003 -0.003649 -0.567372
    41 3.698021 0.273715 0.726625 0.166728 -0.127400 -1.076953
    42 1.748999 0.000000 0.000002 -0.000009 -0.004407 -0.757418
    43 0.960001 0.000000 0.000000 -0.000012 -0.007271 -1.258531
    44 3.768501 0.151954 -0.072739 -0.077950 -0.287333 -0.840906
    45 2.038000 -0.000003 0.000000 -0.000004 0.115787 -1.062702
    46 1.066999 0.000002 -0.000002 0.000011 -0.004239 -1.185375
    47 3.783907 -0.023952 -0.794449 -0.316445 0.173356 -0.112326
    48 1.629000 0.000000 0.000000 -0.000003 -0.007732 -0.686546
    49 0.956001 -0.000002 0.000000 0.000000 -0.004920 -1.090657
    50 1.258940 -0.308544 -1.250050 1.202586 0.210776 -0.999947
    51 1.393002 -0.000002 0.000002 0.000000 0.200216 0.487536
    52 1.100000 0.000000 -0.000004 0.000000 0.201946 0.966012
    53 4.271702 0.000000 -0.000002 0.000000 0.000000 0.000000
    54 5.604150 0.000000 -0.000006 -0.030876 0.000000 0.000000
    55 5.604153 0.000002 0.000001 0.034930 0.000000 0.000000
    56 11.208296 0.000000 -0.000007 -0.057543 0.000000 0.000000
    57 5.560001 -0.700000 -0.500006 0.000000 0.000000 0.000000
    58 2.132025 1.532024 5.000000 0.000000 0.000000 0.000000
    59 2.000006 4.938047 2.578001 0.000000 0.000000 0.000000
    60 11.123053 -0.000004 0.000002 0.000000 0.000000 -0.100063
    61 2.000002 4.938044 -2.578001 0.000000 0.000000 0.000000
    62 2.132025 1.532024 -5.000000 0.000000 0.000000 0.000000
    63 1.500004 0.000000 0.000000 0.000000 0.000000 0.000000
    64 11.208303 0.000000 0.000003 0.065171 0.000000 0.000000
    65 11.123055 0.000000 -0.000003 0.000000 0.000000 -0.100081
    66 4.271700 -0.000004 0.000004 0.000000 0.000000 0.000000
    67 1.500000 0.000000 -0.000004 0.000000 0.000000 0.000000
    68 5.560005 -0.700005 0.500002 0.000000 0.000000 0.000000
  time 12
    0 -1.410550 4.342934 32.804596 2.463999 0.353236 -0.186769
    1 3.984015 -0.000005 -0.000004 2.543157 -0.947767 0.658833
    2 15.940014 0.000002 0.000001 0.000000 0.000000 2.105294
    3 17.709566 0.000000 0.000000 0.105839 0.097388 -1.002293
    4 6.204000 0.000000 0.000000 -0.004994 0.003972 -1.024136
    5 -3.984015 0.000007 0.000006 -2.214499 -0.982700 -0.751615
    6 15.940014 0.000000 0.000001 0.000000 0.000000 0.929210
    7 17.709562 0.000002 0.000001 -0.122776 -0.043493 -1.616834
    8 6.204000 -0.000001 0.000000 -0.077514 -0.006371 -0.648585
    9 0.363297 2.954937 -3.428191 1.358861 0.227323 1.434223
    10 3.837408 0.000000 0.000000 -0.266238 0.130932 0.091194
    11 3.617865 0.000000 0.000000 -0.267826 0.127600 0.191513
    12 7.539780 0.000000 0.000000 -0.204481 -0.009696 0.298955
    13 3.178297 0.000000 -0.000001 3.141590 0.000000 0.335341
    14 2.970275 0.000000 0.000001 0.627374 -0.265862 0.916582
    15 2.023706 0.907463 0.852579 2.736554 -1.146891 1.770201
    16 4.983669 0.000000 0.000000 -2.113359 -0.660986 -0.425083
    17 11.123051 0.000001 -0.000001 0.000000 0.000000 -1.674112
    18 11.208296 -0.001759 -0.000006 1.416940 0.165759 0.109763
    19 3.549242 0.198825 -1.489468 -0.449521 -0.213492 -1.502175
    20 1.218999 0.000000 0.000000 -0.000005 0.184250 -0.756130
    21 0.679999 -0.000001 0.000000 0.000003 0.002403 -1.130222
    22 3.698008 0.267557 -0.728979 -0.159022 -0.128597 -1.500848
    23 1.749000 0.000000 0.000004 0.000009 0.083290 -1.128379
    24 0.959999 -0.000001 0.000000 0.000000 0.004802 -1.316700
    25 3.768503 0.152550 0.071384 0.023947 -0.021726 -1.562896
    26 2.038001 0.000002 0.000002 0.000004 0.004994 -1.252366
    27 1.067001 -0.000001 0.000002 -0.000011 0.002789 -1.102295
    28 3.783922 -0.017254 0.794554 0.192440 0.061256 -1.577964
    29 1.629000 0.000002 0.000002 0.000003 0.005096 -1.248867
    30 0.956001 0.000001 0.000000 0.000000 0.003254 -1.130186
    31 1.258961 -0.297979 1.252588 -1.253674 -0.300823 -0.782383
    32 1.392998 0.000002 -0.000002 0.000000 0.300692 0.663312
    33 1.100001 0.000000 0.000004 0.000000 -0.003290 1.086696
    34 2.023710 0.907463 -0.852529 -2.575642 1.371900 2.025278
    35 4.983669 0.000002 0.000000 1.255936 0.327027 -1.036120
    36 11.123051 -0.000004 0.000005 0.000000 0.000000 -1.674468
    37 11.208298 0.000401 0.000002 -1.299906 0.308776 -0.598065
    38 3.549271 0.211411 1.487673 0.494305 -0.097767 -1.141905
    39 1.219000 0.000000 0.000002 0.000010 -0.007094 -0.936359
    40 0.680000 0.000000 0.000000 -0.000003 -0.003649 -0.567372
    41 3.698021 0.273715 0.726625 0.166728 -0.127400 -1.076953
    42 1.748999 0.000000 0.000002 -0.000009 -0.004407 -0.757418
    43 0.960001 0.000000 0.000000 -0.000012 -0.007271 -1.258531
    44 3.768501 0.151954 -0.072739 -0.077950 -0.287333 -0.840906
    45 2.038000 -0.000003 0.000000 -0.000004 0.115787 -1.062702
    46 1.066999 0.000002 -0.000002 0.000011 -0.004239 -1.185375
    47 3.783907 -0.023952 -0.794449 -0.316445 0.173356 -0.112326
    48 1.629000 0.000000 0.000000 -0.000003 -0.007732 -0.686546
    49 0.956001 -0.000002 0.000000 0.000000 -0.004920 -1.090657
    50 1.258940 -0.308544 -1.250050 1.202586 0.210776 -0.999947
    51 1.393002 -0.000002 0.000002 0.000000 0.200216 0.487536
    52 1.100000 0.000000 -0.000004 0.000000 0.201946 0.966012
    53 4.271702 0.000000 -0.000002 0.000000 0.000000 0.000000
    54 5.604150 0.000000 -0.000006 -0.030876 0.000000 0.000000
    55 5.604153 0.000002 0.000001 0.034930 0.000000 0.000000
    56 11.208296 0.000000 -0.000007 -0.057543 0.000000 0.000000
    57 5.560001 -0.700000 -0.500006 0.000000 0.000000 0.000000
    58 2.132025 1.532024 5.000000 0.000000 0.000000 0.000000
    59 2.000006 4.938047 2.578001 0.000000 0.000000 0.000000
    60 11.123053 -0.000004 0.000002 0.000000 0.000000 -0.100063
    61 2.000002 4.938044 -2.578001 0.000000 0.000000 0.000000
    62 2.132025 1.532024 -5.000000 0.000000 0.000000 0.000000
    63 1.500004 0.000000 0.000000 0.000000 0.000000 0.000000
    64 11.208303 0.000000 0.000003 0.065171 0.000000 0.000000
    65 11.123055 0.000000 -0.000003 0.000000 0.000000 -0.100081
    66 4.271700 -0.000004 0.000004 0.000000 0.000000 0.000000
    67 1.500000 0.000000 -0.000004 0.000000 0.000000 0.000000
    68 5.560005 -0.700005 0.500002 0.000000 0.000000 0.000000
  time 13
    0 -1.410550 4.342934 32.804596 2.463999 0.353236 -0.186769
    1 3.984015 -0.000005 -0.000004 2.543157 -0.947767 0.658833
    2 15.940014 0.000002 0.000001 0.000000 0.000000 2.105294
    3 17.709566 0.000000 0.000000 0.105839 0.097388 -1.002293
    4 6.204000 0.000000 0.000000 -0.004994 0.003972 -1.024136
    5 -3.984015 0.000007 0.000006 -2.214499 -0.982700 -0.751615
    6 15.940014 0.000000 0.000001 0.000000 0.000000 0.929210
    7 17.709562 0.000002 0.000001 -0.122776 -0.043493 -1.616834
    8 6.204000 -0.000001 0.000000 -0.077514 -0.006371 -0.648585
    9 0.183604 2.857278 -3.521944 1.402338 0.269812 1.463904
    10 3.837408 0.000000 0.000000 -0.240375 0.127768 0.082380
    11 3.617865 0.000000 0.000000 -0.241939 0.124748 0.182638
    12 7.539780 0.000000 0.000000 -0.190723 -0.004614 0.299298
    13 3.178297 0.000000 -0.000001 3.141590 0.000000 0.335341
    14 2.970275 0.000000 0.000001 0.611152 -0.255575 0.935783
    15 2.023706 0.907463 0.852579 2.736554 -1.146891 1.770201
    16 4.983669 0.000000 0.000000 -2.123483 -0.681266 -0.422966
    17 11.123051 0.000001 -0.000001 0.000000 0.000000 -1.708180
    18 11.208296 -0.001759 -0.000006 1.429210 0.165803 0.135161
    19 3.549242 0.198825 -1.489468 -0.449521 -0.213492 -1.502175
    20 1.218999 0.000000 0.000000 -0.000005 0.184250 -0.756130
    21 0.679999 -0.000001 0.000000 0.000003 0.002403 -1.130222
    22 3.698008 0.267557 -0.728979 -0.159022 -0.128597 -1.500848
    23 1.749000 0.000000 0.000004 0.000009 0.083290 -1.128379
    24 0.959999 -0.000001 0.000000 0.000012 0.004802 -1.316700
    25 3.768503 0.152550 0.071384 0.023947 -0.021726 -1.562896
    26 2.038001 0.000002 0.000002 0.000004 0.004994 -1.252366
    27 1.067001 -0.000001 0.000002 -0.000011 0.002789 -1.102295
    28 3.783922 -0.017254 0.794554 0.192440 0.061256 -1.577964
    29 1.629000 0.000002 0.000002 0.000003 0.005096 -1.248867
    30 0.956001 0.000001 0.000000 0.000000 0.003254 -1.130186
    31 1.258961 -0.297979 1.252588 -1.253674 -0.300823 -0.782383
    32 1.392998 0.000002 -0.000002 0.000000 0.300692 0.663312
    33 1.100001 0.000000 0.000004 0.000000 -0.003290 1.086696
    34 2.023710 0.907463 -0.852529 -2.575642 1.371900 2.025278
    35 4.983669 0.000002 0.000000 1.275205 0.311814 -1.019848
    36 11.123051 -0.000004 0.000005 0.000000 0.000000 -1.711545
    37 11.208298 0.000401 0.000002 -1.308612 0.305585 -0.599540
    38 3.549271 0.211411 1.487673 0.494305 -0.097767 -1.141905
    39 1.219000 0.000000 0.000002 0.000010 -0.007094 -0.936359
    40 0.680000 0.000000 0.000000 -0.000003 -0.003649 -0.567372
    41 3.698021 0.273715 0.726625 0.166728 -0.127400 -1.076953
    42 1.748999 0.000000 0.000002 -0.000009 -0.004407 -0.757418
    43 0.960001 0.000000 0.000000 -0.000012 -0.007271 -1.258531
    44 3.768501 0.151954 -0.072739 -0.077950 -0.287333 -0.840906
    45 2.038000 -0.000003 0.000000 -0.000004 0.115787 -1.062702
    46 1.066999 0.000002 -0.000002 0.000011 -0.004239 -1.185375
    47 3.783907 -0.023952 -0.794449 -0.316445 0.173356 -0.112326
    48 1.629000 0.000000 0.000000 -0.000003 -0.007732 -0.686546
    49 0.956001 -0.000002 0.000000 0.000000 -0.004920 -1.090657
    50 1.258940 -0.308544 -1.250050 1.202586 0.210776 -0.999947
    51 1.393002 -0.000002 0.000002 0.000000 0.200216 0.487536
    52 1.100000 0.000000 -0.000004 0.000000 0.201946 0.966012
    53 4.271702 0.000000 -0.000002 0.000000 0.000000 0.000000
    54 5.604150 0.000000 -0.000006 -0.030876 0.000000 0.000000
    55 5.604153 0.000002 0.000001 0.034930 0.000000 0.000000
    56 11.208296 0.000000 -0.000007 -0.057543 0.000000 0.000000
    57 5.560001 -0.700000 -0.500006 0.000000 0.000000 0.000000
    58 2.132025 1.532024 5.000000 0.000000 0.000000 0.000000
    59 2.000006 4.938047 2.578001 0.000000 0.000000 0.000000
    60 11.123053 -0.000004 0.000002 0.000000 0.000000 -0.100063
    61 2.000002 4.938044 -2.578001 0.000000 0.000000 0.000000
    62 2.132025 1.532024 -5.000000 0.000000 0.000000 0.000000
    63 1.500004 0.000000 0.000000 0.000000 0.000000 0.000000
    64 11.208303 0.000000 0.000003 0.065171 0.000000 0.000000
    65 11.123055 0.000000 -0.000003 0.000000 0.000000 -0.100081
    66 4.271700 -0.000004 0.000004 0.000000 0.000000 0.000000
    67 1.500000 0.000000 -0.000004 0.000000 0.000000 0.000000
    68 5.560005 -0.700005 0.500002 0.000000 0.000000 0.000000
  time 14
    0 -1.410550 4.342934 32.804596 2.463999 0.353236 -0.186769
    1 3.984015 -0.000005 -0.000004 2.543157 -0.947767 0.658833
    2 15.940014 0.000002 0.000001 0.000000 0.000000 2.105294
    3 17.709566 0.000000 0.000000 0.105839 0.097388 -1.002293
    4 6.204000 0.000000 0.000000 -0.004994 0.003972 -1.024136
    5 -3.984015 0.000007 0.000006 -2.214499 -0.982700 -0.751615
    6 15.940014 0.000000 0.000001 0.000000 0.000000 0.929210
    7 17.709562 0.000002 0.000001 -0.122776 -0.043493 -1.616834
    8 6.204000 -0.000001 0.000000 -0.077514 -0.006371 -0.648585
    9 0.062507 2.783056 -3.584446 1.450398 0.303719 1.470367
    10 3.837408 0.000000 0.000000 -0.203055 0.118923 0.078393
    11 3.617865 0.000000 0.000000 -0.204515 0.116370 0.178546
    12 7.539780 0.000000 0.000000 -0.170852 0.002697 0.299775
    13 3.178297 0.000000 -0.000001 3.141590 0.000000 0.335341
    14 2.970275 0.000000 0.000001 0.579713 -0.210943 0.960532
    15 2.023706 0.907463 0.852579 2.736554 -1.146891 1.770201
    16 4.983669 0.000000 0.000000 -2.133280 -0.704934 -0.433976
    17 11.123051 0.000001 -0.000001 0.000000 0.000000 -1.729865
    18 11.208296 -0.001759 -0.000006 1.423799 0.172178 0.117559
    19 3.549242 0.198825 -1.489468 -0.449521 -0.213492 -1.502175
    20 1.218999 0.000000 0.000000 -0.000005 0.184250 -0.756130
    21 0.679999 -0.000001 0.000000 0.000003 0.002403 -1.130222
    22 3.698008 0.267557 -0.728979 -0.159022 -0.128597 -1.500848
    23 1.749000 0.000000 0.000004 0.000009 0.083290 -1.128379
    24 0.959999 -0.000001 0.000000 0.000000 0.004802 -1.316700
    25 3.768503 0.152550 0.071384 0.023947 -0.021726 -1.562896
    26 2.038001 0.000002 0.000002 0.000004 0.004994 -1.252366
    27 1.067001 -0.000001 0.000002 -0.000011 0.002789 -1.102295
    28 3.783922 -0.017254 0.794554 0.192440 0.061256 -1.577964
    29 1.629000 0.000002 0.000002 0.000003 0.005096 -1.248867
    30 0.956001 0.000001 0.000000 0.000000 0.003254 -1.130186
    31 1.258961 -0.297979 1.252588 -1.253674 -0.300823 -0.782383
    32 1.392998 0.000002 -0.000002 0.000000 0.300692 0.663312
    33 1.100001 0.000000 0.000004 0.000000 -0.003290 1.086696
    34 2.023710 0.907463 -0.852529 -2.575642 1.371900 2.025278
    35 4.983669 0.000002 0.000000 1.296606 0.296343 -1.007344
    36 11.123051 -0.000004 0.000005 0.000000 0.000000 -1.745989
    37 11.208298 0.000401 0.000002 -1.352925 0.306002 -0.601520
    38 3.549271 0.211411 1.487673 0.494305 -0.097767 -1.141905
    39 1.219000 0.000000 0.000002 0.000010 -0.007094 -0.936359
    40 0.680000 0.000000 0.000000 -0.000003 -0.003649 -0.567372
    41 3.698021 0.273715 0.726625 0.166728 -0.127400 -1.076953
    42 1.748999 0.000000 0.000002 -0.000009 -0.004407 -0.757418
    43 0.960001 0.000000 0.000000 -0.000012 -0.007271 -1.258531
    44 3.768501 0.151954 -0.072739 -0.077950 -0.287333 -0.840906
    45 2.038000 -0.000003 0.000000 -0.000004 0.115787 -1.062702
    46 1.066999 0.000002 -0.000002 0.000011 -0.004239 -1.185375
    47 3.783907 -0.023952 -0.794449 -0.316445 0.173356 -0.112326
    48 1.629000 0.000000 0.000000 -0.000003 -0.007732 -0.686546
    49 0.956001 -0.000002 0.000000 0.000000 -0.004920 -1.090657
    50 1.258940 -0.308544 -1.250050 1.202586 0.210776 -0.999947
    51 1.393002 -0.000002 0.000002 0.000000 0.200216 0.487536
    52 1.100000 0.000000 -0.000004 0.000000 0.201946 0.966012
    53 4.271702 0.000000 -0.000002 0.000000 0.000000 0.000000
    54 5.604150 0.000000 -0.000006 -0.030876 0.000000 0.000000
    55 5.604153 0.000002 0.000001 0.034930 0.000000 0.000000
    56 11.208296 0.000000 -0.000007 -0.057543 0.000000 0.000000
    57 5.560001 -0.700000 -0.500006 0.000000 0.000000 0.000000
    58 2.132025 1.532024 5.000000 0.000000 0.000000 0.000000
    59 2.000006 4.938047 2.578001 0.000000 0.000000 0.000000
    60 11.123053 -0.000004 0.000002 0.000000 0.000000 -0.100063
    61 2.000002 4.938044 -2.578001 0.000000 0.000000 0.000000
    62 2.132025 1.532024 -5.000000 0.000000 0.000000 0.000000
    63 1.500004 0.000000 0.000000 0.000000 0.000000 0.000000
    64 11.208303 0.000000 0.000003 0.065171 0.000000 0.000000
    65 11.123055 0.000000 -0.000003 0.000000 0.000000 -0.100081
    66 4.271700 -0.000004 0.000004 0.000000 0.000000 0.000000
    67 1.500000 0.000000 -0.000004 0.000000 0.000000 0.000000
    68 5.560005 -0.700005 0.500002 0.000000 0.000000 0.000000
  time 15
    0 -1.410550 4.342934 32.804596 2.463999 0.353236 -0.186769
    1 3.984015 -0.000005 -0.000004 2.543157 -0.947767 0.658833
    2 15.940014 0.000002 0.000001 0.000000 0.000000 2.105294
    3 17.709566 0.000000 0.000000 0.105839 0.097388 -1.002293
    4 6.204000 0.000000 0.000000 -0.004994 0.003972 -1.024136
    5 -3.984015 0.000007 0.000006 -2.214499 -0.982700 -0.751615
    6 15.940014 0.000000 0.000001 0.000000 0.000000 0.929210
    7 17.709562 0.000002 0.000001 -0.122776 -0.043493 -1.616834
    8 6.204000 -0.000001 0.000000 -0.077514 -0.006371 -0.648585
    9 -0.074216 2.751806 -3.607884 1.510163 0.324858 1.482150
    10 3.837408 0.000000 0.000000 -0.158868 0.105608 0.081425
    11 3.617865 0.000000 0.000000 -0.160185 0.103607 0.181504
    12 7.539780 0.000000 0.000000 -0.147339 0.011349 0.300282
    13 3.178297 0.000000 -0.000001 3.141590 0.000000 0.335341
    14 2.970275 0.000000 0.000001 0.538436 -0.147721 1.004329
    15 2.023706 0.907463 0.852579 2.736554 -1.146891 1.770201
    16 4.983669 0.000000 0.000000 -2.137444 -0.725214 -0.458294
    17 11.123051 0.000001 -0.000001 0.000000 0.000000 -1.733013
    18 11.208296 -0.001759 -0.000006 1.408558 0.181677 0.071184
    19 3.549242 0.198825 -1.489468 -0.449521 -0.213492 -1.502175
    20 1.218999 0.000000 0.000000 -0.000005 0.184250 -0.756130
    21 0.679999 -0.000001 0.000000 0.000003 0.002403 -1.130222
    22 3.698008 0.267557 -0.728979 -0.159022 -0.128597 -1.500848
    23 1.749000 0.000000 0.000004 0.000009 0.083290 -1.128379
    24 0.959999 -0.000001 0.000000 0.000012 0.004802 -1.316700
    25 3.768503 0.152550 0.071384 0.023947 -0.021726 -1.562896
    26 2.038001 0.000002 0.000002 0.000004 0.004994 -1.252366
    27 1.067001 -0.000001 0.000002 -0.000011 0.002789 -1.102295
    28 3.783922 -0.017254 0.794554 0.192440 0.061256 -1.577964
    29 1.629000 0.000002 0.000002 0.000003 0.005096 -1.248867
    30 0.956001 0.000001 0.000000 0.000000 0.003254 -1.130186
    31 1.258961 -0.297979 1.252588 -1.253674 -0.300823 -0.782383
    32 1.392998 0.000002 -0.000002 0.000000 0.300692 0.663312
    33 1.100001 0.000000 0.000004 0.000000 -0.003290 1.086696
    34 2.023710 0.907463 -0.852529 -2.575642 1.371900 2.025278
    35 4.983669 0.000002 0.000000 1.315534 0.285736 -0.999551
    36 11.123051 -0.000004 0.000005 0.000000 0.000000 -1.766386
    37 11.208298 0.000401 0.000002 -1.407985 0.306078 -0.602616
    38 3.549271 0.211411 1.487673 0.494305 -0.097767 -1.141905
    39 1.219000 0.000000 0.000002 0.000010 -0.007094 -0.936359
    40 0.680000 0.000000 0.000000 -0.000003 -0.003649 -0.567372
    41 3.698021 0.273715 0.726625 0.166728 -0.127400 -1.076953
    42 1.748999 0.000000 0.000002 -0.000009 -0.004407 -0.757418
    43 0.960001 0.000000 0.000000 -0.000012 -0.007271 -1.258531
    44 3.768501 0.151954 -0.072739 -0.077950 -0.287333 -0.840906
    45 2.038000 -0.000003 0.000000 -0.000004 0.115787 -1.062702
    46 1.066999 0.000002 -0.000002 0.000011 -0.004239 -1.185375
    47 3.783907 -0.023952 -0.794449 -0.316445 0.173356 -0.112326
    48 1.629000 0.000000 0.000000 -0.000003 -0.007732 -0.686546
    49 0.956001 -0.000002 0.000000 0.000000 -0.004920 -1.090657
    50 1.258940 -0.308544 -1.250050 1.202586 0.210776 -0.999947
    51 1.393002 -0.000002 0.000002 0.000000 0.200216 0.487536
    52 1.100000 0.000000 -0.000004 0.000000 0.201946 0.966012
    53 4.271702 0.000000 -0.000002 0.000000 0.000000 0.000000
    54 5.604150 0.000000 -0.000006 -0.030876 0.000000 0.000000
    55 5.604153 0.000002 0.000001 0.034930 0.000000 0.000000
    56 11.208296 0.000000 -0.000007 -0.057543 0.000000 0.000000
    57 5.560001 -0.700000 -0.500006 0.000000 0.000000 0.000000
    58 2.132025 1.532024 5.000000 0.000000 0.000000 0.000000
    59 2.000006 4.938047 2.578001 0.000000 0.000000 0.000000
    60 11.123053 -0.000004 0.000002 0.000000 0.000000 -0.100063
    61 2.000002 4.938044 -2.578001 0.000000 0.000000 0.000000
    62 2.132025 1.532024 -5.000000 0.000000 0.000000 0.000000
    63 1.500004 0.000000 0.000000 0.000000 0.000000 0.000000
    64 11.208303 0.000000 0.000003 0.065171 0.000000 0.000000
    65 11.123055 0.000000 -0.000003 0.000000 0.000000 -0.100081
    66 4.271700 -0.000004 0.000004 0.000000 0.000000 0.000000
    67 1.500000 0.000000 -0.000004 0.000000 0.000000 0.000000
    68 5.560005 -0.700005 0.500002 0.000000 0.000000 0.000000
  time 16
    0 -1.410550 4.342934 32.804596 2.463999 0.353236 -0.186769
    1 3.984015 -0.000005 -0.000004 2.543157 -0.947767 0.658833
    2 15.940014 0.000002 0.000001 0.000000 0.000000 2.105294
    3 17.709566 0.000000 0.000000 0.105839 0.097388 -1.002293
    4 6.204000 0.000000 0.000000 -0.004994 0.003972 -1.024136
    5 -3.984015 0.000007 0.000006 -2.214499 -0.982700 -0.751615
    6 15.940014 0.000000 0.000001 0.000000 0.000000 0.929210
    7 17.709562 0.000002 0.000001 -0.122776 -0.043493 -1.616834
    8 6.204000 -0.000001 0.000000 -0.077514 -0.006371 -0.648585
    9 -0.343755 2.794776 -3.561008 1.598852 0.320502 1.545888
    10 3.837408 0.000000 0.000000 -0.112451 0.089561 0.088014
    11 3.617865 0.000000 0.000000 -0.113563 0.088135 0.188017
    12 7.539780 0.000000 0.000000 -0.122626 0.020434 0.300744
    13 3.178297 0.000000 -0.000001 3.141590 0.000000 0.335341
    14 2.970275 0.000000 0.000001 0.492612 -0.081233 1.028030
    15 2.023706 0.907463 0.852579 2.736554 -1.146891 1.770201
    16 4.983669 0.000000 0.000000 -2.115400 -0.718330 -0.520300
    17 11.123051 0.000001 -0.000001 0.000000 0.000000 -1.684116
    18 11.208296 -0.001759 -0.000006 1.385543 0.180592 -0.023092
    19 3.549242 0.198825 -1.489468 -0.449521 -0.213492 -1.502175
    20 1.218999 0.000000 0.000000 -0.000005 0.184250 -0.756130
    21 0.679999 -0.000001 0.000000 0.000003 0.002403 -1.130222
    22 3.698008 0.267557 -0.728979 -0.159022 -0.128597 -1.500848
    23 1.749000 0.000000 0.000004 0.000009 0.083290 -1.128379
    24 0.959999 -0.000001 0.000000 0.000000 0.004802 -1.316700
    25 3.768503 0.152550 0.071384 0.023947 -0.021726 -1.562896
    26 2.038001 0.000002 0.000002 0.000004 0.004994 -1.252366
    27 1.067001 -0.000001 0.000002 -0.000011 0.002789 -1.102295
    28 3.783922 -0.017254 0.794554 0.192440 0.061256 -1.577964
    29 1.629000 0.000002 0.000002 0.000003 0.005096 -1.248867
    30 0.956001 0.000001 0.000000 0.000000 0.003254 -1.130186
    31 1.258961 -0.297979 1.252588 -1.253674 -0.300823 -0.782383
    32 1.392998 0.000002 -0.000002 0.000000 0.300692 0.663312
    33 1.100001 0.000000 0.000004 0.000000 -0.003290 1.086696
    34 2.023710 0.907463 -0.852529 -2.575642 1.371900 2.025278
    35 4.983669 0.000002 0.000000 1.323208 0.290755 -0.994327
    36 11.123051 -0.000004 0.000005 0.000000 0.000000 -1.731942
    37 11.208298 0.000401 0.000002 -1.444732 0.295783 -0.601562
    38 3.549271 0.211411 1.487673 0.494305 -0.097767 -1.141905
    39 1.219000 0.000000 0.000002 0.000010 -0.007094 -0.936359
    40 0.680000 0.000000 0.000000 -0.000003 -0.003649 -0.567372
    41 3.698021 0.273715 0.726625 0.166728 -0.127400 -1.076953
    42 1.748999 0.000000 0.000002 -0.000009 -0.004407 -0.757418
    43 0.960001 0.000000 0.000000 0.000000 -0.007271 -1.258531
    44 3.768501 0.151954 -0.072739 -0.077950 -0.287333 -0.840906
    45 2.038000 -0.000003 0.000000 -0.000004 0.115787 -1.062702
    46 1.066999 0.000002 -0.000002 0.000011 -0.004239 -1.185375
    47 3.783907 -0.023952 -0.794449 -0.316445 0.173356 -0.112326
    48 1.629000 0.000000 0.000000 -0.000003 -0.007732 -0.686546
    49 0.956001 -0.000002 0.000000 0.000000 -0.004920 -1.090657
    50 1.258940 -0.308544 -1.250050 1.202586 0.210776 -0.999947
    51 1.393002 -0.000002 0.000002 0.000000 0.200216 0.487536
    52 1.100000 0.000000 -0.000004 0.000000 0.201946 0.966012
    53 4.271702 0.000000 -0.000002 0.000000 0.000000 0.000000
    54 5.604150 0.000000 -0.000006 -0.030876 0.000000 0.000000
    55 5.604153 0.000002 0.000001 0.034930 0.000000 0.000000
    56 11.208296 0.000000 -0.000007 -0.057543 0.000000 0.000000
    57 5.560001 -0.700000 -0.500006 0.000000 0.000000 0.000000
    58 2.132025 1.532024 5.000000 0.000000 0.000000 0.000000
    59 2.000006 4.938047 2.578001 0.000000 0.000000 0.000000
    60 11.123053 -0.000004 0.000002 0.000000 0.000000 -0.100063
    61 2.000002 4.938044 -2.578001 0.000000 0.000000 0.000000
    62 2.132025 1.532024 -5.000000 0.000000 0.000000 0.000000
    63 1.500004 0.000000 0.000000 0.000000 0.000000 0.000000
    64 11.208303 0.000000 0.000003 0.065171 0.000000 0.000000
    65 11.123055 0.000000 -0.000003 0.000000 0.000000 -0.100081
    66 4.271700 -0.000004 0.000004 0.000000 0.000000 0.000000
    67 1.500000 0.000000 -0.000004 0.000000 0.000000 0.000000
    68 5.560005 -0.700005 0.500002 0.000000 0.000000 0.000000
  time 17
    0 -1.410550 4.342934 32.804596 2.463999 0.353236 -0.186769
    1 3.984015 -0.000005 -0.000004 2.543157 -0.947767 0.658833
    2 15.940014 0.000002 0.000001 0.000000 0.000000 2.105294
    3 17.709566 0.000000 0.000000 0.105839 0.097388 -1.002293
    4 6.204000 0.000000 0.000000 -0.004994 0.003972 -1.024136
    5 -3.984015 0.000007 0.000006 -2.214499 -0.982700 -0.751615
    6 15.940014 0.000000 0.000001 0.000000 0.000000 0.929210
    7 17.709562 0.000002 0.000001 -0.122776 -0.043493 -1.616834
    8 6.204000 -0.000001 0.000000 -0.077514 -0.006371 -0.648585
    9 -0.675797 2.888528 -3.436004 1.695096 0.280834 1.636622
    10 3.837408 0.000000 0.000000 -0.068396 0.072974 0.095296
    11 3.617865 0.000000 0.000000 -0.069310 0.072099 0.195278
    12 7.539780 0.000000 0.000000 -0.099161 0.029039 0.301132
    13 3.178297 0.000000 -0.000001 3.141590 0.000000 0.335341
    14 2.970275 0.000000 0.000001 0.447444 -0.027487 1.000908
    15 2.023706 0.907463 0.852579 2.736554 -1.146891 1.770201
    16 4.983669 0.000000 0.000000 -2.096459 -0.705358 -0.579462
    17 11.123051 0.000001 -0.000001 0.000000 0.000000 -1.584851
    18 11.208296 -0.001759 -0.000006 1.344087 0.171615 -0.128942
    19 3.549242 0.198825 -1.489468 -0.449521 -0.213492 -1.502175
    20 1.218999 0.000000 0.000000 -0.000005 0.184250 -0.756130
    21 0.679999 -0.000001 0.000000 0.000003 0.002403 -1.130222
    22 3.698008 0.267557 -0.728979 -0.159022 -0.128597 -1.500848
    23 1.749000 0.000000 0.000004 0.000009 0.083290 -1.128379
    24 0.959999 -0.000001 0.000000 0.000000 0.004802 -1.316700
    25 3.768503 0.152550 0.071384 0.023947 -0.021726 -1.562896
    26 2.038001 0.000002 0.000002 0.000004 0.004994 -1.252366
    27 1.067001 -0.000001 0.000002 -0.000011 0.002789 -1.102295
    28 3.783922 -0.017254 0.794554 0.192440 0.061256 -1.577964
    29 1.629000 0.000002 0.000002 0.000003 0.005096 -1.248867
    30 0.956001 0.000001 0.000000 0.000000 0.003254 -1.130186
    31 1.258961 -0.297979 1.252588 -1.253674 -0.300823 -0.782383
    32 1.392998 0.000002 -0.000002 0.000000 0.300692 0.663312
    33 1.100001 0.000000 0.000004 0.000000 -0.003290 1.086696
    34 2.023710 0.907463 -0.852529 -2.575642 1.371900 2.025278
    35 4.983669 0.000002 0.000000 1.329773 0.300069 -0.989445
    36 11.123051 -0.000004 0.000005 0.000000 0.000000 -1.689326
    37 11.208298 0.000401 0.000002 -1.454699 0.269381 -0.561027
    38 3.549271 0.211411 1.487673 0.494305 -0.097767 -1.141905
    39 1.219000 0.000000 0.000002 0.000010 -0.007094 -0.936359
    40 0.680000 0.000000 0.000000 -0.000003 -0.003649 -0.567372
    41 3.698021 0.273715 0.726625 0.166728 -0.127400 -1.076953
    42 1.748999 0.000000 0.000002 -0.000009 -0.004407 -0.757418
    43 0.960001 0.000000 0.000000 -0.000012 -0.007271 -1.258531
    44 3.768501 0.151954 -0.072739 -0.077950 -0.287333 -0.840906
    45 2.038000 -0.000003 0.000000 -0.000004 0.115787 -1.062702
    46 1.066999 0.000002 -0.000002 0.000011 -0.004239 -1.185375
    47 3.783907 -0.023952 -0.794449 -0.316445 0.173356 -0.112326
    48 1.629000 0.000000 0.000000 -0.000003 -0.007732 -0.686546
    49 0.956001 -0.000002 0.000000 0.000000 -0.004920 -1.090657
    50 1.258940 -0.308544 -1.250050 1.202586 0.210776 -0.999947
    51 1.393002 -0.000002 0.000002 0.000000 0.200216 0.487536
    52 1.100000 0.000000 -0.000004 0.000000 0.201946 0.966012
    53 4.271702 0.000000 -0.000002 0.000000 0.000000 0.000000
    54 5.604150 0.000000 -0.000006 -0.030876 0.000000 0.000000
    55 5.604153 0.000002 0.000001 0.034930 0.000000 0.000000
    56 11.208296 0.000000 -0.000007 -0.057543 0.000000 0.000000
    57 5.560001 -0.700000 -0.500006 0.000000 0.000000 0.000000
    58 2.132025 1.532024 5.000000 0.000000 0.000000 0.000000
    59 2.000006 4.938047 2.578001 0.000000 0.000000 0.000000
    60 11.123053 -0.000004 0.000002 0.000000 0.000000 -0.100063
    61 2.000002 4.938044 -2.578001 0.000000 0.000000 0.000000
    62 2.132025 1.532024 -5.000000 0.000000 0.000000 0.000000
    63 1.500004 0.000000 0.000000 0.000000 0.000000 0.000000
    64 11.208303 0.000000 0.000003 0.065171 0.000000 0.000000
    65 11.123055 0.000000 -0.000003 0.000000 0.000000 -0.100081
    66 4.271700 -0.000004 0.000004 0.000000 0.000000 0.000000
    67 1.500000 0.000000 -0.000004 0.000000 0.000000 0.000000
    68 5.560005 -0.700005 0.500002 0.000000 0.000000 0.000000
  time 18
    0 -1.410550 4.342934 32.804596 2.463999 0.353236 -0.186769
    1 3.984015 -0.000005 -0.000004 2.543157 -0.947767 0.658833
    2 15.940014 0.000002 0.000001 0.000000 0.000000 2.105294
    3 17.709566 0.000000 0.000000 0.105839 0.097388 -1.002293
    4 6.204000 0.000000 0.000000 -0.004994 0.003972 -1.024136
    5 -3.984015 0.000007 0.000006 -2.214499 -0.982700 -0.751615
    6 15.940014 0.000000 0.000001 0.000000 0.000000 0.929210
    7 17.709562 0.000002 0.000001 -0.122776 -0.043493 -1.616834
    8 6.204000 -0.000001 0.000000 -0.077514 -0.006371 -0.648585
    9 -0.871115 2.994000 -3.299281 1.754614 0.231640 1.674954
    10 3.837408 0.000000 0.000000 -0.031927 0.058581 0.101013
    11 3.617865 0.000000 0.000000 -0.032655 0.058173 0.200984
    12 7.539780 0.000000 0.000000 -0.079733 0.036169 0.301415
    13 3.178297 0.000000 -0.000001 3.141590 0.000000 0.335341
    14 2.970275 0.000000 0.000001 0.401182 -0.004602 0.981830
    15 2.023706 0.907463 0.852579 2.736554 -1.146891 1.770201
    16 4.983669 0.000000 0.000000 -2.092785 -0.714253 -0.606926
    17 11.123051 0.000001 -0.000001 0.000000 0.000000 -1.507063
    18 11.208296 -0.001759 -0.000006 1.306746 0.170791 -0.194365
    19 3.549242 0.198825 -1.489468 -0.449521 -0.213492 -1.502175
    20 1.218999 0.000000 0.000000 -0.000005 0.184250 -0.756130
    21 0.679999 -0.000001 0.000000 0.000003 0.002403 -1.130222
    22 3.698008 0.267557 -0.728979 -0.159022 -0.128597 -1.500848
    23 1.749000 0.000000 0.000004 0.000009 0.083290 -1.128379
    24 0.959999 -0.000001 0.000000 0.000000 0.004802 -1.316700
    25 3.768503 0.152550 0.071384 0.023947 -0.021726 -1.562896
    26 2.038001 0.000002 0.000002 0.000004 0.004994 -1.252366
    27 1.067001 -0.000001 0.000002 -0.000011 0.002789 -1.102295
    28 3.783922 -0.017254 0.794554 0.192440 0.061256 -1.577964
    29 1.629000 0.000002 0.000002 0.000003 0.005096 -1.248867
    30 0.956001 0.000001 0.000000 0.000000 0.003254 -1.130186
    31 1.258961 -0.297979 1.252588 -1.253674 -0.300823 -0.782383
    32 1.392998 0.000002 -0.000002 0.000000 0.300692 0.663312
    33 1.100001 0.000000 0.000004 0.000000 -0.003290 1.086696
    34 2.023710 0.907463 -0.852529 -2.575642 1.371900 2.025278
    35 4.983669 0.000002 0.000000 1.343927 0.297533 -0.990644
    36 11.123051 -0.000004 0.000005 0.000000 0.000000 -1.684936
    37 11.208298 0.000401 0.000002 -1.467008 0.245372 -0.511305
    38 3.549271 0.211411 1.487673 0.494305 -0.097767 -1.141905
    39 1.219000 0.000000 0.000002 0.000010 -0.007094 -0.936359
    40 0.680000 0.000000 0.000000 -0.000003 -0.003649 -0.567372
    41 3.698021 0.273715 0.726625 0.166728 -0.127400 -1.076953
    42 1.748999 0.000000 0.000002 -0.000009 -0.004407 -0.757418
    43 0.960001 0.000000 0.000000 -0.000012 -0.007271 -1.258531
    44 3.768501 0.151954 -0.072739 -0.077950 -0.287333 -0.840906
    45 2.038000 -0.000003 0.000000 -0.000004 0.115787 -1.062702
    46 1.066999 0.000002 -0.000002 0.000011 -0.004239 -1.185375
    47 3.783907 -0.023952 -0.794449 -0.316445 0.173356 -0.112326
    48 1.629000 0.000000 0.000000 -0.000003 -0.007732 -0.686546
    49 0.956001 -0.000002 0.000000 0.000000 -0.004920 -1.090657
    50 1.258940 -0.308544 -1.250050 1.202586 0.210776 -0.999947
    51 1.393002 -0.000002 0.000002 0.000000 0.200216 0.487536
    52 1.100000 0.000000 -0.000004 0.000000 0.201946 0.966012
    53 4.271702 0.000000 -0.000002 0.000000 0.000000 0.000000
    54 5.604150 0.000000 -0.000006 -0.030876 0.000000 0.000000
    55 5.604153 0.000002 0.000001 0.034930 0.000000 0.000000
    56 11.208296 0.000000 -0.000007 -0.057543 0.000000 0.000000
    57 5.560001 -0.700000 -0.500006 0.000000 0.000000 0.000000
    58 2.132025 1.532024 5.000000 0.000000 0.000000 0.000000
    59 2.000006 4.938047 2.578001 0.000000 0.000000 0.000000
    60 11.123053 -0.000004 0.000002 0.000000 0.000000 -0.100063
    61 2.000002 4.938044 -2.578001 0.000000 0.000000 0.000000
    62 2.132025 1.532024 -5.000000 0.000000 0.000000 0.000000
    63 1.500004 0.000000 0.000000 0.000000 0.000000 0.000000
    64 11.208303 0.000000 0.000003 0.065171 0.000000 0.000000
    65 11.123055 0.000000 -0.000003 0.000000 0.000000 -0.100081
    66 4.271700 -0.000004 0.000004 0.000000 0.000000 0.000000
    67 1.500000 0.000000 -0.000004 0.000000 0.000000 0.000000
    68 5.560005 -0.700005 0.500002 0.000000 0.000000 0.000000
end
