version 1
nodes
  0 "ValveBiped.Bip01_Pelvis" -1
  1 "ValveBiped.Bip01_L_Thigh" 0
  2 "ValveBiped.Bip01_L_Calf" 1
  3 "ValveBiped.Bip01_L_Foot" 2
  4 "ValveBiped.Bip01_L_Toe0" 3
  5 "ValveBiped.Bip01_R_Thigh" 0
  6 "ValveBiped.Bip01_R_Calf" 5
  7 "ValveBiped.Bip01_R_Foot" 6
  8 "ValveBiped.Bip01_R_Toe0" 7
  9 "ValveBiped.Bip01_Spine" 0
  10 "ValveBiped.Bip01_Spine1" 9
  11 "ValveBiped.Bip01_Spine2" 10
  12 "ValveBiped.Bip01_Spine4" 11
  13 "ValveBiped.Bip01_Neck1" 12
  14 "ValveBiped.Bip01_Head1" 13
  15 "ValveBiped.Bip01_L_Clavicle" 12
  16 "ValveBiped.Bip01_L_UpperArm" 15
  17 "ValveBiped.Bip01_L_Forearm" 16
  18 "ValveBiped.Bip01_L_Hand" 17
  19 "ValveBiped.Bip01_L_Finger4" 18
  20 "ValveBiped.Bip01_L_Finger41" 19
  21 "ValveBiped.Bip01_L_Finger42" 20
  22 "ValveBiped.Bip01_L_Finger3" 18
  23 "ValveBiped.Bip01_L_Finger31" 22
  24 "ValveBiped.Bip01_L_Finger32" 23
  25 "ValveBiped.Bip01_L_Finger2" 18
  26 "ValveBiped.Bip01_L_Finger21" 25
  27 "ValveBiped.Bip01_L_Finger22" 26
  28 "ValveBiped.Bip01_L_Finger1" 18
  29 "ValveBiped.Bip01_L_Finger11" 28
  30 "ValveBiped.Bip01_L_Finger12" 29
  31 "ValveBiped.Bip01_L_Finger0" 18
  32 "ValveBiped.Bip01_L_Finger01" 31
  33 "ValveBiped.Bip01_L_Finger02" 32
  34 "ValveBiped.Bip01_R_Clavicle" 12
  35 "ValveBiped.Bip01_R_UpperArm" 34
  36 "ValveBiped.Bip01_R_Forearm" 35
  37 "ValveBiped.Bip01_R_Hand" 36
  38 "ValveBiped.Bip01_R_Finger4" 37
  39 "ValveBiped.Bip01_R_Finger41" 38
  40 "ValveBiped.Bip01_R_Finger42" 39
  41 "ValveBiped.Bip01_R_Finger3" 37
  42 "ValveBiped.Bip01_R_Finger31" 41
  43 "ValveBiped.Bip01_R_Finger32" 42
  44 "ValveBiped.Bip01_R_Finger2" 37
  45 "ValveBiped.Bip01_R_Finger21" 44
  46 "ValveBiped.Bip01_R_Finger22" 45
  47 "ValveBiped.Bip01_R_Finger1" 37
  48 "ValveBiped.Bip01_R_Finger11" 47
  49 "ValveBiped.Bip01_R_Finger12" 48
  50 "ValveBiped.Bip01_R_Finger0" 37
  51 "ValveBiped.Bip01_R_Finger01" 50
  52 "ValveBiped.Bip01_R_Finger02" 51
  53 "ValveBiped.Bip01_L_Trapezius" 15
  54 "ValveBiped.Bip01_L_Ulna" 17
  55 "ValveBiped.Bip01_R_Ulna" 36
  56 "ValveBiped.Bip01_L_Wrist" 17
  57 "ValveBiped.Bip01_L_Bicep" 16
  58 "ValveBiped.Bip01_L_Latt" 11
  59 "ValveBiped.Bip01_L_Pectoral" 11
  60 "ValveBiped.Bip01_R_Elbow" 35
  61 "ValveBiped.Bip01_R_Pectoral" 11
  62 "ValveBiped.Bip01_R_Latt" 11
  63 "ValveBiped.Bip01_L_Shoulder" 16
  64 "ValveBiped.Bip01_R_Wrist" 36
  65 "ValveBiped.Bip01_L_Elbow" 16
  66 "ValveBiped.Bip01_R_Trapezius" 34
  67 "ValveBiped.Bip01_R_Shoulder" 35
  68 "ValveBiped.Bip01_R_Bicep" 35
end
skeleton
  time 0
    0 0.352200 3.181488 32.159422 1.822359 0.081719 -0.751067
    1 3.984015 -0.000004 -0.000004 -2.712854 -0.655818 -0.616362
    2 15.940012 -0.000002 0.000000 0.000000 0.000000 1.077196
    3 17.709558 0.000001 0.000001 -0.104886 0.084326 -1.294153
    4 6.204001 -0.000001 0.000000 -0.011146 0.000934 -0.500515
    5 -3.984013 0.000004 0.000007 -1.577107 -0.591549 -1.886094
    6 15.940012 -0.000001 -0.000002 0.000000 0.000000 0.857565
    7 17.709560 0.000000 0.000000 0.436324 -0.018074 -1.577174
    8 6.204000 0.000000 0.000000 -0.078650 -0.006185 -0.498943
    9 -0.691422 3.958874 -2.115651 1.930937 -0.020340 1.514765
    10 3.837410 0.000000 0.000000 0.006280 0.007394 0.105543
    11 3.617867 0.000000 0.000000 0.015735 -0.015184 0.206459
    12 7.539780 -0.000002 0.000000 0.000851 0.002876 0.168087
    13 3.178299 0.000000 0.000000 3.141590 0.000000 0.224127
    14 2.970274 0.000000 0.000000 0.282904 -0.329065 0.397006
    15 2.023708 0.907459 0.852579 2.736554 -1.146891 1.770201
    16 4.983668 0.000000 0.000000 -2.912894 -1.001241 0.218746
    17 11.123054 -0.000004 0.000000 0.000000 0.000000 -0.637117
    18 11.208296 -0.000004 -0.000004 0.990795 0.414709 -0.259064
    19 3.549244 0.198829 -1.489468 -0.449521 -0.213492 -1.502175
    20 1.219001 0.000000 0.000000 -0.000005 0.184250 -0.756130
    21 0.680000 0.000001 0.000000 0.000003 0.002403 -1.130222
    22 3.698009 0.267560 -0.728977 -0.159022 -0.128597 -1.500848
    23 1.749002 0.000000 0.000000 0.000009 0.083290 -1.128379
    24 0.959999 0.000001 0.000000 0.000012 0.004802 -1.316700
    25 3.768503 0.152550 0.071384 0.023947 -0.021726 -1.562896
    26 2.038004 0.000000 0.000004 0.000004 0.004994 -1.252366
    27 1.066998 -0.000003 0.000000 -0.000011 0.002789 -1.102295
    28 3.783924 -0.017254 0.794556 0.192440 0.061256 -1.577964
    29 1.629001 0.000000 0.000000 0.000003 0.005096 -1.248867
    30 0.956001 0.000002 0.000000 0.000000 0.003254 -1.130186
    31 1.258961 -0.297978 1.252594 -1.253674 -0.300823 -0.782383
    32 1.393000 0.000000 0.000000 0.000000 0.300692 0.663312
    33 1.100000 0.000000 0.000004 0.000000 -0.003290 1.086696
    34 2.023712 0.907463 -0.852528 -1.406285 1.322605 3.213286
    35 4.983667 0.000004 0.000000 1.685404 1.020951 -0.089609
    36 11.123051 0.000000 0.000008 0.000000 0.000000 -1.832707
    37 11.208300 0.000000 0.000000 -0.683314 0.205635 0.683902
    38 3.549270 0.211410 1.487667 0.494305 -0.097767 -1.141905
    39 1.219000 -0.000001 0.000000 0.000010 -0.007094 -0.936359
    40 0.680000 0.000000 0.000000 -0.000003 -0.003649 -0.567372
    41 3.698021 0.273715 0.726624 0.166728 -0.127400 -1.076953
    42 1.749000 0.000000 0.000000 -0.000009 -0.004407 -0.757418
    43 0.960001 0.000000 0.000000 -0.000012 -0.007271 -1.258531
    44 3.768501 0.151954 -0.072742 -0.077950 -0.287333 -0.840906
    45 2.037999 0.000000 0.000000 -0.000004 0.115787 -1.062702
    46 1.067001 0.000002 -0.000004 0.000011 -0.004239 -1.185375
    47 3.783907 -0.023952 -0.794453 -0.355382 -0.064401 -0.547150
    48 1.629000 -0.000002 0.000000 -0.000003 -0.007732 -1.209322
    49 0.956001 0.000000 0.000000 0.000000 -0.004920 -1.090657
    50 1.258941 -0.308544 -1.250053 1.202586 0.210776 -0.999947
    51 1.393002 -0.000004 0.000000 0.000000 0.200216 0.487536
    52 1.100001 0.000004 -0.000004 0.000000 0.201946 0.966012
    53 4.271701 0.000000 -0.000002 0.000000 0.000000 0.000000
    54 5.604151 -0.000004 -0.000004 -0.030876 0.000000 0.000000
    55 5.604152 0.000000 0.000004 0.034930 0.000000 0.000000
    56 11.208300 -0.000004 -0.000006 -0.057543 0.000000 0.000000
    57 5.560003 -0.700001 -0.500004 0.000000 0.000000 0.000000
    58 2.132023 1.532022 5.000001 0.000000 0.000000 0.000000
    59 2.000004 4.938046 2.578001 0.000000 0.000000 0.000000
    60 11.123051 0.000000 0.000004 0.000000 -0.000001 -0.100063
    61 2.000000 4.938040 -2.578001 0.000000 0.000000 0.000000
    62 2.132023 1.532021 -5.000001 0.000000 0.000000 0.000000
    63 1.500000 -0.000004 0.000002 0.000000 0.000000 0.000000
    64 11.208305 0.000000 0.000004 0.065171 0.000000 0.000000
    65 11.123055 0.000000 -0.000002 0.000000 0.000000 -0.100081
    66 4.271700 -0.000004 0.000000 0.000000 0.000000 0.000000
    67 1.500000 0.000000 -0.000004 0.000000 -0.000001 0.000000
    68 5.560003 -0.700000 0.500004 0.000000 -0.000001 0.000000
  time 1
    0 0.352200 3.309536 32.159422 1.822359 0.081719 -0.751067
    1 3.984015 -0.000004 -0.000004 -2.714292 -0.656696 -0.614168
    2 15.940012 -0.000002 0.000000 0.000000 0.000000 1.073094
    3 17.709558 0.000001 0.000001 -0.104795 0.084258 -1.288116
    4 6.204001 -0.000001 0.000000 -0.011146 0.000934 -0.500515
    5 -3.984013 0.000004 0.000007 -1.577872 -0.597783 -1.883333
    6 15.940012 -0.000001 -0.000002 0.000000 0.000000 0.863581
    7 17.709560 0.000000 0.000000 0.434284 -0.016890 -1.576866
    8 6.204000 0.000000 0.000000 -0.078650 -0.006185 -0.498943
    9 -0.691422 3.958874 -2.115651 1.926788 -0.020511 1.515212
    10 3.837410 0.000000 0.000000 -0.018708 0.007359 0.102759
    11 3.617867 0.000000 0.000000 -0.009244 -0.015532 0.203654
    12 7.539780 -0.000002 0.000000 0.000851 0.002876 0.168087
    13 3.178299 0.000000 0.000000 3.141590 0.000000 0.224127
    14 2.970274 0.000000 0.000000 0.282904 -0.329065 0.387143
    15 2.023708 0.907459 0.852579 2.736554 -1.146891 1.770201
    16 4.983668 0.000000 0.000000 -2.720705 -0.941779 -0.024678
    17 11.123054 -0.000004 0.000000 0.000000 0.000000 -0.985487
    18 11.208296 -0.000004 -0.000004 1.051074 0.393588 -0.063358
    19 3.549244 0.198829 -1.489468 -0.449521 -0.213492 -1.502175
    20 1.219001 0.000000 0.000000 -0.000005 0.184250 -0.756130
    21 0.680000 0.000001 0.000000 0.000003 0.002403 -1.130222
    22 3.698009 0.267560 -0.728977 -0.159022 -0.128597 -1.500848
    23 1.749002 0.000000 0.000000 0.000009 0.083290 -1.128379
    24 0.959999 0.000001 0.000000 0.000012 0.004802 -1.316700
    25 3.768503 0.152550 0.071384 0.023947 -0.021726 -1.562896
    26 2.038004 0.000000 0.000004 0.000004 0.004994 -1.252366
    27 1.066998 -0.000003 0.000000 -0.000011 0.002789 -1.102295
    28 3.783924 -0.017254 0.794556 0.192440 0.061256 -1.577964
    29 1.629001 0.000000 0.000000 0.000003 0.005096 -1.248867
    30 0.956001 0.000002 0.000000 0.000000 0.003254 -1.130186
    31 1.258961 -0.297978 1.252594 -1.253674 -0.300823 -0.782383
    32 1.393000 0.000000 0.000000 0.000000 0.300692 0.663312
    33 1.100000 0.000000 0.000004 0.000000 -0.003290 1.086696
    34 2.023712 0.907463 -0.852528 -1.252771 1.242128 3.380804
    35 4.983667 0.000004 0.000000 1.697511 1.018312 0.005625
    36 11.123051 0.000000 0.000008 0.000000 0.000000 -1.896057
    37 11.208300 0.000000 0.000000 -0.656234 0.230936 0.613744
    38 3.549270 0.211410 1.487667 0.494305 -0.097767 -1.141905
    39 1.219000 -0.000001 0.000000 0.000010 -0.007094 -0.936359
    40 0.680000 0.000000 0.000000 -0.000003 -0.003649 -0.567372
    41 3.698021 0.273715 0.726624 0.166728 -0.127400 -1.076953
    42 1.749000 0.000000 0.000000 -0.000009 -0.004407 -0.757418
    43 0.960001 0.000000 0.000000 0.000000 -0.007271 -1.258531
    44 3.768501 0.151954 -0.072742 -0.077950 -0.287333 -0.840906
    45 2.037999 0.000000 0.000000 -0.000004 0.115787 -1.062702
    46 1.067001 0.000002 -0.000004 0.000011 -0.004239 -1.185375
    47 3.783907 -0.023952 -0.794453 -0.355382 -0.064401 -0.547150
    48 1.629000 -0.000002 0.000000 -0.000003 -0.007732 -1.209322
    49 0.956001 0.000000 0.000000 0.000000 -0.004920 -1.090657
    50 1.258941 -0.308544 -1.250053 1.202586 0.210776 -0.999947
    51 1.393002 -0.000004 0.000000 0.000000 0.200216 0.487536
    52 1.100001 0.000004 -0.000004 0.000000 0.201946 0.966012
    53 4.271701 0.000000 -0.000002 0.000000 0.000000 0.000000
    54 5.604151 -0.000004 -0.000004 -0.030876 0.000000 0.000000
    55 5.604152 0.000000 0.000004 0.034930 0.000000 0.000000
    56 11.208300 -0.000004 -0.000006 -0.057543 0.000000 0.000000
    57 5.560003 -0.700001 -0.500004 0.000000 0.000000 0.000000
    58 2.132023 1.532022 5.000001 0.000000 0.000000 0.000000
    59 2.000004 4.938046 2.578001 0.000000 0.000000 0.000000
    60 11.123051 0.000000 0.000004 0.000000 -0.000001 -0.100063
    61 2.000000 4.938040 -2.578001 0.000000 0.000000 0.000000
    62 2.132023 1.532021 -5.000001 0.000000 0.000000 0.000000
    63 1.500000 -0.000004 0.000002 0.000000 0.000000 0.000000
    64 11.208305 0.000000 0.000004 0.065171 0.000000 0.000000
    65 11.123055 0.000000 -0.000002 0.000000 0.000000 -0.100081
    66 4.271700 -0.000004 0.000000 0.000000 0.000000 0.000000
    67 1.500000 0.000000 -0.000004 0.000000 -0.000001 0.000000
    68 5.560003 -0.700000 0.500004 0.000000 -0.000001 0.000000
  time 2
    0 0.352200 3.427733 32.159422 1.822359 0.081719 -0.751067
    1 3.984015 -0.000004 -0.000004 -2.715634 -0.657526 -0.612070
    2 15.940012 -0.000002 0.000000 0.000000 0.000000 1.068917
    3 17.709558 0.000001 0.000001 -0.104703 0.084223 -1.282080
    4 6.204001 -0.000001 0.000000 -0.011146 0.000934 -0.500515
    5 -3.984013 0.000004 0.000007 -1.578637 -0.603969 -1.880573
    6 15.940012 -0.000001 -0.000002 0.000000 0.000000 0.869353
    7 17.709560 0.000000 0.000000 0.432244 -0.015670 -1.576507
    8 6.204000 0.000000 0.000000 -0.078650 -0.006185 -0.498943
    9 -0.691422 3.958874 -2.115651 1.919046 -0.020799 1.516008
    10 3.837410 0.000000 0.000000 0.006304 0.007394 0.090304
    11 3.617867 0.000000 0.000000 0.015751 -0.015184 0.191206
    12 7.539780 -0.000002 0.000000 0.000851 0.002876 0.168087
    13 3.178299 0.000000 0.000000 3.141590 0.000000 0.224127
    14 2.970274 0.000000 0.000000 0.282904 -0.329065 0.377312
    15 2.023708 0.907459 0.852579 2.736554 -1.146891 1.770201
    16 4.983668 0.000000 0.000000 -2.919098 -0.982391 0.234293
    17 11.123054 -0.000004 0.000000 0.000000 0.000000 -0.728757
    18 11.208296 -0.000004 -0.000004 1.018153 0.412888 -0.213895
    19 3.549244 0.198829 -1.489468 -0.449521 -0.213492 -1.502175
    20 1.219001 0.000000 0.000000 -0.000005 0.184250 -0.756130
    21 0.680000 0.000001 0.000000 0.000003 0.002403 -1.130222
    22 3.698009 0.267560 -0.728977 -0.159022 -0.128597 -1.500848
    23 1.749002 0.000000 0.000000 0.000009 0.083290 -1.128379
    24 0.959999 0.000001 0.000000 0.000000 0.004802 -1.316700
    25 3.768503 0.152550 0.071384 0.023947 -0.021726 -1.562896
    26 2.038004 0.000000 0.000004 0.000004 0.004994 -1.252366
    27 1.066998 -0.000003 0.000000 -0.000011 0.002789 -1.102295
    28 3.783924 -0.017254 0.794556 0.192440 0.061256 -1.577964
    29 1.629001 0.000000 0.000000 0.000003 0.005096 -1.248867
    30 0.956001 0.000002 0.000000 0.000000 0.003254 -1.130186
    31 1.258961 -0.297978 1.252594 -1.253674 -0.300823 -0.782383
    32 1.393000 0.000000 0.000000 0.000000 0.300692 0.663312
    33 1.100000 0.000000 0.000004 0.000000 -0.003290 1.086696
    34 2.023712 0.907463 -0.852528 -1.278529 1.260026 3.351634
    35 4.983667 0.000004 0.000000 1.771775 1.073004 0.075594
    36 11.123051 0.000000 0.000008 0.000000 0.000000 -1.806840
    37 11.208300 0.000000 0.000000 -0.627593 0.256845 0.630177
    38 3.549270 0.211410 1.487667 0.494305 -0.097767 -1.141905
    39 1.219000 -0.000001 0.000000 0.000010 -0.007094 -0.936359
    40 0.680000 0.000000 0.000000 -0.000003 -0.003649 -0.567372
    41 3.698021 0.273715 0.726624 0.166728 -0.127400 -1.076953
    42 1.749000 0.000000 0.000000 -0.000009 -0.004407 -0.757418
    43 0.960001 0.000000 0.000000 0.000000 -0.007271 -1.258531
    44 3.768501 0.151954 -0.072742 -0.077950 -0.287333 -0.840906
    45 2.037999 0.000000 0.000000 -0.000004 0.115787 -1.062702
    46 1.067001 0.000002 -0.000004 0.000011 -0.004239 -1.185375
    47 3.783907 -0.023952 -0.794453 -0.355382 -0.064401 -0.547150
    48 1.629000 -0.000002 0.000000 -0.000003 -0.007732 -1.209322
    49 0.956001 0.000000 0.000000 0.000000 -0.004920 -1.090657
    50 1.258941 -0.308544 -1.250053 1.202586 0.210776 -0.999947
    51 1.393002 -0.000004 0.000000 0.000000 0.200216 0.487536
    52 1.100001 0.000004 -0.000004 0.000000 0.201946 0.966012
    53 4.271701 0.000000 -0.000002 0.000000 0.000000 0.000000
    54 5.604151 -0.000004 -0.000004 -0.030876 0.000000 0.000000
    55 5.604152 0.000000 0.000004 0.034930 0.000000 0.000000
    56 11.208300 -0.000004 -0.000006 -0.057543 0.000000 0.000000
    57 5.560003 -0.700001 -0.500004 0.000000 0.000000 0.000000
    58 2.132023 1.532022 5.000001 0.000000 0.000000 0.000000
    59 2.000004 4.938046 2.578001 0.000000 0.000000 0.000000
    60 11.123051 0.000000 0.000004 0.000000 -0.000001 -0.100063
    61 2.000000 4.938040 -2.578001 0.000000 0.000000 0.000000
    62 2.132023 1.532021 -5.000001 0.000000 0.000000 0.000000
    63 1.500000 -0.000004 0.000002 0.000000 0.000000 0.000000
    64 11.208305 0.000000 0.000004 0.065171 0.000000 0.000000
    65 11.123055 0.000000 -0.000002 0.000000 0.000000 -0.100081
    66 4.271700 -0.000004 0.000000 0.000000 0.000000 0.000000
    67 1.500000 0.000000 -0.000004 0.000000 -0.000001 0.000000
    68 5.560003 -0.700000 0.500004 0.000000 -0.000001 0.000000
  time 3
    0 0.352200 3.388334 32.159422 1.822359 0.081719 -0.751067
    1 3.984015 -0.000004 -0.000004 -2.715250 -0.657282 -0.612738
    2 15.940012 -0.000002 0.000000 0.000000 0.000000 1.070208
    3 17.709558 0.000001 0.000001 -0.104703 0.084223 -1.283973
    4 6.204001 -0.000001 0.000000 -0.011146 0.000934 -0.500515
    5 -3.984013 0.000004 0.000007 -1.578446 -0.602036 -1.881525
    6 15.940012 -0.000001 -0.000002 0.000000 0.000000 0.867564
    7 17.709560 0.000000 0.000000 0.432897 -0.016077 -1.576610
    8 6.204000 0.000000 0.000000 -0.078650 -0.006185 -0.498943
    9 -0.691422 3.958874 -2.115651 1.914897 -0.020957 1.516455
    10 3.837410 0.000000 0.000000 0.006280 0.007394 0.096993
    11 3.617867 0.000000 0.000000 0.015735 -0.015184 0.197910
    12 7.539780 -0.000002 0.000000 0.000851 0.002876 0.168087
    13 3.178299 0.000000 0.000000 3.141590 0.000000 0.224127
    14 2.970274 0.000000 0.000000 0.282904 -0.329065 0.385972
    15 2.023708 0.907459 0.852579 2.736554 -1.146891 1.770201
    16 4.983668 0.000000 0.000000 -2.772712 -0.968200 0.046946
    17 11.123054 -0.000004 0.000000 0.000000 0.000000 -0.920220
    18 11.208296 -0.000004 -0.000004 1.035604 0.404560 -0.116565
    19 3.549244 0.198829 -1.489468 -0.449521 -0.213492 -1.502175
    20 1.219001 0.000000 0.000000 -0.000005 0.184250 -0.756130
    21 0.680000 0.000001 0.000000 0.000003 0.002403 -1.130222
    22 3.698009 0.267560 -0.728977 -0.159022 -0.128597 -1.500848
    23 1.749002 0.000000 0.000000 0.000009 0.083290 -1.128379
    24 0.959999 0.000001 0.000000 0.000012 0.004802 -1.316700
    25 3.768503 0.152550 0.071384 0.023947 -0.021726 -1.562896
    26 2.038004 0.000000 0.000004 0.000004 0.004994 -1.252366
    27 1.066998 -0.000003 0.000000 -0.000011 0.002789 -1.102295
    28 3.783924 -0.017254 0.794556 0.192440 0.061256 -1.577964
    29 1.629001 0.000000 0.000000 0.000003 0.005096 -1.248867
    30 0.956001 0.000002 0.000000 0.000000 0.003254 -1.130186
    31 1.258961 -0.297978 1.252594 -1.253674 -0.300823 -0.782383
    32 1.393000 0.000000 0.000000 0.000000 0.300692 0.663312
    33 1.100000 0.000000 0.000004 0.000000 -0.003290 1.086696
    34 2.023712 0.907463 -0.852528 -1.342078 1.295481 3.281850
    35 4.983667 0.000004 0.000000 1.659058 0.982764 -0.078732
    36 11.123051 0.000000 0.000008 0.000000 0.000000 -1.909227
    37 11.208300 0.000000 0.000000 -0.682654 0.272572 0.647664
    38 3.549270 0.211410 1.487667 0.494305 -0.097767 -1.141905
    39 1.219000 -0.000001 0.000000 0.000010 -0.007094 -0.936359
    40 0.680000 0.000000 0.000000 -0.000003 -0.003649 -0.567372
    41 3.698021 0.273715 0.726624 0.166728 -0.127400 -1.076953
    42 1.749000 0.000000 0.000000 -0.000009 -0.004407 -0.757418
    43 0.960001 0.000000 0.000000 0.000000 -0.007271 -1.258531
    44 3.768501 0.151954 -0.072742 -0.077950 -0.287333 -0.840906
    45 2.037999 0.000000 0.000000 -0.000004 0.115787 -1.062702
    46 1.067001 0.000002 -0.000004 0.000011 -0.004239 -1.185375
    47 3.783907 -0.023952 -0.794453 -0.355382 -0.064401 -0.547150
    48 1.629000 -0.000002 0.000000 -0.000003 -0.007732 -1.209322
    49 0.956001 0.000000 0.000000 0.000000 -0.004920 -1.090657
    50 1.258941 -0.308544 -1.250053 1.202586 0.210776 -0.999947
    51 1.393002 -0.000004 0.000000 0.000000 0.200216 0.487536
    52 1.100001 0.000004 -0.000004 0.000000 0.201946 0.966012
    53 4.271701 0.000000 -0.000002 0.000000 0.000000 0.000000
    54 5.604151 -0.000004 -0.000004 -0.030876 0.000000 0.000000
    55 5.604152 0.000000 0.000004 0.034930 0.000000 0.000000
    56 11.208300 -0.000004 -0.000006 -0.057543 0.000000 0.000000
    57 5.560003 -0.700001 -0.500004 0.000000 0.000000 0.000000
    58 2.132023 1.532022 5.000001 0.000000 0.000000 0.000000
    59 2.000004 4.938046 2.578001 0.000000 0.000000 0.000000
    60 11.123051 0.000000 0.000004 0.000000 -0.000001 -0.100063
    61 2.000000 4.938040 -2.578001 0.000000 0.000000 0.000000
    62 2.132023 1.532021 -5.000001 0.000000 0.000000 0.000000
    63 1.500000 -0.000004 0.000002 0.000000 0.000000 0.000000
    64 11.208305 0.000000 0.000004 0.065171 0.000000 0.000000
    65 11.123055 0.000000 -0.000002 0.000000 0.000000 -0.100081
    66 4.271700 -0.000004 0.000000 0.000000 0.000000 0.000000
    67 1.500000 0.000000 -0.000004 0.000000 -0.000001 0.000000
    68 5.560003 -0.700000 0.500004 0.000000 -0.000001 0.000000
  time 4
    0 0.352200 3.299686 32.159422 1.822359 0.081719 -0.751067
    1 3.984015 -0.000004 -0.000004 -2.714292 -0.656696 -0.614168
    2 15.940012 -0.000002 0.000000 0.000000 0.000000 1.073094
    3 17.709558 0.000001 0.000001 -0.104795 0.084258 -1.288167
    4 6.204001 -0.000001 0.000000 -0.011146 0.000934 -0.500515
    5 -3.984013 0.000004 0.000007 -1.577872 -0.597783 -1.883333
    6 15.940012 -0.000001 -0.000002 0.000000 0.000000 0.863499
    7 17.709560 0.000000 0.000000 0.434284 -0.016890 -1.576866
    8 6.204000 0.000000 0.000000 -0.078650 -0.006185 -0.498943
    9 -0.691422 3.958874 -2.115651 1.930937 -0.020340 1.514765
    10 3.837410 0.000000 0.000000 0.006280 0.007394 0.105576
    11 3.617867 0.000000 0.000000 0.015735 -0.015184 0.206478
    12 7.539780 -0.000002 0.000000 0.000851 0.002876 0.168087
    13 3.178299 0.000000 0.000000 3.141590 0.000000 0.224127
    14 2.970274 0.000000 0.000000 0.282904 -0.329065 0.397037
    15 2.023708 0.907459 0.852579 2.736554 -1.146891 1.770201
    16 4.983668 0.000000 0.000000 -2.928161 -0.994411 0.239193
    17 11.123054 -0.000004 0.000000 0.000000 0.000000 -0.681398
    18 11.208296 -0.000004 -0.000004 1.004054 0.413929 -0.247008
    19 3.549244 0.198829 -1.489468 -0.449521 -0.213492 -1.502175
    20 1.219001 0.000000 0.000000 -0.000005 0.184250 -0.756130
    21 0.680000 0.000001 0.000000 0.000003 0.002403 -1.130222
    22 3.698009 0.267560 -0.728977 -0.159022 -0.128597 -1.500848
    23 1.749002 0.000000 0.000000 0.000009 0.083290 -1.128379
    24 0.959999 0.000001 0.000000 0.000012 0.004802 -1.316700
    25 3.768503 0.152550 0.071384 0.023947 -0.021726 -1.562896
    26 2.038004 0.000000 0.000004 0.000004 0.004994 -1.252366
    27 1.066998 -0.000003 0.000000 -0.000011 0.002789 -1.102295
    28 3.783924 -0.017254 0.794556 0.192440 0.061256 -1.577964
    29 1.629001 0.000000 0.000000 0.000003 0.005096 -1.248867
    30 0.956001 0.000002 0.000000 0.000000 0.003254 -1.130186
    31 1.258961 -0.297978 1.252594 -1.253674 -0.300823 -0.782383
    32 1.393000 0.000000 0.000000 0.000000 0.300692 0.663312
    33 1.100000 0.000000 0.000004 0.000000 -0.003290 1.086696
    34 2.023712 0.907463 -0.852528 -1.406473 1.322691 3.213099
    35 4.983667 0.000004 0.000000 1.685318 1.020847 -0.089866
    36 11.123051 0.000000 0.000008 0.000000 0.000000 -1.832707
    37 11.208300 0.000000 0.000000 -0.689799 0.249057 0.655544
    38 3.549270 0.211410 1.487667 0.494305 -0.097767 -1.141905
    39 1.219000 -0.000001 0.000000 0.000010 -0.007094 -0.936359
    40 0.680000 0.000000 0.000000 -0.000003 -0.003649 -0.567372
    41 3.698021 0.273715 0.726624 0.166728 -0.127400 -1.076953
    42 1.749000 0.000000 0.000000 -0.000009 -0.004407 -0.757418
    43 0.960001 0.000000 0.000000 0.000000 -0.007271 -1.258531
    44 3.768501 0.151954 -0.072742 -0.077950 -0.287333 -0.840906
    45 2.037999 0.000000 0.000000 -0.000004 0.115787 -1.062702
    46 1.067001 0.000002 -0.000004 0.000011 -0.004239 -1.185375
    47 3.783907 -0.023952 -0.794453 -0.355382 -0.064401 -0.547150
    48 1.629000 -0.000002 0.000000 -0.000003 -0.007732 -1.209322
    49 0.956001 0.000000 0.000000 0.000000 -0.004920 -1.090657
    50 1.258941 -0.308544 -1.250053 1.202586 0.210776 -0.999947
    51 1.393002 -0.000004 0.000000 0.000000 0.200216 0.487536
    52 1.100001 0.000004 -0.000004 0.000000 0.201946 0.966012
    53 4.271701 0.000000 -0.000002 0.000000 0.000000 0.000000
    54 5.604151 -0.000004 -0.000004 -0.030876 0.000000 0.000000
    55 5.604152 0.000000 0.000004 0.034930 0.000000 0.000000
    56 11.208300 -0.000004 -0.000006 -0.057543 0.000000 0.000000
    57 5.560003 -0.700001 -0.500004 0.000000 0.000000 0.000000
    58 2.132023 1.532022 5.000001 0.000000 0.000000 0.000000
    59 2.000004 4.938046 2.578001 0.000000 0.000000 0.000000
    60 11.123051 0.000000 0.000004 0.000000 -0.000001 -0.100063
    61 2.000000 4.938040 -2.578001 0.000000 0.000000 0.000000
    62 2.132023 1.532021 -5.000001 0.000000 0.000000 0.000000
    63 1.500000 -0.000004 0.000002 0.000000 0.000000 0.000000
    64 11.208305 0.000000 0.000004 0.065171 0.000000 0.000000
    65 11.123055 0.000000 -0.000002 0.000000 0.000000 -0.100081
    66 4.271700 -0.000004 0.000000 0.000000 0.000000 0.000000
    67 1.500000 0.000000 -0.000004 0.000000 -0.000001 0.000000
    68 5.560003 -0.700000 0.500004 0.000000 -0.000001 0.000000
  time 5
    0 0.352200 3.220887 32.159422 1.822359 0.081719 -0.751067
    1 3.984015 -0.000004 -0.000004 -2.713333 -0.656111 -0.615694
    2 15.940012 -0.000002 0.000000 0.000000 0.000000 1.075904
    3 17.709558 0.000001 0.000001 -0.104886 0.084292 -1.292311
    4 6.204001 -0.000001 0.000000 -0.011146 0.000934 -0.500515
    5 -3.984013 0.000004 0.000007 -1.577298 -0.593482 -1.885238
    6 15.940012 -0.000001 -0.000002 0.000000 0.000000 0.859434
    7 17.709560 0.000000 0.000000 0.435671 -0.017704 -1.577071
    8 6.204000 0.000000 0.000000 -0.078650 -0.006185 -0.498943
    9 -0.691422 3.958874 -2.115651 1.932238 -0.020288 1.514616
    10 3.837410 0.000000 0.000000 0.006280 0.007394 0.106499
    11 3.617867 0.000000 0.000000 0.015735 -0.015184 0.207400
    12 7.539780 -0.000002 0.000000 0.000851 0.002876 0.168087
    13 3.178299 0.000000 0.000000 3.141590 0.000000 0.224127
    14 2.970274 0.000000 0.000000 0.282904 -0.329065 0.398239
    15 2.023708 0.907459 0.852579 2.736554 -1.146891 1.770201
    16 4.983668 0.000000 0.000000 -2.755485 -0.982973 0.028616
    17 11.123054 -0.000004 0.000000 0.000000 0.000000 -0.857682
    18 11.208296 -0.000004 -0.000004 1.010989 0.407119 -0.151768
    19 3.549244 0.198829 -1.489468 -0.449521 -0.213492 -1.502175
    20 1.219001 0.000000 0.000000 -0.000005 0.184250 -0.756130
    21 0.680000 0.000001 0.000000 0.000003 0.002403 -1.130222
    22 3.698009 0.267560 -0.728977 -0.159022 -0.128597 -1.500848
    23 1.749002 0.000000 0.000000 0.000009 0.083290 -1.128379
    24 0.959999 0.000001 0.000000 0.000000 0.004802 -1.316700
    25 3.768503 0.152550 0.071384 0.023947 -0.021726 -1.562896
    26 2.038004 0.000000 0.000004 0.000004 0.004994 -1.252366
    27 1.066998 -0.000003 0.000000 -0.000011 0.002789 -1.102295
    28 3.783924 -0.017254 0.794556 0.192440 0.061256 -1.577964
    29 1.629001 0.000000 0.000000 0.000003 0.005096 -1.248867
    30 0.956001 0.000002 0.000000 0.000000 0.003254 -1.130186
    31 1.258961 -0.297978 1.252594 -1.253674 -0.300823 -0.782383
    32 1.393000 0.000000 0.000000 0.000000 0.300692 0.663312
    33 1.100000 0.000000 0.000004 0.000000 -0.003290 1.086696
    34 2.023712 0.907463 -0.852528 -1.416814 1.326407 3.202218
    35 4.983667 0.000004 0.000000 1.615659 0.953271 -0.171739
    36 11.123051 0.000000 0.000008 0.000000 0.000000 -1.923612
    37 11.208300 0.000000 0.000000 -0.720962 0.239180 0.690601
    38 3.549270 0.211410 1.487667 0.494305 -0.097767 -1.141905
    39 1.219000 -0.000001 0.000000 0.000010 -0.007094 -0.936359
    40 0.680000 0.000000 0.000000 -0.000003 -0.003649 -0.567372
    41 3.698021 0.273715 0.726624 0.166728 -0.127400 -1.076953
    42 1.749000 0.000000 0.000000 -0.000009 -0.004407 -0.757418
    43 0.960001 0.000000 0.000000 -0.000012 -0.007271 -1.258531
    44 3.768501 0.151954 -0.072742 -0.077950 -0.287333 -0.840906
    45 2.037999 0.000000 0.000000 -0.000004 0.115787 -1.062702
    46 1.067001 0.000002 -0.000004 0.000011 -0.004239 -1.185375
    47 3.783907 -0.023952 -0.794453 -0.355382 -0.064401 -0.547150
    48 1.629000 -0.000002 0.000000 -0.000003 -0.007732 -1.209322
    49 0.956001 0.000000 0.000000 0.000000 -0.004920 -1.090657
    50 1.258941 -0.308544 -1.250053 1.202586 0.210776 -0.999947
    51 1.393002 -0.000004 0.000000 0.000000 0.200216 0.487536
    52 1.100001 0.000004 -0.000004 0.000000 0.201946 0.966012
    53 4.271701 0.000000 -0.000002 0.000000 0.000000 0.000000
    54 5.604151 -0.000004 -0.000004 -0.030876 0.000000 0.000000
    55 5.604152 0.000000 0.000004 0.034930 0.000000 0.000000
    56 11.208300 -0.000004 -0.000006 -0.057543 0.000000 0.000000
    57 5.560003 -0.700001 -0.500004 0.000000 0.000000 0.000000
    58 2.132023 1.532022 5.000001 0.000000 0.000000 0.000000
    59 2.000004 4.938046 2.578001 0.000000 0.000000 0.000000
    60 11.123051 0.000000 0.000004 0.000000 -0.000001 -0.100063
    61 2.000000 4.938040 -2.578001 0.000000 0.000000 0.000000
    62 2.132023 1.532021 -5.000001 0.000000 0.000000 0.000000
    63 1.500000 -0.000004 0.000002 0.000000 0.000000 0.000000
    64 11.208305 0.000000 0.000004 0.065171 0.000000 0.000000
    65 11.123055 0.000000 -0.000002 0.000000 0.000000 -0.100081
    66 4.271700 -0.000004 0.000000 0.000000 0.000000 0.000000
    67 1.500000 0.000000 -0.000004 0.000000 -0.000001 0.000000
    68 5.560003 -0.700000 0.500004 0.000000 -0.000001 0.000000
  time 6
    0 0.352200 3.220887 32.159422 1.822359 0.081719 -0.751067
    1 3.984015 -0.000004 -0.000004 -2.713333 -0.656111 -0.615694
    2 15.940012 -0.000002 0.000000 0.000000 0.000000 1.075904
    3 17.709558 0.000001 0.000001 -0.104886 0.084292 -1.292311
    4 6.204001 -0.000001 0.000000 -0.011146 0.000934 -0.500515
    5 -3.984013 0.000004 0.000007 -1.577298 -0.593482 -1.885238
    6 15.940012 -0.000001 -0.000002 0.000000 0.000000 0.859434
    7 17.709560 0.000000 0.000000 0.435671 -0.017704 -1.577071
    8 6.204000 0.000000 0.000000 -0.078650 -0.006185 -0.498943
    9 -0.691422 3.958874 -2.115651 1.932238 -0.020288 1.514616
    10 3.837410 0.000000 0.000000 0.006280 0.007394 0.106499
    11 3.617867 0.000000 0.000000 0.015735 -0.015184 0.207400
    12 7.539780 -0.000002 0.000000 0.000851 0.002876 0.168087
    13 3.178299 0.000000 0.000000 3.141590 0.000000 0.224127
    14 2.970274 0.000000 0.000000 0.282904 -0.329065 0.398239
    15 2.023708 0.907459 0.852579 2.736554 -1.146891 1.770201
    16 4.983668 0.000000 0.000000 -2.915996 -1.002406 0.222437
    17 11.123054 -0.000004 0.000000 0.000000 0.000000 -0.637117
    18 11.208296 -0.000004 -0.000004 1.505416 -0.038605 0.036303
    19 3.549244 0.198829 -1.489468 -0.449521 -0.213492 -1.502175
    20 1.219001 0.000000 0.000000 -0.000005 0.184250 -0.756130
    21 0.680000 0.000001 0.000000 0.000003 0.002403 -1.130222
    22 3.698009 0.267560 -0.728977 -0.159022 -0.128597 -1.500848
    23 1.749002 0.000000 0.000000 0.000009 0.083290 -1.128379
    24 0.959999 0.000001 0.000000 0.000000 0.004802 -1.316700
    25 3.768503 0.152550 0.071384 0.023947 -0.021726 -1.562896
    26 2.038004 0.000000 0.000004 0.000004 0.004994 -1.252366
    27 1.066998 -0.000003 0.000000 -0.000011 0.002789 -1.102295
    28 3.783924 -0.017254 0.794556 0.192440 0.061256 -1.577964
    29 1.629001 0.000000 0.000000 0.000003 0.005096 -1.248867
    30 0.956001 0.000002 0.000000 0.000000 0.003254 -1.130186
    31 1.258961 -0.297978 1.252594 -1.253674 -0.300823 -0.782383
    32 1.393000 0.000000 0.000000 0.000000 0.300692 0.663312
    33 1.100000 0.000000 0.000004 0.000000 -0.003290 1.086696
    34 2.023712 0.907463 -0.852528 -1.416814 1.326407 3.202218
    35 4.983667 0.000004 0.000000 1.689667 1.017122 -0.090037
    36 11.123051 0.000000 0.000008 0.000000 0.000000 -1.832707
    37 11.208300 0.000000 0.000000 -1.496970 0.038597 0.036303
    38 3.549270 0.211410 1.487667 0.494305 -0.097767 -1.141905
    39 1.219000 -0.000001 0.000000 0.000010 -0.007094 -0.936359
    40 0.680000 0.000000 0.000000 -0.000003 -0.003649 -0.567372
    41 3.698021 0.273715 0.726624 0.166728 -0.127400 -1.076953
    42 1.749000 0.000000 0.000000 -0.000009 -0.004407 -0.757418
    43 0.960001 0.000000 0.000000 0.000000 -0.007271 -1.258531
    44 3.768501 0.151954 -0.072742 -0.077950 -0.287333 -0.840906
    45 2.037999 0.000000 0.000000 -0.000004 0.115787 -1.062702
    46 1.067001 0.000002 -0.000004 0.000011 -0.004239 -1.185375
    47 3.783907 -0.023952 -0.794453 -0.355382 -0.064401 -0.547150
    48 1.629000 -0.000002 0.000000 -0.000003 -0.007732 -1.209322
    49 0.956001 0.000000 0.000000 0.000000 -0.004920 -1.090657
    50 1.258941 -0.308544 -1.250053 1.202586 0.210776 -0.999947
    51 1.393002 -0.000004 0.000000 0.000000 0.200216 0.487536
    52 1.100001 0.000004 -0.000004 0.000000 0.201946 0.966012
    53 4.271701 0.000000 -0.000002 0.000000 0.000000 0.000000
    54 5.604151 -0.000004 -0.000004 -0.030876 0.000000 0.000000
    55 5.604152 0.000000 0.000004 0.034930 0.000000 0.000000
    56 11.208300 -0.000004 -0.000006 -0.057543 0.000000 0.000000
    57 5.560003 -0.700001 -0.500004 0.000000 0.000000 0.000000
    58 2.132023 1.532022 5.000001 0.000000 0.000000 0.000000
    59 2.000004 4.938046 2.578001 0.000000 0.000000 0.000000
    60 11.123051 0.000000 0.000004 0.000000 -0.000001 -0.100063
    61 2.000000 4.938040 -2.578001 0.000000 0.000000 0.000000
    62 2.132023 1.532021 -5.000001 0.000000 0.000000 0.000000
    63 1.500000 -0.000004 0.000002 0.000000 0.000000 0.000000
    64 11.208305 0.000000 0.000004 0.065171 0.000000 0.000000
    65 11.123055 0.000000 -0.000002 0.000000 0.000000 -0.100081
    66 4.271700 -0.000004 0.000000 0.000000 0.000000 0.000000
    67 1.500000 0.000000 -0.000004 0.000000 -0.000001 0.000000
    68 5.560003 -0.700000 0.500004 0.000000 -0.000001 0.000000
end
