version 1
nodes
  0 "ValveBiped.Bip01_Pelvis" -1
  1 "ValveBiped.Bip01_L_Thigh" 0
  2 "ValveBiped.Bip01_L_Calf" 1
  3 "ValveBiped.Bip01_L_Foot" 2
  4 "ValveBiped.Bip01_L_Toe0" 3
  5 "ValveBiped.Bip01_R_Thigh" 0
  6 "ValveBiped.Bip01_R_Calf" 5
  7 "ValveBiped.Bip01_R_Foot" 6
  8 "ValveBiped.Bip01_R_Toe0" 7
  9 "ValveBiped.Bip01_Spine" 0
  10 "ValveBiped.Bip01_Spine1" 9
  11 "ValveBiped.Bip01_Spine2" 10
  12 "ValveBiped.Bip01_Spine4" 11
  13 "ValveBiped.Bip01_Neck1" 12
  14 "ValveBiped.Bip01_Head1" 13
  15 "ValveBiped.Bip01_L_Clavicle" 12
  16 "ValveBiped.Bip01_L_UpperArm" 15
  17 "ValveBiped.Bip01_L_Forearm" 16
  18 "ValveBiped.Bip01_L_Hand" 17
  19 "ValveBiped.Bip01_L_Finger4" 18
  20 "ValveBiped.Bip01_L_Finger41" 19
  21 "ValveBiped.Bip01_L_Finger42" 20
  22 "ValveBiped.Bip01_L_Finger3" 18
  23 "ValveBiped.Bip01_L_Finger31" 22
  24 "ValveBiped.Bip01_L_Finger32" 23
  25 "ValveBiped.Bip01_L_Finger2" 18
  26 "ValveBiped.Bip01_L_Finger21" 25
  27 "ValveBiped.Bip01_L_Finger22" 26
  28 "ValveBiped.Bip01_L_Finger1" 18
  29 "ValveBiped.Bip01_L_Finger11" 28
  30 "ValveBiped.Bip01_L_Finger12" 29
  31 "ValveBiped.Bip01_L_Finger0" 18
  32 "ValveBiped.Bip01_L_Finger01" 31
  33 "ValveBiped.Bip01_L_Finger02" 32
  34 "ValveBiped.Bip01_R_Clavicle" 12
  35 "ValveBiped.Bip01_R_UpperArm" 34
  36 "ValveBiped.Bip01_R_Forearm" 35
  37 "ValveBiped.Bip01_R_Hand" 36
  38 "ValveBiped.Bip01_R_Finger4" 37
  39 "ValveBiped.Bip01_R_Finger41" 38
  40 "ValveBiped.Bip01_R_Finger42" 39
  41 "ValveBiped.Bip01_R_Finger3" 37
  42 "ValveBiped.Bip01_R_Finger31" 41
  43 "ValveBiped.Bip01_R_Finger32" 42
  44 "ValveBiped.Bip01_R_Finger2" 37
  45 "ValveBiped.Bip01_R_Finger21" 44
  46 "ValveBiped.Bip01_R_Finger22" 45
  47 "ValveBiped.Bip01_R_Finger1" 37
  48 "ValveBiped.Bip01_R_Finger11" 47
  49 "ValveBiped.Bip01_R_Finger12" 48
  50 "ValveBiped.Bip01_R_Finger0" 37
  51 "ValveBiped.Bip01_R_Finger01" 50
  52 "ValveBiped.Bip01_R_Finger02" 51
  53 "ValveBiped.Bip01_L_Trapezius" 15
  54 "ValveBiped.Bip01_L_Ulna" 17
  55 "ValveBiped.Bip01_R_Ulna" 36
  56 "ValveBiped.Bip01_L_Wrist" 17
  57 "ValveBiped.Bip01_L_Bicep" 16
  58 "ValveBiped.Bip01_L_Latt" 11
  59 "ValveBiped.Bip01_L_Pectoral" 11
  60 "ValveBiped.Bip01_R_Elbow" 35
  61 "ValveBiped.Bip01_R_Pectoral" 11
  62 "ValveBiped.Bip01_R_Latt" 11
  63 "ValveBiped.Bip01_L_Shoulder" 16
  64 "ValveBiped.Bip01_R_Wrist" 36
  65 "ValveBiped.Bip01_L_Elbow" 16
  66 "ValveBiped.Bip01_R_Trapezius" 34
  67 "ValveBiped.Bip01_R_Shoulder" 35
  68 "ValveBiped.Bip01_R_Bicep" 35
end
skeleton
  time 0
    0 33.040697 -14.853483 28.670556 1.731633 0.172664 -3.721696
    1 3.984016 -0.000004 -0.000002 -2.505800 -0.883533 -0.478564
    2 15.940012 0.000000 0.000000 0.000000 0.000000 1.445321
    3 17.709566 0.000001 0.000000 -0.040501 0.275404 -1.506805
    4 6.203999 0.000000 0.000000 -0.011146 0.002816 -0.500515
    5 -3.984013 0.000008 0.000008 -1.689079 -0.585074 -1.809171
    6 15.940014 0.000000 -0.000004 0.000000 0.000000 0.975772
    7 17.709564 0.000000 0.000000 0.585475 0.179207 -1.329455
    8 6.203999 0.000000 -0.000004 -0.078650 -0.006185 -0.498943
    9 -0.246096 4.208881 -1.689857 1.570796 -0.105856 1.629661
    10 3.837408 0.000001 0.000000 -0.235641 0.018780 0.082841
    11 3.617870 -0.000001 0.000000 -0.282562 -0.212091 0.288006
    12 7.539780 0.000000 -0.000004 0.119390 0.002828 0.233349
    13 3.178295 0.000001 0.000000 3.141590 0.000000 0.224127
    14 2.970276 0.000000 0.000000 1.115176 -0.118700 0.350837
    15 2.023705 0.907458 0.852581 4.596875 -1.432940 -0.061367
    16 4.983665 0.000000 -0.000001 -3.059934 -0.702922 0.157830
    17 11.123048 -0.000004 -0.000003 0.000000 0.000000 -0.928965
    18 11.208298 -0.000004 -0.000001 1.147018 0.396710 0.272597
    19 3.549244 0.198828 -1.489468 -0.463403 -0.186140 -1.428467
    20 1.219000 0.000000 0.000000 -0.000005 0.066202 -0.827640
    21 0.679999 0.000000 0.000000 0.000003 0.000006 -0.594000
    22 3.698009 0.267557 -0.728977 -0.161994 -0.106334 -1.434469
    23 1.749002 0.000000 0.000004 0.000009 0.006397 -0.777634
    24 0.960001 0.000000 0.000000 0.000000 0.000009 -1.170580
    25 3.768505 0.152552 0.071384 0.049930 -0.030486 -1.249500
    26 2.037998 0.000000 0.000000 0.000004 0.033589 -1.110951
    27 1.067001 0.000000 0.000000 -0.000011 -0.000003 -1.111216
    28 3.783920 -0.017254 0.794556 0.283487 0.115906 -1.212806
    29 1.629000 0.000000 0.000000 0.000003 -0.152214 -1.133717
    30 0.956003 0.000000 0.000004 0.000000 -0.000006 -1.021306
    31 1.258965 -0.297979 1.252586 -1.241289 -0.251338 -0.849490
    32 1.393002 -0.000002 0.000000 0.000000 -0.036075 0.257565
    33 1.099998 0.000000 0.000000 0.000000 0.000006 0.303667
    34 2.023712 0.907461 -0.852528 -2.577522 1.121583 1.990574
    35 4.983667 0.000008 0.000000 0.007521 1.465215 -2.011921
    36 11.123047 0.000001 0.000011 0.000000 0.000000 -1.270730
    37 11.208294 0.000001 0.000000 -0.787070 0.024845 0.470817
    38 3.549269 0.211411 1.487671 0.498222 0.156931 -0.982248
    39 1.219002 -0.000002 0.000004 0.000010 -0.456984 -1.112975
    40 0.680002 0.000000 0.000000 -0.000003 -0.000006 -0.672069
    41 3.698020 0.273716 0.726624 0.160532 0.000252 -0.910186
    42 1.748999 0.000000 0.000004 -0.000009 -0.214761 -1.281174
    43 0.959995 0.000000 0.000000 0.000000 -0.000009 -0.797298
    44 3.768500 0.151955 -0.072739 -0.084949 -0.177602 -0.644873
    45 2.038000 0.000000 0.000004 -0.000004 -0.031660 -1.425514
    46 1.067001 0.000002 0.000000 -0.003417 0.022223 -0.934717
    47 3.783907 -0.023952 -0.794449 -0.321526 -0.122640 -0.062418
    48 1.628999 0.000000 0.000000 -0.000003 0.126411 -0.583363
    49 0.956001 0.000000 0.000004 -0.051342 0.069097 -1.042848
    50 1.258940 -0.308544 -1.250050 1.282900 0.248642 -0.715173
    51 1.392998 0.000000 0.000000 0.000000 -0.010078 0.141859
    52 1.100002 0.000000 0.000000 0.000300 0.002007 1.187213
    53 4.271698 0.000000 0.000000 0.000000 0.000000 0.000000
    54 5.604149 0.000000 -0.000004 -0.030876 0.000000 0.000000
    55 5.604151 0.000000 0.000000 0.034930 0.000000 0.000000
    56 11.208302 -0.000004 -0.000005 -0.057543 0.000000 0.000000
    57 5.560000 -0.700005 -0.500003 0.000000 0.000000 0.000000
    58 2.132023 1.532021 4.999996 0.000000 0.000000 0.000000
    59 2.000002 4.938046 2.577995 0.000000 0.000000 0.000000
    60 11.123047 0.000000 0.000008 0.000000 0.000000 -0.100063
    61 1.999998 4.938044 -2.578003 0.000000 0.000000 0.000000
    62 2.132023 1.532022 -5.000000 0.000000 0.000000 0.000000
    63 1.500000 0.000000 0.000000 0.000000 0.000000 0.000000
    64 11.208302 0.000001 0.000004 0.065171 0.000000 0.000000
    65 11.123052 0.000000 -0.000002 0.000000 0.000000 -0.100081
    66 4.271700 -0.000004 0.000000 0.000000 0.000000 0.000000
    67 1.500002 0.000002 -0.000004 0.000000 0.000000 0.000000
    68 5.560001 -0.699999 0.500004 0.000000 0.000000 0.000000
  time 1
    0 32.626622 -14.636788 28.761176 1.727671 0.168160 -3.751138
    1 3.984016 -0.000004 -0.000002 -2.463718 -0.882363 -0.516994
    2 15.940012 0.000000 0.000000 0.000000 0.000000 1.442663
    3 17.709566 0.000001 0.000000 -0.053323 0.266084 -1.522510
    4 6.203999 0.000000 0.000000 -0.011146 0.002792 -0.500515
    5 -3.984013 0.000008 0.000008 -1.692808 -0.603148 -1.803078
    6 15.940014 0.000000 -0.000004 0.000000 0.000000 0.988536
    7 17.709564 0.000000 0.000000 0.588412 0.185197 -1.326020
    8 6.203999 0.000000 -0.000004 -0.078650 -0.006185 -0.498943
    9 -0.250003 4.208881 -1.689857 1.570796 -0.104858 1.630158
    10 3.837408 0.000001 0.000000 -0.232633 0.017030 0.080354
    11 3.617870 -0.000001 0.000000 -0.280193 -0.210150 0.284164
    12 7.539780 0.000000 -0.000004 0.116334 0.000983 0.232395
    13 3.178295 0.000001 0.000000 3.141590 0.000000 0.224127
    14 2.970276 0.000000 0.000000 1.101578 -0.115849 0.346398
    15 2.023705 0.907458 0.852581 4.576096 -1.437404 -0.040374
    16 4.983665 0.000000 -0.000001 -3.069323 -0.724314 0.141315
    17 11.123048 -0.000004 -0.000003 0.000000 0.000000 -0.951350
    18 11.208298 -0.000004 -0.000001 1.181310 0.397838 0.288832
    19 3.549244 0.198828 -1.489468 -0.463403 -0.186140 -1.428467
    20 1.219000 0.000000 0.000000 -0.000005 0.066202 -0.827640
    21 0.679999 0.000000 0.000000 0.000003 0.000006 -0.594000
    22 3.698009 0.267557 -0.728977 -0.161994 -0.106334 -1.434469
    23 1.749002 0.000000 0.000004 0.000009 0.006397 -0.777634
    24 0.960001 0.000000 0.000000 0.000000 0.000009 -1.170580
    25 3.768505 0.152552 0.071384 0.049930 -0.030486 -1.249500
    26 2.037998 0.000000 0.000000 0.000004 0.033589 -1.110951
    27 1.067001 0.000000 0.000000 -0.000011 -0.000003 -1.111216
    28 3.783920 -0.017254 0.794556 0.283487 0.115906 -1.212806
    29 1.629000 0.000000 0.000000 0.000003 -0.152214 -1.133717
    30 0.956003 0.000000 0.000004 0.000000 -0.000006 -1.021306
    31 1.258965 -0.297979 1.252586 -1.241289 -0.251338 -0.849490
    32 1.393002 -0.000002 0.000000 0.000000 -0.036075 0.257565
    33 1.099998 0.000000 0.000000 0.000000 0.000006 0.303667
    34 2.023712 0.907461 -0.852528 -2.567463 1.128076 2.001548
    35 4.983667 0.000008 0.000000 0.137717 1.438309 -1.904355
    36 11.123047 0.000001 0.000011 0.000000 0.000000 -1.287277
    37 11.208294 0.000001 0.000000 -0.820515 0.023857 0.465086
    38 3.549269 0.211411 1.487671 0.498222 0.156931 -0.982248
    39 1.219002 -0.000002 0.000004 0.000010 -0.456984 -1.112975
    40 0.680002 0.000000 0.000000 -0.000003 -0.000006 -0.672069
    41 3.698020 0.273716 0.726624 0.160532 0.000252 -0.910186
    42 1.748999 0.000000 0.000004 -0.000009 -0.214761 -1.281174
    43 0.959995 0.000000 0.000000 0.000000 -0.000009 -0.797298
    44 3.768500 0.151955 -0.072739 -0.084949 -0.177602 -0.644873
    45 2.038000 0.000000 0.000004 -0.000004 -0.031660 -1.425514
    46 1.067001 0.000002 0.000000 -0.003417 0.022223 -0.934717
    47 3.783907 -0.023952 -0.794449 -0.321526 -0.122640 -0.062418
    48 1.628999 0.000000 0.000000 -0.000003 0.126411 -0.583363
    49 0.956001 0.000000 0.000004 -0.051342 0.069085 -1.042848
    50 1.258940 -0.308544 -1.250050 1.282900 0.248609 -0.715173
    51 1.392998 0.000000 0.000000 0.000000 -0.010078 0.141859
    52 1.100002 0.000000 0.000000 0.000300 0.002007 1.187213
    53 4.271698 0.000000 0.000000 0.000000 0.000000 0.000000
    54 5.604149 0.000000 -0.000004 -0.030876 0.000000 0.000000
    55 5.604151 0.000000 0.000000 0.034930 0.000000 0.000000
    56 11.208302 -0.000004 -0.000005 -0.057543 0.000000 0.000000
    57 5.560000 -0.700005 -0.500003 0.000000 0.000000 0.000000
    58 2.132023 1.532021 4.999996 0.000000 0.000000 0.000000
    59 2.000002 4.938046 2.577995 0.000000 0.000000 0.000000
    60 11.123047 0.000000 0.000008 0.000000 0.000000 -0.100063
    61 1.999998 4.938044 -2.578003 0.000000 0.000000 0.000000
    62 2.132023 1.532022 -5.000000 0.000000 0.000000 0.000000
    63 1.500000 0.000000 0.000000 0.000000 0.000000 0.000000
    64 11.208302 0.000001 0.000004 0.065171 0.000000 0.000000
    65 11.123052 0.000000 -0.000002 0.000000 0.000000 -0.100081
    66 4.271700 -0.000004 0.000000 0.000000 0.000000 0.000000
    67 1.500002 0.000002 -0.000004 0.000000 0.000000 0.000000
    68 5.560001 -0.699999 0.500004 0.000000 0.000000 0.000000
  time 2
    0 31.470337 -14.016251 29.002829 1.717866 0.155651 -3.833767
    1 3.984016 -0.000004 -0.000002 -2.346579 -0.877582 -0.626279
    2 15.940012 0.000000 0.000000 0.000000 0.000000 1.433549
    3 17.709566 0.000001 0.000000 -0.086020 0.235200 -1.563741
    4 6.203999 0.000000 0.000000 -0.011146 0.002720 -0.500515
    5 -3.984013 0.000008 0.000008 -1.707725 -0.650121 -1.781276
    6 15.940014 0.000000 -0.000004 0.000000 0.000000 1.020486
    7 17.709564 0.000000 0.000000 0.596898 0.205420 -1.315459
    8 6.203999 0.000000 -0.000004 -0.078650 -0.006185 -0.498943
    9 -0.253909 4.208881 -1.689857 1.570796 -0.102063 1.631600
    10 3.837408 0.000001 0.000000 -0.224160 0.012128 0.073319
    11 3.617870 -0.000001 0.000000 -0.273548 -0.204697 0.273368
    12 7.539780 0.000000 -0.000004 0.107765 -0.004207 0.229695
    13 3.178295 0.000001 0.000000 3.141590 0.000000 0.224127
    14 2.970276 0.000000 0.000000 1.063187 -0.108124 0.334039
    15 2.023705 0.907458 0.852581 4.509472 -1.449533 0.026709
    16 4.983665 0.000000 -0.000001 -3.091856 -0.786106 0.093404
    17 11.123048 -0.000004 -0.000003 0.000000 0.000000 -1.011020
    18 11.208298 -0.000004 -0.000001 1.277559 0.400744 0.331911
    19 3.549244 0.198828 -1.489468 -0.463403 -0.186140 -1.428467
    20 1.219000 0.000000 0.000000 -0.000005 0.066202 -0.827640
    21 0.679999 0.000000 0.000000 0.000003 0.000006 -0.594000
    22 3.698009 0.267557 -0.728977 -0.161994 -0.106334 -1.434469
    23 1.749002 0.000000 0.000004 0.000009 0.006397 -0.777634
    24 0.960001 0.000000 0.000000 0.000012 0.000009 -1.170580
    25 3.768505 0.152552 0.071384 0.049930 -0.030486 -1.249500
    26 2.037998 0.000000 0.000000 0.000004 0.033589 -1.110951
    27 1.067001 0.000000 0.000000 -0.000011 -0.000003 -1.111216
    28 3.783920 -0.017254 0.794556 0.283487 0.115906 -1.212806
    29 1.629000 0.000000 0.000000 0.000003 -0.152214 -1.133717
    30 0.956003 0.000000 0.000004 0.000000 -0.000006 -1.021306
    31 1.258965 -0.297979 1.252586 -1.241289 -0.251338 -0.849490
    32 1.393002 -0.000002 0.000000 0.000000 -0.036075 0.257565
    33 1.099998 0.000000 0.000000 0.000000 0.000006 0.303667
    34 2.023712 0.907461 -0.852528 -2.537475 1.146102 2.034001
    35 4.983667 0.000008 0.000000 0.334588 1.353761 -1.775121
    36 11.123047 0.000001 0.000011 0.000000 0.000000 -1.331581
    37 11.208294 0.000001 0.000000 -0.919467 0.016183 0.446672
    38 3.549269 0.211411 1.487671 0.498222 0.156931 -0.982248
    39 1.219002 -0.000002 0.000004 0.000010 -0.456984 -1.112975
    40 0.680002 0.000000 0.000000 -0.000003 -0.000006 -0.672069
    41 3.698020 0.273716 0.726624 0.160532 0.000252 -0.910186
    42 1.748999 0.000000 0.000004 -0.000009 -0.214761 -1.281174
    43 0.959995 0.000000 0.000000 0.000000 -0.000009 -0.797298
    44 3.768500 0.151955 -0.072739 -0.084949 -0.177602 -0.644873
    45 2.038000 0.000000 0.000004 -0.000004 -0.031660 -1.425514
    46 1.067001 0.000002 0.000000 -0.003417 0.022223 -0.934717
    47 3.783907 -0.023952 -0.794449 -0.321526 -0.122640 -0.062418
    48 1.628999 0.000000 0.000000 -0.000003 0.126411 -0.583363
    49 0.956001 0.000000 0.000004 -0.051342 0.069097 -1.042848
    50 1.258940 -0.308544 -1.250050 1.282900 0.248609 -0.715173
    51 1.392998 0.000000 0.000000 0.000000 -0.010078 0.141859
    52 1.100002 0.000000 0.000000 0.000300 0.002007 1.187213
    53 4.271698 0.000000 0.000000 0.000000 0.000000 0.000000
    54 5.604149 0.000000 -0.000004 -0.030876 0.000000 0.000000
    55 5.604151 0.000000 0.000000 0.034930 0.000000 0.000000
    56 11.208302 -0.000004 -0.000005 -0.057543 0.000000 0.000000
    57 5.560000 -0.700005 -0.500003 0.000000 0.000000 0.000000
    58 2.132023 1.532021 4.999996 0.000000 0.000000 0.000000
    59 2.000002 4.938046 2.577995 0.000000 0.000000 0.000000
    60 11.123047 0.000000 0.000008 0.000000 0.000000 -0.100063
    61 1.999998 4.938044 -2.578003 0.000000 0.000000 0.000000
    62 2.132023 1.532022 -5.000000 0.000000 0.000000 0.000000
    63 1.500000 0.000000 0.000000 0.000000 0.000000 0.000000
    64 11.208302 0.000001 0.000004 0.065171 0.000000 0.000000
    65 11.123052 0.000000 -0.000002 0.000000 0.000000 -0.100081
    66 4.271700 -0.000004 0.000000 0.000000 0.000000 0.000000
    67 1.500002 0.000002 -0.000004 0.000000 0.000000 0.000000
    68 5.560001 -0.699999 0.500004 0.000000 0.000000 0.000000
  time 3
    0 29.677313 -13.060821 29.380412 1.706248 0.137043 -3.961033
    1 3.984016 -0.000004 -0.000002 -2.172212 -0.865825 -0.794593
    2 15.940012 0.000000 0.000000 0.000000 0.000000 1.414865
    3 17.709566 0.000001 0.000000 -0.126409 0.176116 -1.617454
    4 6.203999 0.000000 0.000000 -0.011146 0.002612 -0.500515
    5 -3.984013 0.000008 0.000008 -1.742913 -0.711060 -1.734532
    6 15.940014 0.000000 -0.000004 0.000000 0.000000 1.059266
    7 17.709564 0.000000 0.000000 0.611340 0.245313 -1.297311
    8 6.203999 0.000000 -0.000004 -0.078650 -0.006185 -0.498943
    9 -0.261722 4.204975 -1.689857 1.570796 -0.097733 1.633788
    10 3.837408 0.000001 0.000000 -0.211061 0.004542 0.062479
    11 3.617870 -0.000001 0.000000 -0.263258 -0.196272 0.256674
    12 7.539780 0.000000 -0.000004 0.094522 -0.012224 0.225520
    13 3.178295 0.000001 0.000000 3.141590 0.000000 0.224127
    14 2.970276 0.000000 0.000000 1.003458 -0.096844 0.315362
    15 2.023705 0.907458 0.852581 4.376606 -1.466927 0.160112
    16 4.983665 0.000000 -0.000001 -3.109165 -0.882316 0.012464
    17 11.123048 -0.000004 -0.000003 0.000000 0.000000 -1.094895
    18 11.208298 -0.000004 -0.000001 1.419913 0.403866 0.390342
    19 3.549244 0.198828 -1.489468 -0.463403 -0.186140 -1.428467
    20 1.219000 0.000000 0.000000 -0.000005 0.066202 -0.827640
    21 0.679999 0.000000 0.000000 0.000003 0.000006 -0.594000
    22 3.698009 0.267557 -0.728977 -0.161994 -0.106334 -1.434469
    23 1.749002 0.000000 0.000004 0.000009 0.006397 -0.777634
    24 0.960001 0.000000 0.000000 0.000012 0.000009 -1.170580
    25 3.768505 0.152552 0.071384 0.049930 -0.030486 -1.249500
    26 2.037998 0.000000 0.000000 0.000004 0.033589 -1.110951
    27 1.067001 0.000000 0.000000 -0.000011 -0.000003 -1.111216
    28 3.783920 -0.017254 0.794556 0.283487 0.115906 -1.212806
    29 1.629000 0.000000 0.000000 0.000003 -0.152214 -1.133717
    30 0.956003 0.000000 0.000004 0.000000 -0.000006 -1.021306
    31 1.258965 -0.297979 1.252586 -1.241289 -0.251338 -0.849490
    32 1.393002 -0.000002 0.000000 0.000000 -0.036075 0.257565
    33 1.099998 0.000000 0.000000 0.000000 0.000006 0.303667
    34 2.023712 0.907461 -0.852528 -2.485865 1.173056 2.089621
    35 4.983667 0.000008 0.000000 0.482263 1.211830 -1.740008
    36 11.123047 0.000001 0.000011 0.000000 0.000000 -1.394121
    37 11.208294 0.000001 0.000000 -1.080145 -0.010219 0.413932
    38 3.549269 0.211411 1.487671 0.498222 0.156931 -0.982248
    39 1.219002 -0.000002 0.000004 0.000010 -0.456984 -1.112975
    40 0.680002 0.000000 0.000000 -0.000003 -0.000006 -0.672069
    41 3.698020 0.273716 0.726624 0.160532 0.000252 -0.910186
    42 1.748999 0.000000 0.000004 -0.000009 -0.214761 -1.281174
    43 0.959995 0.000000 0.000000 -0.000012 -0.000009 -0.797298
    44 3.768500 0.151955 -0.072739 -0.084949 -0.177602 -0.644873
    45 2.038000 0.000000 0.000004 -0.000004 -0.031660 -1.425514
    46 1.067001 0.000002 0.000000 -0.003417 0.022223 -0.934717
    47 3.783907 -0.023952 -0.794449 -0.321526 -0.122640 -0.062418
    48 1.628999 0.000000 0.000000 -0.000003 0.126411 -0.583363
    49 0.956001 0.000000 0.000004 -0.051342 0.069097 -1.042848
    50 1.258940 -0.308544 -1.250050 1.282900 0.248609 -0.715173
    51 1.392998 0.000000 0.000000 0.000000 -0.010078 0.141859
    52 1.100002 0.000000 0.000000 0.000300 0.002007 1.187213
    53 4.271698 0.000000 0.000000 0.000000 0.000000 0.000000
    54 5.604149 0.000000 -0.000004 -0.030876 0.000000 0.000000
    55 5.604151 0.000000 0.000000 0.034930 0.000000 0.000000
    56 11.208302 -0.000004 -0.000005 -0.057543 0.000000 0.000000
    57 5.560000 -0.700005 -0.500003 0.000000 0.000000 0.000000
    58 2.132023 1.532021 4.999996 0.000000 0.000000 0.000000
    59 2.000002 4.938046 2.577995 0.000000 0.000000 0.000000
    60 11.123047 0.000000 0.000008 0.000000 0.000000 -0.100063
    61 1.999998 4.938044 -2.578003 0.000000 0.000000 0.000000
    62 2.132023 1.532022 -5.000000 0.000000 0.000000 0.000000
    63 1.500000 0.000000 0.000000 0.000000 0.000000 0.000000
    64 11.208302 0.000001 0.000004 0.065171 0.000000 0.000000
    65 11.123052 0.000000 -0.000002 0.000000 0.000000 -0.100081
    66 4.271700 -0.000004 0.000000 0.000000 0.000000 0.000000
    67 1.500002 0.000002 -0.000004 0.000000 0.000000 0.000000
    68 5.560001 -0.699999 0.500004 0.000000 0.000000 0.000000
  time 4
    0 27.368649 -11.829597 29.863718 1.696779 0.115339 -4.124675
    1 3.984016 -0.000004 -0.000002 -1.971772 -0.842605 -0.997046
    2 15.940012 0.000000 0.000000 0.000000 0.000000 1.383954
    3 17.709566 0.000001 0.000000 -0.157915 0.090482 -1.666614
    4 6.203999 0.000000 0.000000 -0.011146 0.002480 -0.500515
    5 -3.984013 0.000008 0.000008 -1.805641 -0.767698 -1.654657
    6 15.940014 0.000000 -0.000004 0.000000 0.000000 1.092598
    7 17.709564 0.000000 0.000000 0.631819 0.307573 -1.272754
    8 6.203999 0.000000 -0.000004 -0.078650 -0.006185 -0.498943
    9 -0.273441 4.204975 -1.689857 1.570796 -0.092169 1.636572
    10 3.837408 0.000001 0.000000 -0.194198 -0.005213 0.048492
    11 3.617870 -0.000001 0.000000 -0.249999 -0.185426 0.235159
    12 7.539780 0.000000 -0.000004 0.077444 -0.022567 0.220121
    13 3.178295 0.000001 0.000000 3.141590 0.000000 0.224127
    14 2.970276 0.000000 0.000000 0.925932 -0.083507 0.292031
    15 2.023705 0.907458 0.852581 4.131556 -1.485416 0.405638
    16 4.983665 0.000000 -0.000001 -3.081651 -0.994993 -0.114511
    17 11.123048 -0.000004 -0.000003 0.000000 0.000000 -1.191291
    18 11.208298 -0.000004 -0.000001 1.577279 0.405254 0.448210
    19 3.549244 0.198828 -1.489468 -0.463403 -0.186140 -1.428467
    20 1.219000 0.000000 0.000000 -0.000005 0.066202 -0.827640
    21 0.679999 0.000000 0.000000 0.000003 0.000006 -0.594000
    22 3.698009 0.267557 -0.728977 -0.161994 -0.106334 -1.434469
    23 1.749002 0.000000 0.000004 0.000009 0.006397 -0.777634
    24 0.960001 0.000000 0.000000 0.000000 0.000009 -1.170580
    25 3.768505 0.152552 0.071384 0.049930 -0.030486 -1.249500
    26 2.037998 0.000000 0.000000 0.000004 0.033589 -1.110951
    27 1.067001 0.000000 0.000000 -0.000011 -0.000003 -1.111216
    28 3.783920 -0.017254 0.794556 0.283487 0.115906 -1.212806
    29 1.629000 0.000000 0.000000 0.000003 -0.152214 -1.133717
    30 0.956003 0.000000 0.000004 0.000000 -0.000006 -1.021306
    31 1.258965 -0.297979 1.252586 -1.241289 -0.251338 -0.849490
    32 1.393002 -0.000002 0.000000 0.000000 -0.036075 0.257565
    33 1.099998 0.000000 0.000000 0.000000 0.000006 0.303667
    34 2.023712 0.907461 -0.852528 -2.408121 1.205905 2.172536
    35 4.983667 0.000008 0.000000 0.606746 1.029178 -1.760134
    36 11.123047 0.000001 0.000011 0.000000 0.000000 -1.465575
    37 11.208294 0.000001 0.000000 -1.277990 -0.065417 0.371248
    38 3.549269 0.211411 1.487671 0.498222 0.156931 -0.982248
    39 1.219002 -0.000002 0.000004 0.000010 -0.456984 -1.112975
    40 0.680002 0.000000 0.000000 -0.000003 -0.000006 -0.672069
    41 3.698020 0.273716 0.726624 0.160532 0.000252 -0.910186
    42 1.748999 0.000000 0.000004 -0.000009 -0.214761 -1.281174
    43 0.959995 0.000000 0.000000 0.000000 -0.000009 -0.797298
    44 3.768500 0.151955 -0.072739 -0.084949 -0.177602 -0.644873
    45 2.038000 0.000000 0.000004 -0.000004 -0.031660 -1.425514
    46 1.067001 0.000002 0.000000 -0.003417 0.022223 -0.934717
    47 3.783907 -0.023952 -0.794449 -0.321526 -0.122640 -0.062418
    48 1.628999 0.000000 0.000000 -0.000003 0.126411 -0.583363
    49 0.956001 0.000000 0.000004 -0.051342 0.069085 -1.042848
    50 1.258940 -0.308544 -1.250050 1.282900 0.248609 -0.715173
    51 1.392998 0.000000 0.000000 0.000000 -0.010078 0.141859
    52 1.100002 0.000000 0.000000 0.000300 0.002007 1.187213
    53 4.271698 0.000000 0.000000 0.000000 0.000000 0.000000
    54 5.604149 0.000000 -0.000004 -0.030876 0.000000 0.000000
    55 5.604151 0.000000 0.000000 0.034930 0.000000 0.000000
    56 11.208302 -0.000004 -0.000005 -0.057543 0.000000 0.000000
    57 5.560000 -0.700005 -0.500003 0.000000 0.000000 0.000000
    58 2.132023 1.532021 4.999996 0.000000 0.000000 0.000000
    59 2.000002 4.938046 2.577995 0.000000 0.000000 0.000000
    60 11.123047 0.000000 0.000008 0.000000 0.000000 -0.100063
    61 1.999998 4.938044 -2.578003 0.000000 0.000000 0.000000
    62 2.132023 1.532022 -5.000000 0.000000 0.000000 0.000000
    63 1.500000 0.000000 0.000000 0.000000 0.000000 0.000000
    64 11.208302 0.000001 0.000004 0.065171 0.000000 0.000000
    65 11.123052 0.000000 -0.000002 0.000000 0.000000 -0.100081
    66 4.271700 -0.000004 0.000000 0.000000 0.000000 0.000000
    67 1.500002 0.000002 -0.000004 0.000000 0.000000 0.000000
    68 5.560001 -0.699999 0.500004 0.000000 0.000000 0.000000
  time 5
    0 24.657629 -10.381677 30.422541 1.692616 0.094729 -4.316715
    1 3.984016 -0.000004 -0.000002 -1.788874 -0.808848 -1.193301
    2 15.940012 0.000000 0.000000 0.000000 0.000000 1.339676
    3 17.709566 0.000001 0.000000 -0.166707 -0.003990 -1.696847
    4 6.203999 0.000000 0.000000 -0.011146 0.002324 -0.500515
    5 -3.984013 0.000008 0.000008 -1.884145 -0.802879 -1.549649
    6 15.940014 0.000000 -0.000004 0.000000 0.000000 1.111215
    7 17.709564 0.000000 0.000000 0.652299 0.385214 -1.247019
    8 6.203999 0.000000 -0.000004 -0.078650 -0.006185 -0.498943
    9 -0.289066 4.204975 -1.689857 1.570796 -0.085622 1.639853
    10 3.837408 0.000001 0.000000 -0.174400 -0.016683 0.032066
    11 3.617870 -0.000001 0.000000 -0.234448 -0.172674 0.209916
    12 7.539780 0.000000 -0.000004 0.057382 -0.034707 0.213768
    13 3.178295 0.000001 0.000000 3.141590 0.000000 0.224127
    14 2.970276 0.000000 0.000000 0.834021 -0.069484 0.265833
    15 2.023705 0.907458 0.852581 3.717230 -1.497208 0.819969
    16 4.983665 0.000000 -0.000001 -2.952654 -1.089879 -0.313231
    17 11.123048 -0.000004 -0.000003 0.000000 0.000000 -1.291535
    18 11.208298 -0.000004 -0.000001 1.707058 0.403042 0.489199
    19 3.549244 0.198828 -1.489468 -0.463403 -0.186140 -1.428467
    20 1.219000 0.000000 0.000000 -0.000005 0.066202 -0.827640
    21 0.679999 0.000000 0.000000 0.000003 0.000006 -0.594000
    22 3.698009 0.267557 -0.728977 -0.161994 -0.106334 -1.434469
    23 1.749002 0.000000 0.000004 0.000009 0.006397 -0.777634
    24 0.960001 0.000000 0.000000 0.000000 0.000009 -1.170580
    25 3.768505 0.152552 0.071384 0.049930 -0.030486 -1.249500
    26 2.037998 0.000000 0.000000 0.000004 0.033589 -1.110951
    27 1.067001 0.000000 0.000000 -0.000011 -0.000003 -1.111216
    28 3.783920 -0.017254 0.794556 0.283487 0.115906 -1.212806
    29 1.629000 0.000000 0.000000 0.000003 -0.152214 -1.133717
    30 0.956003 0.000000 0.000004 0.000000 -0.000006 -1.021306
    31 1.258965 -0.297979 1.252586 -1.241289 -0.251338 -0.849490
    32 1.393002 -0.000002 0.000000 0.000000 -0.036075 0.257565
    33 1.099998 0.000000 0.000000 0.000000 0.000006 0.303667
    34 2.023712 0.907461 -0.852528 -2.297756 1.240847 2.289124
    35 4.983667 0.000008 0.000000 0.721510 0.842593 -1.781716
    36 11.123047 0.000001 0.000011 0.000000 0.000000 -1.538110
    37 11.208294 0.000001 0.000000 -1.457221 -0.138964 0.326246
    38 3.549269 0.211411 1.487671 0.498222 0.156931 -0.982248
    39 1.219002 -0.000002 0.000004 0.000010 -0.456984 -1.112975
    40 0.680002 0.000000 0.000000 -0.000003 -0.000006 -0.672069
    41 3.698020 0.273716 0.726624 0.160532 0.000252 -0.910186
    42 1.748999 0.000000 0.000004 -0.000009 -0.214761 -1.281174
    43 0.959995 0.000000 0.000000 -0.000012 -0.000009 -0.797298
    44 3.768500 0.151955 -0.072739 -0.084949 -0.177602 -0.644873
    45 2.038000 0.000000 0.000004 -0.000004 -0.031660 -1.425514
    46 1.067001 0.000002 0.000000 -0.003417 0.022223 -0.934717
    47 3.783907 -0.023952 -0.794449 -0.321526 -0.122640 -0.062418
    48 1.628999 0.000000 0.000000 -0.000003 0.126411 -0.583363
    49 0.956001 0.000000 0.000004 -0.051342 0.069097 -1.042848
    50 1.258940 -0.308544 -1.250050 1.282900 0.248609 -0.715173
    51 1.392998 0.000000 0.000000 0.000000 -0.010078 0.141859
    52 1.100002 0.000000 0.000000 0.000300 0.002007 1.187213
    53 4.271698 0.000000 0.000000 0.000000 0.000000 0.000000
    54 5.604149 0.000000 -0.000004 -0.030876 0.000000 0.000000
    55 5.604151 0.000000 0.000000 0.034930 0.000000 0.000000
    56 11.208302 -0.000004 -0.000005 -0.057543 0.000000 0.000000
    57 5.560000 -0.700005 -0.500003 0.000000 0.000000 0.000000
    58 2.132023 1.532021 4.999996 0.000000 0.000000 0.000000
    59 2.000002 4.938046 2.577995 0.000000 0.000000 0.000000
    60 11.123047 0.000000 0.000008 0.000000 0.000000 -0.100063
    61 1.999998 4.938044 -2.578003 0.000000 0.000000 0.000000
    62 2.132023 1.532022 -5.000000 0.000000 0.000000 0.000000
    63 1.500000 0.000000 0.000000 0.000000 0.000000 0.000000
    64 11.208302 0.000001 0.000004 0.065171 0.000000 0.000000
    65 11.123052 0.000000 -0.000002 0.000000 0.000000 -0.100081
    66 4.271700 -0.000004 0.000000 0.000000 0.000000 0.000000
    67 1.500002 0.000002 -0.000004 0.000000 0.000000 0.000000
    68 5.560001 -0.699999 0.500004 0.000000 0.000000 0.000000
  time 6
    0 21.661444 -8.786011 31.056880 1.694496 0.079936 -4.529079
    1 3.984016 -0.000004 -0.000002 -1.658219 -0.774700 -1.345880
    2 15.940012 0.000000 0.000000 0.000000 0.000000 1.283625
    3 17.709566 0.000001 0.000000 -0.149672 -0.081474 -1.701962
    4 6.203999 0.000000 0.000000 -0.011146 0.002144 -0.500515
    5 -3.984013 0.000008 0.000008 -1.922680 -0.810611 -1.460063
    6 15.940014 0.000000 -0.000004 0.000000 0.000000 1.109427
    7 17.709564 0.000000 0.000000 0.646669 0.452687 -1.236253
    8 6.203999 0.000000 -0.000004 -0.078650 -0.006185 -0.498943
    9 -0.304692 4.204975 -1.689857 1.570796 -0.078391 1.643532
    10 3.837408 0.000001 0.000000 -0.152492 -0.029374 0.013911
    11 3.617870 -0.000001 0.000000 -0.217236 -0.158580 0.182004
    12 7.539780 0.000000 -0.000004 0.035211 -0.048118 0.206699
    13 3.178295 0.000001 0.000000 3.141590 0.000000 0.224127
    14 2.970276 0.000000 0.000000 0.731485 -0.055912 0.238495
    15 2.023705 0.907458 0.852581 3.210451 -1.492449 1.326288
    16 4.983665 0.000000 -0.000001 -2.705764 -1.126573 -0.577708
    17 11.123048 -0.000004 -0.000003 0.000000 0.000000 -1.389610
    18 11.208298 -0.000004 -0.000001 1.775110 0.394238 0.503184
    19 3.549244 0.198828 -1.489468 -0.463403 -0.186140 -1.428467
    20 1.219000 0.000000 0.000000 -0.000005 0.066202 -0.827640
    21 0.679999 0.000000 0.000000 0.000003 0.000006 -0.594000
    22 3.698009 0.267557 -0.728977 -0.161994 -0.106334 -1.434469
    23 1.749002 0.000000 0.000004 0.000009 0.006397 -0.777634
    24 0.960001 0.000000 0.000000 0.000012 0.000009 -1.170544
    25 3.768505 0.152552 0.071384 0.049930 -0.030486 -1.249500
    26 2.037998 0.000000 0.000000 0.000004 0.033589 -1.110951
    27 1.067001 0.000000 0.000000 -0.000011 -0.000003 -1.111216
    28 3.783920 -0.017254 0.794556 0.283487 0.115906 -1.212806
    29 1.629000 0.000000 0.000000 0.000003 -0.152214 -1.133717
    30 0.956003 0.000000 0.000004 0.000000 -0.000006 -1.021306
    31 1.258965 -0.297979 1.252586 -1.241289 -0.251338 -0.849490
    32 1.393002 -0.000002 0.000000 0.000000 -0.036075 0.257565
    33 1.099998 0.000000 0.000000 0.000000 0.000006 0.303667
    34 2.023712 0.907461 -0.852528 -2.147250 1.273482 2.446699
    35 4.983667 0.000008 0.000000 0.814958 0.686122 -1.766215
    36 11.123047 0.000001 0.000011 0.000000 0.000000 -1.606458
    37 11.208294 0.000001 0.000000 -1.565660 -0.200811 0.276314
    38 3.549269 0.211411 1.487671 0.498222 0.156931 -0.982248
    39 1.219002 -0.000002 0.000004 0.000010 -0.456984 -1.112975
    40 0.680002 0.000000 0.000000 -0.000003 -0.000006 -0.672069
    41 3.698020 0.273716 0.726624 0.160532 0.000252 -0.910186
    42 1.748999 0.000000 0.000004 -0.000009 -0.214761 -1.281174
    43 0.959995 0.000000 0.000000 -0.000012 -0.000009 -0.797298
    44 3.768500 0.151955 -0.072739 -0.084949 -0.177602 -0.644873
    45 2.038000 0.000000 0.000004 -0.000004 -0.031660 -1.425514
    46 1.067001 0.000002 0.000000 -0.003417 0.022223 -0.934717
    47 3.783907 -0.023952 -0.794449 -0.321526 -0.122640 -0.062418
    48 1.628999 0.000000 0.000000 -0.000003 0.126411 -0.583363
    49 0.956001 0.000000 0.000004 -0.051342 0.069097 -1.042848
    50 1.258940 -0.308544 -1.250050 1.282900 0.248609 -0.715173
    51 1.392998 0.000000 0.000000 0.000000 -0.010078 0.141859
    52 1.100002 0.000000 0.000000 0.000300 0.002007 1.187213
    53 4.271698 0.000000 0.000000 0.000000 0.000000 0.000000
    54 5.604149 0.000000 -0.000004 -0.030876 0.000000 0.000000
    55 5.604151 0.000000 0.000000 0.034930 0.000000 0.000000
    56 11.208302 -0.000004 -0.000005 -0.057543 0.000000 0.000000
    57 5.560000 -0.700005 -0.500003 0.000000 0.000000 0.000000
    58 2.132023 1.532021 4.999996 0.000000 0.000000 0.000000
    59 2.000002 4.938046 2.577995 0.000000 0.000000 0.000000
    60 11.123047 0.000000 0.000008 0.000000 0.000000 -0.100063
    61 1.999998 4.938044 -2.578003 0.000000 0.000000 0.000000
    62 2.132023 1.532022 -5.000000 0.000000 0.000000 0.000000
    63 1.500000 0.000000 0.000000 0.000000 0.000000 0.000000
    64 11.208302 0.000001 0.000004 0.065171 0.000000 0.000000
    65 11.123052 0.000000 -0.000002 0.000000 0.000000 -0.100081
    66 4.271700 -0.000004 0.000000 0.000000 0.000000 0.000000
    67 1.500002 0.000002 -0.000004 0.000000 0.000000 0.000000
    68 5.560001 -0.699999 0.500004 0.000000 0.000000 0.000000
  time 7
    0 18.493378 -7.091846 31.706322 1.700607 0.074964 1.529284
    1 3.984016 -0.000004 -0.000002 -1.590926 -0.750163 -1.436093
    2 15.940012 0.000000 0.000000 0.000000 0.000000 1.219069
    3 17.709566 0.000001 0.000000 -0.113770 -0.123740 -1.683188
    4 6.203999 0.000000 0.000000 -0.011146 0.001965 -0.500515
    5 -3.984013 0.000008 0.000008 -1.776667 -0.803024 -1.477580
    6 15.940014 0.000000 -0.000004 0.000000 0.000000 1.085281
    7 17.709564 0.000000 0.000000 0.536846 0.435976 -1.283110
    8 6.203999 0.000000 -0.000004 -0.078650 -0.006185 -0.498943
    9 -0.320317 4.201069 -1.689857 1.570796 -0.070741 1.647360
    10 3.837408 0.000001 0.000000 -0.129338 -0.042785 -0.005282
    11 3.617870 -0.000001 0.000000 -0.199055 -0.143671 0.152478
    12 7.539780 0.000000 -0.000004 0.011745 -0.062308 0.199182
    13 3.178295 0.000001 0.000000 3.141590 0.000000 0.224127
    14 2.970276 0.000000 0.000000 0.622127 -0.043585 0.211712
    15 2.023705 0.907458 0.852581 2.824814 -1.470296 1.710751
    16 4.983665 0.000000 -0.000001 -2.433483 -1.086014 -0.805223
    17 11.123048 -0.000004 -0.000003 0.000000 0.000000 -1.481879
    18 11.208298 -0.000004 -0.000001 1.767871 0.371425 0.489039
    19 3.549244 0.198828 -1.489468 -0.463403 -0.186140 -1.428467
    20 1.219000 0.000000 0.000000 -0.000005 0.066202 -0.827640
    21 0.679999 0.000000 0.000000 0.000003 0.000006 -0.594000
    22 3.698009 0.267557 -0.728977 -0.161994 -0.106334 -1.434469
    23 1.749002 0.000000 0.000004 0.000009 0.006397 -0.777634
    24 0.960001 0.000000 0.000000 0.000000 0.000009 -1.170580
    25 3.768505 0.152552 0.071384 0.049930 -0.030486 -1.249500
    26 2.037998 0.000000 0.000000 0.000004 0.033589 -1.110951
    27 1.067001 0.000000 0.000000 -0.000011 -0.000003 -1.111216
    28 3.783920 -0.017254 0.794556 0.283487 0.115906 -1.212806
    29 1.629000 0.000000 0.000000 0.000003 -0.152214 -1.133717
    30 0.956003 0.000000 0.000004 0.000000 -0.000006 -1.021306
    31 1.258965 -0.297979 1.252586 -1.241289 -0.251338 -0.849490
    32 1.393002 -0.000002 0.000000 0.000000 -0.036075 0.257565
    33 1.099998 0.000000 0.000000 0.000000 0.000006 0.303667
    34 2.023712 0.907461 -0.852528 -1.953407 1.298684 2.648171
    35 4.983667 0.000008 0.000000 0.874641 0.568511 -1.702326
    36 11.123047 0.000001 0.000011 0.000000 0.000000 -1.667376
    37 11.208294 0.000001 0.000000 -1.593221 -0.225998 0.213825
    38 3.549269 0.211411 1.487671 0.498222 0.156931 -0.982248
    39 1.219002 -0.000002 0.000004 0.000010 -0.456984 -1.112975
    40 0.680002 0.000000 0.000000 -0.000003 -0.000006 -0.672069
    41 3.698020 0.273716 0.726624 0.160532 0.000252 -0.910186
    42 1.748999 0.000000 0.000004 -0.000009 -0.214761 -1.281174
    43 0.959995 0.000000 0.000000 -0.000012 -0.000009 -0.797298
    44 3.768500 0.151955 -0.072739 -0.084949 -0.177602 -0.644873
    45 2.038000 0.000000 0.000004 -0.000004 -0.031660 -1.425514
    46 1.067001 0.000002 0.000000 -0.003429 0.022223 -0.934717
    47 3.783907 -0.023952 -0.794449 -0.321526 -0.122640 -0.062418
    48 1.628999 0.000000 0.000000 -0.000003 0.126411 -0.583363
    49 0.956001 0.000000 0.000004 -0.051342 0.069097 -1.042848
    50 1.258940 -0.308544 -1.250050 1.282900 0.248609 -0.715173
    51 1.392998 0.000000 0.000000 0.000000 -0.010078 0.141859
    52 1.100002 0.000000 0.000000 0.000300 0.002007 1.187213
    53 4.271698 0.000000 0.000000 0.000000 0.000000 0.000000
    54 5.604149 0.000000 -0.000004 -0.030876 0.000000 0.000000
    55 5.604151 0.000000 0.000000 0.034930 0.000000 0.000000
    56 11.208302 -0.000004 -0.000005 -0.057543 0.000000 0.000000
    57 5.560000 -0.700005 -0.500003 0.000000 0.000000 0.000000
    58 2.132023 1.532021 4.999996 0.000000 0.000000 0.000000
    59 2.000002 4.938046 2.577995 0.000000 0.000000 0.000000
    60 11.123047 0.000000 0.000008 0.000000 0.000000 -0.100063
    61 1.999998 4.938044 -2.578003 0.000000 0.000000 0.000000
    62 2.132023 1.532022 -5.000000 0.000000 0.000000 0.000000
    63 1.500000 0.000000 0.000000 0.000000 0.000000 0.000000
    64 11.208302 0.000001 0.000004 0.065171 0.000000 0.000000
    65 11.123052 0.000000 -0.000002 0.000000 0.000000 -0.100081
    66 4.271700 -0.000004 0.000000 0.000000 0.000000 0.000000
    67 1.500002 0.000002 -0.000004 0.000000 0.000000 0.000000
    68 5.560001 -0.699999 0.500004 0.000000 0.000000 0.000000
  time 8
    0 15.266717 -5.368132 32.385971 1.707322 0.081813 1.300394
    1 3.984016 -0.000004 -0.000002 -1.583929 -0.735675 -1.460696
    2 15.940012 0.000000 0.000000 0.000000 0.000000 1.150259
    3 17.709566 0.000001 0.000000 -0.068618 -0.124634 -1.645947
    4 6.203999 0.000000 0.000000 -0.011146 0.001773 -0.500515
    5 -3.984013 0.000008 0.000008 -1.165460 -0.723383 -1.751288
    6 15.940014 0.000000 -0.000004 0.000000 0.000000 1.039185
    7 17.709564 0.000000 0.000000 0.209661 0.134841 -1.396101
    8 6.203999 0.000000 -0.000004 -0.078650 -0.006185 -0.498943
    9 -0.335943 4.201069 -1.689857 1.570796 -0.062960 1.651288
    10 3.837408 0.000001 0.000000 -0.105776 -0.056435 -0.024821
    11 3.617870 -0.000001 0.000000 -0.180535 -0.128499 0.122433
    12 7.539780 0.000000 -0.000004 -0.012116 -0.076737 0.191516
    13 3.178295 0.000001 0.000000 3.141590 0.000000 0.224127
    14 2.970276 0.000000 0.000000 0.510015 -0.032919 0.186870
    15 2.023705 0.907458 0.852581 2.595586 -1.438541 1.938242
    16 4.983665 0.000000 -0.000001 -2.224149 -0.987421 -0.904855
    17 11.123048 -0.000004 -0.000003 0.000000 0.000000 -1.565824
    18 11.208298 -0.000004 -0.000001 1.690521 0.323457 0.454961
    19 3.549244 0.198828 -1.489468 -0.463403 -0.186140 -1.428467
    20 1.219000 0.000000 0.000000 -0.000005 0.066202 -0.827640
    21 0.679999 0.000000 0.000000 0.000003 0.000006 -0.594000
    22 3.698009 0.267557 -0.728977 -0.161994 -0.106334 -1.434469
    23 1.749002 0.000000 0.000004 0.000009 0.006397 -0.777634
    24 0.960001 0.000000 0.000000 0.000000 0.000009 -1.170580
    25 3.768505 0.152552 0.071384 0.049930 -0.030486 -1.249500
    26 2.037998 0.000000 0.000000 0.000004 0.033589 -1.110951
    27 1.067001 0.000000 0.000000 -0.000011 -0.000003 -1.111216
    28 3.783920 -0.017254 0.794556 0.283487 0.115906 -1.212806
    29 1.629000 0.000000 0.000000 0.000003 -0.152214 -1.133717
    30 0.956003 0.000000 0.000004 0.000000 -0.000006 -1.021306
    31 1.258965 -0.297979 1.252586 -1.241289 -0.251338 -0.849490
    32 1.393002 -0.000002 0.000000 0.000000 -0.036075 0.257565
    33 1.099998 0.000000 0.000000 0.000000 0.000006 0.303667
    34 2.023712 0.907461 -0.852528 -1.726380 1.311670 2.883221
    35 4.983667 0.000008 0.000000 0.898685 0.482255 -1.600926
    36 11.123047 0.000001 0.000011 0.000000 0.000000 -1.719853
    37 11.208294 0.000001 0.000000 -1.565000 -0.207307 0.141055
    38 3.549269 0.211411 1.487671 0.498222 0.156931 -0.982248
    39 1.219002 -0.000002 0.000004 0.000010 -0.456984 -1.112975
    40 0.680002 0.000000 0.000000 -0.000003 -0.000006 -0.672069
    41 3.698020 0.273716 0.726624 0.160532 0.000252 -0.910186
    42 1.748999 0.000000 0.000004 -0.000009 -0.214761 -1.281174
    43 0.959995 0.000000 0.000000 -0.000012 -0.000009 -0.797298
    44 3.768500 0.151955 -0.072739 -0.084949 -0.177602 -0.644873
    45 2.038000 0.000000 0.000004 -0.000004 -0.031660 -1.425514
    46 1.067001 0.000002 0.000000 -0.003429 0.022223 -0.934717
    47 3.783907 -0.023952 -0.794449 -0.321526 -0.122640 -0.062418
    48 1.628999 0.000000 0.000000 -0.000003 0.126411 -0.583363
    49 0.956001 0.000000 0.000004 -0.051342 0.069097 -1.042848
    50 1.258940 -0.308544 -1.250050 1.282900 0.248609 -0.715173
    51 1.392998 0.000000 0.000000 0.000000 -0.010078 0.141859
    52 1.100002 0.000000 0.000000 0.000300 0.002007 1.187213
    53 4.271698 0.000000 0.000000 0.000000 0.000000 0.000000
    54 5.604149 0.000000 -0.000004 -0.030876 0.000000 0.000000
    55 5.604151 0.000000 0.000000 0.034930 0.000000 0.000000
    56 11.208302 -0.000004 -0.000005 -0.057543 0.000000 0.000000
    57 5.560000 -0.700005 -0.500003 0.000000 0.000000 0.000000
    58 2.132023 1.532021 4.999996 0.000000 0.000000 0.000000
    59 2.000002 4.938046 2.577995 0.000000 0.000000 0.000000
    60 11.123047 0.000000 0.000008 0.000000 0.000000 -0.100063
    61 1.999998 4.938044 -2.578003 0.000000 0.000000 0.000000
    62 2.132023 1.532022 -5.000000 0.000000 0.000000 0.000000
    63 1.500000 0.000000 0.000000 0.000000 0.000000 0.000000
    64 11.208302 0.000001 0.000004 0.065171 0.000000 0.000000
    65 11.123052 0.000000 -0.000002 0.000000 0.000000 -0.100081
    66 4.271700 -0.000004 0.000000 0.000000 0.000000 0.000000
    67 1.500002 0.000002 -0.000004 0.000000 0.000000 0.000000
    68 5.560001 -0.699999 0.500004 0.000000 0.000000 0.000000
  time 9
    0 12.098652 -3.673968 33.050517 1.710412 0.099670 1.075683
    1 3.984016 -0.000004 -0.000002 -1.633200 -0.722455 -1.424459
    2 15.940012 0.000000 0.000000 0.000000 0.000000 1.080765
    3 17.709566 0.000001 0.000000 -0.018887 -0.084259 -1.597401
    4 6.203999 0.000000 0.000000 -0.011146 0.001593 -0.500515
    5 -3.984013 0.000008 0.000008 -0.566109 -0.474407 -1.940741
    6 15.940014 0.000000 -0.000004 0.000000 0.000000 0.973252
    7 17.709564 0.000000 0.000000 -0.106755 -0.295620 -1.386514
    8 6.203999 0.000000 -0.000004 -0.078650 -0.006185 -0.498943
    9 -0.351568 4.201069 -1.689857 1.570796 -0.055323 1.655166
    10 3.837408 0.000001 0.000000 -0.082634 -0.069834 -0.043997
    11 3.617870 -0.000001 0.000000 -0.162369 -0.113602 0.092945
    12 7.539780 0.000000 -0.000004 -0.035558 -0.090903 0.183940
    13 3.178295 0.000001 0.000000 3.141590 0.000000 0.224127
    14 2.970276 0.000000 0.000000 0.399302 -0.024004 0.165049
    15 2.023705 0.907458 0.852581 2.460527 -1.403333 2.070881
    16 4.983665 0.000000 -0.000001 -2.070496 -0.864684 -0.889429
    17 11.123048 -0.000004 -0.000003 0.000000 0.000000 -1.639835
    18 11.208298 -0.000004 -0.000001 1.564095 0.242526 0.417266
    19 3.549244 0.198828 -1.489468 -0.463403 -0.186140 -1.428467
    20 1.219000 0.000000 0.000000 -0.000005 0.066202 -0.827640
    21 0.679999 0.000000 0.000000 0.000003 0.000006 -0.594000
    22 3.698009 0.267557 -0.728977 -0.161994 -0.106334 -1.434469
    23 1.749002 0.000000 0.000004 0.000009 0.006397 -0.777634
    24 0.960001 0.000000 0.000000 0.000012 0.000009 -1.170580
    25 3.768505 0.152552 0.071384 0.049930 -0.030486 -1.249500
    26 2.037998 0.000000 0.000000 0.000004 0.033589 -1.110951
    27 1.067001 0.000000 0.000000 -0.000011 -0.000003 -1.111216
    28 3.783920 -0.017254 0.794556 0.283487 0.115906 -1.212806
    29 1.629000 0.000000 0.000000 0.000003 -0.152214 -1.133717
    30 0.956003 0.000000 0.000004 0.000000 -0.000006 -1.021306
    31 1.258965 -0.297979 1.252586 -1.241289 -0.251338 -0.849490
    32 1.393002 -0.000002 0.000000 0.000000 -0.036075 0.257565
    33 1.099998 0.000000 0.000000 0.000000 0.000006 0.303667
    34 2.023712 0.907461 -0.852528 -1.493712 1.310218 3.124087
    35 4.983667 0.000008 0.000000 0.894252 0.417525 -1.482056
    36 11.123047 0.000001 0.000011 0.000000 0.000000 -1.763954
    37 11.208294 0.000001 0.000000 -1.515944 -0.154008 0.068538
    38 3.549269 0.211411 1.487671 0.498222 0.156931 -0.982248
    39 1.219002 -0.000002 0.000004 0.000010 -0.456984 -1.112975
    40 0.680002 0.000000 0.000000 -0.000003 -0.000006 -0.672069
    41 3.698020 0.273716 0.726624 0.160532 0.000252 -0.910186
    42 1.748999 0.000000 0.000004 -0.000009 -0.214761 -1.281174
    43 0.959995 0.000000 0.000000 -0.000012 -0.000009 -0.797298
    44 3.768500 0.151955 -0.072739 -0.084949 -0.177602 -0.644873
    45 2.038000 0.000000 0.000004 -0.000004 -0.031660 -1.425514
    46 1.067001 0.000002 0.000000 -0.003417 0.022223 -0.934717
    47 3.783907 -0.023952 -0.794449 -0.321526 -0.122640 -0.062418
    48 1.628999 0.000000 0.000000 -0.000003 0.126411 -0.583363
    49 0.956001 0.000000 0.000004 -0.051342 0.069097 -1.042848
    50 1.258940 -0.308544 -1.250050 1.282900 0.248609 -0.715173
    51 1.392998 0.000000 0.000000 0.000000 -0.010078 0.141859
    52 1.100002 0.000000 0.000000 0.000300 0.002007 1.187213
    53 4.271698 0.000000 0.000000 0.000000 0.000000 0.000000
    54 5.604149 0.000000 -0.000004 -0.030876 0.000000 0.000000
    55 5.604151 0.000000 0.000000 0.034930 0.000000 0.000000
    56 11.208302 -0.000004 -0.000005 -0.057543 0.000000 0.000000
    57 5.560000 -0.700005 -0.500003 0.000000 0.000000 0.000000
    58 2.132023 1.532021 4.999996 0.000000 0.000000 0.000000
    59 2.000002 4.938046 2.577995 0.000000 0.000000 0.000000
    60 11.123047 0.000000 0.000008 0.000000 0.000000 -0.100063
    61 1.999998 4.938044 -2.578003 0.000000 0.000000 0.000000
    62 2.132023 1.532022 -5.000000 0.000000 0.000000 0.000000
    63 1.500000 0.000000 0.000000 0.000000 0.000000 0.000000
    64 11.208302 0.000001 0.000004 0.065171 0.000000 0.000000
    65 11.123052 0.000000 -0.000002 0.000000 0.000000 -0.100081
    66 4.271700 -0.000004 0.000000 0.000000 0.000000 0.000000
    67 1.500002 0.000002 -0.000004 0.000000 0.000000 0.000000
    68 5.560001 -0.699999 0.500004 0.000000 0.000000 0.000000
  time 10
    0 9.106373 -2.078301 33.669753 1.707054 0.125190 0.863129
    1 3.984016 -0.000004 -0.000002 -1.691290 -0.700405 -1.361901
    2 15.940012 0.000000 0.000000 0.000000 0.000000 1.012867
    3 17.709566 0.000001 0.000000 0.020128 -0.033807 -1.543432
    4 6.203999 0.000000 0.000000 -0.011146 0.001413 -0.500515
    5 -3.984013 0.000008 0.000008 -0.447061 -0.347841 -1.917606
    6 15.940014 0.000000 -0.000004 0.000000 0.000000 0.890246
    7 17.709564 0.000000 0.000000 -0.165256 -0.417664 -1.350936
    8 6.203999 0.000000 -0.000004 -0.078650 -0.006185 -0.498943
    9 -0.367194 4.197162 -1.689857 1.570796 -0.048093 1.658795
    10 3.837408 0.000001 0.000000 -0.060762 -0.082502 -0.062119
    11 3.617870 -0.000001 0.000000 -0.145188 -0.099520 0.065071
    12 7.539780 0.000000 -0.000004 -0.057706 -0.104302 0.176752
    13 3.178295 0.000001 0.000000 3.141590 0.000000 0.224127
    14 2.970276 0.000000 0.000000 0.294185 -0.016748 0.146896
    15 2.023705 0.907458 0.852581 2.376556 -1.368292 2.151896
    16 4.983665 0.000000 -0.000001 -1.941336 -0.748459 -0.811272
    17 11.123048 -0.000004 -0.000003 0.000000 0.000000 -1.702933
    18 11.208298 -0.000004 -0.000001 1.421208 0.135400 0.394039
    19 3.549244 0.198828 -1.489468 -0.463403 -0.186140 -1.428467
    20 1.219000 0.000000 0.000000 -0.000005 0.066202 -0.827640
    21 0.679999 0.000000 0.000000 0.000003 0.000006 -0.594000
    22 3.698009 0.267557 -0.728977 -0.161994 -0.106334 -1.434469
    23 1.749002 0.000000 0.000004 0.000009 0.006397 -0.777634
    24 0.960001 0.000000 0.000000 0.000000 0.000009 -1.170580
    25 3.768505 0.152552 0.071384 0.049930 -0.030486 -1.249500
    26 2.037998 0.000000 0.000000 0.000004 0.033589 -1.110951
    27 1.067001 0.000000 0.000000 -0.000011 -0.000003 -1.111216
    28 3.783920 -0.017254 0.794556 0.283487 0.115906 -1.212806
    29 1.629000 0.000000 0.000000 0.000003 -0.152214 -1.133717
    30 0.956003 0.000000 0.000004 0.000000 -0.000006 -1.021306
    31 1.258965 -0.297979 1.252586 -1.241289 -0.251338 -0.849490
    32 1.393002 -0.000002 0.000000 0.000000 -0.036075 0.257565
    33 1.099998 0.000000 0.000000 0.000000 0.000006 0.303667
    34 2.023712 0.907461 -0.852528 -1.286896 1.296121 3.338690
    35 4.983667 0.000008 0.000000 0.872595 0.366714 -1.364984
    36 11.123047 0.000001 0.000011 0.000000 0.000000 -1.800424
    37 11.208294 0.000001 0.000000 -1.470971 -0.084716 0.004616
    38 3.549269 0.211411 1.487671 0.498222 0.156931 -0.982248
    39 1.219002 -0.000002 0.000004 0.000010 -0.456984 -1.112975
    40 0.680002 0.000000 0.000000 -0.000003 -0.000006 -0.672069
    41 3.698020 0.273716 0.726624 0.160532 0.000252 -0.910186
    42 1.748999 0.000000 0.000004 -0.000009 -0.214761 -1.281174
    43 0.959995 0.000000 0.000000 0.000000 -0.000009 -0.797298
    44 3.768500 0.151955 -0.072739 -0.084949 -0.177602 -0.644873
    45 2.038000 0.000000 0.000004 -0.000004 -0.031660 -1.425514
    46 1.067001 0.000002 0.000000 -0.003417 0.022223 -0.934717
    47 3.783907 -0.023952 -0.794449 -0.321526 -0.122640 -0.062418
    48 1.628999 0.000000 0.000000 -0.000003 0.126411 -0.583363
    49 0.956001 0.000000 0.000004 -0.051342 0.069097 -1.042848
    50 1.258940 -0.308544 -1.250050 1.282900 0.248609 -0.715173
    51 1.392998 0.000000 0.000000 0.000000 -0.010078 0.141859
    52 1.100002 0.000000 0.000000 0.000300 0.002007 1.187213
    53 4.271698 0.000000 0.000000 0.000000 0.000000 0.000000
    54 5.604149 0.000000 -0.000004 -0.030876 0.000000 0.000000
    55 5.604151 0.000000 0.000000 0.034930 0.000000 0.000000
    56 11.208302 -0.000004 -0.000005 -0.057543 0.000000 0.000000
    57 5.560000 -0.700005 -0.500003 0.000000 0.000000 0.000000
    58 2.132023 1.532021 4.999996 0.000000 0.000000 0.000000
    59 2.000002 4.938046 2.577995 0.000000 0.000000 0.000000
    60 11.123047 0.000000 0.000008 0.000000 0.000000 -0.100063
    61 1.999998 4.938044 -2.578003 0.000000 0.000000 0.000000
    62 2.132023 1.532022 -5.000000 0.000000 0.000000 0.000000
    63 1.500000 0.000000 0.000000 0.000000 0.000000 0.000000
    64 11.208302 0.000001 0.000004 0.065171 0.000000 0.000000
    65 11.123052 0.000000 -0.000002 0.000000 0.000000 -0.100081
    66 4.271700 -0.000004 0.000000 0.000000 0.000000 0.000000
    67 1.500002 0.000002 -0.000004 0.000000 0.000000 0.000000
    68 5.560001 -0.699999 0.500004 0.000000 0.000000 0.000000
  time 11
    0 6.403166 -0.630382 34.228576 1.696511 0.153587 0.670615
    1 3.984016 -0.000004 -0.000002 -1.713242 -0.666794 -1.305828
    2 15.940012 0.000000 0.000000 0.000000 0.000000 0.948082
    3 17.709566 0.000001 0.000000 0.035057 -0.003268 -1.491100
    4 6.203999 0.000000 0.000000 -0.011146 0.001258 -0.500515
    5 -3.984013 0.000008 0.000008 -0.518490 -0.305942 -1.858390
    6 15.940014 0.000000 -0.000004 0.000000 0.000000 0.793827
    7 17.709564 0.000000 0.000000 -0.097371 -0.377439 -1.338222
    8 6.203999 0.000000 -0.000004 -0.078650 -0.006185 -0.498943
    9 -0.382819 4.197162 -1.689857 1.570796 -0.041571 1.662077
    10 3.837408 0.000001 0.000000 -0.040999 -0.093947 -0.078495
    11 3.617870 -0.000001 0.000000 -0.129668 -0.086792 0.039886
    12 7.539780 0.000000 -0.000004 -0.077720 -0.116418 0.170235
    13 3.178295 0.000001 0.000000 3.141590 0.000000 0.224127
    14 2.970276 0.000000 0.000000 0.198951 -0.010919 0.132657
    15 2.023705 0.907458 0.852581 2.321847 -1.335863 2.203521
    16 4.983665 0.000000 -0.000001 -1.824667 -0.659027 -0.718718
    17 11.123048 -0.000004 -0.000003 0.000000 0.000000 -1.754349
    18 11.208298 -0.000004 -0.000001 1.292648 0.023242 0.392030
    19 3.549244 0.198828 -1.489468 -0.463403 -0.186140 -1.428467
    20 1.219000 0.000000 0.000000 -0.000005 0.066202 -0.827640
    21 0.679999 0.000000 0.000000 0.000003 0.000006 -0.594000
    22 3.698009 0.267557 -0.728977 -0.161994 -0.106334 -1.434469
    23 1.749002 0.000000 0.000004 0.000009 0.006397 -0.777634
    24 0.960001 0.000000 0.000000 0.000012 0.000009 -1.170580
    25 3.768505 0.152552 0.071384 0.049930 -0.030486 -1.249500
    26 2.037998 0.000000 0.000000 0.000004 0.033589 -1.110951
    27 1.067001 0.000000 0.000000 -0.000011 -0.000003 -1.111216
    28 3.783920 -0.017254 0.794556 0.283487 0.115906 -1.212806
    29 1.629000 0.000000 0.000000 0.000003 -0.152214 -1.133717
    30 0.956003 0.000000 0.000004 0.000000 -0.000006 -1.021306
    31 1.258965 -0.297979 1.252586 -1.241289 -0.251338 -0.849490
    32 1.393002 -0.000002 0.000000 0.000000 -0.036075 0.257565
    33 1.099998 0.000000 0.000000 0.000000 0.000006 0.303667
    34 2.023712 0.907461 -0.852528 -1.123699 1.274165 3.509303
    35 4.983667 0.000008 0.000000 0.844885 0.324647 -1.262214
    36 11.123047 0.000001 0.000011 0.000000 0.000000 -1.830141
    37 11.208294 0.000001 0.000000 -1.440229 -0.017551 -0.048476
    38 3.549269 0.211411 1.487671 0.498222 0.156931 -0.982248
    39 1.219002 -0.000002 0.000004 0.000010 -0.456984 -1.112975
    40 0.680002 0.000000 0.000000 -0.000003 -0.000006 -0.672069
    41 3.698020 0.273716 0.726624 0.160532 0.000252 -0.910186
    42 1.748999 0.000000 0.000004 -0.000009 -0.214761 -1.281174
    43 0.959995 0.000000 0.000000 -0.000012 -0.000009 -0.797298
    44 3.768500 0.151955 -0.072739 -0.084949 -0.177602 -0.644873
    45 2.038000 0.000000 0.000004 -0.000004 -0.031660 -1.425514
    46 1.067001 0.000002 0.000000 -0.003429 0.022223 -0.934717
    47 3.783907 -0.023952 -0.794449 -0.321514 -0.122640 -0.062418
    48 1.628999 0.000000 0.000000 -0.000003 0.126411 -0.583363
    49 0.956001 0.000000 0.000004 -0.051342 0.069097 -1.042848
    50 1.258940 -0.308544 -1.250050 1.282900 0.248609 -0.715173
    51 1.392998 0.000000 0.000000 0.000000 -0.010078 0.141859
    52 1.100002 0.000000 0.000000 0.000300 0.002007 1.187213
    53 4.271698 0.000000 0.000000 0.000000 0.000000 0.000000
    54 5.604149 0.000000 -0.000004 -0.030876 0.000000 0.000000
    55 5.604151 0.000000 0.000000 0.034930 0.000000 0.000000
    56 11.208302 -0.000004 -0.000005 -0.057543 0.000000 0.000000
    57 5.560000 -0.700005 -0.500003 0.000000 0.000000 0.000000
    58 2.132023 1.532021 4.999996 0.000000 0.000000 0.000000
    59 2.000002 4.938046 2.577995 0.000000 0.000000 0.000000
    60 11.123047 0.000000 0.000008 0.000000 0.000000 -0.100063
    61 1.999998 4.938044 -2.578003 0.000000 0.000000 0.000000
    62 2.132023 1.532022 -5.000000 0.000000 0.000000 0.000000
    63 1.500000 0.000000 0.000000 0.000000 0.000000 0.000000
    64 11.208302 0.000001 0.000004 0.065171 0.000000 0.000000
    65 11.123052 0.000000 -0.000002 0.000000 0.000000 -0.100081
    66 4.271700 -0.000004 0.000000 0.000000 0.000000 0.000000
    67 1.500002 0.000002 -0.000004 0.000000 0.000000 0.000000
    68 5.560001 -0.699999 0.500004 0.000000 0.000000 0.000000
  time 12
    0 4.102314 0.590993 34.711882 1.680796 0.180138 0.506023
    1 3.984016 -0.000004 -0.000002 -1.705477 -0.623622 -1.262057
    2 15.940012 0.000000 0.000000 0.000000 0.000000 0.888234
    3 17.709566 0.000001 0.000000 0.031027 0.009835 -1.446595
    4 6.203999 0.000000 0.000000 -0.011146 0.001126 -0.500515
    5 -3.984013 0.000008 0.000008 -0.646430 -0.284051 -1.795271
    6 15.940014 0.000000 -0.000004 0.000000 0.000000 0.689765
    7 17.709564 0.000000 0.000000 -0.003622 -0.281201 -1.316587
    8 6.203999 0.000000 -0.000004 -0.078650 -0.006185 -0.498943
    9 -0.394538 4.197162 -1.689857 1.570796 -0.036021 1.664911
    10 3.837408 0.000001 0.000000 -0.024197 -0.103691 -0.092433
    11 3.617870 -0.000001 0.000000 -0.116470 -0.075970 0.018447
    12 7.539780 0.000000 -0.000004 -0.094738 -0.126713 0.164657
    13 3.178295 0.000001 0.000000 3.141590 0.000000 0.224127
    14 2.970276 0.000000 0.000000 0.117753 -0.006317 0.122239
    15 2.023705 0.907458 0.852581 2.285437 -1.307899 2.236919
    16 4.983665 0.000000 -0.000001 -1.723919 -0.601152 -0.642194
    17 11.123048 -0.000004 -0.000003 0.000000 0.000000 -1.794083
    18 11.208298 -0.000004 -0.000001 1.195409 -0.072825 0.404568
    19 3.549244 0.198828 -1.489468 -0.463403 -0.186140 -1.428467
    20 1.219000 0.000000 0.000000 -0.000005 0.066202 -0.827640
    21 0.679999 0.000000 0.000000 0.000003 0.000006 -0.594000
    22 3.698009 0.267557 -0.728977 -0.161994 -0.106334 -1.434469
    23 1.749002 0.000000 0.000004 0.000009 0.006397 -0.777634
    24 0.960001 0.000000 0.000000 0.000012 0.000009 -1.170580
    25 3.768505 0.152552 0.071384 0.049930 -0.030486 -1.249500
    26 2.037998 0.000000 0.000000 0.000004 0.033589 -1.110951
    27 1.067001 0.000000 0.000000 -0.000011 -0.000003 -1.111216
    28 3.783920 -0.017254 0.794556 0.283487 0.115906 -1.212806
    29 1.629000 0.000000 0.000000 0.000003 -0.152214 -1.133717
    30 0.956003 0.000000 0.000004 0.000000 -0.000006 -1.021306
    31 1.258965 -0.297979 1.252586 -1.241289 -0.251338 -0.849490
    32 1.393002 -0.000002 0.000000 0.000000 -0.036075 0.257565
    33 1.099998 0.000000 0.000000 0.000000 0.000006 0.303667
    34 2.023712 0.907461 -0.852528 -1.005438 1.249988 3.633863
    35 4.983667 0.000008 0.000000 0.819477 0.288841 -1.180083
    36 11.123047 0.000001 0.000011 0.000000 0.000000 -1.853711
    37 11.208294 0.000001 0.000000 -1.423897 0.035976 -0.091118
    38 3.549269 0.211411 1.487671 0.498222 0.156931 -0.982248
    39 1.219002 -0.000002 0.000004 0.000010 -0.456984 -1.112975
    40 0.680002 0.000000 0.000000 -0.000003 -0.000006 -0.672069
    41 3.698020 0.273716 0.726624 0.160532 0.000252 -0.910186
    42 1.748999 0.000000 0.000004 -0.000009 -0.214761 -1.281174
    43 0.959995 0.000000 0.000000 -0.000012 -0.000009 -0.797298
    44 3.768500 0.151955 -0.072739 -0.084949 -0.177602 -0.644873
    45 2.038000 0.000000 0.000004 -0.000004 -0.031660 -1.425514
    46 1.067001 0.000002 0.000000 -0.003429 0.022223 -0.934717
    47 3.783907 -0.023952 -0.794449 -0.321526 -0.122640 -0.062418
    48 1.628999 0.000000 0.000000 -0.000003 0.126411 -0.583363
    49 0.956001 0.000000 0.000004 -0.051342 0.069097 -1.042848
    50 1.258940 -0.308544 -1.250050 1.282900 0.248609 -0.715173
    51 1.392998 0.000000 0.000000 0.000000 -0.010078 0.141859
    52 1.100002 0.000000 0.000000 0.000300 0.002007 1.187213
    53 4.271698 0.000000 0.000000 0.000000 0.000000 0.000000
    54 5.604149 0.000000 -0.000004 -0.030876 0.000000 0.000000
    55 5.604151 0.000000 0.000000 0.034930 0.000000 0.000000
    56 11.208302 -0.000004 -0.000005 -0.057543 0.000000 0.000000
    57 5.560000 -0.700005 -0.500003 0.000000 0.000000 0.000000
    58 2.132023 1.532021 4.999996 0.000000 0.000000 0.000000
    59 2.000002 4.938046 2.577995 0.000000 0.000000 0.000000
    60 11.123047 0.000000 0.000008 0.000000 0.000000 -0.100063
    61 1.999998 4.938044 -2.578003 0.000000 0.000000 0.000000
    62 2.132023 1.532022 -5.000000 0.000000 0.000000 0.000000
    63 1.500000 0.000000 0.000000 0.000000 0.000000 0.000000
    64 11.208302 0.000001 0.000004 0.065171 0.000000 0.000000
    65 11.123052 0.000000 -0.000002 0.000000 0.000000 -0.100081
    66 4.271700 -0.000004 0.000000 0.000000 0.000000 0.000000
    67 1.500002 0.000002 -0.000004 0.000000 0.000000 0.000000
    68 5.560001 -0.699999 0.500004 0.000000 0.000000 0.000000
  time 13
    0 2.321010 1.536573 35.089464 1.664007 0.201248 0.377807
    1 3.984016 -0.000004 -0.000002 -1.680746 -0.578547 -1.232495
    2 15.940012 0.000000 0.000000 0.000000 0.000000 0.837196
    3 17.709566 0.000001 0.000000 0.016740 0.010420 -1.413191
    4 6.203999 0.000000 0.000000 -0.011146 0.001018 -0.500515
    5 -3.984013 0.000008 0.000008 -0.775423 -0.261386 -1.739292
    6 15.940014 0.000000 -0.000004 0.000000 0.000000 0.588061
    7 17.709564 0.000000 0.000000 0.079766 -0.178198 -1.280906
    8 6.203999 0.000000 -0.000004 -0.078650 -0.006185 -0.498943
    9 -0.402351 4.197162 -1.689857 1.570796 -0.031717 1.667049
    10 3.837408 0.000001 0.000000 -0.011170 -0.111229 -0.103223
    11 3.617870 -0.000001 0.000000 -0.106242 -0.067581 0.001869
    12 7.539780 0.000000 -0.000004 -0.107921 -0.134695 0.160332
    13 3.178295 0.000001 0.000000 3.141590 0.000000 0.224127
    14 2.970276 0.000000 0.000000 0.054832 -0.002906 0.115212
    15 2.023705 0.907458 0.852581 2.261895 -1.286083 2.258008
    16 4.983665 0.000000 -0.000001 -1.646031 -0.568271 -0.592105
    17 11.123048 -0.000004 -0.000003 0.000000 0.000000 -1.822134
    18 11.208298 -0.000004 -0.000001 1.131929 -0.142782 0.420562
    19 3.549244 0.198828 -1.489468 -0.463403 -0.186140 -1.428467
    20 1.219000 0.000000 0.000000 -0.000005 0.066202 -0.827640
    21 0.679999 0.000000 0.000000 0.000003 0.000006 -0.594000
    22 3.698009 0.267557 -0.728977 -0.161994 -0.106334 -1.434469
    23 1.749002 0.000000 0.000004 0.000009 0.006397 -0.777634
    24 0.960001 0.000000 0.000000 0.000012 0.000009 -1.170544
    25 3.768505 0.152552 0.071384 0.049930 -0.030486 -1.249500
    26 2.037998 0.000000 0.000000 0.000004 0.033589 -1.110951
    27 1.067001 0.000000 0.000000 -0.000011 -0.000003 -1.111216
    28 3.783920 -0.017254 0.794556 0.283487 0.115906 -1.212806
    29 1.629000 0.000000 0.000000 0.000003 -0.152214 -1.133717
    30 0.956003 0.000000 0.000004 0.000000 -0.000006 -1.021306
    31 1.258965 -0.297979 1.252586 -1.241289 -0.251338 -0.849490
    32 1.393002 -0.000002 0.000000 0.000000 -0.036075 0.257565
    33 1.099998 0.000000 0.000000 0.000000 0.000006 0.303667
    34 2.023712 0.907461 -0.852528 -0.926472 1.228544 3.717904
    35 4.983667 0.000008 0.000000 0.800889 0.259347 -1.120991
    36 11.123047 0.000001 0.000011 0.000000 0.000000 -1.871136
    37 11.208294 0.000001 0.000000 -1.417892 0.071419 -0.123437
    38 3.549269 0.211411 1.487671 0.498222 0.156931 -0.982248
    39 1.219002 -0.000002 0.000004 0.000010 -0.456984 -1.112975
    40 0.680002 0.000000 0.000000 -0.000003 -0.000006 -0.672069
    41 3.698020 0.273716 0.726624 0.160532 0.000252 -0.910186
    42 1.748999 0.000000 0.000004 -0.000009 -0.214761 -1.281174
    43 0.959995 0.000000 0.000000 -0.000012 -0.000009 -0.797298
    44 3.768500 0.151955 -0.072739 -0.084949 -0.177602 -0.644873
    45 2.038000 0.000000 0.000004 -0.000004 -0.031660 -1.425514
    46 1.067001 0.000002 0.000000 -0.003417 0.022223 -0.934717
    47 3.783907 -0.023952 -0.794449 -0.321526 -0.122640 -0.062418
    48 1.628999 0.000000 0.000000 -0.000003 0.126411 -0.583363
    49 0.956001 0.000000 0.000004 -0.051342 0.069097 -1.042848
    50 1.258940 -0.308544 -1.250050 1.282900 0.248609 -0.715173
    51 1.392998 0.000000 0.000000 0.000000 -0.010078 0.141859
    52 1.100002 0.000000 0.000000 0.000300 0.002007 1.187213
    53 4.271698 0.000000 0.000000 0.000000 0.000000 0.000000
    54 5.604149 0.000000 -0.000004 -0.030876 0.000000 0.000000
    55 5.604151 0.000000 0.000000 0.034930 0.000000 0.000000
    56 11.208302 -0.000004 -0.000005 -0.057543 0.000000 0.000000
    57 5.560000 -0.700005 -0.500003 0.000000 0.000000 0.000000
    58 2.132023 1.532021 4.999996 0.000000 0.000000 0.000000
    59 2.000002 4.938046 2.577995 0.000000 0.000000 0.000000
    60 11.123047 0.000000 0.000008 0.000000 0.000000 -0.100063
    61 1.999998 4.938044 -2.578003 0.000000 0.000000 0.000000
    62 2.132023 1.532022 -5.000000 0.000000 0.000000 0.000000
    63 1.500000 0.000000 0.000000 0.000000 0.000000 0.000000
    64 11.208302 0.000001 0.000004 0.065171 0.000000 0.000000
    65 11.123052 0.000000 -0.000002 0.000000 0.000000 -0.100081
    66 4.271700 -0.000004 0.000000 0.000000 0.000000 0.000000
    67 1.500002 0.000002 -0.000004 0.000000 0.000000 0.000000
    68 5.560001 -0.699999 0.500004 0.000000 0.000000 0.000000
  time 14
    0 1.172537 2.147260 35.331117 1.650912 0.214665 0.294704
    1 3.984016 -0.000004 -0.000002 -1.655151 -0.543131 -1.216093
    2 15.940012 0.000000 0.000000 0.000000 0.000000 0.801272
    3 17.709566 0.000001 0.000000 0.001994 0.005364 -1.392320
    4 6.203999 0.000000 0.000000 -0.011146 0.000958 -0.500515
    5 -3.984013 0.000008 0.000008 -0.870757 -0.238479 -1.700259
    6 15.940014 0.000000 -0.000004 0.000000 0.000000 0.507169
    7 17.709564 0.000000 0.000000 0.137533 -0.100373 -1.244507
    8 6.203999 0.000000 -0.000004 -0.078650 -0.006185 -0.498943
    9 -0.410164 4.193256 -1.689857 1.570796 -0.028948 1.668441
    10 3.837408 0.000001 0.000000 -0.002780 -0.116083 -0.110176
    11 3.617870 -0.000001 0.000000 -0.099658 -0.062176 -0.008831
    12 7.539780 0.000000 -0.000004 -0.116406 -0.139836 0.157543
    13 3.178295 0.000001 0.000000 3.141590 0.000000 0.224127
    14 2.970276 0.000000 0.000000 0.014298 -0.000758 0.111205
    15 2.023705 0.907458 0.852581 2.248265 -1.272016 2.269840
    16 4.983665 0.000000 -0.000001 -1.596229 -0.551962 -0.565912
    17 11.123048 -0.000004 -0.000003 0.000000 0.000000 -1.839063
    18 11.208298 -0.000004 -0.000001 1.097407 -0.184722 0.432537
    19 3.549244 0.198828 -1.489468 -0.463403 -0.186140 -1.428467
    20 1.219000 0.000000 0.000000 -0.000005 0.066202 -0.827640
    21 0.679999 0.000000 0.000000 0.000003 0.000006 -0.594000
    22 3.698009 0.267557 -0.728977 -0.161994 -0.106334 -1.434469
    23 1.749002 0.000000 0.000004 0.000009 0.006397 -0.777634
    24 0.960001 0.000000 0.000000 0.000012 0.000009 -1.170580
    25 3.768505 0.152552 0.071384 0.049930 -0.030486 -1.249500
    26 2.037998 0.000000 0.000000 0.000004 0.033589 -1.110951
    27 1.067001 0.000000 0.000000 -0.000011 -0.000003 -1.111216
    28 3.783920 -0.017254 0.794556 0.283487 0.115906 -1.212806
    29 1.629000 0.000000 0.000000 0.000003 -0.152214 -1.133717
    30 0.956003 0.000000 0.000004 0.000000 -0.000006 -1.021306
    31 1.258965 -0.297979 1.252586 -1.241289 -0.251338 -0.849490
    32 1.393002 -0.000002 0.000000 0.000000 -0.036075 0.257565
    33 1.099998 0.000000 0.000000 0.000000 0.000006 0.303667
    34 2.023712 0.907461 -0.852528 -0.881066 1.213636 3.766677
    35 4.983667 0.000008 0.000000 0.790317 0.238650 -1.085449
    36 11.123047 0.000001 0.000011 0.000000 0.000000 -1.882077
    37 11.208294 0.000001 0.000000 -1.417112 0.090034 -0.144295
    38 3.549269 0.211411 1.487671 0.498222 0.156931 -0.982248
    39 1.219002 -0.000002 0.000004 0.000010 -0.456984 -1.112975
    40 0.680002 0.000000 0.000000 -0.000003 -0.000006 -0.672069
    41 3.698020 0.273716 0.726624 0.160532 0.000252 -0.910186
    42 1.748999 0.000000 0.000004 -0.000009 -0.214761 -1.281174
    43 0.959995 0.000000 0.000000 0.000000 -0.000009 -0.797298
    44 3.768500 0.151955 -0.072739 -0.084949 -0.177602 -0.644873
    45 2.038000 0.000000 0.000004 -0.000004 -0.031660 -1.425514
    46 1.067001 0.000002 0.000000 -0.003429 0.022223 -0.934717
    47 3.783907 -0.023952 -0.794449 -0.321526 -0.122640 -0.062418
    48 1.628999 0.000000 0.000000 -0.000003 0.126411 -0.583363
    49 0.956001 0.000000 0.000004 -0.051342 0.069097 -1.042848
    50 1.258940 -0.308544 -1.250050 1.282900 0.248609 -0.715173
    51 1.392998 0.000000 0.000000 0.000000 -0.010078 0.141859
    52 1.100002 0.000000 0.000000 0.000300 0.002007 1.187213
    53 4.271698 0.000000 0.000000 0.000000 0.000000 0.000000
    54 5.604149 0.000000 -0.000004 -0.030876 0.000000 0.000000
    55 5.604151 0.000000 0.000000 0.034930 0.000000 0.000000
    56 11.208302 -0.000004 -0.000005 -0.057543 0.000000 0.000000
    57 5.560000 -0.700005 -0.500003 0.000000 0.000000 0.000000
    58 2.132023 1.532021 4.999996 0.000000 0.000000 0.000000
    59 2.000002 4.938046 2.577995 0.000000 0.000000 0.000000
    60 11.123047 0.000000 0.000008 0.000000 0.000000 -0.100063
    61 1.999998 4.938044 -2.578003 0.000000 0.000000 0.000000
    62 2.132023 1.532022 -5.000000 0.000000 0.000000 0.000000
    63 1.500000 0.000000 0.000000 0.000000 0.000000 0.000000
    64 11.208302 0.000001 0.000004 0.065171 0.000000 0.000000
    65 11.123052 0.000000 -0.000002 0.000000 0.000000 -0.100081
    66 4.271700 -0.000004 0.000000 0.000000 0.000000 0.000000
    67 1.500002 0.000002 -0.000004 0.000000 0.000000 0.000000
    68 5.560001 -0.699999 0.500004 0.000000 0.000000 0.000000
  time 15
    0 0.766275 2.363955 35.406634 1.645876 0.219356 0.265261
    1 3.984016 -0.000004 -0.000002 -1.643840 -0.529277 -1.211039
    2 15.940012 0.000000 0.000000 0.000000 0.000000 0.787905
    3 17.709566 0.000001 0.000000 -0.004508 0.002097 -1.385004
    4 6.203999 0.000000 0.000000 -0.011146 0.000934 -0.500515
    5 -3.984013 0.000008 0.000008 -0.906614 -0.227848 -1.685979
    6 15.940014 0.000000 -0.000004 0.000000 0.000000 0.474324
    7 17.709564 0.000000 0.000000 0.158747 -0.070832 -1.228255
    8 6.203999 0.000000 -0.000004 -0.078650 -0.006185 -0.498943
    9 -0.410164 4.193256 -1.689857 1.570796 -0.027977 1.668938
    10 3.837408 0.000001 0.000000 0.000168 -0.117809 -0.112614
    11 3.617870 -0.000001 0.000000 -0.097335 -0.060271 -0.012597
    12 7.539780 0.000000 -0.000004 -0.119414 -0.141658 0.156559
    13 3.178295 0.000001 0.000000 3.141590 0.000000 0.224127
    14 2.970276 0.000000 0.000000 0.000000 0.000000 0.109880
    15 2.023705 0.907458 0.852581 2.243785 -1.267004 2.273657
    16 4.983665 0.000000 -0.000001 -1.578757 -0.546985 -0.557987
    17 11.123048 -0.000004 -0.000003 0.000000 0.000000 -1.844799
    18 11.208298 -0.000004 -0.000001 1.086510 -0.198861 0.436958
    19 3.549244 0.198828 -1.489468 -0.463403 -0.186140 -1.428467
    20 1.219000 0.000000 0.000000 -0.000005 0.066202 -0.827640
    21 0.679999 0.000000 0.000000 0.000003 0.000006 -0.594000
    22 3.698009 0.267557 -0.728977 -0.161994 -0.106334 -1.434469
    23 1.749002 0.000000 0.000004 0.000009 0.006397 -0.777634
    24 0.960001 0.000000 0.000000 0.000000 0.000009 -1.170580
    25 3.768505 0.152552 0.071384 0.049930 -0.030486 -1.249500
    26 2.037998 0.000000 0.000000 0.000004 0.033589 -1.110951
    27 1.067001 0.000000 0.000000 -0.000011 -0.000003 -1.111216
    28 3.783920 -0.017254 0.794556 0.283487 0.115906 -1.212806
    29 1.629000 0.000000 0.000000 0.000003 -0.152214 -1.133717
    30 0.956003 0.000000 0.000004 0.000000 -0.000006 -1.021306
    31 1.258965 -0.297979 1.252586 -1.241289 -0.251338 -0.849490
    32 1.393002 -0.000002 0.000000 0.000000 -0.036075 0.257565
    33 1.099998 0.000000 0.000000 0.000000 0.000006 0.303667
    34 2.023712 0.907461 -0.852528 -0.865931 1.208211 3.782997
    35 4.983667 0.000008 0.000000 0.786991 0.230940 -1.073460
    36 11.123047 0.000001 0.000011 0.000000 0.000000 -1.885926
    37 11.208294 0.000001 0.000000 -1.417412 0.095581 -0.151753
    38 3.549269 0.211411 1.487671 0.498222 0.156931 -0.982248
    39 1.219002 -0.000002 0.000004 0.000010 -0.456984 -1.112975
    40 0.680002 0.000000 0.000000 -0.000003 -0.000006 -0.672069
    41 3.698020 0.273716 0.726624 0.160532 0.000252 -0.910186
    42 1.748999 0.000000 0.000004 -0.000009 -0.214761 -1.281174
    43 0.959995 0.000000 0.000000 -0.000012 -0.000009 -0.797298
    44 3.768500 0.151955 -0.072739 -0.084949 -0.177602 -0.644873
    45 2.038000 0.000000 0.000004 -0.000004 -0.031660 -1.425514
    46 1.067001 0.000002 0.000000 -0.003429 0.022223 -0.934717
    47 3.783907 -0.023952 -0.794449 -0.321526 -0.122640 -0.062418
    48 1.628999 0.000000 0.000000 -0.000003 0.126411 -0.583363
    49 0.956001 0.000000 0.000004 -0.051342 0.069097 -1.042848
    50 1.258940 -0.308544 -1.250050 1.282900 0.248609 -0.715173
    51 1.392998 0.000000 0.000000 0.000000 -0.010078 0.141859
    52 1.100002 0.000000 0.000000 0.000300 0.002007 1.187213
    53 4.271698 0.000000 0.000000 0.000000 0.000000 0.000000
    54 5.604149 0.000000 -0.000004 -0.030876 0.000000 0.000000
    55 5.604151 0.000000 0.000000 0.034930 0.000000 0.000000
    56 11.208302 -0.000004 -0.000005 -0.057543 0.000000 0.000000
    57 5.560000 -0.700005 -0.500003 0.000000 0.000000 0.000000
    58 2.132023 1.532021 4.999996 0.000000 0.000000 0.000000
    59 2.000002 4.938046 2.577995 0.000000 0.000000 0.000000
    60 11.123047 0.000000 0.000008 0.000000 0.000000 -0.100063
    61 1.999998 4.938044 -2.578003 0.000000 0.000000 0.000000
    62 2.132023 1.532022 -5.000000 0.000000 0.000000 0.000000
    63 1.500000 0.000000 0.000000 0.000000 0.000000 0.000000
    64 11.208302 0.000001 0.000004 0.065171 0.000000 0.000000
    65 11.123052 0.000000 -0.000002 0.000000 0.000000 -0.100081
    66 4.271700 -0.000004 0.000000 0.000000 0.000000 0.000000
    67 1.500002 0.000002 -0.000004 0.000000 0.000000 0.000000
    68 5.560001 -0.699999 0.500004 0.000000 0.000000 0.000000
  time 16
    0 0.766275 2.363955 35.406634 1.645876 0.219356 0.265261
    1 3.984016 -0.000004 -0.000002 -1.643840 -0.529277 -1.211039
    2 15.940012 0.000000 0.000000 0.000000 0.000000 0.787905
    3 17.709566 0.000001 0.000000 -0.004508 0.002097 -1.385004
    4 6.203999 0.000000 0.000000 -0.011146 0.000934 -0.500515
    5 -3.984013 0.000008 0.000008 -0.906614 -0.227848 -1.685979
    6 15.940014 0.000000 -0.000004 0.000000 0.000000 0.474324
    7 17.709564 0.000000 0.000000 0.158747 -0.070832 -1.228255
    8 6.203999 0.000000 -0.000004 -0.078650 -0.006185 -0.498943
    9 -0.410164 4.193256 -1.689857 1.570796 -0.027977 1.668938
    10 3.837408 0.000001 0.000000 0.000168 -0.117809 -0.112614
    11 3.617870 -0.000001 0.000000 -0.097335 -0.060271 -0.012597
    12 7.539780 0.000000 -0.000004 -0.119414 -0.141658 0.156559
    13 3.178295 0.000001 0.000000 3.141590 0.000000 0.224127
    14 2.970276 0.000000 0.000000 0.000000 0.000000 0.109880
    15 2.023705 0.907458 0.852581 2.243785 -1.267004 2.273657
    16 4.983665 0.000000 -0.000001 -1.578757 -0.546985 -0.557987
    17 11.123048 -0.000004 -0.000003 0.000000 0.000000 -1.844799
    18 11.208298 -0.000004 -0.000001 1.086510 -0.198861 0.436958
    19 3.549244 0.198828 -1.489468 -0.463403 -0.186140 -1.428467
    20 1.219000 0.000000 0.000000 -0.000005 0.066202 -0.827640
    21 0.679999 0.000000 0.000000 0.000003 0.000006 -0.594000
    22 3.698009 0.267557 -0.728977 -0.161994 -0.106334 -1.434469
    23 1.749002 0.000000 0.000004 0.000009 0.006397 -0.777634
    24 0.960001 0.000000 0.000000 0.000000 0.000009 -1.170580
    25 3.768505 0.152552 0.071384 0.049930 -0.030486 -1.249500
    26 2.037998 0.000000 0.000000 0.000004 0.033589 -1.110951
    27 1.067001 0.000000 0.000000 -0.000011 -0.000003 -1.111216
    28 3.783920 -0.017254 0.794556 0.283487 0.115906 -1.212806
    29 1.629000 0.000000 0.000000 0.000003 -0.152214 -1.133717
    30 0.956003 0.000000 0.000004 0.000000 -0.000006 -1.021306
    31 1.258965 -0.297979 1.252586 -1.241289 -0.251338 -0.849490
    32 1.393002 -0.000002 0.000000 0.000000 -0.036075 0.257565
    33 1.099998 0.000000 0.000000 0.000000 0.000006 0.303667
    34 2.023712 0.907461 -0.852528 -0.865931 1.208211 3.782997
    35 4.983667 0.000008 0.000000 0.786991 0.230940 -1.073460
    36 11.123047 0.000001 0.000011 0.000000 0.000000 -1.885926
    37 11.208294 0.000001 0.000000 -1.417412 0.095581 -0.151753
    38 3.549269 0.211411 1.487671 0.498222 0.156931 -0.982248
    39 1.219002 -0.000002 0.000004 0.000010 -0.456984 -1.112975
    40 0.680002 0.000000 0.000000 -0.000003 -0.000006 -0.672069
    41 3.698020 0.273716 0.726624 0.160532 0.000252 -0.910186
    42 1.748999 0.000000 0.000004 -0.000009 -0.214761 -1.281174
    43 0.959995 0.000000 0.000000 -0.000012 -0.000009 -0.797298
    44 3.768500 0.151955 -0.072739 -0.084949 -0.177602 -0.644873
    45 2.038000 0.000000 0.000004 -0.000004 -0.031660 -1.425514
    46 1.067001 0.000002 0.000000 -0.003429 0.022223 -0.934717
    47 3.783907 -0.023952 -0.794449 -0.321526 -0.122640 -0.062418
    48 1.628999 0.000000 0.000000 -0.000003 0.126411 -0.583363
    49 0.956001 0.000000 0.000004 -0.051342 0.069097 -1.042848
    50 1.258940 -0.308544 -1.250050 1.282900 0.248609 -0.715173
    51 1.392998 0.000000 0.000000 0.000000 -0.010078 0.141859
    52 1.100002 0.000000 0.000000 0.000300 0.002007 1.187213
    53 4.271698 0.000000 0.000000 0.000000 0.000000 0.000000
    54 5.604149 0.000000 -0.000004 -0.030876 0.000000 0.000000
    55 5.604151 0.000000 0.000000 0.034930 0.000000 0.000000
    56 11.208302 -0.000004 -0.000005 -0.057543 0.000000 0.000000
    57 5.560000 -0.700005 -0.500003 0.000000 0.000000 0.000000
    58 2.132023 1.532021 4.999996 0.000000 0.000000 0.000000
    59 2.000002 4.938046 2.577995 0.000000 0.000000 0.000000
    60 11.123047 0.000000 0.000008 0.000000 0.000000 -0.100063
    61 1.999998 4.938044 -2.578003 0.000000 0.000000 0.000000
    62 2.132023 1.532022 -5.000000 0.000000 0.000000 0.000000
    63 1.500000 0.000000 0.000000 0.000000 0.000000 0.000000
    64 11.208302 0.000001 0.000004 0.065171 0.000000 0.000000
    65 11.123052 0.000000 -0.000002 0.000000 0.000000 -0.100081
    66 4.271700 -0.000004 0.000000 0.000000 0.000000 0.000000
    67 1.500002 0.000002 -0.000004 0.000000 0.000000 0.000000
    68 5.560001 -0.699999 0.500004 0.000000 0.000000 0.000000
  time 17
    0 0.766275 2.363955 35.406634 1.645876 0.219356 0.265261
    1 3.984016 -0.000004 -0.000002 -1.643840 -0.529277 -1.211039
    2 15.940012 0.000000 0.000000 0.000000 0.000000 0.787905
    3 17.709566 0.000001 0.000000 -0.004508 0.002097 -1.385004
    4 6.203999 0.000000 0.000000 -0.011146 0.000934 -0.500515
    5 -3.984013 0.000008 0.000008 -0.906614 -0.227848 -1.685979
    6 15.940014 0.000000 -0.000004 0.000000 0.000000 0.474324
    7 17.709564 0.000000 0.000000 0.158747 -0.070832 -1.228255
    8 6.203999 0.000000 -0.000004 -0.078650 -0.006185 -0.498943
    9 -0.410164 4.193256 -1.689857 1.570796 -0.027977 1.668938
    10 3.837408 0.000001 0.000000 0.000168 -0.117809 -0.112614
    11 3.617870 -0.000001 0.000000 -0.097335 -0.060271 -0.012597
    12 7.539780 0.000000 -0.000004 -0.119414 -0.141658 0.156559
    13 3.178295 0.000001 0.000000 3.141590 0.000000 0.224127
    14 2.970276 0.000000 0.000000 0.000000 0.000000 0.109880
    15 2.023705 0.907458 0.852581 2.243785 -1.267004 2.273657
    16 4.983665 0.000000 -0.000001 -1.578757 -0.546985 -0.557987
    17 11.123048 -0.000004 -0.000003 0.000000 0.000000 -1.844799
    18 11.208298 -0.000004 -0.000001 1.086510 -0.198861 0.436958
    19 3.549244 0.198828 -1.489468 -0.463403 -0.186140 -1.428467
    20 1.219000 0.000000 0.000000 -0.000005 0.066202 -0.827640
    21 0.679999 0.000000 0.000000 0.000003 0.000006 -0.594000
    22 3.698009 0.267557 -0.728977 -0.161994 -0.106334 -1.434469
    23 1.749002 0.000000 0.000004 0.000009 0.006397 -0.777634
    24 0.960001 0.000000 0.000000 0.000000 0.000009 -1.170580
    25 3.768505 0.152552 0.071384 0.049930 -0.030486 -1.249500
    26 2.037998 0.000000 0.000000 0.000004 0.033589 -1.110951
    27 1.067001 0.000000 0.000000 -0.000011 -0.000003 -1.111216
    28 3.783920 -0.017254 0.794556 0.283487 0.115906 -1.212806
    29 1.629000 0.000000 0.000000 0.000003 -0.152214 -1.133717
    30 0.956003 0.000000 0.000004 0.000000 -0.000006 -1.021306
    31 1.258965 -0.297979 1.252586 -1.241289 -0.251338 -0.849490
    32 1.393002 -0.000002 0.000000 0.000000 -0.036075 0.257565
    33 1.099998 0.000000 0.000000 0.000000 0.000006 0.303667
    34 2.023712 0.907461 -0.852528 -0.865931 1.208211 3.782997
    35 4.983667 0.000008 0.000000 0.786991 0.230940 -1.073460
    36 11.123047 0.000001 0.000011 0.000000 0.000000 -1.885926
    37 11.208294 0.000001 0.000000 -1.417412 0.095581 -0.151753
    38 3.549269 0.211411 1.487671 0.498222 0.156931 -0.982248
    39 1.219002 -0.000002 0.000004 0.000010 -0.456984 -1.112975
    40 0.680002 0.000000 0.000000 -0.000003 -0.000006 -0.672069
    41 3.698020 0.273716 0.726624 0.160532 0.000252 -0.910186
    42 1.748999 0.000000 0.000004 -0.000009 -0.214761 -1.281174
    43 0.959995 0.000000 0.000000 -0.000012 -0.000009 -0.797298
    44 3.768500 0.151955 -0.072739 -0.084949 -0.177602 -0.644873
    45 2.038000 0.000000 0.000004 -0.000004 -0.031660 -1.425514
    46 1.067001 0.000002 0.000000 -0.003429 0.022223 -0.934717
    47 3.783907 -0.023952 -0.794449 -0.321526 -0.122640 -0.062418
    48 1.628999 0.000000 0.000000 -0.000003 0.126411 -0.583363
    49 0.956001 0.000000 0.000004 -0.051342 0.069097 -1.042848
    50 1.258940 -0.308544 -1.250050 1.282900 0.248609 -0.715173
    51 1.392998 0.000000 0.000000 0.000000 -0.010078 0.141859
    52 1.100002 0.000000 0.000000 0.000300 0.002007 1.187213
    53 4.271698 0.000000 0.000000 0.000000 0.000000 0.000000
    54 5.604149 0.000000 -0.000004 -0.030876 0.000000 0.000000
    55 5.604151 0.000000 0.000000 0.034930 0.000000 0.000000
    56 11.208302 -0.000004 -0.000005 -0.057543 0.000000 0.000000
    57 5.560000 -0.700005 -0.500003 0.000000 0.000000 0.000000
    58 2.132023 1.532021 4.999996 0.000000 0.000000 0.000000
    59 2.000002 4.938046 2.577995 0.000000 0.000000 0.000000
    60 11.123047 0.000000 0.000008 0.000000 0.000000 -0.100063
    61 1.999998 4.938044 -2.578003 0.000000 0.000000 0.000000
    62 2.132023 1.532022 -5.000000 0.000000 0.000000 0.000000
    63 1.500000 0.000000 0.000000 0.000000 0.000000 0.000000
    64 11.208302 0.000001 0.000004 0.065171 0.000000 0.000000
    65 11.123052 0.000000 -0.000002 0.000000 0.000000 -0.100081
    66 4.271700 -0.000004 0.000000 0.000000 0.000000 0.000000
    67 1.500002 0.000002 -0.000004 0.000000 0.000000 0.000000
    68 5.560001 -0.699999 0.500004 0.000000 0.000000 0.000000
end
