"Resource\OptionsSubAdvanced.res"
{
	"ContentlockButton"
	{
		"ControlName"		"Button"
		"fieldName"		"ContentlockButton"
		"xpos"		"40"
		"ypos"		"42"
		"wide"		"110"
		"tall"		"24"
		"autoResize"		"0"
		"pinCorner"		"0"
		"visible"		"1"
		"enabled"		"1"
		"tabPosition"		"2"
		"labelText"		"#GameUI_ContentLock"
		"textAlignment"		"west"
		"dulltext"		"0"
		"brighttext"		"0"
		"command"		"ContentControl"
		"Default"		"0"
	}
	"ContentlockLabel"
	{
		"ControlName"		"Label"
		"fieldName"		"ContentlockLabel"
		"xpos"		"162"
		"ypos"		"34"
		"wide"		"300"
		"tall"		"90"
		"autoResize"		"0"
		"pinCorner"		"0"
		"visible"		"1"
		"enabled"		"1"
		"tabPosition"		"0"
		"labelText"		"#GameUI_ContentLockLabel"
		"textAlignment"		"west"
		"dulltext"		"1"
		"brighttext"		"0"
	}
}
