// Created by Crowbar 0.62

$modelname "odell.mdl"

$model "odell" "odell_reference.smd" {

	eyeball "eye_right" "ValveBiped.Bip01_Head1" -1.503500 -4.027301 66.559902 "eyeball_r" 1 4 "iris_unused" 0.63
	eyeball "eye_left" "ValveBiped.Bip01_Head1" 1.484600 -4.027301 66.560101 "eyeball_l" 1 -4 "iris_unused" 0.63

	eyelid upper_right "Odell_01.vta" lowerer 1 -0.19 neutral 0 0.16 raiser 2 0.27 split 1 eyeball "eye_right"
	eyelid lower_right "Odell_01.vta" lowerer 3 -0.31 neutral 0 -0.23 raiser 4 -0.12 split 1 eyeball "eye_right"
	eyelid upper_left "Odell_01.vta" lowerer 5 -0.19 neutral 0 0.16 raiser 6 0.27 split -1 eyeball "eye_left"
	eyelid lower_left "Odell_01.vta" lowerer 7 -0.31 neutral 0 -0.23 raiser 8 -0.12 split -1 eyeball "eye_left"

	mouth 0 "mouth" "ValveBiped.Bip01_Head1" 0 1 0

	flexfile "Odell_01.vta" 
	{
		defaultflex frame 0
		// Already in eyelid lines: flex "upper_right" frame 1
		// Already in eyelid lines: flex "upper_right" frame 2
		// Already in eyelid lines: flex "lower_right" frame 3
		// Already in eyelid lines: flex "lower_right" frame 4
		// Already in eyelid lines: flex "upper_left" frame 5
		// Already in eyelid lines: flex "upper_left" frame 6
		// Already in eyelid lines: flex "lower_left" frame 7
		// Already in eyelid lines: flex "lower_left" frame 8
		flex "AU1R" frame 9
		flex "AU1L" frame 10
		flex "AU2R" frame 11
		flex "AU2L" frame 12
		flex "AU4R" frame 13
		flex "AU4L" frame 14
		flex "AU12R" frame 15
		flex "AU12R" frame 16
		flex "AU12L" frame 17
		flex "AU12L" frame 18
		flex "AU15" frame 19
		flex "AU17R" frame 20
		flex "AU17L" frame 21
		flex "AU10R" frame 22
		flex "AU10L" frame 23
		flex "AU6R" frame 24
		flex "AU6L" frame 25
		flex "AU9R" frame 26
		flex "AU9L" frame 27
		flex "AU25R" frame 28
		flex "AU25L" frame 29
		flex "AU18R" frame 30
		flex "AU18L" frame 31
		flex "AU22R" frame 32
		flex "AU22L" frame 33
		flex "AU20R" frame 34
		flex "AU20L" frame 35
		flex "AU32" frame 36
		flex "AU24" frame 37
		flex "AU38" frame 38
		flex "AU31" frame 39
		flex "AU26R" frame 40
		flex "AU26L" frame 41
		flex "AU27R" frame 42
		flex "AU27L" frame 43
	}

	flexcontroller eyelid range 0 1 "right_lid_raiser"
	flexcontroller eyelid range 0 1 "left_lid_raiser"
	flexcontroller eyelid range 0 1 "right_lid_tightener"
	flexcontroller eyelid range 0 1 "left_lid_tightener"
	flexcontroller eyelid range 0 1 "right_lid_droop"
	flexcontroller eyelid range 0 1 "left_lid_droop"
	flexcontroller eyelid range 0 1 "blink"
	flexcontroller brow range 0 1 "right_inner_raiser"
	flexcontroller brow range 0 1 "left_inner_raiser"
	flexcontroller brow range 0 1 "right_outer_raiser"
	flexcontroller brow range 0 1 "left_outer_raiser"
	flexcontroller brow range 0 1 "right_lowerer"
	flexcontroller brow range 0 1 "left_lowerer"
	flexcontroller nose range 0 1 "right_cheek_raiser"
	flexcontroller nose range 0 1 "left_cheek_raiser"
	flexcontroller nose range 0 1 "wrinkler"
	flexcontroller nose range 0 1 "dilator"
	flexcontroller mouth range 0 1 "right_upper_raiser"
	flexcontroller mouth range 0 1 "left_upper_raiser"
	flexcontroller mouth range 0 1 "right_corner_puller"
	flexcontroller mouth range 0 1 "left_corner_puller"
	flexcontroller mouth range 0 1 "corner_depressor"
	flexcontroller mouth range 0 1 "chin_raiser"
	flexcontroller phoneme range 0 1 "right_part"
	flexcontroller phoneme range 0 1 "left_part"
	flexcontroller phoneme range 0 1 "right_puckerer"
	flexcontroller phoneme range 0 1 "left_puckerer"
	flexcontroller phoneme range 0 1 "right_funneler"
	flexcontroller phoneme range 0 1 "left_funneler"
	flexcontroller phoneme range 0 1 "right_stretcher"
	flexcontroller phoneme range 0 1 "left_stretcher"
	flexcontroller phoneme range 0 1 "bite"
	flexcontroller phoneme range 0 1 "presser"
	flexcontroller phoneme range 0 1 "tightener"
	flexcontroller phoneme range 0 1 "jaw_clencher"
	flexcontroller phoneme range 0 1 "jaw_drop"
	flexcontroller phoneme range 0 1 "right_mouth_drop"
	flexcontroller phoneme range 0 1 "left_mouth_drop"
	flexcontroller mouth range 0 1 "smile"
	flexcontroller mouth range 0 1 "right_sneer"
	flexcontroller mouth range 0 1 "left_sneer"
	flexcontroller mouth range 0 1 "wide_open"
	flexcontroller mouth range 0 1 "lower_lip"
	flexcontroller head range -55 55 "head_rightleft"
	flexcontroller head range -30 35 "head_updown"
	flexcontroller head range -18 18 "head_tilt"
	flexcontroller eyes range -30 30 "eyes_updown"
	flexcontroller eyes range -30 30 "eyes_rightleft"
	flexcontroller body range -6 6 "move_rightleft"
	flexcontroller body range -10 6 "move_forwardback"
	flexcontroller body range -10 2 "move_updown"
	flexcontroller body range -50 50 "body_rightleft"
	flexcontroller body range -20 40 "body_updown"
	flexcontroller body range -15 15 "body_tilt"
	flexcontroller chest range -40 40 "chest_rightleft"
	flexcontroller chest range -25 50 "chest_updown"
	flexcontroller chest range -20 20 "chest_tilt"
	flexcontroller head range -1 1 "head_forwardback"

	localvar AU1AU2R
	localvar AU1AU2L
	localvar AU12AU25
	localvar AU10SL
	localvar AU10SR
	localvar AU16
	localvar AU27ZR
	localvar AU27ZL
	localvar right_open
	localvar left_open
	localvar right_lip_suppressor
	localvar left_lip_suppressor
	localvar right_corner_suppressor
	localvar left_corner_suppressor
	%upper_right_raiser = right_lid_raiser * (1 - right_lid_droop * 0.8) * (1 - blink)
	%upper_right_neutral = (1 - right_lid_droop * 0.8) * (1 - right_lid_raiser) * (1 - blink)
	%upper_right_lowerer = blink
	%upper_left_raiser = left_lid_raiser * (1 - left_lid_droop * 0.8) * (1 - blink)
	%upper_left_neutral = (1 - left_lid_droop * 0.8) * (1 - left_lid_raiser) * (1 - blink)
	%upper_left_lowerer = blink
	%lower_right_raiser = blink
	%lower_right_neutral = (1 - blink) * (1 - right_lid_tightener * 0.5) * (1 - right_cheek_raiser * 0.25)
	%lower_right_lowerer = 0
	%lower_left_raiser = blink
	%lower_left_neutral = (1 - blink) * (1 - left_lid_tightener * 0.5) * (1 - left_cheek_raiser * 0.25)
	%lower_left_lowerer = 0
	%AU1R = right_inner_raiser * (1 - right_outer_raiser) * (1 - right_lowerer)
	%AU1L = left_inner_raiser * (1 - left_outer_raiser) * (1 - left_lowerer)
	%AU2R = right_outer_raiser * (1 - right_inner_raiser) * (1 - right_lowerer)
	%AU2L = left_outer_raiser * (1 - left_inner_raiser) * (1 - left_lowerer)
	%AU1AU2R = right_inner_raiser * right_outer_raiser * (1 - left_lowerer)
	%AU1AU2L = right_inner_raiser * right_outer_raiser * (1 - left_lowerer)
	%AU4R = right_lowerer
	%AU4L = left_lowerer
	%AU6R = right_cheek_raiser
	%AU6L = left_cheek_raiser
	%AU9R = wrinkler
	%AU9L = wrinkler
	%AU38 = dilator
	%AU10R = right_upper_raiser
	%AU10L = left_upper_raiser
	%right_open = smile + right_part * (1 - smile) + right_puckerer + right_funneler
	%left_open = smile + left_part * (1 - smile) + left_puckerer + left_funneler
	%right_lip_suppressor = 1 / %right_open * (1 - presser) * (1 - bite)
	%left_lip_suppressor = 1 / %left_open * (1 - presser) * (1 - bite)
	%AU25R = right_part * right_part * %right_lip_suppressor * (1 - smile)
	%AU25L = left_part * left_part * %left_lip_suppressor * (1 - smile)
	%AU12AU25 = smile * smile * 0.5 * (%right_lip_suppressor + %left_lip_suppressor)
	%AU18R = right_puckerer * right_puckerer * %right_lip_suppressor
	%AU18L = left_puckerer * left_puckerer * %left_lip_suppressor
	%AU22R = right_funneler * right_funneler * %right_lip_suppressor
	%AU22L = left_funneler * left_funneler * %left_lip_suppressor
	%AU17R = chin_raiser * (1 - jaw_drop * 0.5) * (1 - bite) * (1 - 0.6 * (%AU25R + %AU18R + %AU22R))
	%AU17L = chin_raiser * (1 - jaw_drop * 0.5) * (1 - bite) * (1 - 0.6 * (%AU25L + %AU18L + %AU22L))
	%AU15 = corner_depressor
	%right_corner_suppressor = 1 / (%AU18R * 0.8 + %AU22R * 0.8 + %AU17R + bite + right_corner_puller + right_stretcher) * (1 - jaw_drop * 0.5) * (1 - smile)
	%left_corner_suppressor = 1 / (%AU18L * 0.8 + %AU22L * 0.8 + %AU17L + bite + left_corner_puller + left_stretcher) * (1 - jaw_drop * 0.5) * (1 - smile)
	%AU12R = right_corner_puller * right_corner_puller * %right_corner_suppressor
	%AU12L = left_corner_puller * left_corner_puller * %left_corner_suppressor
	%AU20R = right_stretcher * right_stretcher * %right_corner_suppressor
	%AU20L = left_stretcher * left_stretcher * %left_corner_suppressor
	%AU32 = bite
	%AU24 = presser + (1 - presser) * tightener
	%AU31 = jaw_clencher * jaw_clencher / (jaw_clencher + jaw_drop)
	%AU26R = jaw_drop * (1 - right_mouth_drop * (1 - bite)) * jaw_drop / (jaw_clencher + jaw_drop)
	%AU26L = jaw_drop * (1 - left_mouth_drop * (1 - bite)) * jaw_drop / (jaw_clencher + jaw_drop)
	%AU27R = jaw_drop * right_mouth_drop * (1 - bite) * jaw_drop / (jaw_clencher + jaw_drop)
	%AU27L = jaw_drop * left_mouth_drop * (1 - bite) * jaw_drop / (jaw_clencher + jaw_drop)
	%AU10SR = right_sneer
	%AU10SL = left_sneer
	%AU27ZR = wide_open
	%AU27ZL = wide_open
	%AU16 = lower_lip
	%mouth = %AU27R * 0.5 + %AU27L * 0.5 + %AU22R * 0.35 + %AU22L * 0.35 + %AU18R * 0.25 + %AU18L * 0.25 + %AU25R * 0.35 + %AU25L * 0.35 + %AU32 * 0.5 + %AU12AU25 * 0.8 + %AU10SR * 0.35 + %AU10SL * 0.35 + (%AU27ZR + %AU27ZL) * (0.5 * 0.7 + %AU16 * 0.4)
}


$surfaceprop "flesh"

$contents "solid"

$illumposition 0.022 0.696 35.683

$eyeposition 0 0 70

$cdmaterials "models\odell\"

$attachment "eyes" "ValveBiped.Bip01_Head1" 2.74 -4.4 0.14 rotate -1.51 -80.1 -89.87

$cbox 0 0 0 0 0 0

$bbox -13 -13 0 13 13 72

$hboxset "default"
$hbox 1 "ValveBiped.Bip01_Head1" -1.25 -6.5 -3.19 8.25 3.5 3.31 ""
$hbox 4 "ValveBiped.Bip01_L_UpperArm" 0 -2.75 -2.75 12.51 1.75 2.25 ""
$hbox 4 "ValveBiped.Bip01_L_Forearm" 0 -2.19 -2.38 13 1.81 1.62 ""
$hbox 4 "ValveBiped.Bip01_L_Hand" 0.06 -2 -1.5 4.06 1 2.5 ""
$hbox 5 "ValveBiped.Bip01_R_UpperArm" 0 -3 -2.25 12.39 2 2.75 ""
$hbox 5 "ValveBiped.Bip01_R_Forearm" -0.5 -2.2 -1.55 12.5 1.8 2.45 ""
$hbox 5 "ValveBiped.Bip01_R_Hand" 0.06 -2 -2.5 4.06 1 1.5 ""
$hbox 6 "ValveBiped.Bip01_L_Thigh" 0 -3.75 -3.25 17.85 3.75 3.25 ""
$hbox 6 "ValveBiped.Bip01_L_Calf" 0 -3.51 -3.28 15.64 3.49 2.72 ""
$hbox 6 "ValveBiped.Bip01_L_Foot" -1.07 -2 -2.84 5.04 5 2.16 ""
$hbox 6 "ValveBiped.Bip01_L_Toe0" -0.5 -3 -2.19 2.5 0 2.46 ""
$hbox 7 "ValveBiped.Bip01_R_Thigh" 0 -3.75 -3.25 17.85 3.75 3.25 ""
$hbox 7 "ValveBiped.Bip01_R_Calf" 0 -3.51 -2.82 15.64 3.49 3.18 ""
$hbox 7 "ValveBiped.Bip01_R_Foot" -1.06 -2.01 -2.28 5.05 4.99 2.72 ""
$hbox 7 "ValveBiped.Bip01_R_Toe0" -0.5 -3 -2.6 2.5 0 2.1 ""
$hbox 0 "ValveBiped.Bip01_Pelvis" -7.5 -5.5 -6 7.5 8.5 5 ""
$hbox 0 "ValveBiped.Bip01_Spine2" -2.5 -2.5 -7 14.5 7.5 7 ""
//$skipboneinbbox

$poseparameter "move_yaw" -180 180 loop 360
$poseparameter "body_trans_Y" -6.061964 5.995715 loop 0
$poseparameter "body_trans_X" -10.06929 5.204566 loop 0
$poseparameter "body_lift" -10.27087 2.090734 loop 0
$poseparameter "body_yaw" -56.92838 56.18209 loop 0
$poseparameter "body_pitch" -20.49874 43.01373 loop 0
$poseparameter "body_roll" -17.88843 15.76445 loop 0
$poseparameter "spine_yaw" -40.63087 40.61969 loop 0
$poseparameter "spine_pitch" -28.08211 52.62407 loop 0
$poseparameter "spine_roll" -21.8524 21.86035 loop 0
$poseparameter "neck_trans" -0.434581 0.632216 loop 0
$poseparameter "head_yaw" -59.74305 59.74277 loop 0
$poseparameter "head_pitch" -29.98144 36.12508 loop 0
$poseparameter "head_roll" -18.29514 18.31503 loop 0

$ikchain "rhand" "ValveBiped.Bip01_R_Hand" knee 0 0 0
$ikchain "lhand" "ValveBiped.Bip01_L_Hand" knee 0 0 0
$ikchain "rfoot" "ValveBiped.Bip01_R_Foot" knee 0 0 0
$ikchain "lfoot" "ValveBiped.Bip01_L_Foot" knee 0 0 0
$ikchain "rhand" "ValveBiped.Bip01_R_Hand" knee 0 0 0
$ikchain "lhand" "ValveBiped.Bip01_L_Hand" knee 0 0 0
$ikchain "rfoot" "ValveBiped.Bip01_R_Foot" knee 0 0 0
$ikchain "lfoot" "ValveBiped.Bip01_L_Foot" knee 0 0 0

$ikautoplaylock "rhand" 0.5 0.8
$ikautoplaylock "lhand" 0.5 0.8
$ikautoplaylock "rfoot" 1 0.1
$ikautoplaylock "lfoot" 1 0.1

$weightlist "weights_layer_crouch_run_holding" {
	 "ValveBiped.Bip01_Pelvis" 0
	 "ValveBiped.Bip01_L_Thigh" 0
	 "ValveBiped.Bip01_L_Calf" 0
	 "ValveBiped.Bip01_L_Foot" 0
	 "ValveBiped.Bip01_L_Toe0" 0
	 "ValveBiped.Bip01_R_Thigh" 0
	 "ValveBiped.Bip01_R_Calf" 0
	 "ValveBiped.Bip01_R_Foot" 0
	 "ValveBiped.Bip01_R_Toe0" 0
	 "ValveBiped.Bip01_Spine" 1
	 "ValveBiped.Bip01_Spine1" 1
	 "ValveBiped.Bip01_Spine2" 1
	 "ValveBiped.Bip01_Spine4" 1
	 "ValveBiped.Bip01_Neck1" 1
	 "ValveBiped.Bip01_Head1" 1
	 "ValveBiped.Bip01_L_Clavicle" 1
	 "ValveBiped.Bip01_L_UpperArm" 1
	 "ValveBiped.Bip01_L_Forearm" 1
	 "ValveBiped.Bip01_L_Hand" 1
	 "ValveBiped.Bip01_L_Finger4" 1
	 "ValveBiped.Bip01_L_Finger41" 1
	 "ValveBiped.Bip01_L_Finger42" 1
	 "ValveBiped.Bip01_L_Finger3" 1
	 "ValveBiped.Bip01_L_Finger31" 1
	 "ValveBiped.Bip01_L_Finger32" 1
	 "ValveBiped.Bip01_L_Finger2" 1
	 "ValveBiped.Bip01_L_Finger21" 1
	 "ValveBiped.Bip01_L_Finger22" 1
	 "ValveBiped.Bip01_L_Finger1" 1
	 "ValveBiped.Bip01_L_Finger11" 1
	 "ValveBiped.Bip01_L_Finger12" 1
	 "ValveBiped.Bip01_L_Finger0" 1
	 "ValveBiped.Bip01_L_Finger01" 1
	 "ValveBiped.Bip01_L_Finger02" 1
	 "ValveBiped.Bip01_R_Clavicle" 1
	 "ValveBiped.Bip01_R_UpperArm" 1
	 "ValveBiped.Bip01_R_Forearm" 1
	 "ValveBiped.Bip01_R_Hand" 1
	 "ValveBiped.Bip01_R_Finger4" 1
	 "ValveBiped.Bip01_R_Finger41" 1
	 "ValveBiped.Bip01_R_Finger42" 1
	 "ValveBiped.Bip01_R_Finger3" 1
	 "ValveBiped.Bip01_R_Finger31" 1
	 "ValveBiped.Bip01_R_Finger32" 1
	 "ValveBiped.Bip01_R_Finger2" 1
	 "ValveBiped.Bip01_R_Finger21" 1
	 "ValveBiped.Bip01_R_Finger22" 1
	 "ValveBiped.Bip01_R_Finger1" 1
	 "ValveBiped.Bip01_R_Finger11" 1
	 "ValveBiped.Bip01_R_Finger12" 1
	 "ValveBiped.Bip01_R_Finger0" 1
	 "ValveBiped.Bip01_R_Finger01" 1
	 "ValveBiped.Bip01_R_Finger02" 1
}

$weightlist "weights_crouch_run_all_delta" {
	 "ValveBiped.Bip01_Pelvis" 1
	 "ValveBiped.Bip01_L_Thigh" 0
	 "ValveBiped.Bip01_L_Calf" 0
	 "ValveBiped.Bip01_L_Foot" 0
	 "ValveBiped.Bip01_L_Toe0" 0
	 "ValveBiped.Bip01_R_Thigh" 0
	 "ValveBiped.Bip01_R_Calf" 0
	 "ValveBiped.Bip01_R_Foot" 0
	 "ValveBiped.Bip01_R_Toe0" 0
	 "ValveBiped.Bip01_Spine" 0
	 "ValveBiped.Bip01_Spine1" 0
	 "ValveBiped.Bip01_Spine2" 0
	 "ValveBiped.Bip01_Spine4" 0
	 "ValveBiped.Bip01_Neck1" 0
	 "ValveBiped.Bip01_Head1" 0
	 "ValveBiped.Bip01_L_Clavicle" 0
	 "ValveBiped.Bip01_L_UpperArm" 0
	 "ValveBiped.Bip01_L_Forearm" 0
	 "ValveBiped.Bip01_L_Hand" 0
	 "ValveBiped.Bip01_L_Finger4" 0
	 "ValveBiped.Bip01_L_Finger41" 0
	 "ValveBiped.Bip01_L_Finger42" 0
	 "ValveBiped.Bip01_L_Finger3" 0
	 "ValveBiped.Bip01_L_Finger31" 0
	 "ValveBiped.Bip01_L_Finger32" 0
	 "ValveBiped.Bip01_L_Finger2" 0
	 "ValveBiped.Bip01_L_Finger21" 0
	 "ValveBiped.Bip01_L_Finger22" 0
	 "ValveBiped.Bip01_L_Finger1" 0
	 "ValveBiped.Bip01_L_Finger11" 0
	 "ValveBiped.Bip01_L_Finger12" 0
	 "ValveBiped.Bip01_L_Finger0" 0
	 "ValveBiped.Bip01_L_Finger01" 0
	 "ValveBiped.Bip01_L_Finger02" 0
	 "ValveBiped.Bip01_R_Clavicle" 0
	 "ValveBiped.Bip01_R_UpperArm" 0
	 "ValveBiped.Bip01_R_Forearm" 0
	 "ValveBiped.Bip01_R_Hand" 0
	 "ValveBiped.Bip01_R_Finger4" 0
	 "ValveBiped.Bip01_R_Finger41" 0
	 "ValveBiped.Bip01_R_Finger42" 0
	 "ValveBiped.Bip01_R_Finger3" 0
	 "ValveBiped.Bip01_R_Finger31" 0
	 "ValveBiped.Bip01_R_Finger32" 0
	 "ValveBiped.Bip01_R_Finger2" 0
	 "ValveBiped.Bip01_R_Finger21" 0
	 "ValveBiped.Bip01_R_Finger22" 0
	 "ValveBiped.Bip01_R_Finger1" 0
	 "ValveBiped.Bip01_R_Finger11" 0
	 "ValveBiped.Bip01_R_Finger12" 0
	 "ValveBiped.Bip01_R_Finger0" 0
	 "ValveBiped.Bip01_R_Finger01" 0
	 "ValveBiped.Bip01_R_Finger02" 0
}

$weightlist "weights_body_trans_y" {
	 "ValveBiped.Bip01_Pelvis" 1
	 "ValveBiped.Bip01_L_Thigh" 0
	 "ValveBiped.Bip01_L_Calf" 0
	 "ValveBiped.Bip01_L_Foot" 0
	 "ValveBiped.Bip01_L_Toe0" 0
	 "ValveBiped.Bip01_R_Thigh" 0
	 "ValveBiped.Bip01_R_Calf" 0
	 "ValveBiped.Bip01_R_Foot" 0
	 "ValveBiped.Bip01_R_Toe0" 0
	 "ValveBiped.Bip01_Spine" 1
	 "ValveBiped.Bip01_Spine1" 1
	 "ValveBiped.Bip01_Spine2" 1
	 "ValveBiped.Bip01_Spine4" 1
	 "ValveBiped.Bip01_Neck1" 1
	 "ValveBiped.Bip01_Head1" 1
	 "ValveBiped.Bip01_L_Clavicle" 0
	 "ValveBiped.Bip01_L_UpperArm" 0
	 "ValveBiped.Bip01_L_Forearm" 0
	 "ValveBiped.Bip01_L_Hand" 0
	 "ValveBiped.Bip01_L_Finger4" 0
	 "ValveBiped.Bip01_L_Finger41" 0
	 "ValveBiped.Bip01_L_Finger42" 0
	 "ValveBiped.Bip01_L_Finger3" 0
	 "ValveBiped.Bip01_L_Finger31" 0
	 "ValveBiped.Bip01_L_Finger32" 0
	 "ValveBiped.Bip01_L_Finger2" 0
	 "ValveBiped.Bip01_L_Finger21" 0
	 "ValveBiped.Bip01_L_Finger22" 0
	 "ValveBiped.Bip01_L_Finger1" 0
	 "ValveBiped.Bip01_L_Finger11" 0
	 "ValveBiped.Bip01_L_Finger12" 0
	 "ValveBiped.Bip01_L_Finger0" 0
	 "ValveBiped.Bip01_L_Finger01" 0
	 "ValveBiped.Bip01_L_Finger02" 0
	 "ValveBiped.Bip01_R_Clavicle" 0
	 "ValveBiped.Bip01_R_UpperArm" 0
	 "ValveBiped.Bip01_R_Forearm" 0
	 "ValveBiped.Bip01_R_Hand" 0
	 "ValveBiped.Bip01_R_Finger4" 0
	 "ValveBiped.Bip01_R_Finger41" 0
	 "ValveBiped.Bip01_R_Finger42" 0
	 "ValveBiped.Bip01_R_Finger3" 0
	 "ValveBiped.Bip01_R_Finger31" 0
	 "ValveBiped.Bip01_R_Finger32" 0
	 "ValveBiped.Bip01_R_Finger2" 0
	 "ValveBiped.Bip01_R_Finger21" 0
	 "ValveBiped.Bip01_R_Finger22" 0
	 "ValveBiped.Bip01_R_Finger1" 0
	 "ValveBiped.Bip01_R_Finger11" 0
	 "ValveBiped.Bip01_R_Finger12" 0
	 "ValveBiped.Bip01_R_Finger0" 0
	 "ValveBiped.Bip01_R_Finger01" 0
	 "ValveBiped.Bip01_R_Finger02" 0
}

$weightlist "weights_spine_rot_z" {
	 "ValveBiped.Bip01_Pelvis" 0
	 "ValveBiped.Bip01_L_Thigh" 0
	 "ValveBiped.Bip01_L_Calf" 0
	 "ValveBiped.Bip01_L_Foot" 0
	 "ValveBiped.Bip01_L_Toe0" 0
	 "ValveBiped.Bip01_R_Thigh" 0
	 "ValveBiped.Bip01_R_Calf" 0
	 "ValveBiped.Bip01_R_Foot" 0
	 "ValveBiped.Bip01_R_Toe0" 0
	 "ValveBiped.Bip01_Spine" 1
	 "ValveBiped.Bip01_Spine1" 1
	 "ValveBiped.Bip01_Spine2" 1
	 "ValveBiped.Bip01_Spine4" 1
	 "ValveBiped.Bip01_Neck1" 1
	 "ValveBiped.Bip01_Head1" 0
	 "ValveBiped.Bip01_L_Clavicle" 0
	 "ValveBiped.Bip01_L_UpperArm" 0
	 "ValveBiped.Bip01_L_Forearm" 0
	 "ValveBiped.Bip01_L_Hand" 0
	 "ValveBiped.Bip01_L_Finger4" 0
	 "ValveBiped.Bip01_L_Finger41" 0
	 "ValveBiped.Bip01_L_Finger42" 0
	 "ValveBiped.Bip01_L_Finger3" 0
	 "ValveBiped.Bip01_L_Finger31" 0
	 "ValveBiped.Bip01_L_Finger32" 0
	 "ValveBiped.Bip01_L_Finger2" 0
	 "ValveBiped.Bip01_L_Finger21" 0
	 "ValveBiped.Bip01_L_Finger22" 0
	 "ValveBiped.Bip01_L_Finger1" 0
	 "ValveBiped.Bip01_L_Finger11" 0
	 "ValveBiped.Bip01_L_Finger12" 0
	 "ValveBiped.Bip01_L_Finger0" 0
	 "ValveBiped.Bip01_L_Finger01" 0
	 "ValveBiped.Bip01_L_Finger02" 0
	 "ValveBiped.Bip01_R_Clavicle" 0
	 "ValveBiped.Bip01_R_UpperArm" 0
	 "ValveBiped.Bip01_R_Forearm" 0
	 "ValveBiped.Bip01_R_Hand" 0
	 "ValveBiped.Bip01_R_Finger4" 0
	 "ValveBiped.Bip01_R_Finger41" 0
	 "ValveBiped.Bip01_R_Finger42" 0
	 "ValveBiped.Bip01_R_Finger3" 0
	 "ValveBiped.Bip01_R_Finger31" 0
	 "ValveBiped.Bip01_R_Finger32" 0
	 "ValveBiped.Bip01_R_Finger2" 0
	 "ValveBiped.Bip01_R_Finger21" 0
	 "ValveBiped.Bip01_R_Finger22" 0
	 "ValveBiped.Bip01_R_Finger1" 0
	 "ValveBiped.Bip01_R_Finger11" 0
	 "ValveBiped.Bip01_R_Finger12" 0
	 "ValveBiped.Bip01_R_Finger0" 0
	 "ValveBiped.Bip01_R_Finger01" 0
	 "ValveBiped.Bip01_R_Finger02" 0
}

$weightlist "weights_neck_trans_x" {
	 "ValveBiped.Bip01_Pelvis" 0
	 "ValveBiped.Bip01_L_Thigh" 0
	 "ValveBiped.Bip01_L_Calf" 0
	 "ValveBiped.Bip01_L_Foot" 0
	 "ValveBiped.Bip01_L_Toe0" 0
	 "ValveBiped.Bip01_R_Thigh" 0
	 "ValveBiped.Bip01_R_Calf" 0
	 "ValveBiped.Bip01_R_Foot" 0
	 "ValveBiped.Bip01_R_Toe0" 0
	 "ValveBiped.Bip01_Spine" 1
	 "ValveBiped.Bip01_Spine1" 1
	 "ValveBiped.Bip01_Spine2" 1
	 "ValveBiped.Bip01_Spine4" 1
	 "ValveBiped.Bip01_Neck1" 1
	 "ValveBiped.Bip01_Head1" 1
	 "ValveBiped.Bip01_L_Clavicle" 0
	 "ValveBiped.Bip01_L_UpperArm" 0
	 "ValveBiped.Bip01_L_Forearm" 0
	 "ValveBiped.Bip01_L_Hand" 0
	 "ValveBiped.Bip01_L_Finger4" 0
	 "ValveBiped.Bip01_L_Finger41" 0
	 "ValveBiped.Bip01_L_Finger42" 0
	 "ValveBiped.Bip01_L_Finger3" 0
	 "ValveBiped.Bip01_L_Finger31" 0
	 "ValveBiped.Bip01_L_Finger32" 0
	 "ValveBiped.Bip01_L_Finger2" 0
	 "ValveBiped.Bip01_L_Finger21" 0
	 "ValveBiped.Bip01_L_Finger22" 0
	 "ValveBiped.Bip01_L_Finger1" 0
	 "ValveBiped.Bip01_L_Finger11" 0
	 "ValveBiped.Bip01_L_Finger12" 0
	 "ValveBiped.Bip01_L_Finger0" 0
	 "ValveBiped.Bip01_L_Finger01" 0
	 "ValveBiped.Bip01_L_Finger02" 0
	 "ValveBiped.Bip01_R_Clavicle" 0
	 "ValveBiped.Bip01_R_UpperArm" 0
	 "ValveBiped.Bip01_R_Forearm" 0
	 "ValveBiped.Bip01_R_Hand" 0
	 "ValveBiped.Bip01_R_Finger4" 0
	 "ValveBiped.Bip01_R_Finger41" 0
	 "ValveBiped.Bip01_R_Finger42" 0
	 "ValveBiped.Bip01_R_Finger3" 0
	 "ValveBiped.Bip01_R_Finger31" 0
	 "ValveBiped.Bip01_R_Finger32" 0
	 "ValveBiped.Bip01_R_Finger2" 0
	 "ValveBiped.Bip01_R_Finger21" 0
	 "ValveBiped.Bip01_R_Finger22" 0
	 "ValveBiped.Bip01_R_Finger1" 0
	 "ValveBiped.Bip01_R_Finger11" 0
	 "ValveBiped.Bip01_R_Finger12" 0
	 "ValveBiped.Bip01_R_Finger0" 0
	 "ValveBiped.Bip01_R_Finger01" 0
	 "ValveBiped.Bip01_R_Finger02" 0
}

$animation "a_idle_angry" "Odell_anims\idle_angry.smd" {
	fps 30
	loop
}

$animation "a_idle_subtle" "Odell_anims\idle_subtle.smd" {
	fps 30
	loop
}

$animation "a_idle01" "Odell_anims\idle01.smd" {
	fps 30
	loop
}

$animation "a_Idle02" "Odell_anims\Idle02.smd" {
	fps 30
	loop
}

$animation "a_Idle03" "Odell_anims\Idle03.smd" {
	fps 30
	loop
}

$animation "a_LineIdle01" "Odell_anims\LineIdle01.smd" {
	fps 30
	loop
}

$animation "a_LineIdle02" "Odell_anims\LineIdle02.smd" {
	fps 30
	loop
}

$animation "a_LineIdle03" "Odell_anims\LineIdle03.smd" {
	fps 30
	loop
}

$animation "a_LineIdle04" "Odell_anims\LineIdle04.smd" {
	fps 30
	loop
}

$animation "a_Crouch_idleD" "Odell_anims\Crouch_idleD.smd" {
	fps 30
	loop
}

$animation "a_WalkS" "Odell_anims\a_WalkS.smd" {
	fps 30
	loop
	walkframe 30 LX LY
}

$animation "a_WalkSE" "Odell_anims\a_WalkSE.smd" {
	fps 30
	loop
	walkframe 30 LX LY
}

$animation "a_WalkE" "Odell_anims\a_WalkE.smd" {
	fps 30
	loop
	walkframe 30 LX LY
}

$animation "a_WalkNE" "Odell_anims\a_WalkNE.smd" {
	fps 30
	loop
	walkframe 30 LX LY
}

$animation "a_WalkN" "Odell_anims\a_WalkN.smd" {
	fps 30
	loop
	walkframe 30 LX LY
}

$animation "a_WalkNW" "Odell_anims\a_WalkNW.smd" {
	fps 30
	loop
	walkframe 30 LX LY
}

$animation "a_WalkW" "Odell_anims\a_WalkW.smd" {
	fps 30
	loop
	walkframe 30 LX LY
}

$animation "a_WalkSW" "Odell_anims\a_WalkSW.smd" {
	fps 30
	loop
	walkframe 30 LX LY
}

$animation "a_RunS" "Odell_anims\a_RunS.smd" {
	fps 30
	loop
	walkframe 18 LX LY
}

$animation "a_RunSE" "Odell_anims\a_RunSE.smd" {
	fps 30
	loop
	walkframe 18 LX LY
}

$animation "a_RunE" "Odell_anims\a_RunE.smd" {
	fps 30
	loop
	walkframe 18 LX LY
}

$animation "a_RunNE" "Odell_anims\a_RunNE.smd" {
	fps 30
	loop
	walkframe 18 LX LY
}

$animation "a_RunN" "Odell_anims\a_RunN.smd" {
	fps 30
	loop
	walkframe 18 LX LY
}

$animation "a_RunNW" "Odell_anims\a_RunNW.smd" {
	fps 30
	loop
	walkframe 18 LX LY
}

$animation "a_RunW" "Odell_anims\a_RunW.smd" {
	fps 30
	loop
	walkframe 18 LX LY
}

$animation "a_RunSW" "Odell_anims\a_RunSW.smd" {
	fps 30
	loop
	walkframe 18 LX LY
}

$animation "a_Crouch_runN_smg1" "Odell_anims\a_Crouch_runN_smg1.smd" {
	fps 30
	loop
	walkframe 18 LX LY
}

$animation "a_layer_crouch_run_holding" "Odell_anims\layer_crouch_run_holding.smd" {
	fps 30
}

$animation "a_layer_crouch_walk_no_weapon" "Odell_anims\layer_crouch_walk_no_weapon.smd" {
	fps 30
}

$animation "a_layer_crouch_walk_holding" "Odell_anims\layer_crouch_walk_holding.smd" {
	fps 30
}

$animation "a_layer_crouch_run_no_weapon" "Odell_anims\layer_crouch_run_no_weapon.smd" {
	fps 30
}

$animation "a_layer_run_holding" "Odell_anims\layer_run_holding.smd" {
	fps 30
}

$animation "a_RunN_SMG" "Odell_anims\a_RunN_SMG.smd" {
	fps 30
	loop
	walkframe 18 LX LY
}

$animation "a_Crouch_walkS" "Odell_anims\a_Crouch_walkS.smd" {
	fps 30
	loop
	walkframe 30 LX LY
}

$animation "a_Crouch_walkSE" "Odell_anims\a_Crouch_walkSE.smd" {
	fps 30
	loop
	walkframe 30 LX LY
}

$animation "a_Crouch_walkE" "Odell_anims\a_Crouch_walkE.smd" {
	fps 30
	loop
	walkframe 30 LX LY
}

$animation "a_Crouch_walkNE" "Odell_anims\a_Crouch_walkNE.smd" {
	fps 30
	loop
	walkframe 30 LX LY
}

$animation "a_Crouch_walkN" "Odell_anims\a_Crouch_walkN.smd" {
	fps 30
	loop
	walkframe 30 LX LY
}

$animation "a_Crouch_walkNW" "Odell_anims\a_Crouch_walkNW.smd" {
	fps 30
	loop
	walkframe 30 LX LY
}

$animation "a_Crouch_walkW" "Odell_anims\a_Crouch_walkW.smd" {
	fps 30
	loop
	walkframe 30 LX LY
}

$animation "a_Crouch_walkSW" "Odell_anims\a_Crouch_walkSW.smd" {
	fps 30
	loop
	walkframe 30 LX LY
}

$animation "a_Crouch_runN" "Odell_anims\a_Crouch_runN.smd" {
	fps 30
	loop
	walkframe 18 LX LY
}

$animation "a_crouch_runS_delta" "Odell_anims\a_crouch_runS_delta.smd" {
	fps 30
}

$animation "a_crouch_runSE_delta" "Odell_anims\a_crouch_runSE_delta.smd" {
	fps 30
}

$animation "a_crouch_runE_delta" "Odell_anims\a_crouch_runE_delta.smd" {
	fps 30
}

$animation "a_crouch_runNE_delta" "Odell_anims\a_crouch_runNE_delta.smd" {
	fps 30
}

$animation "a_crouch_runN_delta" "Odell_anims\a_crouch_runN_delta.smd" {
	fps 30
}

$animation "a_crouch_runNW_delta" "Odell_anims\a_crouch_runNW_delta.smd" {
	fps 30
}

$animation "a_crouch_runW_delta" "Odell_anims\a_crouch_runW_delta.smd" {
	fps 30
}

$animation "a_crouch_runSW_delta" "Odell_anims\a_crouch_runSW_delta.smd" {
	fps 30
}

$animation "a_Stand_to_run" "Odell_anims\Stand_to_run.smd" {
	fps 30
	walkframe 30 LX
}

$animation "a_Run_to_stand" "Odell_anims\Run_to_stand.smd" {
	fps 30
}

$animation "a_Stand_to_walk" "Odell_anims\Stand_to_walk.smd" {
	fps 30
	walkframe 32 LX
}

$animation "a_Walk_to_stand" "Odell_anims\Walk_to_stand.smd" {
	fps 30
}

$animation "a_Stand_to_crouch" "Odell_anims\Stand_to_crouch.smd" {
	fps 30
}

$animation "a_Crouch_to_stand" "Odell_anims\Crouch_to_stand.smd" {
	fps 30
}

$animation "a_Crouch_to_run" "Odell_anims\Crouch_to_run.smd" {
	fps 30
	walkframe 24 LX
}

$animation "a_Run_to_crouch" "Odell_anims\Run_to_crouch.smd" {
	fps 30
	walkframe 36 LX
}

$animation "a_stairs_up" "Odell_anims\stairs_up.smd" {
	fps 30
	walkframe 40 LX LZ
}

$animation "a_stairs_down" "Odell_anims\stairs_down.smd" {
	fps 30
	walkframe 40 LX LZ
}

$animation "a_ladder_up" "Odell_anims\ladder_up.smd" {
	fps 30
	walkframe 42 LZ
}

$animation "a_ladder_down" "Odell_anims\ladder_down.smd" {
	fps 30
	walkframe 42 LZ
}

$animation "a_Open_door_away" "Odell_anims\Open_door_away.smd" {
	fps 30
}

$animation "a_Open_door_towards_right" "Odell_anims\Open_door_towards_right.smd" {
	fps 30
}

$animation "a_Open_door_towards_left" "Odell_anims\Open_door_towards_left.smd" {
	fps 30
}

$animation "a_Startle_behind" "Odell_anims\Startle_behind.smd" {
	fps 30
}

$animation "a_Cover_R" "Odell_anims\Cover_R.smd" {
	fps 30
	loop
}

$animation "a_Cover_L" "Odell_anims\Cover_L.smd" {
	fps 30
	loop
}

$animation "a_CoverLow_R" "Odell_anims\CoverLow_R.smd" {
	fps 30
	loop
}

$animation "a_CoverLow_L" "Odell_anims\CoverLow_L.smd" {
	fps 30
	loop
}

$animation "a_ThrowItem" "Odell_anims\ThrowItem.smd" {
	fps 30
}

$animation "a_Heal" "Odell_anims\Heal.smd" {
	fps 30
}

$animation "a_Wave" "Odell_anims\Wave.smd" {
	fps 30
}

$animation "a_DuckUnder" "Odell_anims\DuckUnder.smd" {
	fps 30
	walkframe 62 LX
}

$animation "a_crouchidlehide" "Odell_anims\crouchidlehide.smd" {
	fps 30
	loop
}

$animation "a_standtocrouchhide" "Odell_anims\standtocrouchhide.smd" {
	fps 30
}

$animation "a_crouchhidetostand" "Odell_anims\crouchhidetostand.smd" {
	fps 30
}

$animation "a_scaredidle" "Odell_anims\scaredidle.smd" {
	fps 30
	loop
}

$animation "a_preSkewer" "Odell_anims\preSkewer.smd" {
	fps 30
}

$animation "a_Fear_Reaction" "Odell_anims\Fear_Reaction.smd" {
	fps 30
}

$animation "a_RunN_protected" "Odell_anims\a_RunN_protected.smd" {
	fps 30
	loop
	walkframe 18 LX LY
}

$animation "a_layer_run_protected" "Odell_anims\layer_run_protected.smd" {
	fps 30
}

$animation "a_pose_neutral" "Odell_anims\a_pose_neutral.smd" {
	fps 30
}

$animation "a_body_trans" "Odell_anims\a_body_trans.smd" {
	fps 30
	noanimation
}

$animation "a_body_trans_rt" "Odell_anims\a_body_trans_rt.smd" {
	fps 30
}

$animation "a_body_trans_lt" "Odell_anims\a_body_trans_lt.smd" {
	fps 30
}

$animation "a_body_trans_fwd" "Odell_anims\a_body_trans_fwd.smd" {
	fps 30
}

$animation "a_body_trans_bwd" "Odell_anims\a_body_trans_bwd.smd" {
	fps 30
}

$animation "a_body_trans_dwn" "Odell_anims\a_body_trans_dwn.smd" {
	fps 30
}

$animation "a_body_trans_up" "Odell_anims\a_body_trans_up.smd" {
	fps 30
}

$animation "a_body_rot" "Odell_anims\a_body_rot.smd" {
	fps 30
	noanimation
}

$animation "a_body_rot_back" "Odell_anims\a_body_rot_back.smd" {
	fps 30
}

$animation "a_body_rot_fwd" "Odell_anims\a_body_rot_fwd.smd" {
	fps 30
}

$animation "a_body_rot_rt" "Odell_anims\a_body_rot_rt.smd" {
	fps 30
}

$animation "a_body_rot_lt" "Odell_anims\a_body_rot_lt.smd" {
	fps 30
}

$animation "a_body_rot_z_rt" "Odell_anims\a_body_rot_z_rt.smd" {
	fps 30
}

$animation "a_body_rot_z_lt" "Odell_anims\a_body_rot_z_lt.smd" {
	fps 30
}

$animation "a_spine_rot" "Odell_anims\a_spine_rot.smd" {
	fps 30
	noanimation
}

$animation "a_spine_rot_fwd" "Odell_anims\a_spine_rot_fwd.smd" {
	fps 30
}

$animation "a_spine_rot_back" "Odell_anims\a_spine_rot_back.smd" {
	fps 30
}

$animation "a_spine_rot_lt" "Odell_anims\a_spine_rot_lt.smd" {
	fps 30
}

$animation "a_spine_rot_rt" "Odell_anims\a_spine_rot_rt.smd" {
	fps 30
}

$animation "a_spine_rot_z_rt" "Odell_anims\a_spine_rot_z_rt.smd" {
	fps 30
}

$animation "a_spine_rot_z_lt" "Odell_anims\a_spine_rot_z_lt.smd" {
	fps 30
}

$animation "a_head_rot" "Odell_anims\a_head_rot.smd" {
	fps 30
	noanimation
}

$animation "a_head_rot_lt" "Odell_anims\a_head_rot_lt.smd" {
	fps 30
}

$animation "a_head_rot_rt" "Odell_anims\a_head_rot_rt.smd" {
	fps 30
}

$animation "a_neck_trans" "Odell_anims\a_neck_trans.smd" {
	fps 30
	noanimation
}

$animation "a_neck_trans_fwd" "Odell_anims\a_neck_trans_fwd.smd" {
	fps 30
}

$animation "a_neck_trans_back" "Odell_anims\a_neck_trans_back.smd" {
	fps 30
}

$animation "a_head_rot_dwn" "Odell_anims\a_head_rot_dwn.smd" {
	fps 30
}

$animation "a_head_rot_up" "Odell_anims\a_head_rot_up.smd" {
	fps 30
}

$animation "a_shoulder_shrug" "Odell_anims\a_shoulder_shrug.smd" {
	fps 30
}

$animation "a_head_rot_z_rt" "Odell_anims\a_head_rot_z_rt.smd" {
	fps 30
}

$animation "a_head_rot_z_lt" "Odell_anims\a_head_rot_z_lt.smd" {
	fps 30
}

$animation "a_ragdoll" "Odell_anims\ragdoll.smd" {
	fps 30
}

$animation "a_knees" "Odell_anims\knees.smd" {
	fps 30
	loop
	walkframe 30 LX
}

$sequence "idle_angry" {
	"a_idle_angry"
	activity "ACT_IDLE_ANGRY" 1
	fadein 0.2
	fadeout 0.2
	node 1
}

$sequence "idle_subtle" {
	"a_idle_subtle"
	activity "ACT_IDLE" 1
	fadein 0.2
	fadeout 0.2
	node 1
}

$sequence "idle01" {
	"a_idle01"
	activity "ACT_IDLE" 1
	fadein 0.2
	fadeout 0.2
	node 1
}

$sequence "Idle02" {
	"a_Idle02"
	activity "ACT_IDLE" 1
	fadein 0.2
	fadeout 0.2
	node 1
}

$sequence "Idle03" {
	"a_Idle03"
	activity "ACT_IDLE" 1
	fadein 0.2
	fadeout 0.2
	node 1
}

$sequence "LineIdle01" {
	"a_LineIdle01"
	fadein 0.2
	fadeout 0.2
}

$sequence "LineIdle02" {
	"a_LineIdle02"
	fadein 0.2
	fadeout 0.2
}

$sequence "LineIdle03" {
	"a_LineIdle03"
	fadein 0.2
	fadeout 0.2
}

$sequence "LineIdle04" {
	"a_LineIdle04"
	fadein 0.2
	fadeout 0.2
}

$sequence "Crouch_idleD" {
	"a_Crouch_idleD"
	activity "ACT_COVER_LOW" -1
	fadein 0.2
	fadeout 0.2
	node 2
}

$sequence "layer_crouch_run_holding" {
	"a_layer_crouch_run_holding"
	fadein 0.2
	fadeout 0.2
}

$sequence "layer_crouch_walk_no_weapon" {
	"a_layer_crouch_walk_no_weapon"
	fadein 0.2
	fadeout 0.2
}

$sequence "layer_crouch_walk_holding" {
	"a_layer_crouch_walk_holding"
	fadein 0.2
	fadeout 0.2
}

$sequence "layer_crouch_run_no_weapon" {
	"a_layer_crouch_run_no_weapon"
	fadein 0.2
	fadeout 0.2
}

$sequence "layer_run_holding" {
	"a_layer_run_holding"
	fadein 0.2
	fadeout 0.2
}

$sequence "walk_all" {
	"a_WalkS"
	"a_WalkSE"
	"a_WalkE"
	"a_WalkNE"
	"a_WalkN"
	"a_WalkNW"
	"a_WalkW"
	"a_WalkSW"
	"a_WalkS"
	activity "ACT_WALK" 1
	blend "move_yaw" -180 180
	blendwidth 9
	{ event 2051 9 "" }
	{ event 2050 23 "" }
	fadein 0.2
	fadeout 0.2
	node 3
}

$sequence "run_all" {
	"a_RunS"
	"a_RunSE"
	"a_RunE"
	"a_RunNE"
	"a_RunN"
	"a_RunNW"
	"a_RunW"
	"a_RunSW"
	"a_RunS"
	activity "ACT_RUN" 1
	blend "move_yaw" -180 180
	blendwidth 9
	fadein 0.2
	fadeout 0.2
	node 4
}

$sequence "Crouch_walk_all" {
	"a_Crouch_walkS"
	"a_Crouch_walkSE"
	"a_Crouch_walkE"
	"a_Crouch_walkNE"
	"a_Crouch_walkN"
	"a_Crouch_walkNW"
	"a_Crouch_walkW"
	"a_Crouch_walkSW"
	"a_Crouch_walkS"
	activity "ACT_WALK_CROUCH" 1
	blend "move_yaw" -180 180
	blendwidth 9
	fadein 0.2
	fadeout 0.2
	node 5
}

$sequence "crouch_run_all_delta" {
	"a_crouch_runS_delta"
	"a_crouch_runSE_delta"
	"a_crouch_runE_delta"
	"a_crouch_runNE_delta"
	"a_crouch_runN_delta"
	"a_crouch_runNW_delta"
	"a_crouch_runW_delta"
	"a_crouch_runSW_delta"
	"a_crouch_runS_delta"
	blend "move_yaw" -180 180
	blendwidth 9
	delta
	fadein 0.2
	fadeout 0.2
	iklock "lfoot" 1 1
	iklock "rfoot" 1 1
}

$sequence "crouchRUNALL1" {
	"a_RunS"
	"a_RunSE"
	"a_RunE"
	"a_RunNE"
	"a_Crouch_runN"
	"a_RunNW"
	"a_RunW"
	"a_RunSW"
	"a_RunS"
	activity "ACT_RUN_CROUCH" 1
	blend "move_yaw" -180 180
	blendwidth 9
	fadein 0.2
	fadeout 0.2
	addlayer "crouch_run_all_delta"
	addlayer "layer_crouch_run_no_weapon"
	node 6
}

$sequence "Stand_to_run" {
	"a_Stand_to_run"
	fadein 0.2
	fadeout 0.2
}

$sequence "Run_to_stand" {
	"a_Run_to_stand"
	fadein 0.2
	fadeout 0.2
}

$sequence "Stand_to_walk" {
	"a_Stand_to_walk"
	fadein 0.2
	fadeout 0.2
}

$sequence "Walk_to_stand" {
	"a_Walk_to_stand"
	fadein 0.2
	fadeout 0.2
}

$sequence "Stand_to_crouch" {
	"a_Stand_to_crouch"
	activity "ACT_TRANSITION" 1
	fadein 0.2
	fadeout 0.2
	transition 1 2
}

$sequence "Crouch_to_stand" {
	"a_Crouch_to_stand"
	activity "ACT_TRANSITION" 1
	fadein 0.2
	fadeout 0.2
	transition 2 1
}

$sequence "Crouch_to_run" {
	"a_Crouch_to_run"
	fadein 0.2
	fadeout 0.2
}

$sequence "Run_to_crouch" {
	"a_Run_to_crouch"
	fadein 0.2
	fadeout 0.2
}

$sequence "stairs_up" {
	"a_stairs_up"
	activity "ACT_STAIRS_UP" 1
	fadein 0.2
	fadeout 0.2
}

$sequence "stairs_down" {
	"a_stairs_down"
	activity "ACT_STAIRS_DOWN" 1
	fadein 0.2
	fadeout 0.2
}

$sequence "ladder_up" {
	"a_ladder_up"
	activity "ACT_CLIMB_UP" 1
	fadein 0.2
	fadeout 0.2
}

$sequence "ladder_down" {
	"a_ladder_down"
	activity "ACT_CLIMB_DOWN" 1
	fadein 0.2
	fadeout 0.2
}

$sequence "Open_door_away" {
	"a_Open_door_away"
	fadein 0.2
	fadeout 0.2
}

$sequence "Open_door_towards_right" {
	"a_Open_door_towards_right"
	fadein 0.2
	fadeout 0.2
}

$sequence "Open_door_towards_left" {
	"a_Open_door_towards_left"
	fadein 0.2
	fadeout 0.2
}

$sequence "Startle_behind" {
	"a_Startle_behind"
	fadein 0.2
	fadeout 0.2
}

$sequence "Cover_R" {
	"a_Cover_R"
	fadein 0.2
	fadeout 0.2
}

$sequence "Cover_L" {
	"a_Cover_L"
	fadein 0.2
	fadeout 0.2
}

$sequence "CoverLow_R" {
	"a_CoverLow_R"
	fadein 0.2
	fadeout 0.2
}

$sequence "CoverLow_L" {
	"a_CoverLow_L"
	fadein 0.2
	fadeout 0.2
}

$sequence "ThrowItem" {
	"a_ThrowItem"
	{ event 1 32 "" }
	fadein 0.2
	fadeout 0.2
}

$sequence "Heal" {
	"a_Heal"
	activity "ACT_CIT_HEAL" 1
	{ event 1 22 "" }
	fadein 0.2
	fadeout 0.2
}

$sequence "Wave" {
	"a_Wave"
	activity "ACT_SIGNAL1" 1
	fadein 0.2
	fadeout 0.2
}

$sequence "DuckUnder" {
	"a_DuckUnder"
	fadein 0.2
	fadeout 0.2
}

$sequence "crouchidlehide" {
	"a_crouchidlehide"
	fadein 0.2
	fadeout 0.2
	node 7
}

$sequence "standtocrouchhide" {
	"a_standtocrouchhide"
	fadein 0.2
	fadeout 0.2
	transition 1 7
}

$sequence "crouchhidetostand" {
	"a_crouchhidetostand"
	fadein 0.2
	fadeout 0.2
	transition 7 1
}

$sequence "scaredidle" {
	"a_scaredidle"
	fadein 0.2
	fadeout 0.2
	node 1
}

$sequence "preSkewer" {
	"a_preSkewer"
	fadein 0.2
	fadeout 0.2
}

$sequence "Fear_Reaction" {
	"a_Fear_Reaction"
	fadein 0.2
	fadeout 0.2
}

$sequence "layer_run_protected" {
	"a_layer_run_protected"
	fadein 0.2
	fadeout 0.2
}

$sequence "run_protected_all" {
	"a_RunS"
	"a_RunSE"
	"a_RunE"
	"a_RunNE"
	"a_RunN_protected"
	"a_RunNW"
	"a_RunW"
	"a_RunSW"
	"a_RunS"
	activity "ACT_RUN_PROTECTED" 1
	blend "move_yaw" -180 180
	blendwidth 9
	fadein 0.2
	fadeout 0.2
	addlayer "layer_run_protected"
	node 4
}

$sequence "body_trans_y" {
	"a_body_trans_lt"
	"a_body_trans"
	"a_body_trans_rt"
	autoplay
	blend "body_trans_Y" 5.995715 -6.061964
	blendwidth 3
	delta
	fadein 0.2
	fadeout 0.2
}

$sequence "body_trans_x" {
	"a_body_trans_fwd"
	"a_body_trans"
	"a_body_trans_bwd"
	autoplay
	blend "body_trans_X" 5.204566 -10.06929
	blendwidth 3
	delta
	fadein 0.2
	fadeout 0.2
}

$sequence "body_trans_z" {
	"a_body_trans_dwn"
	"a_body_trans"
	"a_body_trans_up"
	autoplay
	blend "body_lift" -10.27087 2.090734
	blendwidth 3
	delta
	fadein 0.2
	fadeout 0.2
}

$sequence "body_rot_z" {
	"a_body_rot_z_lt"
	"a_body_rot"
	"a_body_rot_z_rt"
	autoplay
	blend "body_yaw" 56.18209 -56.92838
	blendwidth 3
	delta
	fadein 0.2
	fadeout 0.2
}

$sequence "body_rot_y" {
	"a_body_rot_back"
	"a_body_rot"
	"a_body_rot_fwd"
	autoplay
	blend "body_pitch" -20.49874 43.01373
	blendwidth 3
	delta
	fadein 0.2
	fadeout 0.2
}

$sequence "body_rot_x" {
	"a_body_rot_lt"
	"a_body_rot"
	"a_body_rot_rt"
	autoplay
	blend "body_roll" -17.88843 15.76445
	blendwidth 3
	delta
	fadein 0.2
	fadeout 0.2
}

$sequence "spine_rot_z" {
	"a_spine_rot_z_lt"
	"a_spine_rot"
	"a_spine_rot_z_rt"
	autoplay
	blend "spine_yaw" 40.61969 -40.63087
	blendwidth 3
	delta
	fadein 0.2
	fadeout 0.2
}

$sequence "spine_rot_y" {
	"a_spine_rot_back"
	"a_spine_rot"
	"a_spine_rot_fwd"
	autoplay
	blend "spine_pitch" -28.08211 52.62407
	blendwidth 3
	delta
	fadein 0.2
	fadeout 0.2
}

$sequence "spine_rot_x" {
	"a_spine_rot_lt"
	"a_spine_rot"
	"a_spine_rot_rt"
	autoplay
	blend "spine_roll" -21.8524 21.86035
	blendwidth 3
	delta
	fadein 0.2
	fadeout 0.2
}

$sequence "neck_trans_x" {
	"a_neck_trans_back"
	"a_neck_trans"
	"a_neck_trans_fwd"
	autoplay
	blend "neck_trans" -0.434581 0.632216
	blendwidth 3
	delta
	fadein 0.2
	fadeout 0.2
}

$sequence "head_rot_z" {
	"a_head_rot_z_lt"
	"a_head_rot"
	"a_head_rot_z_rt"
	autoplay
	blend "head_yaw" -59.74305 59.74277
	blendwidth 3
	delta
	fadein 0.2
	fadeout 0.2
}

$sequence "head_rot_y" {
	"a_head_rot_dwn"
	"a_head_rot"
	"a_head_rot_up"
	autoplay
	blend "head_pitch" 36.12508 -29.98144
	blendwidth 3
	delta
	fadein 0.2
	fadeout 0.2
}

$sequence "head_rot_x" {
	"a_head_rot_lt"
	"a_head_rot"
	"a_head_rot_rt"
	autoplay
	blend "head_roll" -18.29514 18.31503
	blendwidth 3
	delta
	fadein 0.2
	fadeout 0.2
}

$sequence "ragdoll" {
	"a_ragdoll"
	activity "ACT_DIERAGDOLL" 1
	fadein 0.2
	fadeout 0.2
}

$sequence "knees" {
	"a_knees"
	fadein 0.2
	fadeout 0.2
}


$collisionjoints "Odell_physics.smd"
{
	$mass 90
	$inertia 10
	$damping 0.01
	$rotdamping 1.5
	$rootbone "valvebiped.bip01_pelvis"
	$jointmerge "valvebiped.bip01_pelvis" "valvebiped.bip01"
	$jointmerge "valvebiped.bip01_pelvis" "valvebiped.bip01_spine1"

	$jointconstrain "ValveBiped.Bip01_Pelvis" x limit 0 0 0
	$jointconstrain "ValveBiped.Bip01_Pelvis" y limit 0 0 0
	$jointconstrain "ValveBiped.Bip01_Pelvis" z limit 0 0 0

	$jointconstrain "ValveBiped.Bip01_Spine2" x limit -48 48 1
	$jointconstrain "ValveBiped.Bip01_Spine2" y limit -25 25 1
	$jointconstrain "ValveBiped.Bip01_Spine2" z limit -25 50 1

	$jointconstrain "ValveBiped.Bip01_R_UpperArm" x limit -39 39 1
	$jointconstrain "ValveBiped.Bip01_R_UpperArm" y limit -79 95 1
	$jointconstrain "ValveBiped.Bip01_R_UpperArm" z limit -93 23 1

	$jointconstrain "ValveBiped.Bip01_L_UpperArm" x limit -30 30 1
	$jointconstrain "ValveBiped.Bip01_L_UpperArm" y limit -95 84 1
	$jointconstrain "ValveBiped.Bip01_L_UpperArm" z limit -86 26 1

	$jointconstrain "ValveBiped.Bip01_L_Forearm" x limit 0 0 1
	$jointconstrain "ValveBiped.Bip01_L_Forearm" y limit 0 0 1
	$jointconstrain "ValveBiped.Bip01_L_Forearm" z limit -149 4 1

	$jointconstrain "ValveBiped.Bip01_L_Hand" x limit -37 37 1
	$jointconstrain "ValveBiped.Bip01_L_Hand" y limit 0 0 1
	$jointconstrain "ValveBiped.Bip01_L_Hand" z limit -57 59 1

	$jointconstrain "ValveBiped.Bip01_R_Forearm" x limit 0 0 1
	$jointconstrain "ValveBiped.Bip01_R_Forearm" y limit 0 0 1
	$jointconstrain "ValveBiped.Bip01_R_Forearm" z limit -149 4 1

	$jointconstrain "ValveBiped.Bip01_R_Hand" x limit -60 60 1
	$jointconstrain "ValveBiped.Bip01_R_Hand" y limit 0 0 0
	$jointconstrain "ValveBiped.Bip01_R_Hand" z limit -57 70 1

	$jointconstrain "ValveBiped.Bip01_R_Thigh" x limit -12 12 1
	$jointconstrain "ValveBiped.Bip01_R_Thigh" y limit -8 75 1
	$jointconstrain "ValveBiped.Bip01_R_Thigh" z limit -97 32 1

	$jointconstrain "ValveBiped.Bip01_R_Calf" x limit 0 0 1
	$jointconstrain "ValveBiped.Bip01_R_Calf" y limit 0 0 1
	$jointconstrain "ValveBiped.Bip01_R_Calf" z limit -12 126 1

	$jointconstrain "ValveBiped.Bip01_Head1" x limit -20 20 1
	$jointconstrain "ValveBiped.Bip01_Head1" y limit -25 25 1
	$jointconstrain "ValveBiped.Bip01_Head1" z limit -13 30 1

	$jointconstrain "ValveBiped.Bip01_L_Thigh" x limit -12 12 1
	$jointconstrain "ValveBiped.Bip01_L_Thigh" y limit -73 6 1
	$jointconstrain "ValveBiped.Bip01_L_Thigh" z limit -93 30 1

	$jointconstrain "ValveBiped.Bip01_L_Calf" x limit 0 0 1
	$jointconstrain "ValveBiped.Bip01_L_Calf" y limit 0 0 1
	$jointconstrain "ValveBiped.Bip01_L_Calf" z limit -8 126 1

	$jointconstrain "ValveBiped.Bip01_L_Foot" x limit 0 0 0
	$jointconstrain "ValveBiped.Bip01_L_Foot" y limit -19 19 1
	$jointconstrain "ValveBiped.Bip01_L_Foot" z limit -15 35 1

	$jointconstrain "ValveBiped.Bip01_R_Foot" x limit 0 0 0
	$jointconstrain "ValveBiped.Bip01_R_Foot" y limit -25 6 1
	$jointconstrain "ValveBiped.Bip01_R_Foot" z limit -15 35 1
}
