// Created by Crowbar 0.62
version 1
nodes
  0 "static_prop" -1
end
skeleton
  time 0
    0 0.000000 0.000000 0.000000 0.000000 0.000000 0.000000
end
triangles
battery
  0 -1.765600 0.824600 6.383900 -1.000000 0.000000 0.000000 0.253700 0.746500 1 0 1.000000
  0 -1.765600 0.824600 5.752900 -1.000000 0.000000 0.000000 0.254100 0.812900 1 0 1.000000
  0 -1.765600 -0.810000 5.753000 -1.000000 0.000000 0.000000 0.339200 0.812900 1 0 1.000000
battery
  0 -1.765600 -0.810000 5.753000 -1.000000 0.000000 0.000000 0.339200 0.812900 1 0 1.000000
  0 -1.765600 -0.810000 6.383900 -1.000000 0.000000 0.000000 0.339400 0.746500 1 0 1.000000
  0 -1.765600 0.824600 6.383900 -1.000000 0.000000 0.000000 0.253700 0.746500 1 0 1.000000
battery
  0 1.445600 2.001500 0.523300 0.300108 0.823923 -0.480713 0.521000 0.916300 1 0 1.000000
  0 2.001800 1.442000 0.523300 0.815409 0.356604 -0.456005 0.550100 0.974200 1 0 1.000000
  0 1.406300 0.976500 -0.001600 0.311097 0.172499 -0.934592 0.574400 0.912200 1 0 1.000000
battery
  0 1.406100 -0.977500 -0.001600 0.457621 -0.109805 -0.882341 0.676200 0.912200 1 0 1.000000
  0 1.406300 0.976500 -0.001600 0.311097 0.172499 -0.934592 0.574400 0.912200 1 0 1.000000
  0 2.001800 1.442000 0.523300 0.815409 0.356604 -0.456005 0.550100 0.974200 1 0 1.000000
battery
  0 1.014600 -1.355700 -0.001600 0.169795 -0.306291 -0.936672 0.695900 0.871400 1 0 1.000000
  0 1.406300 0.976500 -0.001600 0.311097 0.172499 -0.934592 0.574400 0.912200 1 0 1.000000
  0 1.406100 -0.977500 -0.001600 0.457621 -0.109805 -0.882341 0.676200 0.912200 1 0 1.000000
battery
  0 1.014600 -1.355700 -0.001600 0.169795 -0.306291 -0.936672 0.695900 0.871400 1 0 1.000000
  0 1.015600 1.355400 -0.001600 0.104199 0.440494 -0.891688 0.554700 0.871500 1 0 1.000000
  0 1.406300 0.976500 -0.001600 0.311097 0.172499 -0.934592 0.574400 0.912200 1 0 1.000000
battery
  0 1.406300 0.976500 -0.001600 0.311097 0.172499 -0.934592 0.574400 0.912200 1 0 1.000000
  0 1.015600 1.355400 -0.001600 0.104199 0.440494 -0.891688 0.554700 0.871500 1 0 1.000000
  0 1.445600 2.001500 0.523300 0.300108 0.823923 -0.480713 0.521000 0.916300 1 0 1.000000
battery
  0 -1.444200 2.001800 0.523300 -0.359586 0.806169 -0.469882 0.521000 0.615100 1 0 1.000000
  0 1.445600 2.001500 0.523300 0.300108 0.823923 -0.480713 0.521000 0.916300 1 0 1.000000
  0 1.015600 1.355400 -0.001600 0.104199 0.440494 -0.891688 0.554700 0.871500 1 0 1.000000
battery
  0 1.015600 1.355400 -0.001600 0.104199 0.440494 -0.891688 0.554700 0.871500 1 0 1.000000
  0 -1.014600 1.355700 -0.001600 -0.169795 0.306291 -0.936672 0.554600 0.659900 1 0 1.000000
  0 -1.444200 2.001800 0.523300 -0.359586 0.806169 -0.469882 0.521000 0.615100 1 0 1.000000
battery
  0 -2.001500 1.443300 0.523300 -0.827022 0.301608 -0.474413 0.550100 0.557000 1 0 1.000000
  0 -1.444200 2.001800 0.523300 -0.359586 0.806169 -0.469882 0.521000 0.615100 1 0 1.000000
  0 -1.014600 1.355700 -0.001600 -0.169795 0.306291 -0.936672 0.554600 0.659900 1 0 1.000000
battery
  0 -1.014600 1.355700 -0.001600 -0.169795 0.306291 -0.936672 0.554600 0.659900 1 0 1.000000
  0 -1.406100 0.977500 -0.001600 -0.457621 0.109805 -0.882341 0.574300 0.619100 1 0 1.000000
  0 -2.001500 1.443300 0.523300 -0.827022 0.301608 -0.474413 0.550100 0.557000 1 0 1.000000
battery
  0 -2.001800 -1.442000 0.523300 -0.815409 -0.356604 -0.456005 0.700400 0.557000 1 0 1.000000
  0 -2.001500 1.443300 0.523300 -0.827022 0.301608 -0.474413 0.550100 0.557000 1 0 1.000000
  0 -1.406100 0.977500 -0.001600 -0.457621 0.109805 -0.882341 0.574300 0.619100 1 0 1.000000
battery
  0 -1.406100 0.977500 -0.001600 -0.457621 0.109805 -0.882341 0.574300 0.619100 1 0 1.000000
  0 -1.406300 -0.976500 -0.001600 -0.311097 -0.172499 -0.934592 0.676200 0.619100 1 0 1.000000
  0 -2.001800 -1.442000 0.523300 -0.815409 -0.356604 -0.456005 0.700400 0.557000 1 0 1.000000
battery
  0 -1.445600 -2.001500 0.523300 -0.300108 -0.823923 -0.480713 0.729600 0.615000 1 0 1.000000
  0 -2.001800 -1.442000 0.523300 -0.815409 -0.356604 -0.456005 0.700400 0.557000 1 0 1.000000
  0 -1.406300 -0.976500 -0.001600 -0.311097 -0.172499 -0.934592 0.676200 0.619100 1 0 1.000000
battery
  0 -1.406300 -0.976500 -0.001600 -0.311097 -0.172499 -0.934592 0.676200 0.619100 1 0 1.000000
  0 -1.015600 -1.355400 -0.001600 -0.104199 -0.440494 -0.891688 0.695900 0.659800 1 0 1.000000
  0 -1.445600 -2.001500 0.523300 -0.300108 -0.823923 -0.480713 0.729600 0.615000 1 0 1.000000
battery
  0 1.444200 -2.001800 0.523300 0.359586 -0.806169 -0.469882 0.729600 0.916100 1 0 1.000000
  0 -1.445600 -2.001500 0.523300 -0.300108 -0.823923 -0.480713 0.729600 0.615000 1 0 1.000000
  0 -1.015600 -1.355400 -0.001600 -0.104199 -0.440494 -0.891688 0.695900 0.659800 1 0 1.000000
battery
  0 -1.015600 -1.355400 -0.001600 -0.104199 -0.440494 -0.891688 0.695900 0.659800 1 0 1.000000
  0 1.014600 -1.355700 -0.001600 0.169795 -0.306291 -0.936672 0.695900 0.871400 1 0 1.000000
  0 1.444200 -2.001800 0.523300 0.359586 -0.806169 -0.469882 0.729600 0.916100 1 0 1.000000
battery
  0 2.001500 -1.443300 0.523300 0.827022 -0.301608 -0.474413 0.700500 0.974200 1 0 1.000000
  0 1.444200 -2.001800 0.523300 0.359586 -0.806169 -0.469882 0.729600 0.916100 1 0 1.000000
  0 1.014600 -1.355700 -0.001600 0.169795 -0.306291 -0.936672 0.695900 0.871400 1 0 1.000000
battery
  0 1.014600 -1.355700 -0.001600 0.169795 -0.306291 -0.936672 0.695900 0.871400 1 0 1.000000
  0 1.406100 -0.977500 -0.001600 0.457621 -0.109805 -0.882341 0.676200 0.912200 1 0 1.000000
  0 2.001500 -1.443300 0.523300 0.827022 -0.301608 -0.474413 0.700500 0.974200 1 0 1.000000
battery
  0 2.001800 1.442000 0.523300 0.815409 0.356604 -0.456005 0.550100 0.974200 1 0 1.000000
  0 2.001500 -1.443300 0.523300 0.827022 -0.301608 -0.474413 0.700500 0.974200 1 0 1.000000
  0 1.406100 -0.977500 -0.001600 0.457621 -0.109805 -0.882341 0.676200 0.912200 1 0 1.000000
battery
  0 -1.406300 -0.976500 -0.001600 -0.311097 -0.172499 -0.934592 0.676200 0.619100 1 0 1.000000
  0 -1.014600 1.355700 -0.001600 -0.169795 0.306291 -0.936672 0.554600 0.659900 1 0 1.000000
  0 -1.015600 -1.355400 -0.001600 -0.104199 -0.440494 -0.891688 0.695900 0.659800 1 0 1.000000
battery
  0 -1.406300 -0.976500 -0.001600 -0.311097 -0.172499 -0.934592 0.676200 0.619100 1 0 1.000000
  0 -1.406100 0.977500 -0.001600 -0.457621 0.109805 -0.882341 0.574300 0.619100 1 0 1.000000
  0 -1.014600 1.355700 -0.001600 -0.169795 0.306291 -0.936672 0.554600 0.659900 1 0 1.000000
battery
  0 -1.406300 -0.810000 6.118100 -0.422396 -0.120299 0.898392 0.913800 0.911800 1 0 1.000000
  0 -1.015600 -1.355400 6.118100 -0.139105 -0.222608 0.964933 0.942300 0.871100 1 0 1.000000
  0 -0.668800 -0.810000 6.118100 0.000000 0.000000 1.000000 0.913800 0.835000 1 0 1.000000
battery
  0 -1.014600 1.355700 6.118100 -0.138597 0.470990 0.871182 0.801000 0.871000 1 0 1.000000
  0 1.015600 1.355400 6.118100 0.165006 0.257310 0.952137 0.801000 0.659500 1 0 1.000000
  0 1.445600 2.001500 5.513200 0.362982 0.822660 0.437578 0.767300 0.614600 1 0 1.000000
battery
  0 2.001800 1.442000 5.513200 0.822471 0.209093 0.528981 0.796500 0.556700 1 0 1.000000
  0 1.445600 2.001500 5.513200 0.362982 0.822660 0.437578 0.767300 0.614600 1 0 1.000000
  0 1.015600 1.355400 6.118100 0.165006 0.257310 0.952137 0.801000 0.659500 1 0 1.000000
battery
  0 1.015600 1.355400 6.118100 0.165006 0.257310 0.952137 0.801000 0.659500 1 0 1.000000
  0 1.411100 0.783900 6.113300 0.425591 0.113398 0.897782 0.830800 0.618200 1 0 1.000000
  0 2.001800 1.442000 5.513200 0.822471 0.209093 0.528981 0.796500 0.556700 1 0 1.000000
battery
  0 1.411100 0.783900 6.113300 0.425591 0.113398 0.897782 0.830800 0.618200 1 0 1.000000
  0 1.015600 1.355400 6.118100 0.165006 0.257310 0.952137 0.801000 0.659500 1 0 1.000000
  0 0.866000 0.970100 6.118100 0.002600 -0.001000 0.999996 0.821100 0.675000 1 0 1.000000
battery
  0 0.866000 0.970100 6.118100 0.002600 -0.001000 0.999996 0.821100 0.675000 1 0 1.000000
  0 1.015600 1.355400 6.118100 0.165006 0.257310 0.952137 0.801000 0.659500 1 0 1.000000
  0 -1.406100 0.824600 6.118100 -0.249711 0.120105 0.960843 0.828700 0.911800 1 0 1.000000
battery
  0 0.866000 0.970100 6.118100 0.002600 -0.001000 0.999996 0.821100 0.675000 1 0 1.000000
  0 -1.406100 0.824600 6.118100 -0.249711 0.120105 0.960843 0.828700 0.911800 1 0 1.000000
  0 0.375900 0.838800 6.118100 0.000000 0.000000 1.000000 0.827900 0.726100 1 0 1.000000
battery
  0 -0.668800 0.824600 6.118100 0.000000 0.000000 1.000000 0.828700 0.835000 1 0 1.000000
  0 0.375900 0.838800 6.118100 0.000000 0.000000 1.000000 0.827900 0.726100 1 0 1.000000
  0 -1.406100 0.824600 6.118100 -0.249711 0.120105 0.960843 0.828700 0.911800 1 0 1.000000
battery
  0 0.375900 0.838800 6.118100 0.000000 0.000000 1.000000 0.827900 0.726100 1 0 1.000000
  0 -0.668800 0.824600 6.118100 0.000000 0.000000 1.000000 0.828700 0.835000 1 0 1.000000
  0 0.017100 0.480000 6.118100 0.000000 0.000000 1.000000 0.846600 0.763500 1 0 1.000000
battery
  0 0.017100 0.480000 6.118100 0.000000 0.000000 1.000000 0.846600 0.763500 1 0 1.000000
  0 -0.668800 0.824600 6.118100 0.000000 0.000000 1.000000 0.828700 0.835000 1 0 1.000000
  0 -0.114300 -0.010100 6.118100 0.000000 0.000000 1.000000 0.872200 0.777200 1 0 1.000000
battery
  0 -0.668800 -0.810000 6.118100 0.000000 0.000000 1.000000 0.913800 0.835000 1 0 1.000000
  0 -0.114300 -0.010100 6.118100 0.000000 0.000000 1.000000 0.872200 0.777200 1 0 1.000000
  0 -0.668800 0.824600 6.118100 0.000000 0.000000 1.000000 0.828700 0.835000 1 0 1.000000
battery
  0 -0.114300 -0.010100 6.118100 0.000000 0.000000 1.000000 0.872200 0.777200 1 0 1.000000
  0 -0.668800 -0.810000 6.118100 0.000000 0.000000 1.000000 0.913800 0.835000 1 0 1.000000
  0 0.017100 -0.500300 6.118100 0.000000 0.000000 1.000000 0.897700 0.763500 1 0 1.000000
battery
  0 0.017100 -0.500300 6.118100 0.000000 0.000000 1.000000 0.897700 0.763500 1 0 1.000000
  0 -0.668800 -0.810000 6.118100 0.000000 0.000000 1.000000 0.913800 0.835000 1 0 1.000000
  0 0.375900 -0.859100 6.118100 0.000000 0.000000 1.000000 0.916400 0.726100 1 0 1.000000
battery
  0 -1.015600 -1.355400 6.118100 -0.139105 -0.222608 0.964933 0.942300 0.871100 1 0 1.000000
  0 0.375900 -0.859100 6.118100 0.000000 0.000000 1.000000 0.916400 0.726100 1 0 1.000000
  0 -0.668800 -0.810000 6.118100 0.000000 0.000000 1.000000 0.913800 0.835000 1 0 1.000000
battery
  0 -1.015600 -1.355400 6.118100 -0.139105 -0.222608 0.964933 0.942300 0.871100 1 0 1.000000
  0 0.866000 -0.990400 6.118100 0.002300 0.001000 0.999997 0.923200 0.675000 1 0 1.000000
  0 0.375900 -0.859100 6.118100 0.000000 0.000000 1.000000 0.916400 0.726100 1 0 1.000000
battery
  0 0.866000 -0.990400 6.118100 0.002300 0.001000 0.999997 0.923200 0.675000 1 0 1.000000
  0 -1.015600 -1.355400 6.118100 -0.139105 -0.222608 0.964933 0.942300 0.871100 1 0 1.000000
  0 1.014600 -1.355700 6.118100 0.115301 -0.377003 0.919007 0.942300 0.659600 1 0 1.000000
battery
  0 0.866000 -0.990400 6.118100 0.002300 0.001000 0.999997 0.923200 0.675000 1 0 1.000000
  0 1.014600 -1.355700 6.118100 0.115301 -0.377003 0.919007 0.942300 0.659600 1 0 1.000000
  0 1.410400 -0.804800 6.113800 0.437721 -0.204510 0.875543 0.913600 0.618300 1 0 1.000000
battery
  0 -1.406100 0.824600 6.118100 -0.249711 0.120105 0.960843 0.828700 0.911800 1 0 1.000000
  0 1.015600 1.355400 6.118100 0.165006 0.257310 0.952137 0.801000 0.659500 1 0 1.000000
  0 -1.014600 1.355700 6.118100 -0.138597 0.470990 0.871182 0.801000 0.871000 1 0 1.000000
battery
  0 1.714900 0.480000 5.804500 0.712684 -0.000100 0.701485 0.846600 0.586600 1 0 1.000000
  0 2.001800 1.442000 5.513200 0.822471 0.209093 0.528981 0.796500 0.556700 1 0 1.000000
  0 1.411100 0.783900 6.113300 0.425591 0.113398 0.897782 0.830800 0.618200 1 0 1.000000
battery
  0 1.714900 0.480000 5.804500 0.712684 -0.000100 0.701485 0.846600 0.586600 1 0 1.000000
  0 1.846300 -0.010100 5.671000 0.712684 -0.000100 0.701485 0.872200 0.572900 1 0 1.000000
  0 2.001800 1.442000 5.513200 0.822471 0.209093 0.528981 0.796500 0.556700 1 0 1.000000
battery
  0 2.001500 -1.443300 5.513200 0.821194 -0.300698 0.484996 0.946800 0.556700 1 0 1.000000
  0 2.001800 1.442000 5.513200 0.822471 0.209093 0.528981 0.796500 0.556700 1 0 1.000000
  0 1.846300 -0.010100 5.671000 0.712684 -0.000100 0.701485 0.872200 0.572900 1 0 1.000000
battery
  0 1.714900 -0.500300 5.804400 0.712684 -0.000100 0.701485 0.897700 0.586600 1 0 1.000000
  0 2.001500 -1.443300 5.513200 0.821194 -0.300698 0.484996 0.946800 0.556700 1 0 1.000000
  0 1.846300 -0.010100 5.671000 0.712684 -0.000100 0.701485 0.872200 0.572900 1 0 1.000000
battery
  0 1.714900 -0.500300 5.804400 0.712684 -0.000100 0.701485 0.897700 0.586600 1 0 1.000000
  0 1.410400 -0.804800 6.113800 0.437721 -0.204510 0.875543 0.913600 0.618300 1 0 1.000000
  0 2.001500 -1.443300 5.513200 0.821194 -0.300698 0.484996 0.946800 0.556700 1 0 1.000000
battery
  0 1.444200 -2.001800 5.513200 0.324311 -0.826229 0.460616 0.975900 0.614800 1 0 1.000000
  0 2.001500 -1.443300 5.513200 0.821194 -0.300698 0.484996 0.946800 0.556700 1 0 1.000000
  0 1.410400 -0.804800 6.113800 0.437721 -0.204510 0.875543 0.913600 0.618300 1 0 1.000000
battery
  0 1.410400 -0.804800 6.113800 0.437721 -0.204510 0.875543 0.913600 0.618300 1 0 1.000000
  0 1.014600 -1.355700 6.118100 0.115301 -0.377003 0.919007 0.942300 0.659600 1 0 1.000000
  0 1.444200 -2.001800 5.513200 0.324311 -0.826229 0.460616 0.975900 0.614800 1 0 1.000000
battery
  0 -1.445600 -2.001500 5.513200 -0.362982 -0.822660 0.437578 0.975900 0.915900 1 0 1.000000
  0 1.444200 -2.001800 5.513200 0.324311 -0.826229 0.460616 0.975900 0.614800 1 0 1.000000
  0 1.014600 -1.355700 6.118100 0.115301 -0.377003 0.919007 0.942300 0.659600 1 0 1.000000
battery
  0 1.014600 -1.355700 6.118100 0.115301 -0.377003 0.919007 0.942300 0.659600 1 0 1.000000
  0 -1.015600 -1.355400 6.118100 -0.139105 -0.222608 0.964933 0.942300 0.871100 1 0 1.000000
  0 -1.445600 -2.001500 5.513200 -0.362982 -0.822660 0.437578 0.975900 0.915900 1 0 1.000000
battery
  0 -2.001800 -1.442000 5.513200 -0.833419 -0.244505 0.495611 0.946800 0.973900 1 0 1.000000
  0 -1.445600 -2.001500 5.513200 -0.362982 -0.822660 0.437578 0.975900 0.915900 1 0 1.000000
  0 -1.015600 -1.355400 6.118100 -0.139105 -0.222608 0.964933 0.942300 0.871100 1 0 1.000000
battery
  0 -1.015600 -1.355400 6.118100 -0.139105 -0.222608 0.964933 0.942300 0.871100 1 0 1.000000
  0 -1.406300 -0.810000 6.118100 -0.422396 -0.120299 0.898392 0.913800 0.911800 1 0 1.000000
  0 -2.001800 -1.442000 5.513200 -0.833419 -0.244505 0.495611 0.946800 0.973900 1 0 1.000000
battery
  0 -2.001800 -1.442000 5.513200 -0.833419 -0.244505 0.495611 0.946800 0.973900 1 0 1.000000
  0 -1.406300 -0.810000 6.118100 -0.422396 -0.120299 0.898392 0.913800 0.911800 1 0 1.000000
  0 -1.765600 -0.810000 5.753000 -0.712684 0.000100 0.701485 0.913800 0.949300 1 0 1.000000
battery
  0 -2.001500 1.443300 5.513200 -0.821589 0.301396 0.483893 0.796400 0.973900 1 0 1.000000
  0 -2.001800 -1.442000 5.513200 -0.833419 -0.244505 0.495611 0.946800 0.973900 1 0 1.000000
  0 -1.765600 -0.810000 5.753000 -0.712684 0.000100 0.701485 0.913800 0.949300 1 0 1.000000
battery
  0 -2.001500 1.443300 5.513200 -0.821589 0.301396 0.483893 0.796400 0.973900 1 0 1.000000
  0 -1.765600 -0.810000 5.753000 -0.712684 0.000100 0.701485 0.913800 0.949300 1 0 1.000000
  0 -1.765600 0.824600 5.752900 -0.712684 0.000100 0.701485 0.828700 0.949300 1 0 1.000000
battery
  0 -1.406100 0.824600 6.118100 -0.249711 0.120105 0.960843 0.828700 0.911800 1 0 1.000000
  0 -2.001500 1.443300 5.513200 -0.821589 0.301396 0.483893 0.796400 0.973900 1 0 1.000000
  0 -1.765600 0.824600 5.752900 -0.712684 0.000100 0.701485 0.828700 0.949300 1 0 1.000000
battery
  0 -1.444200 2.001800 5.513200 -0.322892 0.827579 0.459188 0.767300 0.915800 1 0 1.000000
  0 -2.001500 1.443300 5.513200 -0.821589 0.301396 0.483893 0.796400 0.973900 1 0 1.000000
  0 -1.406100 0.824600 6.118100 -0.249711 0.120105 0.960843 0.828700 0.911800 1 0 1.000000
battery
  0 -1.406100 0.824600 6.118100 -0.249711 0.120105 0.960843 0.828700 0.911800 1 0 1.000000
  0 -1.014600 1.355700 6.118100 -0.138597 0.470990 0.871182 0.801000 0.871000 1 0 1.000000
  0 -1.444200 2.001800 5.513200 -0.322892 0.827579 0.459188 0.767300 0.915800 1 0 1.000000
battery
  0 1.445600 2.001500 5.513200 0.362982 0.822660 0.437578 0.767300 0.614600 1 0 1.000000
  0 -1.444200 2.001800 5.513200 -0.322892 0.827579 0.459188 0.767300 0.915800 1 0 1.000000
  0 -1.014600 1.355700 6.118100 -0.138597 0.470990 0.871182 0.801000 0.871000 1 0 1.000000
battery
  0 1.015600 1.355400 -0.001600 0.000000 0.000000 -1.000000 0.554700 0.871500 1 0 1.000000
  0 -1.015600 -1.355400 -0.001600 0.000000 0.000000 -1.000000 0.695900 0.659800 1 0 1.000000
  0 -1.014600 1.355700 -0.001600 0.000000 0.000000 -1.000000 0.554600 0.659900 1 0 1.000000
battery
  0 1.015600 1.355400 -0.001600 0.000000 0.000000 -1.000000 0.554700 0.871500 1 0 1.000000
  0 1.014600 -1.355700 -0.001600 0.000000 0.000000 -1.000000 0.695900 0.871400 1 0 1.000000
  0 -1.015600 -1.355400 -0.001600 0.000000 0.000000 -1.000000 0.695900 0.659800 1 0 1.000000
battery
  0 -0.984000 -0.552500 7.151600 0.000000 -1.000000 0.000000 0.172400 0.721000 1 0 1.000000
  0 -1.062000 -0.552500 6.383900 0.000000 -1.000000 0.000000 0.206700 0.678700 1 0 1.000000
  0 -0.662200 -0.552500 6.904400 0.000000 -1.000000 0.000000 0.172400 0.678400 1 0 1.000000
battery
  0 -1.062000 -0.552500 6.383900 0.000000 -1.000000 0.000000 0.206700 0.678700 1 0 1.000000
  0 -0.984000 -0.552500 7.151600 0.000000 -1.000000 0.000000 0.172400 0.721000 1 0 1.000000
  0 -1.573700 -0.552500 6.383900 0.000000 -1.000000 0.000000 0.222900 0.721000 1 0 1.000000
battery
  0 -0.984000 0.567100 7.151600 -0.793096 0.000000 0.609097 0.113900 0.721000 1 0 1.000000
  0 -1.573700 -0.552500 6.383900 -0.793096 0.000000 0.609097 0.172300 0.822100 1 0 1.000000
  0 -0.984000 -0.552500 7.151600 -0.793096 0.000000 0.609097 0.172400 0.721000 1 0 1.000000
battery
  0 -0.984000 0.567100 7.151600 -0.793096 0.000000 0.609097 0.113900 0.721000 1 0 1.000000
  0 -1.573700 0.567100 6.383900 -0.793096 0.000000 0.609097 0.114000 0.822100 1 0 1.000000
  0 -1.573700 -0.552500 6.383900 -0.793096 0.000000 0.609097 0.172300 0.822100 1 0 1.000000
battery
  0 -1.062000 0.567100 6.383900 0.793096 0.000000 -0.609097 0.114000 0.609300 1 0 1.000000
  0 -0.662200 -0.552500 6.904400 0.793096 0.000000 -0.609097 0.172400 0.678400 1 0 1.000000
  0 -1.062000 -0.552500 6.383900 0.793096 0.000000 -0.609097 0.172300 0.609300 1 0 1.000000
battery
  0 -1.062000 0.567100 6.383900 0.793096 0.000000 -0.609097 0.114000 0.609300 1 0 1.000000
  0 -0.662200 0.567100 6.904400 0.793096 0.000000 -0.609097 0.113900 0.678400 1 0 1.000000
  0 -0.662200 -0.552500 6.904400 0.793096 0.000000 -0.609097 0.172400 0.678400 1 0 1.000000
battery
  0 -0.662200 0.567100 6.904400 0.000000 1.000000 0.000000 0.113900 0.678400 1 0 1.000000
  0 -1.062000 0.567100 6.383900 0.000000 1.000000 0.000000 0.079600 0.678700 1 0 1.000000
  0 -1.573700 0.567100 6.383900 0.000000 1.000000 0.000000 0.063300 0.721000 1 0 1.000000
battery
  0 -1.573700 0.567100 6.383900 0.000000 1.000000 0.000000 0.063300 0.721000 1 0 1.000000
  0 -0.984000 0.567100 7.151600 0.000000 1.000000 0.000000 0.113900 0.721000 1 0 1.000000
  0 -0.662200 0.567100 6.904400 0.000000 1.000000 0.000000 0.113900 0.678400 1 0 1.000000
battery
  0 -0.984000 -0.552500 7.151600 0.609097 0.000000 0.793096 0.172400 0.721000 1 0 1.000000
  0 -0.662200 -0.552500 6.904400 0.609097 0.000000 0.793096 0.172400 0.678400 1 0 1.000000
  0 -0.662200 0.567100 6.904400 0.609097 0.000000 0.793096 0.113900 0.678400 1 0 1.000000
battery
  0 -0.662200 0.567100 6.904400 0.609097 0.000000 0.793096 0.113900 0.678400 1 0 1.000000
  0 -0.984000 0.567100 7.151600 0.609097 0.000000 0.793096 0.113900 0.721000 1 0 1.000000
  0 -0.984000 -0.552500 7.151600 0.609097 0.000000 0.793096 0.172400 0.721000 1 0 1.000000
battery
  0 -0.668800 -0.810000 6.118100 0.000000 -1.000000 0.000000 0.353500 0.631800 1 0 1.000000
  0 -0.668800 -0.810000 6.383900 0.000000 -1.000000 0.000000 0.339400 0.631600 1 0 1.000000
  0 -1.406300 -0.810000 6.118100 0.000000 -1.000000 0.000000 0.353500 0.708700 1 0 1.000000
battery
  0 -0.668800 -0.810000 6.383900 0.000000 -1.000000 0.000000 0.339400 0.631600 1 0 1.000000
  0 -1.765600 -0.810000 6.383900 0.000000 -1.000000 0.000000 0.339400 0.746500 1 0 1.000000
  0 -1.406300 -0.810000 6.118100 0.000000 -1.000000 0.000000 0.353500 0.708700 1 0 1.000000
battery
  0 -1.765600 -0.810000 6.383900 0.000000 -1.000000 0.000000 0.339400 0.746500 1 0 1.000000
  0 -1.765600 -0.810000 5.753000 0.000000 -1.000000 0.000000 0.372600 0.746100 1 0 1.000000
  0 -1.406300 -0.810000 6.118100 0.000000 -1.000000 0.000000 0.353500 0.708700 1 0 1.000000
battery
  0 -0.668800 0.824600 6.383900 0.000000 0.000000 1.000000 0.253700 0.631600 1 0 1.000000
  0 -1.765600 0.824600 6.383900 0.000000 0.000000 1.000000 0.253700 0.746500 1 0 1.000000
  0 -1.573700 0.567100 6.383900 0.000000 0.000000 1.000000 0.267500 0.726100 1 0 1.000000
battery
  0 -1.765600 0.824600 6.383900 0.000000 0.000000 1.000000 0.253700 0.746500 1 0 1.000000
  0 -1.765600 -0.810000 6.383900 0.000000 0.000000 1.000000 0.339400 0.746500 1 0 1.000000
  0 -1.573700 0.567100 6.383900 0.000000 0.000000 1.000000 0.267500 0.726100 1 0 1.000000
battery
  0 -1.765600 -0.810000 6.383900 0.000000 0.000000 1.000000 0.339400 0.746500 1 0 1.000000
  0 -1.573700 -0.552500 6.383900 0.000000 0.000000 1.000000 0.325800 0.726100 1 0 1.000000
  0 -1.573700 0.567100 6.383900 0.000000 0.000000 1.000000 0.267500 0.726100 1 0 1.000000
battery
  0 -1.765600 -0.810000 6.383900 0.000000 0.000000 1.000000 0.339400 0.746500 1 0 1.000000
  0 -0.668800 -0.810000 6.383900 0.000000 0.000000 1.000000 0.339400 0.631600 1 0 1.000000
  0 -1.573700 -0.552500 6.383900 0.000000 0.000000 1.000000 0.325800 0.726100 1 0 1.000000
battery
  0 -1.573700 -0.552500 6.383900 0.000000 0.000000 1.000000 0.325800 0.726100 1 0 1.000000
  0 -0.668800 -0.810000 6.383900 0.000000 0.000000 1.000000 0.339400 0.631600 1 0 1.000000
  0 -1.062000 -0.552500 6.383900 0.000000 0.000000 1.000000 0.325800 0.672800 1 0 1.000000
battery
  0 -0.668800 -0.810000 6.383900 0.000000 0.000000 1.000000 0.339400 0.631600 1 0 1.000000
  0 -1.062000 0.567100 6.383900 0.000000 0.000000 1.000000 0.267500 0.672800 1 0 1.000000
  0 -1.062000 -0.552500 6.383900 0.000000 0.000000 1.000000 0.325800 0.672800 1 0 1.000000
battery
  0 -0.668800 0.824600 6.383900 0.000000 0.000000 1.000000 0.253700 0.631600 1 0 1.000000
  0 -1.062000 0.567100 6.383900 0.000000 0.000000 1.000000 0.267500 0.672800 1 0 1.000000
  0 -0.668800 -0.810000 6.383900 0.000000 0.000000 1.000000 0.339400 0.631600 1 0 1.000000
battery
  0 -0.668800 0.824600 6.383900 0.000000 0.000000 1.000000 0.253700 0.631600 1 0 1.000000
  0 -1.573700 0.567100 6.383900 0.000000 0.000000 1.000000 0.267500 0.726100 1 0 1.000000
  0 -1.062000 0.567100 6.383900 0.000000 0.000000 1.000000 0.267500 0.672800 1 0 1.000000
battery
  0 -0.668800 0.824600 6.118100 1.000000 0.000000 0.000000 0.254100 0.603500 1 0 1.000000
  0 -0.668800 0.824600 6.383900 1.000000 0.000000 0.000000 0.253700 0.631600 1 0 1.000000
  0 -0.668800 -0.810000 6.118100 1.000000 0.000000 0.000000 0.339200 0.603500 1 0 1.000000
battery
  0 -0.668800 0.824600 6.383900 1.000000 0.000000 0.000000 0.253700 0.631600 1 0 1.000000
  0 -0.668800 -0.810000 6.383900 1.000000 0.000000 0.000000 0.339400 0.631600 1 0 1.000000
  0 -0.668800 -0.810000 6.118100 1.000000 0.000000 0.000000 0.339200 0.603500 1 0 1.000000
battery
  0 1.846300 -0.010100 6.738900 0.000000 0.000000 1.000000 0.444700 0.569100 1 0 1.000000
  0 1.356100 -0.859100 6.738900 0.000000 0.000000 1.000000 0.488900 0.620100 1 0 1.000000
  0 1.714900 -0.500300 6.738900 0.000000 0.000000 1.000000 0.470200 0.582700 1 0 1.000000
battery
  0 1.846300 -0.010100 6.738900 0.000000 0.000000 1.000000 0.444700 0.569100 1 0 1.000000
  0 0.866000 -0.990400 6.738900 0.000000 0.000000 1.000000 0.495800 0.671200 1 0 1.000000
  0 1.356100 -0.859100 6.738900 0.000000 0.000000 1.000000 0.488900 0.620100 1 0 1.000000
battery
  0 1.846300 -0.010100 6.738900 0.000000 0.000000 1.000000 0.444700 0.569100 1 0 1.000000
  0 0.375900 -0.859100 6.738900 0.000000 0.000000 1.000000 0.488900 0.722300 1 0 1.000000
  0 0.866000 -0.990400 6.738900 0.000000 0.000000 1.000000 0.495800 0.671200 1 0 1.000000
battery
  0 1.846300 -0.010100 6.738900 0.000000 0.000000 1.000000 0.444700 0.569100 1 0 1.000000
  0 0.017100 -0.500300 6.738900 0.000000 0.000000 1.000000 0.470200 0.759700 1 0 1.000000
  0 0.375900 -0.859100 6.738900 0.000000 0.000000 1.000000 0.488900 0.722300 1 0 1.000000
battery
  0 1.846300 -0.010100 6.738900 0.000000 0.000000 1.000000 0.444700 0.569100 1 0 1.000000
  0 -0.114300 -0.010100 6.738900 0.000000 0.000000 1.000000 0.444700 0.773400 1 0 1.000000
  0 0.017100 -0.500300 6.738900 0.000000 0.000000 1.000000 0.470200 0.759700 1 0 1.000000
battery
  0 1.846300 -0.010100 6.738900 0.000000 0.000000 1.000000 0.444700 0.569100 1 0 1.000000
  0 0.017100 0.480000 6.738900 0.000000 0.000000 1.000000 0.419200 0.759700 1 0 1.000000
  0 -0.114300 -0.010100 6.738900 0.000000 0.000000 1.000000 0.444700 0.773400 1 0 1.000000
battery
  0 1.846300 -0.010100 6.738900 0.000000 0.000000 1.000000 0.444700 0.569100 1 0 1.000000
  0 0.375900 0.838800 6.738900 0.000000 0.000000 1.000000 0.400500 0.722300 1 0 1.000000
  0 0.017100 0.480000 6.738900 0.000000 0.000000 1.000000 0.419200 0.759700 1 0 1.000000
battery
  0 1.846300 -0.010100 6.738900 0.000000 0.000000 1.000000 0.444700 0.569100 1 0 1.000000
  0 0.866000 0.970100 6.738900 0.000000 0.000000 1.000000 0.393600 0.671200 1 0 1.000000
  0 0.375900 0.838800 6.738900 0.000000 0.000000 1.000000 0.400500 0.722300 1 0 1.000000
battery
  0 1.846300 -0.010100 6.738900 0.000000 0.000000 1.000000 0.444700 0.569100 1 0 1.000000
  0 1.356100 0.838800 6.738900 0.000000 0.000000 1.000000 0.400500 0.620100 1 0 1.000000
  0 0.866000 0.970100 6.738900 0.000000 0.000000 1.000000 0.393600 0.671200 1 0 1.000000
battery
  0 1.846300 -0.010100 6.738900 0.000000 0.000000 1.000000 0.444700 0.569100 1 0 1.000000
  0 1.714900 0.480000 6.738900 0.000000 0.000000 1.000000 0.419200 0.582700 1 0 1.000000
  0 1.356100 0.838800 6.738900 0.000000 0.000000 1.000000 0.400500 0.620100 1 0 1.000000
battery
  0 -1.765600 0.824600 5.752900 0.000000 1.000000 0.000000 0.220200 0.746100 1 0 1.000000
  0 -1.765600 0.824600 6.383900 0.000000 1.000000 0.000000 0.253700 0.746500 1 0 1.000000
  0 -1.406100 0.824600 6.118100 0.000000 1.000000 0.000000 0.239200 0.708700 1 0 1.000000
battery
  0 -1.765600 0.824600 6.383900 0.000000 1.000000 0.000000 0.253700 0.746500 1 0 1.000000
  0 -0.668800 0.824600 6.383900 0.000000 1.000000 0.000000 0.253700 0.631600 1 0 1.000000
  0 -1.406100 0.824600 6.118100 0.000000 1.000000 0.000000 0.239200 0.708700 1 0 1.000000
battery
  0 -0.668800 0.824600 6.383900 0.000000 1.000000 0.000000 0.253700 0.631600 1 0 1.000000
  0 -0.668800 0.824600 6.118100 0.000000 1.000000 0.000000 0.239200 0.631800 1 0 1.000000
  0 -1.406100 0.824600 6.118100 0.000000 1.000000 0.000000 0.239200 0.708700 1 0 1.000000
battery
  0 0.866000 -0.990400 6.118100 -0.067601 -0.997712 0.000000 0.314200 0.887600 1 0 1.000000
  0 0.866000 -0.990400 6.738900 0.111296 -0.993561 -0.021199 0.314200 0.952300 1 0 1.000000
  0 0.375900 -0.859100 6.738900 -0.420985 -0.907068 0.000000 0.340800 0.952300 1 0 1.000000
battery
  0 0.375900 -0.859100 6.738900 -0.420985 -0.907068 0.000000 0.340800 0.952300 1 0 1.000000
  0 0.375900 -0.859100 6.118100 -0.575092 -0.818089 0.000000 0.340800 0.887600 1 0 1.000000
  0 0.866000 -0.990400 6.118100 -0.067601 -0.997712 0.000000 0.314200 0.887600 1 0 1.000000
battery
  0 0.375900 -0.859100 6.738900 -0.420985 -0.907068 0.000000 0.340800 0.952300 1 0 1.000000
  0 0.017100 -0.500300 6.738900 -0.818089 -0.575092 0.000000 0.367300 0.952300 1 0 1.000000
  0 0.375900 -0.859100 6.118100 -0.575092 -0.818089 0.000000 0.340800 0.887600 1 0 1.000000
battery
  0 0.017100 -0.500300 6.118100 -0.907067 -0.420985 0.000000 0.367300 0.887600 1 0 1.000000
  0 0.375900 -0.859100 6.118100 -0.575092 -0.818089 0.000000 0.340800 0.887600 1 0 1.000000
  0 0.017100 -0.500300 6.738900 -0.818089 -0.575092 0.000000 0.367300 0.952300 1 0 1.000000
battery
  0 0.017100 -0.500300 6.118100 -0.907067 -0.420985 0.000000 0.367300 0.887600 1 0 1.000000
  0 0.017100 -0.500300 6.738900 -0.818089 -0.575092 0.000000 0.367300 0.952300 1 0 1.000000
  0 -0.114300 -0.010100 6.738900 -1.000000 0.000000 0.000000 0.393700 0.952300 1 0 1.000000
battery
  0 -0.114300 -0.010100 6.738900 -1.000000 0.000000 0.000000 0.393700 0.952300 1 0 1.000000
  0 -0.114300 -0.010100 6.118100 -1.000000 0.000000 0.000000 0.393700 0.887600 1 0 1.000000
  0 0.017100 -0.500300 6.118100 -0.907067 -0.420985 0.000000 0.367300 0.887600 1 0 1.000000
battery
  0 0.017100 0.480000 6.118100 -0.866019 0.500011 0.000000 0.101700 0.887400 1 0 1.000000
  0 -0.114300 -0.010100 6.118100 -1.000000 0.000000 0.000000 0.075300 0.887400 1 0 1.000000
  0 -0.114300 -0.010100 6.738900 -1.000000 0.000000 0.000000 0.075300 0.952100 1 0 1.000000
battery
  0 -0.114300 -0.010100 6.738900 -1.000000 0.000000 0.000000 0.075300 0.952100 1 0 1.000000
  0 0.017100 0.480000 6.738900 -0.866019 0.500011 0.000000 0.101700 0.952100 1 0 1.000000
  0 0.017100 0.480000 6.118100 -0.866019 0.500011 0.000000 0.101700 0.887400 1 0 1.000000
battery
  0 0.017100 0.480000 6.738900 -0.866019 0.500011 0.000000 0.101700 0.952100 1 0 1.000000
  0 0.375900 0.838800 6.738900 -0.575092 0.818089 0.000000 0.128100 0.952100 1 0 1.000000
  0 0.017100 0.480000 6.118100 -0.866019 0.500011 0.000000 0.101700 0.887400 1 0 1.000000
battery
  0 0.375900 0.838800 6.118100 -0.420985 0.907067 0.000000 0.128100 0.887400 1 0 1.000000
  0 0.017100 0.480000 6.118100 -0.866019 0.500011 0.000000 0.101700 0.887400 1 0 1.000000
  0 0.375900 0.838800 6.738900 -0.575092 0.818089 0.000000 0.128100 0.952100 1 0 1.000000
battery
  0 0.375900 0.838800 6.118100 -0.420985 0.907067 0.000000 0.128100 0.887400 1 0 1.000000
  0 0.375900 0.838800 6.738900 -0.575092 0.818089 0.000000 0.128100 0.952100 1 0 1.000000
  0 0.866000 0.970100 6.738900 -0.089003 0.996031 0.000000 0.154500 0.952100 1 0 1.000000
battery
  0 0.866000 0.970100 6.738900 -0.089003 0.996031 0.000000 0.154500 0.952100 1 0 1.000000
  0 0.866000 0.970100 6.118100 0.111399 0.993596 -0.018900 0.154500 0.887400 1 0 1.000000
  0 0.375900 0.838800 6.118100 -0.420985 0.907067 0.000000 0.128100 0.887400 1 0 1.000000
battery
  0 0.866000 0.970100 6.118100 0.111399 0.993596 -0.018900 0.154500 0.887400 1 0 1.000000
  0 0.866000 0.970100 6.738900 -0.089003 0.996031 0.000000 0.154500 0.952100 1 0 1.000000
  0 1.356100 0.838800 6.738900 0.441487 0.897073 -0.018699 0.181100 0.952200 1 0 1.000000
battery
  0 0.866000 0.970100 6.118100 0.111399 0.993596 -0.018900 0.154500 0.887400 1 0 1.000000
  0 1.356100 0.838800 6.738900 0.441487 0.897073 -0.018699 0.181100 0.952200 1 0 1.000000
  0 1.411100 0.783900 6.113300 0.592703 0.805204 -0.018700 0.184900 0.887000 1 0 1.000000
battery
  0 1.356100 0.838800 6.738900 0.441487 0.897073 -0.018699 0.181100 0.952200 1 0 1.000000
  0 1.714900 0.480000 6.738900 0.866019 0.500011 0.000000 0.207700 0.952200 1 0 1.000000
  0 1.411100 0.783900 6.113300 0.592703 0.805204 -0.018700 0.184900 0.887000 1 0 1.000000
battery
  0 1.411100 0.783900 6.113300 0.592703 0.805204 -0.018700 0.184900 0.887000 1 0 1.000000
  0 1.714900 0.480000 6.738900 0.866019 0.500011 0.000000 0.207700 0.952200 1 0 1.000000
  0 1.714900 0.480000 5.804500 0.866019 0.500011 0.000000 0.207700 0.854800 1 0 1.000000
battery
  0 1.846300 -0.010100 5.671000 1.000000 0.000000 0.000000 0.234400 0.840900 1 0 1.000000
  0 1.714900 0.480000 5.804500 0.866019 0.500011 0.000000 0.207700 0.854800 1 0 1.000000
  0 1.714900 0.480000 6.738900 0.866019 0.500011 0.000000 0.207700 0.952200 1 0 1.000000
battery
  0 1.846300 -0.010100 5.671000 1.000000 0.000000 0.000000 0.234400 0.840900 1 0 1.000000
  0 1.714900 0.480000 6.738900 0.866019 0.500011 0.000000 0.207700 0.952200 1 0 1.000000
  0 1.846300 -0.010100 6.738900 1.000000 0.000000 0.000000 0.234400 0.952200 1 0 1.000000
battery
  0 1.846300 -0.010100 6.738900 1.000000 0.000000 0.000000 0.234400 0.952200 1 0 1.000000
  0 1.714900 -0.500300 6.738900 0.866019 -0.500011 0.000000 0.260900 0.952200 1 0 1.000000
  0 1.846300 -0.010100 5.671000 1.000000 0.000000 0.000000 0.234400 0.840900 1 0 1.000000
battery
  0 1.714900 -0.500300 6.738900 0.866019 -0.500011 0.000000 0.260900 0.952200 1 0 1.000000
  0 1.714900 -0.500300 5.804400 0.866019 -0.500011 0.000000 0.260900 0.854800 1 0 1.000000
  0 1.846300 -0.010100 5.671000 1.000000 0.000000 0.000000 0.234400 0.840900 1 0 1.000000
battery
  0 1.714900 -0.500300 5.804400 0.866019 -0.500011 0.000000 0.260900 0.854800 1 0 1.000000
  0 1.714900 -0.500300 6.738900 0.866019 -0.500011 0.000000 0.260900 0.952200 1 0 1.000000
  0 1.410400 -0.804800 6.113800 0.514520 -0.857333 -0.015801 0.283700 0.887100 1 0 1.000000
battery
  0 1.410400 -0.804800 6.113800 0.514520 -0.857333 -0.015801 0.283700 0.887100 1 0 1.000000
  0 1.714900 -0.500300 6.738900 0.866019 -0.500011 0.000000 0.260900 0.952200 1 0 1.000000
  0 1.356100 -0.859100 6.738900 0.499976 -0.865459 -0.031698 0.287500 0.952200 1 0 1.000000
battery
  0 1.410400 -0.804800 6.113800 0.514520 -0.857333 -0.015801 0.283700 0.887100 1 0 1.000000
  0 1.356100 -0.859100 6.738900 0.499976 -0.865459 -0.031698 0.287500 0.952200 1 0 1.000000
  0 0.866000 -0.990400 6.738900 0.111296 -0.993561 -0.021199 0.314200 0.952300 1 0 1.000000
battery
  0 0.866000 -0.990400 6.738900 0.111296 -0.993561 -0.021199 0.314200 0.952300 1 0 1.000000
  0 0.866000 -0.990400 6.118100 -0.067601 -0.997712 0.000000 0.314200 0.887600 1 0 1.000000
  0 1.410400 -0.804800 6.113800 0.514520 -0.857333 -0.015801 0.283700 0.887100 1 0 1.000000
battery
  0 1.444200 -2.001800 0.523300 0.359586 -0.806169 -0.469882 0.882300 0.016900 1 0 1.000000
  0 2.001500 -1.443300 5.513200 0.821194 -0.300698 0.484996 0.841000 0.536900 1 0 1.000000
  0 1.444200 -2.001800 5.513200 0.324311 -0.826229 0.460616 0.882300 0.536900 1 0 1.000000
battery
  0 1.444200 -2.001800 0.523300 0.359586 -0.806169 -0.469882 0.882300 0.016900 1 0 1.000000
  0 2.001500 -1.443300 0.523300 0.827022 -0.301608 -0.474413 0.841000 0.016900 1 0 1.000000
  0 2.001500 -1.443300 5.513200 0.821194 -0.300698 0.484996 0.841000 0.536900 1 0 1.000000
battery
  0 2.001500 -1.443300 0.523300 0.827022 -0.301608 -0.474413 0.841000 0.016900 1 0 1.000000
  0 2.001800 1.442000 5.513200 0.822471 0.209093 0.528981 0.690700 0.536900 1 0 1.000000
  0 2.001500 -1.443300 5.513200 0.821194 -0.300698 0.484996 0.841000 0.536900 1 0 1.000000
battery
  0 2.001500 -1.443300 0.523300 0.827022 -0.301608 -0.474413 0.841000 0.016900 1 0 1.000000
  0 2.001800 1.442000 0.523300 0.815409 0.356604 -0.456005 0.690700 0.016900 1 0 1.000000
  0 2.001800 1.442000 5.513200 0.822471 0.209093 0.528981 0.690700 0.536900 1 0 1.000000
battery
  0 2.001800 1.442000 0.523300 0.815409 0.356604 -0.456005 0.690700 0.016900 1 0 1.000000
  0 1.445600 2.001500 5.513200 0.362982 0.822660 0.437578 0.649300 0.536900 1 0 1.000000
  0 2.001800 1.442000 5.513200 0.822471 0.209093 0.528981 0.690700 0.536900 1 0 1.000000
battery
  0 2.001800 1.442000 0.523300 0.815409 0.356604 -0.456005 0.690700 0.016900 1 0 1.000000
  0 1.445600 2.001500 0.523300 0.300108 0.823923 -0.480713 0.649300 0.016900 1 0 1.000000
  0 1.445600 2.001500 5.513200 0.362982 0.822660 0.437578 0.649300 0.536900 1 0 1.000000
battery
  0 1.445600 2.001500 0.523300 0.300108 0.823923 -0.480713 0.649300 0.016900 1 0 1.000000
  0 -1.444200 2.001800 5.513200 -0.322892 0.827579 0.459188 0.498300 0.536900 1 0 1.000000
  0 1.445600 2.001500 5.513200 0.362982 0.822660 0.437578 0.649300 0.536900 1 0 1.000000
battery
  0 1.445600 2.001500 0.523300 0.300108 0.823923 -0.480713 0.649300 0.016900 1 0 1.000000
  0 -1.444200 2.001800 0.523300 -0.359586 0.806169 -0.469882 0.498300 0.016900 1 0 1.000000
  0 -1.444200 2.001800 5.513200 -0.322892 0.827579 0.459188 0.498300 0.536900 1 0 1.000000
battery
  0 -1.444200 2.001800 0.523300 -0.359586 0.806169 -0.469882 0.498300 0.016900 1 0 1.000000
  0 -2.001500 1.443300 5.513200 -0.821589 0.301396 0.483893 0.456800 0.536900 1 0 1.000000
  0 -1.444200 2.001800 5.513200 -0.322892 0.827579 0.459188 0.498300 0.536900 1 0 1.000000
battery
  0 -1.444200 2.001800 0.523300 -0.359586 0.806169 -0.469882 0.498300 0.016900 1 0 1.000000
  0 -2.001500 1.443300 0.523300 -0.827022 0.301608 -0.474413 0.456800 0.016900 1 0 1.000000
  0 -2.001500 1.443300 5.513200 -0.821589 0.301396 0.483893 0.456800 0.536900 1 0 1.000000
battery
  0 -2.001500 1.443300 0.523300 -0.827022 0.301608 -0.474413 0.456800 0.016900 1 0 1.000000
  0 -2.001800 -1.442000 5.513200 -0.833419 -0.244505 0.495611 0.305300 0.536900 1 0 1.000000
  0 -2.001500 1.443300 5.513200 -0.821589 0.301396 0.483893 0.456800 0.536900 1 0 1.000000
battery
  0 -2.001500 1.443300 0.523300 -0.827022 0.301608 -0.474413 0.456800 0.016900 1 0 1.000000
  0 -2.001800 -1.442000 0.523300 -0.815409 -0.356604 -0.456005 0.305300 0.016900 1 0 1.000000
  0 -2.001800 -1.442000 5.513200 -0.833419 -0.244505 0.495611 0.305300 0.536900 1 0 1.000000
battery
  0 -2.001800 -1.442000 0.523300 -0.815409 -0.356604 -0.456005 0.305300 0.016900 1 0 1.000000
  0 -1.445600 -2.001500 5.513200 -0.362982 -0.822660 0.437578 0.263100 0.536900 1 0 1.000000
  0 -2.001800 -1.442000 5.513200 -0.833419 -0.244505 0.495611 0.305300 0.536900 1 0 1.000000
battery
  0 -2.001800 -1.442000 0.523300 -0.815409 -0.356604 -0.456005 0.305300 0.016900 1 0 1.000000
  0 -1.445600 -2.001500 0.523300 -0.300108 -0.823923 -0.480713 0.263100 0.016900 1 0 1.000000
  0 -1.445600 -2.001500 5.513200 -0.362982 -0.822660 0.437578 0.263100 0.536900 1 0 1.000000
battery
  0 -1.445600 -2.001500 0.523300 -0.300108 -0.823923 -0.480713 0.263100 0.016900 1 0 1.000000
  0 1.444200 -2.001800 5.513200 0.324311 -0.826229 0.460616 0.112400 0.536900 1 0 1.000000
  0 -1.445600 -2.001500 5.513200 -0.362982 -0.822660 0.437578 0.263100 0.536900 1 0 1.000000
battery
  0 -1.445600 -2.001500 0.523300 -0.300108 -0.823923 -0.480713 0.263100 0.016900 1 0 1.000000
  0 1.444200 -2.001800 0.523300 0.359586 -0.806169 -0.469882 0.112400 0.016900 1 0 1.000000
  0 1.444200 -2.001800 5.513200 0.324311 -0.826229 0.460616 0.112400 0.536900 1 0 1.000000
end
