// Created by Crowbar 0.62
version 1
nodes
  0 "static_prop" -1
end
skeleton
  time 0
    0 0.000000 0.000000 0.000000 0.000000 0.000000 0.000000
end
triangles
boxsniperrounds
  0 1.467900 1.422000 0.000000 0.000000 0.000000 -1.000000 0.499800 0.236300 1 0 1.000000
  0 1.467900 -1.422000 0.000000 0.000000 0.000000 -1.000000 0.499500 0.000500 1 0 1.000000
  0 -1.467900 -1.422000 0.000000 0.000000 0.000000 -1.000000 0.255400 0.000500 1 0 1.000000
boxsniperrounds
  0 -1.467900 -1.422000 0.000000 0.000000 0.000000 -1.000000 0.255400 0.000500 1 0 1.000000
  0 -1.467900 1.422000 0.000000 0.000000 0.000000 -1.000000 0.255200 0.236300 1 0 1.000000
  0 1.467900 1.422000 0.000000 0.000000 0.000000 -1.000000 0.499800 0.236300 1 0 1.000000
boxsniperrounds
  0 1.467900 1.422000 6.361900 0.000000 0.000000 1.000000 0.499800 0.764300 1 0 1.000000
  0 -1.467900 1.422000 6.361900 0.000000 0.000000 1.000000 0.255200 0.764300 1 0 1.000000
  0 -1.467900 -1.422000 6.361900 0.000000 0.000000 1.000000 0.255400 0.999500 1 0 1.000000
boxsniperrounds
  0 -1.467900 -1.422000 6.361900 0.000000 0.000000 1.000000 0.255400 0.999500 1 0 1.000000
  0 1.467900 -1.422000 6.361900 0.000000 0.000000 1.000000 0.499500 0.999500 1 0 1.000000
  0 1.467900 1.422000 6.361900 0.000000 0.000000 1.000000 0.499800 0.764300 1 0 1.000000
boxsniperrounds
  0 1.467900 -1.422000 6.361900 0.000000 -1.000000 0.000000 0.737200 0.765000 1 0 1.000000
  0 -1.467900 -1.422000 6.361900 0.000000 -1.000000 0.000000 0.981900 0.765000 1 0 1.000000
  0 -1.467900 -1.422000 0.000000 0.000000 -1.000000 0.000000 0.981900 0.235900 1 0 1.000000
boxsniperrounds
  0 -1.467900 -1.422000 0.000000 0.000000 -1.000000 0.000000 0.981900 0.235900 1 0 1.000000
  0 1.467900 -1.422000 0.000000 0.000000 -1.000000 0.000000 0.737200 0.235900 1 0 1.000000
  0 1.467900 -1.422000 6.361900 0.000000 -1.000000 0.000000 0.737200 0.765000 1 0 1.000000
boxsniperrounds
  0 1.467900 1.422000 6.361900 1.000000 0.000000 0.000000 0.499800 0.764300 1 0 1.000000
  0 1.467900 -1.422000 6.361900 1.000000 0.000000 0.000000 0.737200 0.765000 1 0 1.000000
  0 1.467900 -1.422000 0.000000 1.000000 0.000000 0.000000 0.737200 0.235900 1 0 1.000000
boxsniperrounds
  0 1.467900 -1.422000 0.000000 1.000000 0.000000 0.000000 0.737200 0.235900 1 0 1.000000
  0 1.467900 1.422000 0.000000 1.000000 0.000000 0.000000 0.499800 0.236300 1 0 1.000000
  0 1.467900 1.422000 6.361900 1.000000 0.000000 0.000000 0.499800 0.764300 1 0 1.000000
boxsniperrounds
  0 -1.467900 1.422000 6.361900 0.000000 1.000000 0.000000 0.255200 0.764300 1 0 1.000000
  0 1.467900 1.422000 6.361900 0.000000 1.000000 0.000000 0.499800 0.764300 1 0 1.000000
  0 1.467900 1.422000 0.000000 0.000000 1.000000 0.000000 0.499800 0.236300 1 0 1.000000
boxsniperrounds
  0 1.467900 1.422000 0.000000 0.000000 1.000000 0.000000 0.499800 0.236300 1 0 1.000000
  0 -1.467900 1.422000 0.000000 0.000000 1.000000 0.000000 0.255200 0.236300 1 0 1.000000
  0 -1.467900 1.422000 6.361900 0.000000 1.000000 0.000000 0.255200 0.764300 1 0 1.000000
boxsniperrounds
  0 -1.467900 -1.422000 6.361900 -1.000000 0.000000 0.000000 0.018100 0.765000 1 0 1.000000
  0 -1.467900 1.422000 6.361900 -1.000000 0.000000 0.000000 0.255200 0.764300 1 0 1.000000
  0 -1.467900 1.422000 0.000000 -1.000000 0.000000 0.000000 0.255200 0.236300 1 0 1.000000
boxsniperrounds
  0 -1.467900 1.422000 0.000000 -1.000000 0.000000 0.000000 0.255200 0.236300 1 0 1.000000
  0 -1.467900 -1.422000 0.000000 -1.000000 0.000000 0.000000 0.018100 0.235900 1 0 1.000000
  0 -1.467900 -1.422000 6.361900 -1.000000 0.000000 0.000000 0.018100 0.765000 1 0 1.000000
round
  0 -1.048800 4.949700 2.157600 0.278208 0.921526 0.270908 0.022000 0.787500 1 0 1.000000
  0 -1.232900 3.703600 2.080800 0.447688 -0.273993 0.851177 0.179900 0.759800 1 0 1.000000
  0 -1.097800 3.713800 1.907600 0.901569 -0.261991 0.344288 0.179900 0.816600 1 0 1.000000
round
  0 -1.097800 3.713800 1.907600 0.901569 -0.261991 0.344288 0.179900 0.816600 1 0 1.000000
  0 -1.232900 3.703600 2.080800 0.447688 -0.273993 0.851177 0.179900 0.759800 1 0 1.000000
  0 -1.705900 2.136500 1.620100 0.528984 -0.205494 0.823376 0.399800 0.759800 1 0 1.000000
round
  0 -1.097800 3.713800 1.907600 0.901569 -0.261991 0.344288 0.179900 0.816600 1 0 1.000000
  0 -1.705900 2.136500 1.620100 0.528984 -0.205494 0.823376 0.399800 0.759800 1 0 1.000000
  0 -1.570900 2.146600 1.447000 0.940516 -0.173503 0.292105 0.399800 0.816600 1 0 1.000000
round
  0 -1.570900 2.146600 1.447000 0.940516 -0.173503 0.292105 0.399800 0.816600 1 0 1.000000
  0 -1.705900 2.136500 1.620100 0.528984 -0.205494 0.823376 0.399800 0.759800 1 0 1.000000
  0 -1.734100 1.820500 1.628500 0.522807 -0.205903 0.827210 0.438200 0.749700 1 0 1.000000
round
  0 -1.570900 2.146600 1.447000 0.940516 -0.173503 0.292105 0.399800 0.816600 1 0 1.000000
  0 -1.734100 1.820500 1.628500 0.522807 -0.205903 0.827210 0.438200 0.749700 1 0 1.000000
  0 -1.551700 1.834200 1.394800 0.938065 -0.175893 0.298489 0.438200 0.826800 1 0 1.000000
round
  0 -2.014600 1.883600 1.702000 -0.113598 -0.062099 0.991584 0.438200 0.677200 1 0 1.000000
  0 -2.262000 1.993900 1.580900 -0.673501 0.188300 0.714801 0.438200 0.605200 1 0 1.000000
  0 -3.148100 -0.959200 0.708000 -0.653787 -0.027300 0.756185 0.852600 0.605200 1 0 1.000000
round
  0 -2.014600 1.883600 1.702000 -0.113598 -0.062099 0.991584 0.438200 0.677200 1 0 1.000000
  0 -3.148100 -0.959200 0.708000 -0.653787 -0.027300 0.756185 0.852600 0.605200 1 0 1.000000
  0 -2.904800 -1.067700 0.827100 -0.048300 -0.270502 0.961507 0.852600 0.677200 1 0 1.000000
round
  0 -1.734100 1.820500 1.628500 0.522807 -0.205903 0.827210 0.438200 0.749700 1 0 1.000000
  0 -2.014600 1.883600 1.702000 -0.113598 -0.062099 0.991584 0.438200 0.677200 1 0 1.000000
  0 -2.904800 -1.067700 0.827100 -0.048300 -0.270502 0.961507 0.852600 0.677200 1 0 1.000000
round
  0 -1.734100 1.820500 1.628500 0.522807 -0.205903 0.827210 0.438200 0.749700 1 0 1.000000
  0 -2.904800 -1.067700 0.827100 -0.048300 -0.270502 0.961507 0.852600 0.677200 1 0 1.000000
  0 -2.629000 -1.129700 0.754900 0.579493 -0.387995 0.716692 0.852600 0.749400 1 0 1.000000
round
  0 -1.551700 1.834200 1.394800 0.938065 -0.175893 0.298489 0.438200 0.826800 1 0 1.000000
  0 -1.734100 1.820500 1.628500 0.522807 -0.205903 0.827210 0.438200 0.749700 1 0 1.000000
  0 -2.629000 -1.129700 0.754900 0.579493 -0.387995 0.716692 0.852600 0.749400 1 0 1.000000
round
  0 -1.551700 1.834200 1.394800 0.938065 -0.175893 0.298489 0.438200 0.826800 1 0 1.000000
  0 -2.629000 -1.129700 0.754900 0.579493 -0.387995 0.716692 0.852600 0.749400 1 0 1.000000
  0 -2.449700 -1.116300 0.525000 0.935860 -0.324986 0.136194 0.852600 0.826200 1 0 1.000000
round
  0 -1.913700 2.183200 1.674600 -0.106500 -0.063300 0.992296 0.399800 0.677200 1 0 1.000000
  0 -2.262000 1.993900 1.580900 -0.673501 0.188300 0.714801 0.438200 0.605200 1 0 1.000000
  0 -2.014600 1.883600 1.702000 -0.113598 -0.062099 0.991584 0.438200 0.677200 1 0 1.000000
round
  0 -1.913700 2.183200 1.674600 -0.106500 -0.063300 0.992296 0.399800 0.677200 1 0 1.000000
  0 -2.097000 2.264900 1.584900 -0.668682 0.186495 0.719781 0.399800 0.623800 1 0 1.000000
  0 -2.262000 1.993900 1.580900 -0.673501 0.188300 0.714801 0.438200 0.605200 1 0 1.000000
round
  0 -1.440700 3.750300 2.135200 -0.202209 -0.113505 0.972742 0.179900 0.677200 1 0 1.000000
  0 -2.097000 2.264900 1.584900 -0.668682 0.186495 0.719781 0.399800 0.623800 1 0 1.000000
  0 -1.913700 2.183200 1.674600 -0.106500 -0.063300 0.992296 0.399800 0.677200 1 0 1.000000
round
  0 -1.440700 3.750300 2.135200 -0.202209 -0.113505 0.972742 0.179900 0.677200 1 0 1.000000
  0 -1.624000 3.832000 2.045500 -0.744192 0.144298 0.652193 0.179900 0.623800 1 0 1.000000
  0 -2.097000 2.264900 1.584900 -0.668682 0.186495 0.719781 0.399800 0.623800 1 0 1.000000
round
  0 -1.048800 4.949700 2.157600 0.278208 0.921526 0.270908 0.022000 0.677200 1 0 1.000000
  0 -1.624000 3.832000 2.045500 -0.744192 0.144298 0.652193 0.179900 0.623800 1 0 1.000000
  0 -1.440700 3.750300 2.135200 -0.202209 -0.113505 0.972742 0.179900 0.677200 1 0 1.000000
round
  0 -1.048800 4.949700 2.157600 0.278208 0.921526 0.270908 0.022000 0.677200 1 0 1.000000
  0 -1.440700 3.750300 2.135200 -0.202209 -0.113505 0.972742 0.179900 0.677200 1 0 1.000000
  0 -1.232900 3.703600 2.080800 0.447688 -0.273993 0.851177 0.179900 0.730600 1 0 1.000000
round
  0 -1.232900 3.703600 2.080800 0.447688 -0.273993 0.851177 0.179900 0.730600 1 0 1.000000
  0 -1.440700 3.750300 2.135200 -0.202209 -0.113505 0.972742 0.179900 0.677200 1 0 1.000000
  0 -1.913700 2.183200 1.674600 -0.106500 -0.063300 0.992296 0.399800 0.677200 1 0 1.000000
round
  0 -1.232900 3.703600 2.080800 0.447688 -0.273993 0.851177 0.179900 0.730600 1 0 1.000000
  0 -1.913700 2.183200 1.674600 -0.106500 -0.063300 0.992296 0.399800 0.677200 1 0 1.000000
  0 -1.705900 2.136500 1.620100 0.528984 -0.205494 0.823376 0.399800 0.730600 1 0 1.000000
round
  0 -1.705900 2.136500 1.620100 0.528984 -0.205494 0.823376 0.399800 0.730600 1 0 1.000000
  0 -1.913700 2.183200 1.674600 -0.106500 -0.063300 0.992296 0.399800 0.677200 1 0 1.000000
  0 -2.014600 1.883600 1.702000 -0.113598 -0.062099 0.991584 0.438200 0.677200 1 0 1.000000
round
  0 -1.705900 2.136500 1.620100 0.528984 -0.205494 0.823376 0.399800 0.730600 1 0 1.000000
  0 -2.014600 1.883600 1.702000 -0.113598 -0.062099 0.991584 0.438200 0.677200 1 0 1.000000
  0 -1.734100 1.820500 1.628500 0.522807 -0.205903 0.827210 0.438200 0.749700 1 0 1.000000
round
  0 -2.098600 2.381900 1.188600 -0.677990 0.545692 -0.492493 0.399800 0.442800 1 0 1.000000
  0 -2.018000 2.125500 0.882500 -0.114497 0.484485 -0.867274 0.438200 0.389400 1 0 1.000000
  0 -2.264200 2.151800 1.046000 -0.674121 0.545017 -0.498515 0.438200 0.461300 1 0 1.000000
round
  0 -2.098600 2.381900 1.188600 -0.677990 0.545692 -0.492493 0.399800 0.442800 1 0 1.000000
  0 -1.916200 2.362400 1.067500 -0.120899 0.486997 -0.864995 0.399800 0.389400 1 0 1.000000
  0 -2.018000 2.125500 0.882500 -0.114497 0.484485 -0.867274 0.438200 0.389400 1 0 1.000000
round
  0 -1.625600 3.949000 1.649300 -0.659013 0.480410 -0.578712 0.179900 0.442800 1 0 1.000000
  0 -1.916200 2.362400 1.067500 -0.120899 0.486997 -0.864995 0.399800 0.389400 1 0 1.000000
  0 -2.098600 2.381900 1.188600 -0.677990 0.545692 -0.492493 0.399800 0.442800 1 0 1.000000
round
  0 -1.625600 3.949000 1.649300 -0.659013 0.480410 -0.578712 0.179900 0.442800 1 0 1.000000
  0 -1.443200 3.929500 1.528200 -0.071699 0.401397 -0.913093 0.179900 0.389400 1 0 1.000000
  0 -1.916200 2.362400 1.067500 -0.120899 0.486997 -0.864995 0.399800 0.389400 1 0 1.000000
round
  0 -1.048800 4.949700 2.157600 0.278208 0.921526 0.270908 0.022000 0.389400 1 0 1.000000
  0 -1.443200 3.929500 1.528200 -0.071699 0.401397 -0.913093 0.179900 0.389400 1 0 1.000000
  0 -1.625600 3.949000 1.649300 -0.659013 0.480410 -0.578712 0.179900 0.442800 1 0 1.000000
round
  0 -1.048800 4.949700 2.157600 0.278208 0.921526 0.270908 0.022000 0.389400 1 0 1.000000
  0 -1.235100 3.861200 1.546900 0.562515 0.178805 -0.807221 0.179900 0.335900 1 0 1.000000
  0 -1.443200 3.929500 1.528200 -0.071699 0.401397 -0.913093 0.179900 0.389400 1 0 1.000000
round
  0 -1.443200 3.929500 1.528200 -0.071699 0.401397 -0.913093 0.179900 0.389400 1 0 1.000000
  0 -1.235100 3.861200 1.546900 0.562515 0.178805 -0.807221 0.179900 0.335900 1 0 1.000000
  0 -1.708100 2.294100 1.086300 0.516297 0.278399 -0.809896 0.399800 0.335900 1 0 1.000000
round
  0 -1.443200 3.929500 1.528200 -0.071699 0.401397 -0.913093 0.179900 0.389400 1 0 1.000000
  0 -1.708100 2.294100 1.086300 0.516297 0.278399 -0.809896 0.399800 0.335900 1 0 1.000000
  0 -1.916200 2.362400 1.067500 -0.120899 0.486997 -0.864995 0.399800 0.389400 1 0 1.000000
round
  0 -1.916200 2.362400 1.067500 -0.120899 0.486997 -0.864995 0.399800 0.389400 1 0 1.000000
  0 -1.708100 2.294100 1.086300 0.516297 0.278399 -0.809896 0.399800 0.335900 1 0 1.000000
  0 -1.737000 2.033300 0.907900 0.522028 0.274815 -0.807443 0.438200 0.317200 1 0 1.000000
round
  0 -1.916200 2.362400 1.067500 -0.120899 0.486997 -0.864995 0.399800 0.389400 1 0 1.000000
  0 -1.737000 2.033300 0.907900 0.522028 0.274815 -0.807443 0.438200 0.317200 1 0 1.000000
  0 -2.018000 2.125500 0.882500 -0.114497 0.484485 -0.867274 0.438200 0.389400 1 0 1.000000
round
  0 -2.018000 2.125500 0.882500 -0.114497 0.484485 -0.867274 0.438200 0.389400 1 0 1.000000
  0 -1.737000 2.033300 0.907900 0.522028 0.274815 -0.807443 0.438200 0.317200 1 0 1.000000
  0 -2.631900 -0.920500 0.046200 0.372304 0.154202 -0.915211 0.852600 0.317300 1 0 1.000000
round
  0 -2.018000 2.125500 0.882500 -0.114497 0.484485 -0.867274 0.438200 0.389400 1 0 1.000000
  0 -2.631900 -0.920500 0.046200 0.372304 0.154202 -0.915211 0.852600 0.317300 1 0 1.000000
  0 -2.908100 -0.829800 0.021300 -0.283903 0.346104 -0.894210 0.852600 0.389400 1 0 1.000000
round
  0 -2.264200 2.151800 1.046000 -0.674121 0.545017 -0.498515 0.438200 0.461300 1 0 1.000000
  0 -2.018000 2.125500 0.882500 -0.114497 0.484485 -0.867274 0.438200 0.389400 1 0 1.000000
  0 -2.908100 -0.829800 0.021300 -0.283903 0.346104 -0.894210 0.852600 0.389400 1 0 1.000000
round
  0 -2.264200 2.151800 1.046000 -0.674121 0.545017 -0.498515 0.438200 0.461300 1 0 1.000000
  0 -2.908100 -0.829800 0.021300 -0.283903 0.346104 -0.894210 0.852600 0.389400 1 0 1.000000
  0 -3.150300 -0.804000 0.182000 -0.807586 0.375094 -0.455092 0.852600 0.461300 1 0 1.000000
round
  0 -2.360600 2.099800 1.321800 -0.894908 0.428004 0.126301 0.438200 0.533200 1 0 1.000000
  0 -2.264200 2.151800 1.046000 -0.674121 0.545017 -0.498515 0.438200 0.461300 1 0 1.000000
  0 -3.150300 -0.804000 0.182000 -0.807586 0.375094 -0.455092 0.852600 0.461300 1 0 1.000000
round
  0 -2.360600 2.099800 1.321800 -0.894908 0.428004 0.126301 0.438200 0.533200 1 0 1.000000
  0 -3.150300 -0.804000 0.182000 -0.807586 0.375094 -0.455092 0.852600 0.461300 1 0 1.000000
  0 -3.245100 -0.855100 0.453300 -0.953683 0.227596 0.196696 0.852600 0.533200 1 0 1.000000
round
  0 -2.262000 1.993900 1.580900 -0.673501 0.188300 0.714801 0.438200 0.605200 1 0 1.000000
  0 -2.360600 2.099800 1.321800 -0.894908 0.428004 0.126301 0.438200 0.533200 1 0 1.000000
  0 -3.245100 -0.855100 0.453300 -0.953683 0.227596 0.196696 0.852600 0.533200 1 0 1.000000
round
  0 -2.262000 1.993900 1.580900 -0.673501 0.188300 0.714801 0.438200 0.605200 1 0 1.000000
  0 -3.245100 -0.855100 0.453300 -0.953683 0.227596 0.196696 0.852600 0.533200 1 0 1.000000
  0 -3.148100 -0.959200 0.708000 -0.653787 -0.027300 0.756185 0.852600 0.605200 1 0 1.000000
round
  0 -2.170000 2.343400 1.392900 -0.894366 0.426984 0.133395 0.399800 0.533200 1 0 1.000000
  0 -2.264200 2.151800 1.046000 -0.674121 0.545017 -0.498515 0.438200 0.461300 1 0 1.000000
  0 -2.360600 2.099800 1.321800 -0.894908 0.428004 0.126301 0.438200 0.533200 1 0 1.000000
round
  0 -2.170000 2.343400 1.392900 -0.894366 0.426984 0.133395 0.399800 0.533200 1 0 1.000000
  0 -2.098600 2.381900 1.188600 -0.677990 0.545692 -0.492493 0.399800 0.479800 1 0 1.000000
  0 -2.264200 2.151800 1.046000 -0.674121 0.545017 -0.498515 0.438200 0.461300 1 0 1.000000
round
  0 -1.697000 3.910500 1.853600 -0.924595 0.378898 0.039500 0.179900 0.533200 1 0 1.000000
  0 -2.098600 2.381900 1.188600 -0.677990 0.545692 -0.492493 0.399800 0.479800 1 0 1.000000
  0 -2.170000 2.343400 1.392900 -0.894366 0.426984 0.133395 0.399800 0.533200 1 0 1.000000
round
  0 -1.697000 3.910500 1.853600 -0.924595 0.378898 0.039500 0.179900 0.533200 1 0 1.000000
  0 -1.625600 3.949000 1.649300 -0.659013 0.480410 -0.578712 0.179900 0.479800 1 0 1.000000
  0 -2.098600 2.381900 1.188600 -0.677990 0.545692 -0.492493 0.399800 0.479800 1 0 1.000000
round
  0 -1.048800 4.949700 2.157600 0.278208 0.921526 0.270908 0.022000 0.533200 1 0 1.000000
  0 -1.625600 3.949000 1.649300 -0.659013 0.480410 -0.578712 0.179900 0.479800 1 0 1.000000
  0 -1.697000 3.910500 1.853600 -0.924595 0.378898 0.039500 0.179900 0.533200 1 0 1.000000
round
  0 -1.048800 4.949700 2.157600 0.278208 0.921526 0.270908 0.022000 0.533200 1 0 1.000000
  0 -1.697000 3.910500 1.853600 -0.924595 0.378898 0.039500 0.179900 0.533200 1 0 1.000000
  0 -1.624000 3.832000 2.045500 -0.744192 0.144298 0.652193 0.179900 0.586600 1 0 1.000000
round
  0 -1.624000 3.832000 2.045500 -0.744192 0.144298 0.652193 0.179900 0.586600 1 0 1.000000
  0 -1.697000 3.910500 1.853600 -0.924595 0.378898 0.039500 0.179900 0.533200 1 0 1.000000
  0 -2.170000 2.343400 1.392900 -0.894366 0.426984 0.133395 0.399800 0.533200 1 0 1.000000
round
  0 -1.624000 3.832000 2.045500 -0.744192 0.144298 0.652193 0.179900 0.586600 1 0 1.000000
  0 -2.170000 2.343400 1.392900 -0.894366 0.426984 0.133395 0.399800 0.533200 1 0 1.000000
  0 -2.097000 2.264900 1.584900 -0.668682 0.186495 0.719781 0.399800 0.586600 1 0 1.000000
round
  0 -2.097000 2.264900 1.584900 -0.668682 0.186495 0.719781 0.399800 0.586600 1 0 1.000000
  0 -2.170000 2.343400 1.392900 -0.894366 0.426984 0.133395 0.399800 0.533200 1 0 1.000000
  0 -2.360600 2.099800 1.321800 -0.894908 0.428004 0.126301 0.438200 0.533200 1 0 1.000000
round
  0 -2.097000 2.264900 1.584900 -0.668682 0.186495 0.719781 0.399800 0.586600 1 0 1.000000
  0 -2.360600 2.099800 1.321800 -0.894908 0.428004 0.126301 0.438200 0.533200 1 0 1.000000
  0 -2.262000 1.993900 1.580900 -0.673501 0.188300 0.714801 0.438200 0.605200 1 0 1.000000
round
  0 -1.235100 3.861200 1.546900 0.562515 0.178805 -0.807221 0.179900 0.298700 1 0 1.000000
  0 -1.571700 2.208900 1.236200 0.935496 0.017600 -0.352898 0.399800 0.245300 1 0 1.000000
  0 -1.708100 2.294100 1.086300 0.516297 0.278399 -0.809896 0.399800 0.298700 1 0 1.000000
round
  0 -1.235100 3.861200 1.546900 0.562515 0.178805 -0.807221 0.179900 0.298700 1 0 1.000000
  0 -1.098700 3.776000 1.696800 0.946893 -0.083199 -0.310598 0.179900 0.245300 1 0 1.000000
  0 -1.571700 2.208900 1.236200 0.935496 0.017600 -0.352898 0.399800 0.245300 1 0 1.000000
round
  0 -1.048800 4.949700 2.157600 0.278208 0.921526 0.270908 0.022000 0.245300 1 0 1.000000
  0 -1.098700 3.776000 1.696800 0.946893 -0.083199 -0.310598 0.179900 0.245300 1 0 1.000000
  0 -1.235100 3.861200 1.546900 0.562515 0.178805 -0.807221 0.179900 0.298700 1 0 1.000000
round
  0 -1.048800 4.949700 2.157600 0.278208 0.921526 0.270908 0.022000 0.245300 1 0 1.000000
  0 -1.097800 3.713800 1.907600 0.901569 -0.261991 0.344288 0.179900 0.191900 1 0 1.000000
  0 -1.098700 3.776000 1.696800 0.946893 -0.083199 -0.310598 0.179900 0.245300 1 0 1.000000
round
  0 -1.098700 3.776000 1.696800 0.946893 -0.083199 -0.310598 0.179900 0.245300 1 0 1.000000
  0 -1.097800 3.713800 1.907600 0.901569 -0.261991 0.344288 0.179900 0.191900 1 0 1.000000
  0 -1.570900 2.146600 1.447000 0.940516 -0.173503 0.292105 0.399800 0.191900 1 0 1.000000
round
  0 -1.098700 3.776000 1.696800 0.946893 -0.083199 -0.310598 0.179900 0.245300 1 0 1.000000
  0 -1.570900 2.146600 1.447000 0.940516 -0.173503 0.292105 0.399800 0.191900 1 0 1.000000
  0 -1.571700 2.208900 1.236200 0.935496 0.017600 -0.352898 0.399800 0.245300 1 0 1.000000
round
  0 -1.571700 2.208900 1.236200 0.935496 0.017600 -0.352898 0.399800 0.245300 1 0 1.000000
  0 -1.570900 2.146600 1.447000 0.940516 -0.173503 0.292105 0.399800 0.191900 1 0 1.000000
  0 -1.551700 1.834200 1.394800 0.938065 -0.175893 0.298489 0.438200 0.173200 1 0 1.000000
round
  0 -1.571700 2.208900 1.236200 0.935496 0.017600 -0.352898 0.399800 0.245300 1 0 1.000000
  0 -1.551700 1.834200 1.394800 0.938065 -0.175893 0.298489 0.438200 0.173200 1 0 1.000000
  0 -1.552900 1.918200 1.110200 0.937753 0.014001 -0.347020 0.438200 0.245300 1 0 1.000000
round
  0 -1.552900 1.918200 1.110200 0.937753 0.014001 -0.347020 0.438200 0.245300 1 0 1.000000
  0 -1.551700 1.834200 1.394800 0.938065 -0.175893 0.298489 0.438200 0.173200 1 0 1.000000
  0 -2.449700 -1.116300 0.525000 0.935860 -0.324986 0.136194 0.852600 0.174400 1 0 1.000000
round
  0 -1.552900 1.918200 1.110200 0.937753 0.014001 -0.347020 0.438200 0.245300 1 0 1.000000
  0 -2.449700 -1.116300 0.525000 0.935860 -0.324986 0.136194 0.852600 0.174400 1 0 1.000000
  0 -2.450800 -1.033700 0.245200 0.854016 -0.110802 -0.508310 0.852600 0.245300 1 0 1.000000
round
  0 -1.737000 2.033300 0.907900 0.522028 0.274815 -0.807443 0.438200 0.317400 1 0 1.000000
  0 -1.552900 1.918200 1.110200 0.937753 0.014001 -0.347020 0.438200 0.245300 1 0 1.000000
  0 -2.450800 -1.033700 0.245200 0.854016 -0.110802 -0.508310 0.852600 0.245300 1 0 1.000000
round
  0 -1.737000 2.033300 0.907900 0.522028 0.274815 -0.807443 0.438200 0.317400 1 0 1.000000
  0 -2.450800 -1.033700 0.245200 0.854016 -0.110802 -0.508310 0.852600 0.245300 1 0 1.000000
  0 -2.631900 -0.920500 0.046200 0.372304 0.154202 -0.915211 0.852600 0.317300 1 0 1.000000
round
  0 -1.708100 2.294100 1.086300 0.516297 0.278399 -0.809896 0.399800 0.298700 1 0 1.000000
  0 -1.552900 1.918200 1.110200 0.937753 0.014001 -0.347020 0.438200 0.245300 1 0 1.000000
  0 -1.737000 2.033300 0.907900 0.522028 0.274815 -0.807443 0.438200 0.317400 1 0 1.000000
round
  0 -1.708100 2.294100 1.086300 0.516297 0.278399 -0.809896 0.399800 0.298700 1 0 1.000000
  0 -1.571700 2.208900 1.236200 0.935496 0.017600 -0.352898 0.399800 0.245300 1 0 1.000000
  0 -1.552900 1.918200 1.110200 0.937753 0.014001 -0.347020 0.438200 0.245300 1 0 1.000000
round
  0 -0.489700 2.307400 0.129100 0.251105 -0.283806 -0.925419 0.399800 0.298700 1 0 1.000000
  0 -0.719000 1.981600 0.214100 0.367186 -0.791370 -0.488782 0.438200 0.245300 1 0 1.000000
  0 -0.770100 2.203100 0.023400 0.251586 -0.290684 -0.923150 0.438200 0.317400 1 0 1.000000
round
  0 -0.489700 2.307400 0.129100 0.251105 -0.283806 -0.925419 0.399800 0.298700 1 0 1.000000
  0 -0.451800 2.143300 0.270400 0.367406 -0.787513 -0.494808 0.399800 0.245300 1 0 1.000000
  0 -0.719000 1.981600 0.214100 0.367186 -0.791370 -0.488782 0.438200 0.245300 1 0 1.000000
round
  0 1.167300 2.689900 0.129100 0.191802 -0.374405 -0.907211 0.179900 0.298700 1 0 1.000000
  0 -0.451800 2.143300 0.270400 0.367406 -0.787513 -0.494808 0.399800 0.245300 1 0 1.000000
  0 -0.489700 2.307400 0.129100 0.251105 -0.283806 -0.925419 0.399800 0.298700 1 0 1.000000
round
  0 1.167300 2.689900 0.129100 0.191802 -0.374405 -0.907211 0.179900 0.298700 1 0 1.000000
  0 1.205200 2.525800 0.270400 0.301507 -0.849620 -0.432710 0.179900 0.245300 1 0 1.000000
  0 -0.451800 2.143300 0.270400 0.367406 -0.787513 -0.494808 0.399800 0.245300 1 0 1.000000
round
  0 2.331600 3.071500 0.431100 0.974361 0.224991 0.000000 0.022000 0.245300 1 0 1.000000
  0 1.205200 2.525800 0.270400 0.301507 -0.849620 -0.432710 0.179900 0.245300 1 0 1.000000
  0 1.167300 2.689900 0.129100 0.191802 -0.374405 -0.907211 0.179900 0.298700 1 0 1.000000
round
  0 2.331600 3.071500 0.431100 0.974361 0.224991 0.000000 0.022000 0.245300 1 0 1.000000
  0 1.213800 2.488600 0.486900 0.316895 -0.916485 0.244196 0.179900 0.191900 1 0 1.000000
  0 1.205200 2.525800 0.270400 0.301507 -0.849620 -0.432710 0.179900 0.245300 1 0 1.000000
round
  0 1.205200 2.525800 0.270400 0.301507 -0.849620 -0.432710 0.179900 0.245300 1 0 1.000000
  0 1.213800 2.488600 0.486900 0.316895 -0.916485 0.244196 0.179900 0.191900 1 0 1.000000
  0 -0.443200 2.106100 0.486900 0.394189 -0.903674 0.167295 0.399800 0.191900 1 0 1.000000
round
  0 1.205200 2.525800 0.270400 0.301507 -0.849620 -0.432710 0.179900 0.245300 1 0 1.000000
  0 -0.443200 2.106100 0.486900 0.394189 -0.903674 0.167295 0.399800 0.191900 1 0 1.000000
  0 -0.451800 2.143300 0.270400 0.367406 -0.787513 -0.494808 0.399800 0.245300 1 0 1.000000
round
  0 -0.451800 2.143300 0.270400 0.367406 -0.787513 -0.494808 0.399800 0.245300 1 0 1.000000
  0 -0.443200 2.106100 0.486900 0.394189 -0.903674 0.167295 0.399800 0.191900 1 0 1.000000
  0 -0.707400 1.931400 0.506400 0.392904 -0.902909 0.174302 0.438200 0.173200 1 0 1.000000
round
  0 -0.451800 2.143300 0.270400 0.367406 -0.787513 -0.494808 0.399800 0.245300 1 0 1.000000
  0 -0.707400 1.931400 0.506400 0.392904 -0.902909 0.174302 0.438200 0.173200 1 0 1.000000
  0 -0.719000 1.981600 0.214100 0.367186 -0.791370 -0.488782 0.438200 0.245300 1 0 1.000000
round
  0 -0.719000 1.981600 0.214100 0.367186 -0.791370 -0.488782 0.438200 0.245300 1 0 1.000000
  0 -0.707400 1.931400 0.506400 0.392904 -0.902909 0.174302 0.438200 0.173200 1 0 1.000000
  0 -3.831200 1.217500 0.505100 0.222394 -0.973471 0.053798 0.852600 0.174400 1 0 1.000000
round
  0 -0.719000 1.981600 0.214100 0.367186 -0.791370 -0.488782 0.438200 0.245300 1 0 1.000000
  0 -3.831200 1.217500 0.505100 0.222394 -0.973471 0.053798 0.852600 0.174400 1 0 1.000000
  0 -3.842600 1.266900 0.217800 0.177697 -0.779485 -0.600689 0.852600 0.245300 1 0 1.000000
round
  0 -0.770100 2.203100 0.023400 0.251586 -0.290684 -0.923150 0.438200 0.317400 1 0 1.000000
  0 -0.719000 1.981600 0.214100 0.367186 -0.791370 -0.488782 0.438200 0.245300 1 0 1.000000
  0 -3.842600 1.266900 0.217800 0.177697 -0.779485 -0.600689 0.852600 0.245300 1 0 1.000000
round
  0 -0.770100 2.203100 0.023400 0.251586 -0.290684 -0.923150 0.438200 0.317400 1 0 1.000000
  0 -3.842600 1.266900 0.217800 0.177697 -0.779485 -0.600689 0.852600 0.245300 1 0 1.000000
  0 -3.892900 1.484700 0.030200 0.048702 -0.221107 -0.974033 0.852600 0.317300 1 0 1.000000
round
  0 -0.899600 2.764000 0.506400 -0.042899 0.984973 0.167295 0.438200 0.533200 1 0 1.000000
  0 -4.008900 1.986900 0.217800 -0.209089 0.895854 -0.392080 0.852600 0.461300 1 0 1.000000
  0 -4.020300 2.036200 0.505100 -0.217399 0.931696 0.290999 0.852600 0.533200 1 0 1.000000
round
  0 -0.866200 2.619400 0.763400 0.032299 0.659187 0.751285 0.438200 0.605200 1 0 1.000000
  0 -0.899600 2.764000 0.506400 -0.042899 0.984973 0.167295 0.438200 0.533200 1 0 1.000000
  0 -4.020300 2.036200 0.505100 -0.217399 0.931696 0.290999 0.852600 0.533200 1 0 1.000000
round
  0 -0.560800 2.615700 0.677200 0.034600 0.654001 0.755702 0.399800 0.586600 1 0 1.000000
  0 -0.899600 2.764000 0.506400 -0.042899 0.984973 0.167295 0.438200 0.533200 1 0 1.000000
  0 -0.866200 2.619400 0.763400 0.032299 0.659187 0.751285 0.438200 0.605200 1 0 1.000000
round
  0 -0.560800 2.615700 0.677200 0.034600 0.654001 0.755702 0.399800 0.586600 1 0 1.000000
  0 -0.585600 2.722800 0.486900 -0.041501 0.983817 0.174303 0.399800 0.533200 1 0 1.000000
  0 -0.899600 2.764000 0.506400 -0.042899 0.984973 0.167295 0.438200 0.533200 1 0 1.000000
round
  0 1.096100 2.998300 0.677200 -0.055997 0.698963 0.712962 0.179900 0.586600 1 0 1.000000
  0 -0.585600 2.722800 0.486900 -0.041501 0.983817 0.174303 0.399800 0.533200 1 0 1.000000
  0 -0.560800 2.615700 0.677200 0.034600 0.654001 0.755702 0.399800 0.586600 1 0 1.000000
round
  0 1.096100 2.998300 0.677200 -0.055997 0.698963 0.712962 0.179900 0.586600 1 0 1.000000
  0 1.071400 3.105400 0.486900 -0.122597 0.987375 0.100297 0.179900 0.533200 1 0 1.000000
  0 -0.585600 2.722800 0.486900 -0.041501 0.983817 0.174303 0.399800 0.533200 1 0 1.000000
round
  0 2.331600 3.071500 0.431100 0.974361 0.224991 0.000000 0.022000 0.533200 1 0 1.000000
  0 1.071400 3.105400 0.486900 -0.122597 0.987375 0.100297 0.179900 0.533200 1 0 1.000000
  0 1.096100 2.998300 0.677200 -0.055997 0.698963 0.712962 0.179900 0.586600 1 0 1.000000
round
  0 2.331600 3.071500 0.431100 0.974361 0.224991 0.000000 0.022000 0.533200 1 0 1.000000
  0 1.080000 3.068200 0.270400 -0.085000 0.824597 -0.559298 0.179900 0.479800 1 0 1.000000
  0 1.071400 3.105400 0.486900 -0.122597 0.987375 0.100297 0.179900 0.533200 1 0 1.000000
round
  0 1.071400 3.105400 0.486900 -0.122597 0.987375 0.100297 0.179900 0.533200 1 0 1.000000
  0 1.080000 3.068200 0.270400 -0.085000 0.824597 -0.559298 0.179900 0.479800 1 0 1.000000
  0 -0.577000 2.685600 0.270400 -0.015800 0.872307 -0.488704 0.399800 0.479800 1 0 1.000000
round
  0 1.071400 3.105400 0.486900 -0.122597 0.987375 0.100297 0.179900 0.533200 1 0 1.000000
  0 -0.577000 2.685600 0.270400 -0.015800 0.872307 -0.488704 0.399800 0.479800 1 0 1.000000
  0 -0.585600 2.722800 0.486900 -0.041501 0.983817 0.174303 0.399800 0.533200 1 0 1.000000
round
  0 -0.585600 2.722800 0.486900 -0.041501 0.983817 0.174303 0.399800 0.533200 1 0 1.000000
  0 -0.577000 2.685600 0.270400 -0.015800 0.872307 -0.488704 0.399800 0.479800 1 0 1.000000
  0 -0.888000 2.713800 0.214100 -0.016100 0.868800 -0.494900 0.438200 0.461300 1 0 1.000000
round
  0 -0.585600 2.722800 0.486900 -0.041501 0.983817 0.174303 0.399800 0.533200 1 0 1.000000
  0 -0.888000 2.713800 0.214100 -0.016100 0.868800 -0.494900 0.438200 0.461300 1 0 1.000000
  0 -0.899600 2.764000 0.506400 -0.042899 0.984973 0.167295 0.438200 0.533200 1 0 1.000000
round
  0 -0.899600 2.764000 0.506400 -0.042899 0.984973 0.167295 0.438200 0.533200 1 0 1.000000
  0 -0.888000 2.713800 0.214100 -0.016100 0.868800 -0.494900 0.438200 0.461300 1 0 1.000000
  0 -4.008900 1.986900 0.217800 -0.209089 0.895854 -0.392080 0.852600 0.461300 1 0 1.000000
round
  0 -0.888000 2.713800 0.214100 -0.016100 0.868800 -0.494900 0.438200 0.461300 1 0 1.000000
  0 -3.958600 1.769100 0.030200 -0.103996 0.440584 -0.891667 0.852600 0.389400 1 0 1.000000
  0 -4.008900 1.986900 0.217800 -0.209089 0.895854 -0.392080 0.852600 0.461300 1 0 1.000000
round
  0 -0.888000 2.713800 0.214100 -0.016100 0.868800 -0.494900 0.438200 0.461300 1 0 1.000000
  0 -0.836900 2.492300 0.023400 0.100200 0.365000 -0.925600 0.438200 0.389400 1 0 1.000000
  0 -3.958600 1.769100 0.030200 -0.103996 0.440584 -0.891667 0.852600 0.389400 1 0 1.000000
round
  0 -0.836900 2.492300 0.023400 0.100200 0.365000 -0.925600 0.438200 0.389400 1 0 1.000000
  0 -3.892900 1.484700 0.030200 0.048702 -0.221107 -0.974033 0.852600 0.317300 1 0 1.000000
  0 -3.958600 1.769100 0.030200 -0.103996 0.440584 -0.891667 0.852600 0.389400 1 0 1.000000
round
  0 -0.836900 2.492300 0.023400 0.100200 0.365000 -0.925600 0.438200 0.389400 1 0 1.000000
  0 -0.770100 2.203100 0.023400 0.251586 -0.290684 -0.923150 0.438200 0.317200 1 0 1.000000
  0 -3.892900 1.484700 0.030200 0.048702 -0.221107 -0.974033 0.852600 0.317300 1 0 1.000000
round
  0 -0.539100 2.521600 0.129100 0.099797 0.371691 -0.922977 0.399800 0.389400 1 0 1.000000
  0 -0.770100 2.203100 0.023400 0.251586 -0.290684 -0.923150 0.438200 0.317200 1 0 1.000000
  0 -0.836900 2.492300 0.023400 0.100200 0.365000 -0.925600 0.438200 0.389400 1 0 1.000000
round
  0 -0.803500 2.347700 0.864900 0.174302 0.043901 0.983713 0.438200 0.677200 1 0 1.000000
  0 -3.987400 1.894100 0.757900 -0.124995 0.531377 0.837863 0.852600 0.605200 1 0 1.000000
  0 -3.925800 1.626900 0.857700 0.024900 -0.117902 0.992713 0.852600 0.677200 1 0 1.000000
round
  0 -0.803500 2.347700 0.864900 0.174302 0.043901 0.983713 0.438200 0.677200 1 0 1.000000
  0 -0.866200 2.619400 0.763400 0.032299 0.659187 0.751285 0.438200 0.605200 1 0 1.000000
  0 -3.987400 1.894100 0.757900 -0.124995 0.531377 0.837863 0.852600 0.605200 1 0 1.000000
round
  0 -0.866200 2.619400 0.763400 0.032299 0.659187 0.751285 0.438200 0.605200 1 0 1.000000
  0 -4.020300 2.036200 0.505100 -0.217399 0.931696 0.290999 0.852600 0.533200 1 0 1.000000
  0 -3.987400 1.894100 0.757900 -0.124995 0.531377 0.837863 0.852600 0.605200 1 0 1.000000
round
  0 -0.539100 2.521600 0.129100 0.099797 0.371691 -0.922977 0.399800 0.389400 1 0 1.000000
  0 -0.489700 2.307400 0.129100 0.251105 -0.283806 -0.925419 0.399800 0.335900 1 0 1.000000
  0 -0.770100 2.203100 0.023400 0.251586 -0.290684 -0.923150 0.438200 0.317200 1 0 1.000000
round
  0 1.117800 2.904100 0.129100 0.039100 0.286798 -0.957193 0.179900 0.389400 1 0 1.000000
  0 -0.489700 2.307400 0.129100 0.251105 -0.283806 -0.925419 0.399800 0.335900 1 0 1.000000
  0 -0.539100 2.521600 0.129100 0.099797 0.371691 -0.922977 0.399800 0.389400 1 0 1.000000
round
  0 1.117800 2.904100 0.129100 0.039100 0.286798 -0.957193 0.179900 0.389400 1 0 1.000000
  0 1.167300 2.689900 0.129100 0.191802 -0.374405 -0.907211 0.179900 0.335900 1 0 1.000000
  0 -0.489700 2.307400 0.129100 0.251105 -0.283806 -0.925419 0.399800 0.335900 1 0 1.000000
round
  0 2.331600 3.071500 0.431100 0.974361 0.224991 0.000000 0.022000 0.389400 1 0 1.000000
  0 1.167300 2.689900 0.129100 0.191802 -0.374405 -0.907211 0.179900 0.335900 1 0 1.000000
  0 1.117800 2.904100 0.129100 0.039100 0.286798 -0.957193 0.179900 0.389400 1 0 1.000000
round
  0 2.331600 3.071500 0.431100 0.974361 0.224991 0.000000 0.022000 0.389400 1 0 1.000000
  0 1.117800 2.904100 0.129100 0.039100 0.286798 -0.957193 0.179900 0.389400 1 0 1.000000
  0 1.080000 3.068200 0.270400 -0.085000 0.824597 -0.559298 0.179900 0.442800 1 0 1.000000
round
  0 1.080000 3.068200 0.270400 -0.085000 0.824597 -0.559298 0.179900 0.442800 1 0 1.000000
  0 1.117800 2.904100 0.129100 0.039100 0.286798 -0.957193 0.179900 0.389400 1 0 1.000000
  0 -0.539100 2.521600 0.129100 0.099797 0.371691 -0.922977 0.399800 0.389400 1 0 1.000000
round
  0 1.080000 3.068200 0.270400 -0.085000 0.824597 -0.559298 0.179900 0.442800 1 0 1.000000
  0 -0.539100 2.521600 0.129100 0.099797 0.371691 -0.922977 0.399800 0.389400 1 0 1.000000
  0 -0.577000 2.685600 0.270400 -0.015800 0.872307 -0.488704 0.399800 0.442800 1 0 1.000000
round
  0 -0.577000 2.685600 0.270400 -0.015800 0.872307 -0.488704 0.399800 0.442800 1 0 1.000000
  0 -0.539100 2.521600 0.129100 0.099797 0.371691 -0.922977 0.399800 0.389400 1 0 1.000000
  0 -0.836900 2.492300 0.023400 0.100200 0.365000 -0.925600 0.438200 0.389400 1 0 1.000000
round
  0 -0.577000 2.685600 0.270400 -0.015800 0.872307 -0.488704 0.399800 0.442800 1 0 1.000000
  0 -0.836900 2.492300 0.023400 0.100200 0.365000 -0.925600 0.438200 0.389400 1 0 1.000000
  0 -0.888000 2.713800 0.214100 -0.016100 0.868800 -0.494900 0.438200 0.461300 1 0 1.000000
round
  0 -0.514400 2.414500 0.752400 0.177001 0.037200 0.983507 0.399800 0.677200 1 0 1.000000
  0 -0.866200 2.619400 0.763400 0.032299 0.659187 0.751285 0.438200 0.605200 1 0 1.000000
  0 -0.803500 2.347700 0.864900 0.174302 0.043901 0.983713 0.438200 0.677200 1 0 1.000000
round
  0 -0.514400 2.414500 0.752400 0.177001 0.037200 0.983507 0.399800 0.677200 1 0 1.000000
  0 -0.560800 2.615700 0.677200 0.034600 0.654001 0.755702 0.399800 0.623800 1 0 1.000000
  0 -0.866200 2.619400 0.763400 0.032299 0.659187 0.751285 0.438200 0.605200 1 0 1.000000
round
  0 1.142600 2.797000 0.752400 0.083602 0.094303 0.992027 0.179900 0.677200 1 0 1.000000
  0 -0.560800 2.615700 0.677200 0.034600 0.654001 0.755702 0.399800 0.623800 1 0 1.000000
  0 -0.514400 2.414500 0.752400 0.177001 0.037200 0.983507 0.399800 0.677200 1 0 1.000000
round
  0 1.142600 2.797000 0.752400 0.083602 0.094303 0.992027 0.179900 0.677200 1 0 1.000000
  0 1.096100 2.998300 0.677200 -0.055997 0.698963 0.712962 0.179900 0.623800 1 0 1.000000
  0 -0.560800 2.615700 0.677200 0.034600 0.654001 0.755702 0.399800 0.623800 1 0 1.000000
round
  0 2.331600 3.071500 0.431100 0.974361 0.224991 0.000000 0.022000 0.677200 1 0 1.000000
  0 1.096100 2.998300 0.677200 -0.055997 0.698963 0.712962 0.179900 0.623800 1 0 1.000000
  0 1.142600 2.797000 0.752400 0.083602 0.094303 0.992027 0.179900 0.677200 1 0 1.000000
round
  0 2.331600 3.071500 0.431100 0.974361 0.224991 0.000000 0.022000 0.677200 1 0 1.000000
  0 1.142600 2.797000 0.752400 0.083602 0.094303 0.992027 0.179900 0.677200 1 0 1.000000
  0 1.189000 2.595700 0.677200 0.230899 -0.543697 0.806895 0.179900 0.730600 1 0 1.000000
round
  0 1.189000 2.595700 0.677200 0.230899 -0.543697 0.806895 0.179900 0.730600 1 0 1.000000
  0 1.142600 2.797000 0.752400 0.083602 0.094303 0.992027 0.179900 0.677200 1 0 1.000000
  0 -0.514400 2.414500 0.752400 0.177001 0.037200 0.983507 0.399800 0.677200 1 0 1.000000
round
  0 1.189000 2.595700 0.677200 0.230899 -0.543697 0.806895 0.179900 0.730600 1 0 1.000000
  0 -0.514400 2.414500 0.752400 0.177001 0.037200 0.983507 0.399800 0.677200 1 0 1.000000
  0 -0.467900 2.213200 0.677200 0.319001 -0.578001 0.751101 0.399800 0.730600 1 0 1.000000
round
  0 -0.467900 2.213200 0.677200 0.319001 -0.578001 0.751101 0.399800 0.730600 1 0 1.000000
  0 -0.514400 2.414500 0.752400 0.177001 0.037200 0.983507 0.399800 0.677200 1 0 1.000000
  0 -0.803500 2.347700 0.864900 0.174302 0.043901 0.983713 0.438200 0.677200 1 0 1.000000
round
  0 -0.467900 2.213200 0.677200 0.319001 -0.578001 0.751101 0.399800 0.730600 1 0 1.000000
  0 -0.803500 2.347700 0.864900 0.174302 0.043901 0.983713 0.438200 0.677200 1 0 1.000000
  0 -0.740800 2.076000 0.763400 0.316788 -0.572978 0.755871 0.438200 0.749700 1 0 1.000000
round
  0 -0.740800 2.076000 0.763400 0.316788 -0.572978 0.755871 0.438200 0.749700 1 0 1.000000
  0 -0.803500 2.347700 0.864900 0.174302 0.043901 0.983713 0.438200 0.677200 1 0 1.000000
  0 -3.925800 1.626900 0.857700 0.024900 -0.117902 0.992713 0.852600 0.677200 1 0 1.000000
round
  0 -0.740800 2.076000 0.763400 0.316788 -0.572978 0.755871 0.438200 0.749700 1 0 1.000000
  0 -3.925800 1.626900 0.857700 0.024900 -0.117902 0.992713 0.852600 0.677200 1 0 1.000000
  0 -3.864100 1.359700 0.757900 0.162100 -0.712202 0.683002 0.852600 0.749400 1 0 1.000000
round
  0 -0.707400 1.931400 0.506400 0.392904 -0.902909 0.174302 0.438200 0.826800 1 0 1.000000
  0 -0.740800 2.076000 0.763400 0.316788 -0.572978 0.755871 0.438200 0.749700 1 0 1.000000
  0 -3.864100 1.359700 0.757900 0.162100 -0.712202 0.683002 0.852600 0.749400 1 0 1.000000
round
  0 -0.707400 1.931400 0.506400 0.392904 -0.902909 0.174302 0.438200 0.826800 1 0 1.000000
  0 -3.864100 1.359700 0.757900 0.162100 -0.712202 0.683002 0.852600 0.749400 1 0 1.000000
  0 -3.831200 1.217500 0.505100 0.222394 -0.973471 0.053798 0.852600 0.826200 1 0 1.000000
round
  0 2.331600 3.071500 0.431100 0.974361 0.224991 0.000000 0.022000 0.787500 1 0 1.000000
  0 1.189000 2.595700 0.677200 0.230899 -0.543697 0.806895 0.179900 0.759800 1 0 1.000000
  0 1.213800 2.488600 0.486900 0.316895 -0.916485 0.244196 0.179900 0.816600 1 0 1.000000
round
  0 1.213800 2.488600 0.486900 0.316895 -0.916485 0.244196 0.179900 0.816600 1 0 1.000000
  0 1.189000 2.595700 0.677200 0.230899 -0.543697 0.806895 0.179900 0.759800 1 0 1.000000
  0 -0.467900 2.213200 0.677200 0.319001 -0.578001 0.751101 0.399800 0.759800 1 0 1.000000
round
  0 1.213800 2.488600 0.486900 0.316895 -0.916485 0.244196 0.179900 0.816600 1 0 1.000000
  0 -0.467900 2.213200 0.677200 0.319001 -0.578001 0.751101 0.399800 0.759800 1 0 1.000000
  0 -0.443200 2.106100 0.486900 0.394189 -0.903674 0.167295 0.399800 0.816600 1 0 1.000000
round
  0 -0.443200 2.106100 0.486900 0.394189 -0.903674 0.167295 0.399800 0.816600 1 0 1.000000
  0 -0.467900 2.213200 0.677200 0.319001 -0.578001 0.751101 0.399800 0.759800 1 0 1.000000
  0 -0.740800 2.076000 0.763400 0.316788 -0.572978 0.755871 0.438200 0.749700 1 0 1.000000
round
  0 -0.443200 2.106100 0.486900 0.394189 -0.903674 0.167295 0.399800 0.816600 1 0 1.000000
  0 -0.740800 2.076000 0.763400 0.316788 -0.572978 0.755871 0.438200 0.749700 1 0 1.000000
  0 -0.707400 1.931400 0.506400 0.392904 -0.902909 0.174302 0.438200 0.826800 1 0 1.000000
round
  0 -2.450800 -1.033700 0.245200 -0.266395 -0.921782 -0.281694 0.950700 0.772600 1 0 1.000000
  0 -2.449700 -1.116300 0.525000 -0.266300 -0.927599 -0.262000 0.914100 0.785500 1 0 1.000000
  0 -2.837100 -0.974300 0.416400 -0.266300 -0.927599 -0.262000 0.924800 0.677000 1 0 1.000000
round
  0 -2.449700 -1.116300 0.525000 -0.266300 -0.927599 -0.262000 0.914100 0.785500 1 0 1.000000
  0 -2.629000 -1.129700 0.754900 -0.266300 -0.927599 -0.262000 0.882100 0.749900 1 0 1.000000
  0 -2.837100 -0.974300 0.416400 -0.266300 -0.927599 -0.262000 0.924800 0.677000 1 0 1.000000
round
  0 -2.629000 -1.129700 0.754900 -0.266300 -0.927599 -0.262000 0.882100 0.749900 1 0 1.000000
  0 -2.904800 -1.067700 0.827100 -0.275404 -0.926614 -0.256004 0.869700 0.677200 1 0 1.000000
  0 -2.837100 -0.974300 0.416400 -0.266300 -0.927599 -0.262000 0.924800 0.677000 1 0 1.000000
round
  0 -2.904800 -1.067700 0.827100 -0.275404 -0.926614 -0.256004 0.869700 0.677200 1 0 1.000000
  0 -3.148100 -0.959200 0.708000 -0.285803 -0.923210 -0.256903 0.882500 0.605000 1 0 1.000000
  0 -2.837100 -0.974300 0.416400 -0.266300 -0.927599 -0.262000 0.924800 0.677000 1 0 1.000000
round
  0 -3.148100 -0.959200 0.708000 -0.285803 -0.923210 -0.256903 0.882500 0.605000 1 0 1.000000
  0 -3.245100 -0.855100 0.453300 -0.292588 -0.918962 -0.264389 0.915900 0.568100 1 0 1.000000
  0 -2.837100 -0.974300 0.416400 -0.266300 -0.927599 -0.262000 0.924800 0.677000 1 0 1.000000
round
  0 -3.245100 -0.855100 0.453300 -0.292588 -0.918962 -0.264389 0.915900 0.568100 1 0 1.000000
  0 -3.150300 -0.804000 0.182000 -0.292600 -0.915899 -0.274800 0.953600 0.581400 1 0 1.000000
  0 -2.837100 -0.974300 0.416400 -0.266300 -0.927599 -0.262000 0.924800 0.677000 1 0 1.000000
round
  0 -3.150300 -0.804000 0.182000 -0.292600 -0.915899 -0.274800 0.953600 0.581400 1 0 1.000000
  0 -2.908100 -0.829800 0.021300 -0.285890 -0.915369 -0.283490 0.978000 0.639800 1 0 1.000000
  0 -2.837100 -0.974300 0.416400 -0.266300 -0.927599 -0.262000 0.924800 0.677000 1 0 1.000000
round
  0 -2.908100 -0.829800 0.021300 -0.285890 -0.915369 -0.283490 0.978000 0.639800 1 0 1.000000
  0 -2.631900 -0.920500 0.046200 -0.275502 -0.917707 -0.286202 0.977100 0.716300 1 0 1.000000
  0 -2.837100 -0.974300 0.416400 -0.266300 -0.927599 -0.262000 0.924800 0.677000 1 0 1.000000
round
  0 -2.631900 -0.920500 0.046200 -0.275502 -0.917707 -0.286202 0.977100 0.716300 1 0 1.000000
  0 -2.450800 -1.033700 0.245200 -0.266395 -0.921782 -0.281694 0.950700 0.772600 1 0 1.000000
  0 -2.837100 -0.974300 0.416400 -0.266300 -0.927599 -0.262000 0.924800 0.677000 1 0 1.000000
round
  0 -3.831200 1.217500 0.505100 -0.971132 -0.238408 0.008000 0.914100 0.785500 1 0 1.000000
  0 -3.864100 1.359700 0.757900 -0.971132 -0.238408 0.008000 0.882100 0.749900 1 0 1.000000
  0 -3.932000 1.625400 0.431100 -0.971132 -0.238408 0.008000 0.924800 0.677000 1 0 1.000000
round
  0 -3.864100 1.359700 0.757900 -0.971132 -0.238408 0.008000 0.882100 0.749900 1 0 1.000000
  0 -3.925800 1.626900 0.857700 -0.973004 -0.230301 0.015000 0.869700 0.677200 1 0 1.000000
  0 -3.932000 1.625400 0.431100 -0.971132 -0.238408 0.008000 0.924800 0.677000 1 0 1.000000
round
  0 -3.925800 1.626900 0.857700 -0.973004 -0.230301 0.015000 0.869700 0.677200 1 0 1.000000
  0 -3.987400 1.894100 0.757900 -0.975476 -0.219595 0.015000 0.882500 0.605000 1 0 1.000000
  0 -3.932000 1.625400 0.431100 -0.971132 -0.238408 0.008000 0.924800 0.677000 1 0 1.000000
round
  0 -3.987400 1.894100 0.757900 -0.975476 -0.219595 0.015000 0.882500 0.605000 1 0 1.000000
  0 -4.020300 2.036200 0.505100 -0.977368 -0.211393 0.008000 0.915900 0.568100 1 0 1.000000
  0 -3.932000 1.625400 0.431100 -0.971132 -0.238408 0.008000 0.924800 0.677000 1 0 1.000000
round
  0 -4.020300 2.036200 0.505100 -0.977368 -0.211393 0.008000 0.915900 0.568100 1 0 1.000000
  0 -4.008900 1.986900 0.217800 -0.977784 -0.209597 -0.002800 0.953600 0.581400 1 0 1.000000
  0 -3.932000 1.625400 0.431100 -0.971132 -0.238408 0.008000 0.924800 0.677000 1 0 1.000000
round
  0 -4.008900 1.986900 0.217800 -0.977784 -0.209597 -0.002800 0.953600 0.581400 1 0 1.000000
  0 -3.958600 1.769100 0.030200 -0.976562 -0.214892 -0.012200 0.978000 0.639800 1 0 1.000000
  0 -3.932000 1.625400 0.431100 -0.971132 -0.238408 0.008000 0.924800 0.677000 1 0 1.000000
round
  0 -3.958600 1.769100 0.030200 -0.976562 -0.214892 -0.012200 0.978000 0.639800 1 0 1.000000
  0 -3.892900 1.484700 0.030200 -0.974248 -0.224911 -0.016001 0.977100 0.716300 1 0 1.000000
  0 -3.932000 1.625400 0.431100 -0.971132 -0.238408 0.008000 0.924800 0.677000 1 0 1.000000
round
  0 -3.892900 1.484700 0.030200 -0.974248 -0.224911 -0.016001 0.977100 0.716300 1 0 1.000000
  0 -3.842600 1.266900 0.217800 -0.971939 -0.234910 -0.012300 0.950700 0.772600 1 0 1.000000
  0 -3.932000 1.625400 0.431100 -0.971132 -0.238408 0.008000 0.924800 0.677000 1 0 1.000000
round
  0 -3.842600 1.266900 0.217800 -0.971939 -0.234910 -0.012300 0.950700 0.772600 1 0 1.000000
  0 -3.831200 1.217500 0.505100 -0.971132 -0.238408 0.008000 0.914100 0.785500 1 0 1.000000
  0 -3.932000 1.625400 0.431100 -0.971132 -0.238408 0.008000 0.924800 0.677000 1 0 1.000000
end
