versioninfo
{
	"editorversion" "400"
	"editorbuild" "9185"
	"mapversion" "4"
	"prefab" "0"
}
viewsettings
{
	"bSnapToGrid" "1"
	"bShowGrid" "1"
	"nGridSpacing" "64"
	"bShow3DGrid" "0"
}
world
{
	"id" "0"
	"mapversion" "4"
	"classname" "worldspawn"
	"skyname" "sky_wasteland02"
	solid
	{
		"id" "37"
		side
		{
			"id" "1"
			"plane" "(-512 960 -192) (768 960 -192) (768 0 -192)"
			"material" "NATURE/BLENDROCKSGRASS005A"
			"uaxis" "[1 0 0 256] 0.25"
			"vaxis" "[0 -1 0 -256] 0.25"
			"rotation" "0"
			"lightmapscale" "16"
			"smoothing_groups" "0"
			dispinfo
			{
				"power" "3"
				"startposition" "[-512 0 -192]"
				"elevation" "0"
				"subdiv" "1"
				normals
				{
					"row0" "0 0.863495 -0.504357 0 1 0 0.917374 -0.398026 0 0.922923 0.344848 -0.171151 0.500156 0.830516 -0.245127 0 0.991887 -0.127124 0 1 0 0 0.999449 -0.0331914 0 0.999999 -0.00103119"
					"row1" "0 0.88912 -0.457675 0 0.969082 -0.24674 0.800795 -0.598938 0 0.973618 0.19526 -0.118076 0.610841 0.756766 -0.232761 0.00359537 0.994069 -0.108693 0 1 0 0 0.998475 -0.0552107 0 0.95593 0.293596"
					"row2" "0 0.583065 -0.812425 0 0.187754 -0.982216 0.137735 -0.990469 0 0.753787 -0.657119 0 0.974786 0.186762 -0.122113 0 1 0 0 1 0 0 0.995379 -0.0960259 0 0.950242 0.311513"
					"row3" "0 0.115597 -0.993296 0 0.0147172 -0.999892 0 -0.270718 -0.962659 0.119283 -0.675705 -0.727457 0 -1 0 0 -1 0 0 -1 0 0 0.956053 -0.293194 0 0.815813 -0.578315"
					"row4" "0 0 1 -0.00022384 0 -1 0 0 -1 0 -0.108543 -0.994092 0 0.101139 -0.994872 0 0.000157692 -1 0 0.0304212 -0.999537 0 0.128327 -0.991732 0 0.166725 -0.986003"
					"row5" "0 0 -1 0 0 0.999794 0 -0.00804288 0.999968 0 0.00092466 -1 0 -0.00218089 -0.999998 0 -0.000873128 -1 0 -0.00209502 -0.999998 0 -0.000981342 -0.999999 0 -0.0365956 -0.99933"
					"row6" "0 0 -1 0 0 -1 0 0 1 0 0.0386174 -0.999254 0 0.123984 -0.992284 0 -0.0392366 0.99923 0 0 -1 0 0.010722 -0.999942 0 0.600033 -0.799975"
					"row7" "0 0 -0.999999 0 0 1 0 -0.062384 0.998052 0 0 -1 0 -0.15438 0.988011 0 0 1 0 -0.184288 0.982872 0 0 -1 0 -0.658473 0.752604"
					"row8" "0 0 1 0 -0.124055 0.992275 0 -0.242527 0.970145 0 -0.351062 0.936352 0 -0.447235 0.894417 0 0.529833 -0.848102 0 0.599928 -0.800054 0 -0.658512 0.75257 0 -0.707082 0.707132"
				}
				distances
				{
					"row0" "174.812 62.0769 39.7106 89.5008 94.4637 112.625 115.993 241.026 309.914"
					"row1" "135.051 41.9213 54.2259 77.5203 84.7578 90.9066 94.592 184.667 291.864"
					"row2" "115.523 24.4345 31.4982 48.3208 17.2675 31.0412 43.0853 107.043 195.989"
					"row3" "81.517 88.0096 49.8619 21.9944 37.1123 3.27603 0.950073 27.2857 105.343"
					"row4" "1.54829 8.31653 86.5579 72.4279 88.4536 40.0601 9.38563 48.4002 114.537"
					"row5" "3.59492 0.000579834 3.0279 74.1272 53.5378 124.639 116.388 155.24 120.996"
					"row6" "0.867004 2.86472 9.79985 1.33869 4.17456 4.62782 9.1154 67.7182 3.21536"
					"row7" "0.227097 6.17938 2.67097 8.07185 1.37703 4.11711 4.41151 0.705475 2.99339"
					"row8" "6.05661 2.11068 8.73877 4.55232 6.59529 2.90147 5.30541 6.99978 4.90227"
				}
				offsets
				{
					"row0" "0 0 0 0 75.0476 -75.0476 0 110.303 -110.303 0 128.807 -128.807 0 134.689 -134.689 0 128.807 -128.807 0 110.303 -110.303 0 75.0476 -75.0476 0 0 0"
					"row1" "0 0 0 0 35.042 -35.042 0 62.4683 -62.4683 0 78.4142 -78.4142 0 83.551 -83.551 0 78.4142 -78.4142 0 62.4683 -62.4683 0 35.042 -35.042 0 0 0"
					"row2" "0 0 0 0 18.5925 -18.5925 0 33.6942 -33.6942 0 44.3994 -44.3994 0 47.8821 -47.8821 0 44.3994 -44.3994 0 33.6942 -33.6942 0 18.5925 -18.5925 0 0 0"
					"row3" "0 0 0 0 9.63522 -9.63524 0 17.7502 -17.7502 0 23.0633 -23.0633 0 24.928 -24.928 0 23.0633 -23.0633 0 17.7502 -17.7502 0 9.63522 -9.63524 0 0 0"
					"row4" "0 0 0 0 4.78271 -4.78271 0 8.56567 -8.56567 0 10.7007 -10.7007 0 10.8911 -10.8911 0 10.7007 -10.7007 0 8.56567 -8.56567 0 4.78271 -4.78271 0 0 0"
					"row5" "0 0 0 0 1.9679 -1.96793 0 3.44971 -3.44971 0 4.06909 -4.06906 0 4.13818 -4.13818 0 4.06909 -4.06906 0 3.44971 -3.44971 0 1.9679 -1.96793 0 0 0"
					"row6" "0 0 0 0 0.541992 -0.541992 0 0.847778 -0.847778 0 1.10596 -1.10596 0 1.06567 -1.06567 0 1.10596 -1.10596 0 0.847778 -0.847778 0 0.541992 -0.541992 0 0 0"
					"row7" "0 0 0 0 0.0443726 -0.0444031 0 0.0732422 -0.0732422 0 0.0929565 -0.092926 0 0.0952148 -0.0952148 0 0.0929565 -0.092926 0 0.0732422 -0.0732422 0 0.0443726 -0.0444031 0 0 0"
					"row8" "0 0 0 0 0 0 0 0 0 0 0 0 0 0 0 0 0 0 0 0 0 0 0 0 0 0 0"
				}
				offset_normals
				{
					"row0" "0 0 1 0.150509 -0.419779 0.89506 0.061036 -0.408325 0.910794 0.0646299 -0.561373 0.825035 0 -0.316228 0.948683 -0.0667089 -0.567668 0.82055 -0.0686206 -0.442854 0.893964 -0.166138 -0.463938 0.870149 0 0 1"
					"row1" "0 0 1 0.0933407 -0 0.995634 0.050341 -0.180307 0.897938 0.0619512 -0.413008 0.908618 -0.000433645 -0.323206 0.863415 -0.0636858 -0.488258 0.870373 -0.0611433 -0.396866 0.86852 -0.123195 -0.410651 0.903432 0 -0.125 1"
					"row2" "0 0 1 0.0291929 0 0.99884 0 0 1 0.0154878 -0.164366 0.956995 0 -0.141557 0.924671 -0.0159214 -0.282033 0.931752 0 -0.316228 0.948683 -0.0372279 -0.269936 0.961619 0 -0.25 1"
					"row3" "0 0 1 0.0234311 -0 0.999725 0.00585777 -0.0257248 0.998604 0 -0.102899 0.994692 0 -0.106636 0.975661 0 -0.182089 0.983282 -0.00642907 -0.20131 0.978375 -0.0257163 -0.102865 0.994363 0 -0.375 1"
					"row4" "0 0 1 0.00585777 0 0.999931 0 0 1 0 -0.0337851 0.998543 0 0 1 0 -0.104597 0.992483 0 -0.204057 0.987171 -0.00642907 -0.209791 0.995253 0 -0.5 1"
					"row5" "0 0 1 0 0 1 0 -0.00806032 0.99987 0 -0.0322413 0.99948 0 -0.0473706 0.99974 0 -0.0322413 0.99948 0 -0.0671349 0.996533 0 -0.0322413 0.99948 0 -0.625 1"
					"row6" "0 0 1 0 0 1 0 0 1 0 -0.0393103 0.99987 0 -0.125 1 0 -0.0393103 0.99987 0 0 1 0 -0.19556 0.99987 0 -0.75 1"
					"row7" "0 0 1 0 0 1 0 -0.0625 1 0 0 1 0 -0.15625 1 0 0 1 0 -0.1875 1 0 0 1 0 -0.875 1"
					"row8" "0 0 1 0 -0.125 1 0 -0.25 1 0 -0.375 1 0 -0.5 1 0 -0.625 1 0 -0.75 1 0 -0.875 1 0 -1 1"
				}
				alphas
				{
					"row0" "0 0 0 0 0 0 0 0 0"
					"row1" "0 0 0 0 0 0 0 0 0"
					"row2" "0 0 0 0 0 0 0 0 0"
					"row3" "0 0 0 0 0 0 0 0 0"
					"row4" "0 0 0 0 0 0 0 0 0"
					"row5" "0 0 0 0 0 0 0 0 0"
					"row6" "0 0 0 0 0 0 0 0 0"
					"row7" "0 0 0 0 0 0 0 0 0"
					"row8" "0 0 0 0 0 0 0 0 0"
				}
				triangle_tags
				{
					"row0" "9 9 9 1 1 0 0 0 1 0 0 1 1 0 0 0"
					"row1" "9 9 9 9 9 1 1 0 0 0 0 1 9 9 9 0"
					"row2" "9 9 9 9 9 9 9 9 9 9 9 9 9 9 9 0"
					"row3" "1 1 1 9 9 9 9 9 9 9 9 9 9 9 9 1"
					"row4" "9 9 9 1 1 9 9 9 9 9 9 1 1 1 1 9"
					"row5" "9 9 9 9 9 9 9 9 9 0 0 1 1 1 1 1"
					"row6" "9 9 9 9 9 9 9 9 9 9 9 9 9 9 9 9"
					"row7" "9 9 9 9 9 9 9 9 9 9 9 9 9 9 9 9"
				}
			}
		}
		side
		{
			"id" "2"
			"plane" "(-512 0 -1152) (768 0 -1152) (768 960 -1152)"
			"material" "NATURE/BLENDROCKSGRASS005A"
			"uaxis" "[1 0 0 256] 0.25"
			"vaxis" "[0 -1 0 -256] 0.25"
			"rotation" "0"
			"lightmapscale" "16"
			"smoothing_groups" "0"
			dispinfo
			{
				"power" "3"
				"startposition" "[-512 0 -1152]"
				"elevation" "0"
				"subdiv" "0"
				normals
				{
					"row0" "0 1 0 0 1 0 0.0738739 0.997268 0 0.178507 0.983939 0 0.322758 0.946482 0 0 -1 0 0 -1 0 0 -1 0 0 -1 0"
					"row1" "0 -1 0 0.338489 0.94097 0 0.401308 0.915943 0 0.645026 0.764161 0 0.663728 -0.747974 0 0.0391069 -0.999235 0 0 -1 0 0 -1 0 0 -1 0"
					"row2" "0.0118661 -0.99993 0 0.116245 -0.993221 0 0.360856 -0.926705 -0.104886 0.335002 -0.936363 -0.10487 0.264301 -0.961337 -0.0773032 0.0953165 -0.995447 0 0 -1 0 0 -1 0 0 -1 0"
					"row3" "0.00577637 -0.999983 0 0.0300695 -0.999524 -0.00690637 0.124149 -0.985743 -0.113564 0.148991 -0.982169 -0.114659 0.110612 -0.990396 -0.0829507 0.111568 -0.993608 -0.0172222 0.0235591 -0.999722 0 0 -1 0 0 -1 0"
					"row4" "0 -1 0 0.00776772 -0.99997 0 0.0224389 -0.99882 -0.043072 0.0650751 -0.995098 -0.0744674 0.0699265 -0.996609 -0.0433639 0.0630454 -0.998011 0 0 -1 0 0 -1 0 0 -1 0"
					"row5" "0 -1 0 0 -1 0 0 -1 0 0 -1 0 0 -1 0 0 -1 0 0 -1 0 0 -1 0 0 -1 0"
					"row6" "0 -1 0 0 -1 0 0 -1 0 0 -1 0 0 -1 0 0 -1 0 0 -1 0 0 -1 0 0 -1 0"
					"row7" "0 -1 0 0 -1 0 0 -1 0 0 -1 0 0 -1 0 0 -1 0 0 -1 0 0 -1 0 0 -1 0"
					"row8" "0 1 0 0 1 0 0 1 0 0 -1 0 0 -1 0 0 -1 0 0 -1 0 0 -1 0 0 -1 0"
				}
				distances
				{
					"row0" "0.259678 66.5271 138.81 99.4437 31.7714 37.7458 59.1348 53.0999 27.5172"
					"row1" "39.3234 27.7991 85.1566 58.3223 37.5658 95.0374 129.757 158.635 125.7"
					"row2" "159.784 133.645 89.0204 139.402 120.785 89.1851 113.387 156.837 143.268"
					"row3" "396.609 416.424 164.883 209.316 225.733 166.993 116.385 142.449 143.393"
					"row4" "398.29 395.79 216.777 196.314 215.318 156.78 166.107 195.686 163.547"
					"row5" "245.118 189.453 185.924 242.07 256.762 181.384 195.252 188.223 119.357"
					"row6" "50.0632 113.707 193.29 274.336 331.303 305.342 183.994 158.852 119.617"
					"row7" "10.7986 44.4412 113.462 173.59 201.807 146.482 155.999 168.838 156.043"
					"row8" "14.6584 32.2094 13.7551 11.407 34.7971 69.5557 123.822 161.01 134.76"
				}
				offsets
				{
					"row0" "0 0 0 0 0 0 0 0 0 0 0 0 0 0 0 0 0 0 0 0 0 0 0 0 0 0 0"
					"row1" "0 0 0 0 0 0 0 0 0 0 0 0 0 0 0 0 0 0 0 0 0 0 0 0 0 0 0"
					"row2" "0 0 0 0 0 0 0 0 0 0 0 0 0 0 0 0 0 0 0 0 0 0 0 0 0 0 0"
					"row3" "0 0 0 0 0 0 0 0 0 0 0 0 0 0 0 0 0 0 0 0 0 0 0 0 0 0 0"
					"row4" "0 0 0 0 0 0 0 0 0 0 0 0 0 0 0 0 0 0 0 0 0 0 0 0 0 0 0"
					"row5" "0 0 0 0 0 0 0 0 0 0 0 0 0 0 0 0 0 0 0 0 0 0 0 0 0 0 0"
					"row6" "0 0 0 0 0 0 0 0 0 0 0 0 0 0 0 0 0 0 0 0 0 0 0 0 0 0 0"
					"row7" "0 0 0 0 0 0 0 0 0 0 0 0 0 0 0 0 0 0 0 0 0 0 0 0 0 0 0"
					"row8" "0 0 0 0 0 0 0 0 0 0 0 0 0 0 0 0 0 0 0 0 0 0 0 0 0 0 0"
				}
				offset_normals
				{
					"row0" "0 0 -1 0 0 -1 0 0 -1 0 0 -1 0 0 -1 0 0 -1 0 0 -1 0 0 -1 0 0 -1"
					"row1" "0 0 -1 0 0 -1 0 0 -1 0 0 -1 0 0 -1 0 0 -1 0 0 -1 0 0 -1 0 0 -1"
					"row2" "0 0 -1 0 0 -1 0 0 -1 0 0 -1 0 0 -1 0 0 -1 0 0 -1 0 0 -1 0 0 -1"
					"row3" "0 0 -1 0 0 -1 0 0 -1 0 0 -1 0 0 -1 0 0 -1 0 0 -1 0 0 -1 0 0 -1"
					"row4" "0 0 -1 0 0 -1 0 0 -1 0 0 -1 0 0 -1 0 0 -1 0 0 -1 0 0 -1 0 0 -1"
					"row5" "0 0 -1 0 0 -1 0 0 -1 0 0 -1 0 0 -1 0 0 -1 0 0 -1 0 0 -1 0 0 -1"
					"row6" "0 0 -1 0 0 -1 0 0 -1 0 0 -1 0 0 -1 0 0 -1 0 0 -1 0 0 -1 0 0 -1"
					"row7" "0 0 -1 0 0 -1 0 0 -1 0 0 -1 0 0 -1 0 0 -1 0 0 -1 0 0 -1 0 0 -1"
					"row8" "0 0 -1 0 0 -1 0 0 -1 0 0 -1 0 0 -1 0 0 -1 0 0 -1 0 0 -1 0 0 -1"
				}
				alphas
				{
					"row0" "0 0 0 0 0 0 0 0 0"
					"row1" "0 0 0 0 0 0 0 0 0"
					"row2" "0 0 0 0 0 0 0 0 0"
					"row3" "0 0 0 0 0 0 0 0 0"
					"row4" "0 0 0 0 0 0 0 0 0"
					"row5" "0 0 0 0 0 0 0 0 0"
					"row6" "0 0 0 0 0 0 0 0 0"
					"row7" "0 0 0 0 0 0 0 0 0"
					"row8" "0 0 0 0 0 0 0 0 0"
				}
				triangle_tags
				{
					"row0" "0 0 0 0 0 0 0 0 0 0 0 0 0 0 0 0"
					"row1" "0 0 0 0 0 0 0 0 0 0 0 0 0 0 0 0"
					"row2" "0 0 0 0 0 0 0 0 0 0 0 0 0 0 0 0"
					"row3" "0 0 0 0 0 0 0 0 0 0 0 0 0 0 0 0"
					"row4" "0 0 0 0 0 0 0 0 0 0 0 0 0 0 0 0"
					"row5" "0 0 0 0 0 0 0 0 0 0 0 0 0 0 0 0"
					"row6" "0 0 0 0 0 0 0 0 0 0 0 0 0 0 0 0"
					"row7" "0 0 0 0 0 0 0 0 0 0 0 0 0 0 0 0"
				}
			}
		}
		side
		{
			"id" "3"
			"plane" "(-512 960 -192) (-512 0 -192) (-512 0 -1152)"
			"material" "NATURE/BLENDROCKSGRASS005A"
			"uaxis" "[0 1 0 256] 0.25"
			"vaxis" "[0 0 -1 -511.699] 0.25"
			"rotation" "0"
			"lightmapscale" "16"
			"smoothing_groups" "0"
			dispinfo
			{
				"power" "3"
				"startposition" "[-512 0 -1152]"
				"elevation" "0"
				"subdiv" "0"
				normals
				{
					"row0" "0 1 0 0 0.999999 0 0 0 0 0 -1 0 0 -1 0 0 -1 0 0 0 0 0 0 0 0 0 0"
					"row1" "0 1 0 0 1 0 0 1 0 0 1 0 0 1 0 0 1 0 0 1 0 0 0 0 0 0 0"
					"row2" "0.0738739 0.997268 0 0.0678019 0.997699 0 0.0553296 0.998468 0 0.0327482 0.999464 0 0.00234498 0.999997 0 0 1 0 0 1 0 0 1 0 0 1 0"
					"row3" "0.178507 0.983939 0 0.1536 0.988133 0 0.126478 0.99197 0 0.10757 0.994197 0 0.072074 0.997399 0 0.00928109 0.999957 0 0 1 0 0 1 0 0 1 0"
					"row4" "0.322758 0.946482 0 0.209457 0.977818 0 0.120119 0.992759 0 0.0718664 0.997414 0 0.00525793 0.999986 0 0 1 0 0 1 0 0 1 0 0 0 0"
					"row5" "0 -1 0 0 -1 0 0 1 0 0 1 0 0 0.999999 0 0 0 0 0 0 0 0 0 0 0 0 0"
					"row6" "0 -1 0 0 -1 0 0 0 0 0 0 0 0 0 0 0 0 0 0 0 0 0 0 0 0 0 0"
					"row7" "0 -1 0 0 -1 0 0 -1 0 0 0 0 0 0 0 0 0 0 0 0 0 0 0 0 0 0 0"
					"row8" "0 -1 0 0 -1 0 0 -1 0 0 0 0 0 0 0 0 0 0 0 0 0 0 0 0 0 0 0"
				}
				distances
				{
					"row0" "0.259678 0.0925641 0 5.58411 9.12259 5.58411 0 0 0"
					"row1" "66.5271 67.0561 59.4874 46.5596 31.2295 13.0117 1.64544 0 0"
					"row2" "138.81 140.721 133.753 116.978 93.8179 68.3012 41.3483 14.8885 1.0101"
					"row3" "99.4437 110.932 117.821 105.396 88.0095 68.5611 45.6669 20.1485 1.85995"
					"row4" "31.7714 45.5517 61.6098 53.3046 41.8418 28.9074 13.1693 1.578 0"
					"row5" "37.7458 16.1895 6.53638 3.45319 0.224548 0 0 0 0"
					"row6" "59.1348 32.8339 0 0 0 0 0 0 0"
					"row7" "53.0999 29.183 1.35938 0 0 0 0 0 0"
					"row8" "27.5172 17.098 3.11719 0 0 0 0 0 0"
				}
				offsets
				{
					"row0" "0 0 0 0 0 0 0 0 0 0 0 0 0 0 0 0 0 0 0 0 0 0 0 0 0 0 0"
					"row1" "0 0 0 0 0 0 0 0 0 0 0 0 0 0 0 0 0 0 0 0 0 0 0 0 0 0 0"
					"row2" "0 0 0 0 0 0 0 0 0 0 0 0 0 0 0 0 0 0 0 0 0 0 0 0 0 0 0"
					"row3" "0 0 0 0 0 0 0 0 0 0 0 0 0 0 0 0 0 0 0 0 0 0 0 0 0 0 0"
					"row4" "0 0 0 0 0 0 0 0 0 0 0 0 0 0 0 0 0 0 0 0 0 0 0 0 0 0 0"
					"row5" "0 0 0 0 0 0 0 0 0 0 0 0 0 0 0 0 0 0 0 0 0 0 0 0 0 0 0"
					"row6" "0 0 0 0 0 0 0 0 0 0 0 0 0 0 0 0 0 0 0 0 0 0 0 0 0 0 0"
					"row7" "0 0 0 0 0 0 0 0 0 0 0 0 0 0 0 0 0 0 0 0 0 0 0 0 0 0 0"
					"row8" "0 0 0 0 0 0 0 0 0 0 0 0 0 0 0 0 0 0 0 0 0 0 0 0 0 0 0"
				}
				offset_normals
				{
					"row0" "-1 0 0 -1 0 0 -1 0 0 -1 0 0 -1 0 0 -1 0 0 -1 0 0 -1 0 0 -1 0 0"
					"row1" "-1 0 0 -1 0 0 -1 0 0 -1 0 0 -1 0 0 -1 0 0 -1 0 0 -1 0 0 -1 0 0"
					"row2" "-1 0 0 -1 0 0 -1 0 0 -1 0 0 -1 0 0 -1 0 0 -1 0 0 -1 0 0 -1 0 0"
					"row3" "-1 0 0 -1 0 0 -1 0 0 -1 0 0 -1 0 0 -1 0 0 -1 0 0 -1 0 0 -1 0 0"
					"row4" "-1 0 0 -1 0 0 -1 0 0 -1 0 0 -1 0 0 -1 0 0 -1 0 0 -1 0 0 -1 0 0"
					"row5" "-1 0 0 -1 0 0 -1 0 0 -1 0 0 -1 0 0 -1 0 0 -1 0 0 -1 0 0 -1 0 0"
					"row6" "-1 0 0 -1 0 0 -1 0 0 -1 0 0 -1 0 0 -1 0 0 -1 0 0 -1 0 0 -1 0 0"
					"row7" "-1 0 0 -1 0 0 -1 0 0 -1 0 0 -1 0 0 -1 0 0 -1 0 0 -1 0 0 -1 0 0"
					"row8" "-1 0 0 -1 0 0 -1 0 0 -1 0 0 -1 0 0 -1 0 0 -1 0 0 -1 0 0 -1 0 0"
				}
				alphas
				{
					"row0" "0 0 0 0 0 0 0 0 0"
					"row1" "0 0 0 0 0 0 0 0 0"
					"row2" "0 0 0 0 0 0 0 0 0"
					"row3" "0 0 0 0 0 0 0 0 0"
					"row4" "0 0 0 0 0 0 0 0 0"
					"row5" "0 0 0 0 0 0 0 0 0"
					"row6" "0 0 0 0 0 0 0 0 0"
					"row7" "0 0 0 0 0 0 0 0 0"
					"row8" "0 0 0 0 0 0 0 0 0"
				}
				triangle_tags
				{
					"row0" "0 0 0 0 0 0 0 0 0 0 0 0 0 0 0 0"
					"row1" "0 0 0 0 0 0 0 0 0 0 0 0 0 0 0 0"
					"row2" "0 0 0 0 0 0 0 0 0 0 0 0 0 0 0 0"
					"row3" "0 0 0 0 0 0 0 0 0 0 0 0 0 0 0 0"
					"row4" "0 0 0 0 0 0 0 0 0 0 0 0 0 0 0 0"
					"row5" "0 0 0 0 0 0 0 0 0 0 0 0 0 0 0 0"
					"row6" "0 0 0 0 0 0 0 0 0 0 0 0 0 0 0 0"
					"row7" "0 0 0 0 0 0 0 0 0 0 0 0 0 0 0 0"
				}
			}
		}
		side
		{
			"id" "4"
			"plane" "(768 960 -1152) (768 0 -1152) (768 0 -192)"
			"material" "NATURE/BLENDROCKSGRASS005A"
			"uaxis" "[0 1 0 256] 0.25"
			"vaxis" "[0 0 -1 -511.699] 0.25"
			"rotation" "0"
			"lightmapscale" "16"
			"smoothing_groups" "0"
			dispinfo
			{
				"power" "3"
				"startposition" "[768 0 -1152]"
				"elevation" "0"
				"subdiv" "0"
				normals
				{
					"row0" "0 1 0 0 1 0 0 1 0 0 -1 0 0 -1 0 0 -1 0 0 -1 0 0 -1 0 0 -1 0"
					"row1" "0 -1 0 0 1 0 0 1 0 0 -1 0 0 -1 0 0 -1 0 0 -1 0 0 -1 0 0 -1 0"
					"row2" "0 -1 0 0 1 0 0 1 0 0 1 0 0 1 0 0 -1 0 0 -1 0 0 -1 0 0 -1 0"
					"row3" "0 1 0 0 1 0 0 1 0 0 1 0 0 0 0 0 0 0 0 -1 0 0 -1 0 0 -1 0"
					"row4" "0 1 0 0 1 0 0 1 0 0 1 0 0 0 0 0 -1 0 0 -1 0 0 -1 0 0 -1 0"
					"row5" "0 1 0 0 1 0 0 1 0 0 1 0 0 0 0 0 -1 0 0 -1 0 0 -1 0 0 -1 0"
					"row6" "0 1 0 0 1 0 0 1 0 0 1 0 0 0 0 0 -1 0 0 -1 0 0 -1 0 0 -1 0"
					"row7" "0 1 0 0 1 0 0 1 0 0 1 0 0 0 0 0 0 0 0 -1 0 0 -1 0 0 -1 0"
					"row8" "0 1 0 0 1 0 0 1 0 0 1 0 0 0 0 0 0 0 0 0 0 0 0 0 0 0 0"
				}
				distances
				{
					"row0" "14.6584 32.2094 13.7551 11.407 34.7971 69.5557 123.822 161.01 134.76"
					"row1" "3.24035 46.6855 25.756 2.21472 18.0894 49.7549 99.6852 147.508 111.49"
					"row2" "24.7843 55.7888 37.2806 12.39 0.300293 9.70392 25.6477 49.9053 39.9282"
					"row3" "22.7314 78.5616 43.8531 14.7328 0 0 2.18744 6.5025 4.02686"
					"row4" "91.0484 90.3471 49.2254 15.2958 0 3.72992 24.9377 40.2476 33.7872"
					"row5" "103.953 96.8656 52.3545 14.3484 0 11.6144 35.3608 52.5355 47.2149"
					"row6" "107.432 98.2382 52.0808 12.2169 0 3.72992 24.9377 40.2476 33.7872"
					"row7" "104.801 95.8918 48.6376 10.1555 0 0 0.389709 4.34698 1.93146"
					"row8" "95.9985 88.7803 42.9104 7.02734 0 0 0 0 0"
				}
				offsets
				{
					"row0" "0 0 0 0 0 0 0 0 0 0 0 0 0 0 0 0 0 0 0 0 0 0 0 0 0 0 0"
					"row1" "0 0 0 0 0 0 0 0 0 0 0 0 0 0 0 0 0 0 0 0 0 0 0 0 0 0 0"
					"row2" "0 0 0 0 0 0 0 0 0 0 0 0 0 0 0 0 0 0 0 0 0 0 0 0 0 0 0"
					"row3" "0 0 0 0 0 0 0 0 0 0 0 0 0 0 0 0 0 0 0 0 0 0 0 0 0 0 0"
					"row4" "0 0 0 0 0 0 0 0 0 0 0 0 0 0 0 0 0 0 0 0 0 0 0 0 0 0 0"
					"row5" "0 0 0 0 0 0 0 0 0 0 0 0 0 0 0 0 0 0 0 0 0 0 0 0 0 0 0"
					"row6" "0 0 0 0 0 0 0 0 0 0 0 0 0 0 0 0 0 0 0 0 0 0 0 0 0 0 0"
					"row7" "0 0 0 0 0 0 0 0 0 0 0 0 0 0 0 0 0 0 0 0 0 0 0 0 0 0 0"
					"row8" "0 0 0 0 0 0 0 0 0 0 0 0 0 0 0 0 0 0 0 0 0 0 0 0 0 0 0"
				}
				offset_normals
				{
					"row0" "1 0 0 1 0 0 1 0 0 1 0 0 1 0 0 1 0 0 1 0 0 1 0 0 1 0 0"
					"row1" "1 0 0 1 0 0 1 0 0 1 0 0 1 0 0 1 0 0 1 0 0 1 0 0 1 0 0"
					"row2" "1 0 0 1 0 0 1 0 0 1 0 0 1 0 0 1 0 0 1 0 0 1 0 0 1 0 0"
					"row3" "1 0 0 1 0 0 1 0 0 1 0 0 1 0 0 1 0 0 1 0 0 1 0 0 1 0 0"
					"row4" "1 0 0 1 0 0 1 0 0 1 0 0 1 0 0 1 0 0 1 0 0 1 0 0 1 0 0"
					"row5" "1 0 0 1 0 0 1 0 0 1 0 0 1 0 0 1 0 0 1 0 0 1 0 0 1 0 0"
					"row6" "1 0 0 1 0 0 1 0 0 1 0 0 1 0 0 1 0 0 1 0 0 1 0 0 1 0 0"
					"row7" "1 0 0 1 0 0 1 0 0 1 0 0 1 0 0 1 0 0 1 0 0 1 0 0 1 0 0"
					"row8" "1 0 0 1 0 0 1 0 0 1 0 0 1 0 0 1 0 0 1 0 0 1 0 0 1 0 0"
				}
				alphas
				{
					"row0" "0 0 0 0 0 0 0 0 0"
					"row1" "0 0 0 0 0 0 0 0 0"
					"row2" "0 0 0 0 0 0 0 0 0"
					"row3" "0 0 0 0 0 0 0 0 0"
					"row4" "0 0 0 0 0 0 0 0 0"
					"row5" "0 0 0 0 0 0 0 0 0"
					"row6" "0 0 0 0 0 0 0 0 0"
					"row7" "0 0 0 0 0 0 0 0 0"
					"row8" "0 0 0 0 0 0 0 0 0"
				}
				triangle_tags
				{
					"row0" "0 0 0 0 0 0 0 0 0 0 0 0 0 0 0 0"
					"row1" "0 0 0 0 0 0 0 0 0 0 0 0 0 0 0 0"
					"row2" "0 0 0 0 0 0 0 0 0 0 0 0 0 0 0 0"
					"row3" "0 0 0 0 0 0 0 0 0 0 0 0 0 0 0 0"
					"row4" "0 0 0 0 0 0 0 0 0 0 0 0 0 0 0 0"
					"row5" "0 0 0 0 0 0 0 0 0 0 0 0 0 0 0 0"
					"row6" "0 0 0 0 0 0 0 0 0 0 0 0 0 0 0 0"
					"row7" "0 0 0 0 0 0 0 0 0 0 0 0 0 0 0 0"
				}
			}
		}
		side
		{
			"id" "5"
			"plane" "(768 960 -192) (-512 960 -192) (-512 960 -1152)"
			"material" "NATURE/BLENDROCKSGRASS005A"
			"uaxis" "[1 0 0 256] 0.25"
			"vaxis" "[0 0 -1 -511.699] 0.25"
			"rotation" "0"
			"lightmapscale" "16"
			"smoothing_groups" "0"
			dispinfo
			{
				"power" "3"
				"startposition" "[-512 960 -1152]"
				"elevation" "0"
				"subdiv" "0"
				normals
				{
					"row0" "0 -1 0 0 -1 0 0 -1 0 0 0 0 0 0 0 0 0 0 0 0 0 0 0 0 0 0 0"
					"row1" "0 -1 0 0 -1 0 0 -1 0 0 -1 0 0 0 0 0 0 0 0 0 0 0 0 0 0 0 0"
					"row2" "0 -1 0 0 -1 0 0 -1 0 0 -1 0 0 0 0 0 0 0 0 0 0 0 0 0 0 0 0"
					"row3" "0 -1 0 0 -1 0 0 -1 0 0 -1 0 0 -1 0 0 0 0 0 0 0 0 0 0 0 0 0"
					"row4" "0 -1 0 0 -1 0 0 -1 0 0 -1 0 0 -1 0 0 0 0 0 0 0 0 0 0 0 0 0"
					"row5" "0 -1 0 0 -1 0 0 -1 0 0 -1 0 0 -1 0 0 -1 0 0 0 0 0 0 0 0 0 0"
					"row6" "0 -1 0 0 -1 0 0 -1 0 0 -1 0 0 -1 0 0 0 0 0 0 0 0 0 0 0 0 0"
					"row7" "0 -1 0 0 -1 0 0 -1 0 0 -1 0 0 -1 0 0 -1 0 0 -1 0 0 0 0 0 0 0"
					"row8" "0 -1 0 0 -1 0 0 -1 0 0 -1 0 0 -1 0 0 -1 0 0 -1 0 0 -1 0 0 0 0"
				}
				distances
				{
					"row0" "27.5172 17.098 3.11719 0 0 0 0 0 0"
					"row1" "125.7 96.9966 22.4634 0.96875 0 0 0 0 0"
					"row2" "143.268 168.774 102.708 31.5844 0 0 0 0 0"
					"row3" "143.393 180.904 139.859 66.9219 3.71558 0 0 0 0"
					"row4" "163.547 158.709 83.0473 33.6102 3.11719 0 0 0 0"
					"row5" "119.357 73.2057 18.2703 8 6.24219 0.96875 0 0 0"
					"row6" "119.617 105.796 40.2369 7.49896 3.11719 0 0 0 0"
					"row7" "156.043 127.143 45.4378 2.3009 9.72052 23.2889 9.72052 0 0"
					"row8" "134.76 111.49 39.9282 4.02686 33.7872 47.2149 33.7872 1.93146 0"
				}
				offsets
				{
					"row0" "0 0 0 0 0 0 0 0 0 0 0 0 0 0 0 0 0 0 0 0 0 0 0 0 0 0 0"
					"row1" "0 0 0 0 0 0 0 0 0 0 0 0 0 0 0 0 0 0 0 0 0 0 0 0 0 0 0"
					"row2" "0 0 0 0 0 0 0 0 0 0 0 0 0 0 0 0 0 0 0 0 0 0 0 0 0 0 0"
					"row3" "0 0 0 0 0 0 0 0 0 0 0 0 0 0 0 0 0 0 0 0 0 0 0 0 0 0 0"
					"row4" "0 0 0 0 0 0 0 0 0 0 0 0 0 0 0 0 0 0 0 0 0 0 0 0 0 0 0"
					"row5" "0 0 0 0 0 0 0 0 0 0 0 0 0 0 0 0 0 0 0 0 0 0 0 0 0 0 0"
					"row6" "0 0 0 0 0 0 0 0 0 0 0 0 0 0 0 0 0 0 0 0 0 0 0 0 0 0 0"
					"row7" "0 0 0 0 0 0 0 0 0 0 0 0 0 0 0 0 0 0 0 0 0 0 0 0 0 0 0"
					"row8" "0 0 0 0 0 0 0 0 0 0 0 0 0 0 0 0 0 0 0 0 0 0 0 0 0 0 0"
				}
				offset_normals
				{
					"row0" "0 1 0 0 1 0 0 1 0 0 1 0 0 1 0 0 1 0 0 1 0 0 1 0 0 1 0"
					"row1" "0 1 0 0 1 0 0 1 0 0 1 0 0 1 0 0 1 0 0 1 0 0 1 0 0 1 0"
					"row2" "0 1 0 0 1 0 0 1 0 0 1 0 0 1 0 0 1 0 0 1 0 0 1 0 0 1 0"
					"row3" "0 1 0 0 1 0 0 1 0 0 1 0 0 1 0 0 1 0 0 1 0 0 1 0 0 1 0"
					"row4" "0 1 0 0 1 0 0 1 0 0 1 0 0 1 0 0 1 0 0 1 0 0 1 0 0 1 0"
					"row5" "0 1 0 0 1 0 0 1 0 0 1 0 0 1 0 0 1 0 0 1 0 0 1 0 0 1 0"
					"row6" "0 1 0 0 1 0 0 1 0 0 1 0 0 1 0 0 1 0 0 1 0 0 1 0 0 1 0"
					"row7" "0 1 0 0 1 0 0 1 0 0 1 0 0 1 0 0 1 0 0 1 0 0 1 0 0 1 0"
					"row8" "0 1 0 0 1 0 0 1 0 0 1 0 0 1 0 0 1 0 0 1 0 0 1 0 0 1 0"
				}
				alphas
				{
					"row0" "0 0 0 0 0 0 0 0 0"
					"row1" "0 0 0 0 0 0 0 0 0"
					"row2" "0 0 0 0 0 0 0 0 0"
					"row3" "0 0 0 0 0 0 0 0 0"
					"row4" "0 0 0 0 0 0 0 0 0"
					"row5" "0 0 0 0 0 0 0 0 0"
					"row6" "0 0 0 0 0 0 0 0 0"
					"row7" "0 0 0 0 0 0 0 0 0"
					"row8" "0 0 0 0 0 0 0 0 0"
				}
				triangle_tags
				{
					"row0" "0 0 0 0 0 0 0 0 0 0 0 0 0 0 0 0"
					"row1" "0 0 0 0 0 0 0 0 0 0 0 0 0 0 0 0"
					"row2" "0 0 0 0 0 0 0 0 0 0 0 0 0 0 0 0"
					"row3" "0 0 0 0 0 0 0 0 0 0 0 0 0 0 0 0"
					"row4" "0 0 0 0 0 0 0 0 0 0 0 0 0 0 0 0"
					"row5" "0 0 0 0 0 0 0 0 0 0 0 0 0 0 0 0"
					"row6" "0 0 0 0 0 0 0 0 0 0 0 0 0 0 0 0"
					"row7" "0 0 0 0 0 0 0 0 0 0 0 0 0 0 0 0"
				}
			}
		}
		side
		{
			"id" "6"
			"plane" "(768 0 -1152) (-512 0 -1152) (-512 0 -192)"
			"material" "NATURE/BLENDROCKSGRASS005A"
			"uaxis" "[1 0 0 256] 0.25"
			"vaxis" "[0 0 -1 -511.699] 0.25"
			"rotation" "0"
			"lightmapscale" "16"
			"smoothing_groups" "0"
			dispinfo
			{
				"power" "3"
				"startposition" "[-512 0 -1152]"
				"elevation" "0"
				"subdiv" "1"
				normals
				{
					"row0" "0 -1 0 0 -1 0 0.0109828 -0.99994 0 0.00577637 -0.999983 0 0 -1 0 0 -1 0 0 -1 0 0 -1 0 0 1 0"
					"row1" "0 -1 0 0 -1 0 0.00673695 -0.999977 0 0.0212911 -0.999773 0 0 -0.999997 -0.00227417 0 -1 0 0 -1 0 0 -1 0 0 -1 0"
					"row2" "0 -1 0 0 -1 0 0.0143775 -0.999897 0 0.0494424 -0.998777 0 0.00653237 -0.999881 -0.0139917 0 -1 0 0 -1 0 0 -1 0 0 -1 0"
					"row3" "0 -1 0 0 -1 0 0.0403282 -0.999186 0 0.0967666 -0.99528 -0.00731741 0.0257382 -0.999358 -0.0249265 0 -0.999964 -0.00850912 0 -1 0 0 -1 0 0 1 0"
					"row4" "0 -1 0 0 -1 0 0.0653769 -0.997861 0 0.205972 -0.97817 -0.0275689 0.103359 -0.992278 -0.06857 0 -0.998841 -0.0481331 0 -1 0 0 1 0 0 1 0"
					"row5" "0 -1 0 0 -1 0 0.0966838 -0.995315 0 0.41986 -0.905043 -0.067929 0.399341 -0.888292 -0.226856 0 -0.992334 -0.123585 0 -1 0 0 1 0 0 1 0"
					"row6" "0 1 0 0 -1 0 0.169707 -0.985495 0 0.936806 0.308396 -0.165187 0.743078 0.544296 -0.389329 0 0.2729 -0.962042 0 1 0 0 1 0 0 1 0"
					"row7" "0 1 0 0 1 0 0.637521 -0.770433 0 0.856742 0.491227 -0.15713 0.556654 0.782576 -0.278768 0 0.984329 -0.176345 0 1 0 0 1 0 0 1 0"
					"row8" "0 1 0 0 1 0 0.917374 -0.398026 0 0.922923 0.344848 -0.171151 0.500156 0.830516 -0.245127 0 0.991887 -0.127124 0 1 0 0 1 0 0 1 0"
				}
				distances
				{
					"row0" "13.9458 84.6753 170.96 396.863 388.29 243.842 49.4667 17.3769 11.2524"
					"row1" "27.1001 103.446 215.729 401.043 475.2 346.179 141.26 71.0152 5.42775"
					"row2" "21.7151 95.0712 183.698 458.162 499.912 393.822 264.369 178.371 15.2213"
					"row3" "12.7941 71.5235 167.584 406.228 484.674 353.173 232.48 164.741 26.1874"
					"row4" "1.90533 68.3446 232.836 269.048 227.14 140.66 93.8772 44.9842 100.476"
					"row5" "7.38654 104.11 254.996 144.178 85.3328 90.6598 6.64459 100.332 94.885"
					"row6" "10.01 29.009 189.221 80.4341 51.8139 23.321 50.5264 144.21 198.98"
					"row7" "114.55 22.0925 57.6498 100.41 87.5758 83.2745 99.3166 228.022 322.397"
					"row8" "150.949 62.0769 39.7106 89.5008 94.4637 112.625 115.993 240.893 309.913"
				}
				offsets
				{
					"row0" "0 0 0 0 0 0 0 0 0 0 0 0 0 0 0 0 0 0 0 0 0 0 0 0 0 0 0"
					"row1" "0 0 0 0 0.0444031 -0.0444336 0 0.0732422 -0.0732422 0 0.092926 -0.0930176 0 0.0952148 -0.0952148 0 0.092926 -0.0930176 0 0.0732422 -0.0732422 0 0.0444031 -0.0444336 0 0 0"
					"row2" "0 0 0 0 0.541992 -0.541992 0 0.847778 -0.847778 0 1.10596 -1.10596 0 1.06567 -1.06567 0 1.10596 -1.10596 0 0.847778 -0.847778 0 0.541992 -0.541992 0 0 0"
					"row3" "0 0 0 0 1.96793 -1.96796 0 3.44971 -3.44971 0 4.06906 -4.06903 0 4.13818 -4.13818 0 4.06906 -4.06903 0 3.44971 -3.44971 0 1.96793 -1.96796 0 0 0"
					"row4" "0 0 0 0 4.78271 -4.78271 0 8.56567 -8.56567 0 10.7007 -10.7007 0 10.8911 -10.8911 0 10.7007 -10.7007 0 8.56567 -8.56567 0 4.78271 -4.78271 0 0 0"
					"row5" "0 0 0 0 9.63524 -9.63525 0 17.7502 -17.7502 0 23.0633 -23.0632 0 24.928 -24.928 0 23.0633 -23.0632 0 17.7502 -17.7502 0 9.63524 -9.63525 0 0 0"
					"row6" "0 0 0 0 18.5925 -18.5925 0 33.6942 -33.6942 0 44.3994 -44.3994 0 47.8821 -47.8821 0 44.3994 -44.3994 0 33.6942 -33.6942 0 18.5925 -18.5925 0 0 0"
					"row7" "0 0 0 0 35.042 -35.042 0 62.4683 -62.4683 0 78.4142 -78.4142 0 83.551 -83.551 0 78.4142 -78.4142 0 62.4683 -62.4683 0 35.042 -35.042 0 0 0"
					"row8" "0 0 0 0 75.0476 -75.0476 0 110.303 -110.303 0 128.807 -128.807 0 134.689 -134.689 0 128.807 -128.807 0 110.303 -110.303 0 75.0476 -75.0476 0 0 0"
				}
				offset_normals
				{
					"row0" "0 -1 1 0 -1 0.875 0 -1 0.75 0 -1 0.625 0 -1 0.5 0 -1 0.375 0 -1 0.25 0 -1 0.125 0 -1 0"
					"row1" "0 -0.875 1 0 -1 0 0 -1 0.1875 0 -1 0 0 -1 0.15625 0 -1 0 0 -1 0.0625 0 -1 0 0 -0.875 0.125"
					"row2" "0 -0.75 1 0.00585777 -0.937431 0.25 0 -1 0 0 -0.99987 0.0393103 0 -1 0.125 0 -0.99987 0.0393103 0 -1 0 -0.00604348 -0.937297 0.070558 0 -0.75 0.25"
					"row3" "0 -0.625 1 0.0234311 -0.999725 0 0.0173758 -0.967481 0.0705603 0 -0.99948 0.0322413 0 -0.99974 0.0473706 0 -0.99948 0.0322413 -0.0204666 -0.963609 0.0665991 -0.0241739 -0.999188 0.0322319 0 -0.625 0.375"
					"row4" "0 -0.5 1 0.040711 -0.841519 0.3125 0.0460721 -0.870718 0.25 0.0243634 -0.965894 0.0962511 0 -1 0 -0.0280594 -0.959267 0.103996 -0.0576923 -0.855769 0.201923 -0.0460562 -0.836106 0.209128 0 -0.5 0.5"
					"row5" "0 -0.375 1 0.0933407 -0.995634 0 0.0937708 -0.960651 0.0881908 0.0513816 -0.993378 0.102763 -0.003696 -0.941046 0.137251 -0.0545455 -0.981818 0.181818 -0.111341 -0.937533 0.198448 -0.102359 -0.989467 0.102359 0 -0.375 0.625"
					"row6" "0 -0.25 1 0.14735 -0.794666 0.25 0.184289 -0.982872 0 0.0830095 -0.91757 0.194642 -0.0116202 -0.788987 0.264423 -0.10198 -0.890159 0.31004 -0.230769 -0.923077 0.307692 -0.182908 -0.749376 0.384894 0 -0.25 0.75"
					"row7" "0 -0.125 1 0.31177 -0.950158 0 0.16253 -0.786573 0.274721 0.107988 -0.905043 0.411383 -0.00365475 -0.702696 0.478009 -0.110987 -0.866755 0.486228 -0.199488 -0.749279 0.48126 -0.398503 -0.834958 0.379526 0 -0.125 0.875"
					"row8" "0 0 1 0.150509 -0.419779 0.89506 0.061036 -0.408325 0.910794 0.0646299 -0.561373 0.825035 0 -0.316228 0.948683 -0.0667089 -0.567668 0.82055 -0.0686206 -0.442854 0.893964 -0.166138 -0.463938 0.870149 0 0 1"
				}
				alphas
				{
					"row0" "0 0 0 0 0 0 0 0 0"
					"row1" "0 0 0 0 0 0 0 0 0"
					"row2" "0 0 0 0 0 0 0 0 0"
					"row3" "0 0 0 0 0 0 0 0 0"
					"row4" "0 0 0 0 0 0 0 0 0"
					"row5" "0 0 0 0 0 0 0 0 0"
					"row6" "0 0 0 0 0 0 0 0 0"
					"row7" "0 0 0 0 0 0 0 0 0"
					"row8" "0 0 0 0 0 0 0 0 0"
				}
				triangle_tags
				{
					"row0" "0 0 0 0 0 0 0 0 0 0 0 0 0 0 0 0"
					"row1" "0 0 0 0 0 0 0 0 0 0 0 0 0 0 0 0"
					"row2" "0 0 0 0 0 0 0 0 0 0 0 0 0 0 0 0"
					"row3" "0 0 0 0 0 9 1 9 9 9 9 1 1 9 9 0"
					"row4" "0 0 0 0 0 9 1 9 9 0 0 0 0 0 0 0"
					"row5" "0 0 0 0 0 1 9 1 1 1 9 0 0 0 0 0"
					"row6" "0 0 0 9 9 0 0 0 0 1 1 0 0 0 0 1"
					"row7" "0 0 1 1 0 0 0 0 0 1 1 0 0 0 0 0"
				}
			}
		}
		editor
		{
			"color" "0 241 218"
		}
	}
	solid
	{
		"id" "206"
		side
		{
			"id" "7"
			"plane" "(-704 960 -256) (768 960 -256) (768 192 -256)"
			"material" "DEV/DEV_WATER3"
			"uaxis" "[1 0 0 0] 0.25"
			"vaxis" "[0 -1 0 0] 0.25"
			"rotation" "0"
			"lightmapscale" "16"
			"smoothing_groups" "0"
		}
		side
		{
			"id" "8"
			"plane" "(-704 192 -384) (768 192 -384) (768 960 -384)"
			"material" "TOOLS/TOOLSNODRAW"
			"uaxis" "[1 0 0 0] 0.25"
			"vaxis" "[0 -1 0 0] 0.25"
			"rotation" "0"
			"lightmapscale" "16"
			"smoothing_groups" "0"
		}
		side
		{
			"id" "9"
			"plane" "(-704 960 -256) (-704 192 -256) (-704 192 -384)"
			"material" "TOOLS/TOOLSNODRAW"
			"uaxis" "[0 1 0 0] 0.25"
			"vaxis" "[0 0 -1 0] 0.25"
			"rotation" "0"
			"lightmapscale" "16"
			"smoothing_groups" "0"
		}
		side
		{
			"id" "10"
			"plane" "(768 960 -384) (768 192 -384) (768 192 -256)"
			"material" "TOOLS/TOOLSNODRAW"
			"uaxis" "[0 1 0 0] 0.25"
			"vaxis" "[0 0 -1 0] 0.25"
			"rotation" "0"
			"lightmapscale" "16"
			"smoothing_groups" "0"
		}
		side
		{
			"id" "11"
			"plane" "(768 960 -256) (-704 960 -256) (-704 960 -384)"
			"material" "TOOLS/TOOLSNODRAW"
			"uaxis" "[1 0 0 0] 0.25"
			"vaxis" "[0 0 -1 0] 0.25"
			"rotation" "0"
			"lightmapscale" "16"
			"smoothing_groups" "0"
		}
		side
		{
			"id" "12"
			"plane" "(768 192 -384) (-704 192 -384) (-704 192 -256)"
			"material" "TOOLS/TOOLSNODRAW"
			"uaxis" "[1 0 0 0] 0.25"
			"vaxis" "[0 0 -1 0] 0.25"
			"rotation" "0"
			"lightmapscale" "16"
			"smoothing_groups" "0"
		}
		editor
		{
			"color" "0 115 224"
		}
	}
}
entity
{
	"id" "1"
	"classname" "prop_static"
	"angles" "0 0 0"
	"solid" "6"
	"fademindist" "-1"
	"model" "models/props_wasteland/rockcliff_cluster03a.mdl"
	"origin" "-192 0 -320"
	editor
	{
		"color" "220 30 220"
	}
}
entity
{
	"id" "20"
	"classname" "prop_static"
	"angles" "0 0 0"
	"solid" "6"
	"fademindist" "-1"
	"model" "models/props_wasteland/rockcliff_cluster02a.mdl"
	"origin" "160 0 -412"
	editor
	{
		"color" "220 30 220"
	}
}
cameras
{
	"activecamera" "-1"
}
cordon
{
	"mins" "(99999 99999 99999)"
	"maxs" "(-99999 -99999 -99999)"
	"active" "0"
}
