versioninfo
{
	"editorversion" "400"
	"editorbuild" "9161"
	"mapversion" "36"
	"prefab" "0"
}
visgroups
{
	visgroup
	{
		"name" "assassin"
		"visgroupid" "2"
		"color" "86 127 236"
		"visible" "0"
	}
	visgroup
	{
		"name" "ass"
		"visgroupid" "1"
		"color" "168 169 174"
		"visible" "0"
	}
}
viewsettings
{
	"bSnapToGrid" "1"
	"bShowGrid" "1"
	"nGridSpacing" "64"
	"bShow3DGrid" "0"
}
world
{
	"id" "0"
	"mapversion" "36"
	"classname" "worldspawn"
	"skyname" "sky_wasteland02"
	solid
	{
		"id" "22"
		side
		{
			"id" "208"
			"plane" "(-304 288 -160) (-304 -800 -160) (336 -800 -160)"
			"material" "DEV/DEV_MEASUREGENERIC01B"
			"uaxis" "[1 0 0 64] 0.25"
			"vaxis" "[0 -1 0 0] 0.25"
			"rotation" "0"
			"lightmapscale" "16"
			"smoothing_groups" "0"
		}
		side
		{
			"id" "207"
			"plane" "(-304 -800 -160) (-304 288 -160) (-304 288 -144)"
			"material" "DEV/DEV_MEASUREGENERIC01B"
			"uaxis" "[0 0 1 64] 0.25"
			"vaxis" "[0 -1 0 0] 0.25"
			"rotation" "0"
			"lightmapscale" "16"
			"smoothing_groups" "0"
		}
		side
		{
			"id" "206"
			"plane" "(336 288 -144) (336 288 -160) (336 -800 -160)"
			"material" "DEV/DEV_MEASUREGENERIC01B"
			"uaxis" "[0 0 -1 -64] 0.25"
			"vaxis" "[0 -1 0 0] 0.25"
			"rotation" "0"
			"lightmapscale" "16"
			"smoothing_groups" "0"
		}
		side
		{
			"id" "205"
			"plane" "(-304 288 -144) (-304 288 -160) (336 288 -160)"
			"material" "DEV/DEV_MEASUREGENERIC01B"
			"uaxis" "[1 0 0 64] 0.25"
			"vaxis" "[0 0 1 64] 0.25"
			"rotation" "0"
			"lightmapscale" "16"
			"smoothing_groups" "0"
		}
		side
		{
			"id" "204"
			"plane" "(-304 -800 -144) (-304 288 -144) (336 288 -144)"
			"material" "DEV/DEV_MEASUREGENERIC01B"
			"uaxis" "[1 0 0 64] 0.25"
			"vaxis" "[0 -1 0 0] 0.25"
			"rotation" "0"
			"lightmapscale" "16"
			"smoothing_groups" "0"
		}
		side
		{
			"id" "203"
			"plane" "(336 -800 -144) (336 -800 -160) (-304 -800 -160)"
			"material" "DEV/DEV_MEASUREGENERIC01B"
			"uaxis" "[1 0 0 64] 0.25"
			"vaxis" "[0 0 -1 0] 0.25"
			"rotation" "0"
			"lightmapscale" "16"
			"smoothing_groups" "0"
		}
		editor
		{
			"color" "0 221 210"
			"groupid" "21"
		}
	}
	solid
	{
		"id" "23"
		side
		{
			"id" "94"
			"plane" "(336 -816 -32) (-304 -816 -32) (-304 -816 496)"
			"material" "TOOLS/TOOLSSKYBOX"
			"uaxis" "[1 0 0 18.8235] 0.265625"
			"vaxis" "[0 0 -1 -113.778] 0.28125"
			"rotation" "0"
			"lightmapscale" "16"
			"smoothing_groups" "0"
		}
		side
		{
			"id" "93"
			"plane" "(336 -800 496) (336 -816 496) (-304 -816 496)"
			"material" "TOOLS/TOOLSSKYBOX"
			"uaxis" "[1 0 0 64] 0.25"
			"vaxis" "[0 -1 0 0] 0.25"
			"rotation" "0"
			"lightmapscale" "16"
			"smoothing_groups" "0"
		}
		side
		{
			"id" "92"
			"plane" "(-304 -800 496) (-304 -816 496) (-304 -816 -32)"
			"material" "TOOLS/TOOLSSKYBOX"
			"uaxis" "[0 1 0 0] 0.25"
			"vaxis" "[0 0 -1 0] 0.25"
			"rotation" "0"
			"lightmapscale" "16"
			"smoothing_groups" "0"
		}
		side
		{
			"id" "91"
			"plane" "(336 -800 -32) (336 -816 -32) (336 -816 496)"
			"material" "TOOLS/TOOLSSKYBOX"
			"uaxis" "[0 1 0 0] 0.25"
			"vaxis" "[0 0 -1 0] 0.25"
			"rotation" "0"
			"lightmapscale" "16"
			"smoothing_groups" "0"
		}
		side
		{
			"id" "90"
			"plane" "(-304 -800 -32) (336 -800 -32) (336 -800 496)"
			"material" "TOOLS/TOOLSSKYBOX"
			"uaxis" "[1 0 0 64] 0.25"
			"vaxis" "[0 0 -1 0] 0.25"
			"rotation" "0"
			"lightmapscale" "16"
			"smoothing_groups" "0"
		}
		side
		{
			"id" "89"
			"plane" "(336 -800 -32) (-304 -800 -32) (-304 -816 -32)"
			"material" "TOOLS/TOOLSSKYBOX"
			"uaxis" "[1 0 0 64] 0.25"
			"vaxis" "[0 -1 0 0] 0.25"
			"rotation" "0"
			"lightmapscale" "16"
			"smoothing_groups" "0"
		}
		editor
		{
			"color" "0 221 210"
			"groupid" "21"
		}
	}
	solid
	{
		"id" "24"
		side
		{
			"id" "88"
			"plane" "(336 -816 -32) (336 -816 -160) (-304 -816 -160)"
			"material" "DEV/DEV_MEASURECRATE01"
			"uaxis" "[1 0 0 210.823] 0.265625"
			"vaxis" "[0 0 -1 -113.778] 0.28125"
			"rotation" "0"
			"lightmapscale" "16"
			"smoothing_groups" "0"
		}
		side
		{
			"id" "87"
			"plane" "(336 -800 -160) (-304 -800 -160) (-304 -816 -160)"
			"material" "DEV/DEV_MEASURECRATE01"
			"uaxis" "[1 0 0 192] 0.25"
			"vaxis" "[0 -1 0 -128] 0.25"
			"rotation" "0"
			"lightmapscale" "16"
			"smoothing_groups" "0"
		}
		side
		{
			"id" "86"
			"plane" "(-304 -800 -32) (-304 -816 -32) (-304 -816 -160)"
			"material" "DEV/DEV_MEASURECRATE01"
			"uaxis" "[0 1 0 128] 0.25"
			"vaxis" "[0 0 -1 -128] 0.25"
			"rotation" "0"
			"lightmapscale" "16"
			"smoothing_groups" "0"
		}
		side
		{
			"id" "85"
			"plane" "(336 -800 -32) (336 -800 -160) (336 -816 -160)"
			"material" "DEV/DEV_MEASURECRATE01"
			"uaxis" "[0 1 0 128] 0.25"
			"vaxis" "[0 0 -1 -128] 0.25"
			"rotation" "0"
			"lightmapscale" "16"
			"smoothing_groups" "0"
		}
		side
		{
			"id" "84"
			"plane" "(-304 -800 -32) (-304 -800 -160) (336 -800 -160)"
			"material" "DEV/DEV_MEASURECRATE01"
			"uaxis" "[1 0 0 192] 0.25"
			"vaxis" "[0 0 -1 -128] 0.25"
			"rotation" "0"
			"lightmapscale" "16"
			"smoothing_groups" "0"
		}
		side
		{
			"id" "83"
			"plane" "(336 -800 -32) (336 -816 -32) (-304 -816 -32)"
			"material" "DEV/DEV_MEASURECRATE01"
			"uaxis" "[1 0 0 192] 0.25"
			"vaxis" "[0 -1 0 -128] 0.25"
			"rotation" "0"
			"lightmapscale" "16"
			"smoothing_groups" "0"
		}
		editor
		{
			"color" "0 221 210"
			"groupid" "21"
		}
	}
	solid
	{
		"id" "25"
		side
		{
			"id" "82"
			"plane" "(-304 304 -32) (336 304 -32) (336 304 496)"
			"material" "TOOLS/TOOLSSKYBOX"
			"uaxis" "[1 0 0 18.8235] 0.265625"
			"vaxis" "[0 0 -1 -113.778] 0.28125"
			"rotation" "0"
			"lightmapscale" "16"
			"smoothing_groups" "0"
		}
		side
		{
			"id" "81"
			"plane" "(336 288 496) (-304 288 496) (-304 304 496)"
			"material" "TOOLS/TOOLSSKYBOX"
			"uaxis" "[1 0 0 64] 0.25"
			"vaxis" "[0 -1 0 0] 0.25"
			"rotation" "0"
			"lightmapscale" "16"
			"smoothing_groups" "0"
		}
		side
		{
			"id" "80"
			"plane" "(-304 288 -32) (-304 304 -32) (-304 304 496)"
			"material" "TOOLS/TOOLSSKYBOX"
			"uaxis" "[0 1 0 0] 0.25"
			"vaxis" "[0 0 -1 0] 0.25"
			"rotation" "0"
			"lightmapscale" "16"
			"smoothing_groups" "0"
		}
		side
		{
			"id" "79"
			"plane" "(336 288 496) (336 304 496) (336 304 -32)"
			"material" "TOOLS/TOOLSSKYBOX"
			"uaxis" "[0 1 0 0] 0.25"
			"vaxis" "[0 0 -1 0] 0.25"
			"rotation" "0"
			"lightmapscale" "16"
			"smoothing_groups" "0"
		}
		side
		{
			"id" "78"
			"plane" "(336 288 -32) (-304 288 -32) (-304 288 496)"
			"material" "TOOLS/TOOLSSKYBOX"
			"uaxis" "[1 0 0 64] 0.25"
			"vaxis" "[0 0 -1 0] 0.25"
			"rotation" "0"
			"lightmapscale" "16"
			"smoothing_groups" "0"
		}
		side
		{
			"id" "77"
			"plane" "(336 288 -32) (336 304 -32) (-304 304 -32)"
			"material" "TOOLS/TOOLSSKYBOX"
			"uaxis" "[1 0 0 64] 0.25"
			"vaxis" "[0 -1 0 0] 0.25"
			"rotation" "0"
			"lightmapscale" "16"
			"smoothing_groups" "0"
		}
		editor
		{
			"color" "0 221 210"
			"groupid" "21"
		}
	}
	solid
	{
		"id" "26"
		side
		{
			"id" "76"
			"plane" "(-304 304 -32) (-304 304 -160) (336 304 -160)"
			"material" "DEV/DEV_MEASURECRATE01"
			"uaxis" "[1 0 0 210.823] 0.265625"
			"vaxis" "[0 0 -1 -113.778] 0.28125"
			"rotation" "0"
			"lightmapscale" "16"
			"smoothing_groups" "0"
		}
		side
		{
			"id" "75"
			"plane" "(336 288 -160) (336 304 -160) (-304 304 -160)"
			"material" "DEV/DEV_MEASURECRATE01"
			"uaxis" "[1 0 0 192] 0.25"
			"vaxis" "[0 -1 0 -128] 0.25"
			"rotation" "0"
			"lightmapscale" "16"
			"smoothing_groups" "0"
		}
		side
		{
			"id" "74"
			"plane" "(-304 288 -32) (-304 288 -160) (-304 304 -160)"
			"material" "DEV/DEV_MEASURECRATE01"
			"uaxis" "[0 1 0 128] 0.25"
			"vaxis" "[0 0 -1 -128] 0.25"
			"rotation" "0"
			"lightmapscale" "16"
			"smoothing_groups" "0"
		}
		side
		{
			"id" "73"
			"plane" "(336 288 -32) (336 304 -32) (336 304 -160)"
			"material" "DEV/DEV_MEASURECRATE01"
			"uaxis" "[0 1 0 128] 0.25"
			"vaxis" "[0 0 -1 -128] 0.25"
			"rotation" "0"
			"lightmapscale" "16"
			"smoothing_groups" "0"
		}
		side
		{
			"id" "72"
			"plane" "(336 288 -32) (336 288 -160) (-304 288 -160)"
			"material" "DEV/DEV_MEASURECRATE01"
			"uaxis" "[1 0 0 192] 0.25"
			"vaxis" "[0 0 -1 -128] 0.25"
			"rotation" "0"
			"lightmapscale" "16"
			"smoothing_groups" "0"
		}
		side
		{
			"id" "71"
			"plane" "(336 288 -32) (-304 288 -32) (-304 304 -32)"
			"material" "DEV/DEV_MEASURECRATE01"
			"uaxis" "[1 0 0 192] 0.25"
			"vaxis" "[0 -1 0 -128] 0.25"
			"rotation" "0"
			"lightmapscale" "16"
			"smoothing_groups" "0"
		}
		editor
		{
			"color" "0 221 210"
			"groupid" "21"
		}
	}
	solid
	{
		"id" "27"
		side
		{
			"id" "70"
			"plane" "(352 -816 496) (352 304 496) (352 304 -32)"
			"material" "TOOLS/TOOLSSKYBOX"
			"uaxis" "[0 1 0 42.667] 0.267857"
			"vaxis" "[0 0 -1 -113.778] 0.28125"
			"rotation" "0"
			"lightmapscale" "16"
			"smoothing_groups" "0"
		}
		side
		{
			"id" "69"
			"plane" "(336 304 -32) (352 304 -32) (352 304 496)"
			"material" "TOOLS/TOOLSSKYBOX"
			"uaxis" "[1 0 0 18.8235] 0.265625"
			"vaxis" "[0 0 -1 -113.778] 0.28125"
			"rotation" "0"
			"lightmapscale" "16"
			"smoothing_groups" "0"
		}
		side
		{
			"id" "68"
			"plane" "(336 -816 496) (352 -816 496) (352 -816 -32)"
			"material" "TOOLS/TOOLSSKYBOX"
			"uaxis" "[1 0 0 18.8235] 0.265625"
			"vaxis" "[0 0 -1 -113.778] 0.28125"
			"rotation" "0"
			"lightmapscale" "16"
			"smoothing_groups" "0"
		}
		side
		{
			"id" "67"
			"plane" "(336 -816 496) (336 304 496) (352 304 496)"
			"material" "TOOLS/TOOLSSKYBOX"
			"uaxis" "[1 0 0 64] 0.25"
			"vaxis" "[0 -1 0 0] 0.25"
			"rotation" "0"
			"lightmapscale" "16"
			"smoothing_groups" "0"
		}
		side
		{
			"id" "66"
			"plane" "(336 304 496) (336 -816 496) (336 -816 -32)"
			"material" "TOOLS/TOOLSSKYBOX"
			"uaxis" "[0 1 0 0] 0.25"
			"vaxis" "[0 0 -1 0] 0.25"
			"rotation" "0"
			"lightmapscale" "16"
			"smoothing_groups" "0"
		}
		side
		{
			"id" "65"
			"plane" "(336 304 -32) (336 -816 -32) (352 -816 -32)"
			"material" "TOOLS/TOOLSSKYBOX"
			"uaxis" "[1 0 0 64] 0.25"
			"vaxis" "[0 -1 0 0] 0.25"
			"rotation" "0"
			"lightmapscale" "16"
			"smoothing_groups" "0"
		}
		editor
		{
			"color" "0 221 210"
			"groupid" "21"
		}
	}
	solid
	{
		"id" "28"
		side
		{
			"id" "64"
			"plane" "(352 -816 -32) (352 304 -32) (352 304 -160)"
			"material" "DEV/DEV_MEASURECRATE01"
			"uaxis" "[0 1 0 42.6669] 0.267857"
			"vaxis" "[0 0 -1 -113.778] 0.28125"
			"rotation" "0"
			"lightmapscale" "16"
			"smoothing_groups" "0"
		}
		side
		{
			"id" "63"
			"plane" "(336 304 -32) (336 304 -160) (352 304 -160)"
			"material" "DEV/DEV_MEASURECRATE01"
			"uaxis" "[1 0 0 210.823] 0.265625"
			"vaxis" "[0 0 -1 -113.778] 0.28125"
			"rotation" "0"
			"lightmapscale" "16"
			"smoothing_groups" "0"
		}
		side
		{
			"id" "62"
			"plane" "(336 -816 -32) (352 -816 -32) (352 -816 -160)"
			"material" "DEV/DEV_MEASURECRATE01"
			"uaxis" "[1 0 0 210.823] 0.265625"
			"vaxis" "[0 0 -1 -113.778] 0.28125"
			"rotation" "0"
			"lightmapscale" "16"
			"smoothing_groups" "0"
		}
		side
		{
			"id" "61"
			"plane" "(336 304 -160) (336 -816 -160) (352 -816 -160)"
			"material" "DEV/DEV_MEASURECRATE01"
			"uaxis" "[1 0 0 192] 0.25"
			"vaxis" "[0 -1 0 -128] 0.25"
			"rotation" "0"
			"lightmapscale" "16"
			"smoothing_groups" "0"
		}
		side
		{
			"id" "60"
			"plane" "(336 304 -32) (336 -816 -32) (336 -816 -160)"
			"material" "DEV/DEV_MEASURECRATE01"
			"uaxis" "[0 1 0 128] 0.25"
			"vaxis" "[0 0 -1 -128] 0.25"
			"rotation" "0"
			"lightmapscale" "16"
			"smoothing_groups" "0"
		}
		side
		{
			"id" "59"
			"plane" "(336 -816 -32) (336 304 -32) (352 304 -32)"
			"material" "DEV/DEV_MEASURECRATE01"
			"uaxis" "[1 0 0 192] 0.25"
			"vaxis" "[0 -1 0 -128] 0.25"
			"rotation" "0"
			"lightmapscale" "16"
			"smoothing_groups" "0"
		}
		editor
		{
			"color" "0 221 210"
			"groupid" "21"
		}
	}
	solid
	{
		"id" "29"
		side
		{
			"id" "58"
			"plane" "(-320 304 496) (-320 -816 496) (-320 -816 -32)"
			"material" "TOOLS/TOOLSSKYBOX"
			"uaxis" "[0 1 0 42.667] 0.267857"
			"vaxis" "[0 0 -1 -113.778] 0.28125"
			"rotation" "0"
			"lightmapscale" "16"
			"smoothing_groups" "0"
		}
		side
		{
			"id" "57"
			"plane" "(-304 304 496) (-320 304 496) (-320 304 -32)"
			"material" "TOOLS/TOOLSSKYBOX"
			"uaxis" "[1 0 0 18.8235] 0.265625"
			"vaxis" "[0 0 -1 -113.778] 0.28125"
			"rotation" "0"
			"lightmapscale" "16"
			"smoothing_groups" "0"
		}
		side
		{
			"id" "56"
			"plane" "(-304 -816 -32) (-320 -816 -32) (-320 -816 496)"
			"material" "TOOLS/TOOLSSKYBOX"
			"uaxis" "[1 0 0 18.8235] 0.265625"
			"vaxis" "[0 0 -1 -113.778] 0.28125"
			"rotation" "0"
			"lightmapscale" "16"
			"smoothing_groups" "0"
		}
		side
		{
			"id" "55"
			"plane" "(-304 304 496) (-304 -816 496) (-320 -816 496)"
			"material" "TOOLS/TOOLSSKYBOX"
			"uaxis" "[1 0 0 64] 0.25"
			"vaxis" "[0 -1 0 0] 0.25"
			"rotation" "0"
			"lightmapscale" "16"
			"smoothing_groups" "0"
		}
		side
		{
			"id" "54"
			"plane" "(-304 -816 496) (-304 304 496) (-304 304 -32)"
			"material" "TOOLS/TOOLSSKYBOX"
			"uaxis" "[0 1 0 0] 0.25"
			"vaxis" "[0 0 -1 0] 0.25"
			"rotation" "0"
			"lightmapscale" "16"
			"smoothing_groups" "0"
		}
		side
		{
			"id" "53"
			"plane" "(-304 -816 -32) (-304 304 -32) (-320 304 -32)"
			"material" "TOOLS/TOOLSSKYBOX"
			"uaxis" "[1 0 0 64] 0.25"
			"vaxis" "[0 -1 0 0] 0.25"
			"rotation" "0"
			"lightmapscale" "16"
			"smoothing_groups" "0"
		}
		editor
		{
			"color" "0 221 210"
			"groupid" "21"
		}
	}
	solid
	{
		"id" "30"
		side
		{
			"id" "52"
			"plane" "(-320 304 -32) (-320 -816 -32) (-320 -816 -160)"
			"material" "DEV/DEV_MEASURECRATE01"
			"uaxis" "[0 1 0 42.6669] 0.267857"
			"vaxis" "[0 0 -1 -113.778] 0.28125"
			"rotation" "0"
			"lightmapscale" "16"
			"smoothing_groups" "0"
		}
		side
		{
			"id" "51"
			"plane" "(-304 304 -32) (-320 304 -32) (-320 304 -160)"
			"material" "DEV/DEV_MEASURECRATE01"
			"uaxis" "[1 0 0 210.823] 0.265625"
			"vaxis" "[0 0 -1 -113.778] 0.28125"
			"rotation" "0"
			"lightmapscale" "16"
			"smoothing_groups" "0"
		}
		side
		{
			"id" "50"
			"plane" "(-304 -816 -32) (-304 -816 -160) (-320 -816 -160)"
			"material" "DEV/DEV_MEASURECRATE01"
			"uaxis" "[1 0 0 210.823] 0.265625"
			"vaxis" "[0 0 -1 -113.778] 0.28125"
			"rotation" "0"
			"lightmapscale" "16"
			"smoothing_groups" "0"
		}
		side
		{
			"id" "49"
			"plane" "(-304 -816 -160) (-304 304 -160) (-320 304 -160)"
			"material" "DEV/DEV_MEASURECRATE01"
			"uaxis" "[1 0 0 192] 0.25"
			"vaxis" "[0 -1 0 -128] 0.25"
			"rotation" "0"
			"lightmapscale" "16"
			"smoothing_groups" "0"
		}
		side
		{
			"id" "48"
			"plane" "(-304 -816 -32) (-304 304 -32) (-304 304 -160)"
			"material" "DEV/DEV_MEASURECRATE01"
			"uaxis" "[0 1 0 128] 0.25"
			"vaxis" "[0 0 -1 -128] 0.25"
			"rotation" "0"
			"lightmapscale" "16"
			"smoothing_groups" "0"
		}
		side
		{
			"id" "47"
			"plane" "(-304 304 -32) (-304 -816 -32) (-320 -816 -32)"
			"material" "DEV/DEV_MEASURECRATE01"
			"uaxis" "[1 0 0 192] 0.25"
			"vaxis" "[0 -1 0 -128] 0.25"
			"rotation" "0"
			"lightmapscale" "16"
			"smoothing_groups" "0"
		}
		editor
		{
			"color" "0 221 210"
			"groupid" "21"
		}
	}
	solid
	{
		"id" "31"
		side
		{
			"id" "40"
			"plane" "(352 -816 512) (-320 -816 512) (-320 304 512)"
			"material" "TOOLS/TOOLSSKYBOX"
			"uaxis" "[1 0 0 18.8235] 0.265625"
			"vaxis" "[0 -1 0 -42.667] 0.267857"
			"rotation" "0"
			"lightmapscale" "16"
			"smoothing_groups" "0"
		}
		side
		{
			"id" "39"
			"plane" "(-320 -816 496) (-320 304 496) (-320 304 512)"
			"material" "TOOLS/TOOLSSKYBOX"
			"uaxis" "[0 1 0 42.667] 0.267857"
			"vaxis" "[0 0 -1 -113.778] 0.28125"
			"rotation" "0"
			"lightmapscale" "16"
			"smoothing_groups" "0"
		}
		side
		{
			"id" "38"
			"plane" "(352 304 496) (352 -816 496) (352 -816 512)"
			"material" "TOOLS/TOOLSSKYBOX"
			"uaxis" "[0 1 0 42.667] 0.267857"
			"vaxis" "[0 0 -1 -113.778] 0.28125"
			"rotation" "0"
			"lightmapscale" "16"
			"smoothing_groups" "0"
		}
		side
		{
			"id" "37"
			"plane" "(-320 304 496) (352 304 496) (352 304 512)"
			"material" "TOOLS/TOOLSSKYBOX"
			"uaxis" "[1 0 0 18.8235] 0.265625"
			"vaxis" "[0 0 -1 -113.778] 0.28125"
			"rotation" "0"
			"lightmapscale" "16"
			"smoothing_groups" "0"
		}
		side
		{
			"id" "36"
			"plane" "(352 -816 496) (-320 -816 496) (-320 -816 512)"
			"material" "TOOLS/TOOLSSKYBOX"
			"uaxis" "[1 0 0 18.8235] 0.265625"
			"vaxis" "[0 0 -1 -113.778] 0.28125"
			"rotation" "0"
			"lightmapscale" "16"
			"smoothing_groups" "0"
		}
		side
		{
			"id" "35"
			"plane" "(352 304 496) (-320 304 496) (-320 -816 496)"
			"material" "TOOLS/TOOLSSKYBOX"
			"uaxis" "[1 0 0 64] 0.25"
			"vaxis" "[0 -1 0 0] 0.25"
			"rotation" "0"
			"lightmapscale" "16"
			"smoothing_groups" "0"
		}
		editor
		{
			"color" "0 221 210"
			"groupid" "21"
		}
	}
	group
	{
		"id" "21"
		editor
		{
			"color" "0 221 210"
		}
	}
	group
	{
		"id" "576"
		editor
		{
			"color" "0 112 201"
		}
	}
}
entity
{
	"id" "32"
	"classname" "trigger_once"
	"StartDisabled" "0"
	"spawnflags" "1"
	"origin" "232 -192 -104"
	connections
	{
		"OnStartTouch" "childF_seq,BeginSequence,,0,-1"
	}
	solid
	{
		"id" "33"
		side
		{
			"id" "179"
			"plane" "(208 -160 -80) (256 -160 -80) (256 -224 -80)"
			"material" "TOOLS/TOOLSTRIGGER"
			"uaxis" "[1 0 0 0] 0.25"
			"vaxis" "[0 -1 0 0] 0.25"
			"rotation" "0"
			"lightmapscale" "16"
			"smoothing_groups" "0"
		}
		side
		{
			"id" "180"
			"plane" "(208 -224 -128) (256 -224 -128) (256 -160 -128)"
			"material" "TOOLS/TOOLSTRIGGER"
			"uaxis" "[1 0 0 0] 0.25"
			"vaxis" "[0 -1 0 0] 0.25"
			"rotation" "0"
			"lightmapscale" "16"
			"smoothing_groups" "0"
		}
		side
		{
			"id" "181"
			"plane" "(208 -160 -80) (208 -224 -80) (208 -224 -128)"
			"material" "TOOLS/TOOLSTRIGGER"
			"uaxis" "[0 1 0 0] 0.25"
			"vaxis" "[0 0 -1 0] 0.25"
			"rotation" "0"
			"lightmapscale" "16"
			"smoothing_groups" "0"
		}
		side
		{
			"id" "182"
			"plane" "(256 -160 -128) (256 -224 -128) (256 -224 -80)"
			"material" "TOOLS/TOOLSTRIGGER"
			"uaxis" "[0 1 0 0] 0.25"
			"vaxis" "[0 0 -1 0] 0.25"
			"rotation" "0"
			"lightmapscale" "16"
			"smoothing_groups" "0"
		}
		side
		{
			"id" "183"
			"plane" "(256 -160 -80) (208 -160 -80) (208 -160 -128)"
			"material" "TOOLS/TOOLSTRIGGER"
			"uaxis" "[1 0 0 0] 0.25"
			"vaxis" "[0 0 -1 0] 0.25"
			"rotation" "0"
			"lightmapscale" "16"
			"smoothing_groups" "0"
		}
		side
		{
			"id" "184"
			"plane" "(256 -224 -128) (208 -224 -128) (208 -224 -80)"
			"material" "TOOLS/TOOLSTRIGGER"
			"uaxis" "[1 0 0 0] 0.25"
			"vaxis" "[0 0 -1 0] 0.25"
			"rotation" "0"
			"lightmapscale" "16"
			"smoothing_groups" "0"
		}
		editor
		{
			"color" "220 0 180"
		}
	}
	editor
	{
		"color" "255 255 255"
	}
	editor
	{
		"color" "220 0 180"
		"groupid" "21"
	}
}
entity
{
	"id" "35"
	"classname" "func_detail"
	solid
	{
		"id" "36"
		side
		{
			"id" "190"
			"plane" "(208 -160 -143) (208 -224 -143) (256 -224 -143)"
			"material" "TOOLS/TOOLSTRIGGER"
			"uaxis" "[1 0 0 0] 0.25"
			"vaxis" "[0 -1 0 0] 0.25"
			"rotation" "0"
			"lightmapscale" "16"
			"smoothing_groups" "0"
		}
		side
		{
			"id" "189"
			"plane" "(208 -224 -143) (208 -160 -143) (208 -160 -142)"
			"material" "TOOLS/TOOLSTRIGGER"
			"uaxis" "[0 1 0 0] 0.25"
			"vaxis" "[0 0 -1 -60] 0.25"
			"rotation" "0"
			"lightmapscale" "16"
			"smoothing_groups" "0"
		}
		side
		{
			"id" "188"
			"plane" "(256 -160 -143) (256 -224 -143) (256 -224 -142)"
			"material" "TOOLS/TOOLSTRIGGER"
			"uaxis" "[0 1 0 0] 0.25"
			"vaxis" "[0 0 -1 -60] 0.25"
			"rotation" "0"
			"lightmapscale" "16"
			"smoothing_groups" "0"
		}
		side
		{
			"id" "187"
			"plane" "(208 -160 -143) (256 -160 -143) (256 -160 -142)"
			"material" "TOOLS/TOOLSTRIGGER"
			"uaxis" "[1 0 0 0] 0.25"
			"vaxis" "[0 0 -1 -60] 0.25"
			"rotation" "0"
			"lightmapscale" "16"
			"smoothing_groups" "0"
		}
		side
		{
			"id" "186"
			"plane" "(256 -224 -143) (208 -224 -143) (208 -224 -142)"
			"material" "TOOLS/TOOLSTRIGGER"
			"uaxis" "[1 0 0 0] 0.25"
			"vaxis" "[0 0 -1 -60] 0.25"
			"rotation" "0"
			"lightmapscale" "16"
			"smoothing_groups" "0"
		}
		side
		{
			"id" "185"
			"plane" "(208 -224 -142) (208 -160 -142) (256 -160 -142)"
			"material" "TOOLS/TOOLSTRIGGER"
			"uaxis" "[1 0 0 0] 0.25"
			"vaxis" "[0 -1 0 0] 0.25"
			"rotation" "0"
			"lightmapscale" "16"
			"smoothing_groups" "0"
		}
		editor
		{
			"color" "220 0 180"
		}
	}
	editor
	{
		"color" "220 0 180"
		"groupid" "21"
	}
}
entity
{
	"id" "37"
	"classname" "light_environment"
	"angles" "0 284 0"
	"_light" "255 255 255 200"
	"_ambient" "255 255 255 20"
	"pitch" "-70"
	"origin" "-272 240 432"
	editor
	{
		"color" "220 30 220"
		"groupid" "21"
	}
}
entity
{
	"id" "39"
	"classname" "info_player_start"
	"angles" "0 180 0"
	"origin" "288 -192 -96"
	editor
	{
		"color" "0 255 0"
		"groupid" "21"
	}
}
entity
{
	"id" "109"
	"classname" "game_text"
	"x" "-1"
	"y" "-1"
	"color" "100 100 100"
	"color2" "240 110 0"
	"fadein" "1.5"
	"fadeout" "0.5"
	"holdtime" "1.1"
	"fxtime" "0.25"
	"channel" "1"
	"targetname" "text01"
	"message" "event1"
	"spawnflags" "1"
	"origin" "128 -320 -135"
	editor
	{
		"color" "0 112 201"
		"groupid" "576"
	}
}
entity
{
	"id" "267"
	"classname" "game_text"
	"x" "-1"
	"y" "-1"
	"color" "100 100 100"
	"color2" "240 110 0"
	"fadein" "1.5"
	"fadeout" "0.5"
	"holdtime" "1.1"
	"fxtime" "0.25"
	"channel" "2"
	"targetname" "text02"
	"message" "event2"
	"spawnflags" "1"
	"origin" "128 -256 -135"
	editor
	{
		"color" "0 112 201"
		"groupid" "576"
	}
}
entity
{
	"id" "273"
	"classname" "game_text"
	"x" "-1"
	"y" "-1"
	"color" "100 100 100"
	"color2" "240 110 0"
	"fadein" "1.5"
	"fadeout" "0.5"
	"holdtime" "1.1"
	"fxtime" "0.25"
	"channel" "3"
	"targetname" "text03"
	"message" "event3"
	"spawnflags" "1"
	"origin" "128 -192 -135"
	editor
	{
		"color" "0 112 201"
		"groupid" "576"
	}
}
entity
{
	"id" "279"
	"classname" "game_text"
	"x" "-1"
	"y" "-1"
	"color" "100 100 100"
	"color2" "240 110 0"
	"fadein" "1.5"
	"fadeout" "0.5"
	"holdtime" "1.1"
	"fxtime" "0.25"
	"channel" "4"
	"targetname" "text04"
	"message" "event4"
	"spawnflags" "1"
	"origin" "128 -128 -135"
	editor
	{
		"color" "0 112 201"
		"groupid" "576"
	}
}
entity
{
	"id" "287"
	"classname" "game_text"
	"x" "-1"
	"y" "-1"
	"color" "100 100 100"
	"color2" "240 110 0"
	"fadein" "1.5"
	"fadeout" "0.5"
	"holdtime" "1.1"
	"fxtime" "0.25"
	"channel" "1"
	"targetname" "text05"
	"message" "event5"
	"spawnflags" "1"
	"origin" "128 -64 -135"
	editor
	{
		"color" "0 112 201"
		"groupid" "576"
	}
}
entity
{
	"id" "293"
	"classname" "game_text"
	"x" "-1"
	"y" "-1"
	"color" "100 100 100"
	"color2" "240 110 0"
	"fadein" "1.5"
	"fadeout" "0.5"
	"holdtime" "1.1"
	"fxtime" "0.25"
	"channel" "2"
	"targetname" "text06"
	"message" "event6"
	"spawnflags" "1"
	"origin" "128 0 -135"
	editor
	{
		"color" "0 112 201"
		"groupid" "576"
	}
}
entity
{
	"id" "299"
	"classname" "game_text"
	"x" "-1"
	"y" "-1"
	"color" "100 100 100"
	"color2" "240 110 0"
	"fadein" "1.5"
	"fadeout" "0.5"
	"holdtime" "1.1"
	"fxtime" "0.25"
	"channel" "3"
	"targetname" "text07"
	"message" "event7"
	"spawnflags" "1"
	"origin" "192 0 -135"
	editor
	{
		"color" "0 112 201"
		"groupid" "576"
	}
}
entity
{
	"id" "305"
	"classname" "game_text"
	"x" "-1"
	"y" "-1"
	"color" "100 100 100"
	"color2" "240 110 0"
	"fadein" "1.5"
	"fadeout" "0.5"
	"holdtime" "1.1"
	"fxtime" "0.25"
	"channel" "4"
	"targetname" "text08"
	"message" "event8"
	"spawnflags" "1"
	"origin" "192 -64 -135"
	editor
	{
		"color" "0 112 201"
		"groupid" "576"
	}
}
hidden
{
	entity
	{
		"id" "71"
		"classname" "monster_generic"
		"angles" "0 0 0"
		"renderamt" "255"
		"rendercolor" "255 255 255"
		"physdamagescale" "1.0"
		"model" "models/WScanner_Pair.mdl"
		"targetname" "wscan"
		"spawnflags" "0"
		"origin" "0 -256 64"
		editor
		{
			"color" "168 169 174"
			"visgroupid" "1"
		}
	}
}
hidden
{
	entity
	{
		"id" "80"
		"classname" "scripted_sequence"
		"angles" "0 0 0"
		"m_fMoveTo" "0"
		"targetname" "seq"
		"m_iszPostIdle" "rangeattack"
		"spawnflags" "868"
		"m_iszPlay" "rangeattack"
		"m_iszEntity" "wscan"
		"m_flRadius" "0"
		connections
		{
			"OnScriptEvent01" "text01,Display,,0,-1"
			"OnScriptEvent02" "text02,Display,,0,-1"
			"OnScriptEvent03" "text03,Display,,0,-1"
			"OnScriptEvent04" "text04,Display,,0,-1"
			"OnScriptEvent05" "text05,Display,,0,-1"
			"OnScriptEvent06" "text06,Display,,0,-1"
		}
		"origin" "41.9821 -256 64"
		editor
		{
			"color" "168 169 174"
			"visgroupid" "1"
		}
	}
}
entity
{
	"id" "131"
	"classname" "generic_actor"
	"angles" "0 0 0"
	"renderamt" "255"
	"rendercolor" "255 255 255"
	"model" "models/child_worker_f1.mdl"
	"spawnflags" "0"
	"targetname" "childF"
	"disablereceiveshadows" "0"
	"hintlimiting" "0"
	"physdamagescale" "1.0"
	"origin" "64 -192 -135"
	editor
	{
		"color" "0 200 200"
	}
}
entity
{
	"id" "398"
	"classname" "scripted_sequence"
	"angles" "0 0 0"
	"m_fMoveTo" "0"
	"targetname" "childF_seq"
	"m_iszEntity" "childF"
	"m_iszPlay" "load1"
	"spawnflags" "868"
	"m_iszPostIdle" "load1"
	connections
	{
		"OnScriptEvent08" "text08,Display,,0,-1"
		"OnScriptEvent07" "text07,Display,,0,-1"
		"OnScriptEvent06" "text06,Display,,0,-1"
		"OnScriptEvent05" "text05,Display,,0,-1"
		"OnScriptEvent04" "text04,Display,,0,-1"
		"OnScriptEvent03" "text03,Display,,0,-1"
		"OnScriptEvent02" "childF,SetBodyGroup,0,0,-1"
		"OnScriptEvent01" "childF,SetBodyGroup,1,0,-1"
	}
	"origin" "64 -192 -143"
	editor
	{
		"color" "255 0 255"
	}
}
hidden
{
	entity
	{
		"id" "668"
		"classname" "generic_actor"
		"angles" "0 0 0"
		"renderamt" "255"
		"rendercolor" "255 255 255"
		"model" "models/Assassin.mdl"
		"spawnflags" "0"
		"targetname" "ass"
		"disablereceiveshadows" "0"
		"hintlimiting" "0"
		"physdamagescale" "1.0"
		"origin" "0 -128 -135"
		editor
		{
			"color" "86 127 236"
			"visgroupid" "2"
		}
	}
}
hidden
{
	entity
	{
		"id" "688"
		"classname" "scripted_sequence"
		"angles" "0 0 0"
		"m_fMoveTo" "0"
		"targetname" "childF_seq"
		"m_iszEntity" "ass"
		"m_iszPlay" "knife"
		"spawnflags" "868"
		"m_iszPostIdle" "knife"
		connections
		{
			"OnScriptEvent08" "text08,Display,,0,-1"
			"OnScriptEvent07" "text07,Display,,0,-1"
			"OnScriptEvent06" "text06,Display,,0,-1"
			"OnScriptEvent05" "text05,Display,,0,-1"
			"OnScriptEvent04" "text04,Display,,0,-1"
			"OnScriptEvent03" "text03,Display,,0,-1"
			"OnScriptEvent02" "text02,Display,,0,-1"
			"OnScriptEvent01" "text01,Display,,0,-1"
		}
		"origin" "0 -128 -143"
		editor
		{
			"color" "86 127 236"
			"visgroupid" "2"
		}
	}
}
cameras
{
	"activecamera" "-1"
}
cordon
{
	"mins" "(99999 99999 99999)"
	"maxs" "(-99999 -99999 -99999)"
	"active" "0"
}
