versioninfo
{
	"editorversion" "400"
	"editorbuild" "9870"
	"mapversion" "2"
	"prefab" "0"
}
viewsettings
{
	"bSnapToGrid" "1"
	"bShowGrid" "1"
	"nGridSpacing" "64"
	"bShow3DGrid" "0"
}
world
{
	"id" "0"
	"mapversion" "2"
	"classname" "worldspawn"
	"skyname" "sky_test"
	solid
	{
		"id" "22"
		side
		{
			"id" "208"
			"plane" "(-192 288 0) (-192 -800 0) (448 -800 0)"
			"material" "DEV/DEV_MEASUREGENERIC01B"
			"uaxis" "[1 0 0 0] 0.25"
			"vaxis" "[0 -1 0 0] 0.25"
			"rotation" "0"
			"lightmapscale" "16"
			"smoothing_groups" "0"
		}
		side
		{
			"id" "207"
			"plane" "(-192 -800 0) (-192 288 0) (-192 288 16)"
			"material" "DEV/DEV_MEASUREGENERIC01B"
			"uaxis" "[0 0 1 -64] 0.25"
			"vaxis" "[0 -1 0 0] 0.25"
			"rotation" "0"
			"lightmapscale" "16"
			"smoothing_groups" "0"
		}
		side
		{
			"id" "206"
			"plane" "(448 288 16) (448 288 0) (448 -800 0)"
			"material" "DEV/DEV_MEASUREGENERIC01B"
			"uaxis" "[0 0 -1 64] 0.25"
			"vaxis" "[0 -1 0 0] 0.25"
			"rotation" "0"
			"lightmapscale" "16"
			"smoothing_groups" "0"
		}
		side
		{
			"id" "205"
			"plane" "(-192 288 16) (-192 288 0) (448 288 0)"
			"material" "DEV/DEV_MEASUREGENERIC01B"
			"uaxis" "[1 0 0 0] 0.25"
			"vaxis" "[0 0 1 -64] 0.25"
			"rotation" "0"
			"lightmapscale" "16"
			"smoothing_groups" "0"
		}
		side
		{
			"id" "204"
			"plane" "(-192 -800 16) (-192 288 16) (448 288 16)"
			"material" "DEV/DEV_MEASUREGENERIC01B"
			"uaxis" "[1 0 0 0] 0.25"
			"vaxis" "[0 -1 0 0] 0.25"
			"rotation" "0"
			"lightmapscale" "16"
			"smoothing_groups" "0"
		}
		side
		{
			"id" "203"
			"plane" "(448 -800 16) (448 -800 0) (-192 -800 0)"
			"material" "DEV/DEV_MEASUREGENERIC01B"
			"uaxis" "[1 0 0 0] 0.25"
			"vaxis" "[0 0 -1 0] 0.25"
			"rotation" "0"
			"lightmapscale" "16"
			"smoothing_groups" "0"
		}
		editor
		{
			"color" "220 220 220"
			"groupid" "21"
		}
	}
	solid
	{
		"id" "23"
		side
		{
			"id" "94"
			"plane" "(448 -816 128) (-192 -816 128) (-192 -816 656)"
			"material" "TOOLS/TOOLSSKYBOX"
			"uaxis" "[1 0 0 -18.8235] 0.265625"
			"vaxis" "[0 0 -1 -56.8889] 0.28125"
			"rotation" "0"
			"lightmapscale" "16"
			"smoothing_groups" "0"
		}
		side
		{
			"id" "93"
			"plane" "(448 -800 656) (448 -816 656) (-192 -816 656)"
			"material" "TOOLS/TOOLSSKYBOX"
			"uaxis" "[1 0 0 0] 0.25"
			"vaxis" "[0 -1 0 0] 0.25"
			"rotation" "0"
			"lightmapscale" "16"
			"smoothing_groups" "0"
		}
		side
		{
			"id" "92"
			"plane" "(-192 -800 656) (-192 -816 656) (-192 -816 128)"
			"material" "TOOLS/TOOLSSKYBOX"
			"uaxis" "[0 1 0 0] 0.25"
			"vaxis" "[0 0 -1 0] 0.25"
			"rotation" "0"
			"lightmapscale" "16"
			"smoothing_groups" "0"
		}
		side
		{
			"id" "91"
			"plane" "(448 -800 128) (448 -816 128) (448 -816 656)"
			"material" "TOOLS/TOOLSSKYBOX"
			"uaxis" "[0 1 0 0] 0.25"
			"vaxis" "[0 0 -1 0] 0.25"
			"rotation" "0"
			"lightmapscale" "16"
			"smoothing_groups" "0"
		}
		side
		{
			"id" "90"
			"plane" "(-192 -800 128) (448 -800 128) (448 -800 656)"
			"material" "TOOLS/TOOLSSKYBOX"
			"uaxis" "[1 0 0 0] 0.25"
			"vaxis" "[0 0 -1 0] 0.25"
			"rotation" "0"
			"lightmapscale" "16"
			"smoothing_groups" "0"
		}
		side
		{
			"id" "89"
			"plane" "(448 -800 128) (-192 -800 128) (-192 -816 128)"
			"material" "TOOLS/TOOLSSKYBOX"
			"uaxis" "[1 0 0 0] 0.25"
			"vaxis" "[0 -1 0 0] 0.25"
			"rotation" "0"
			"lightmapscale" "16"
			"smoothing_groups" "0"
		}
		editor
		{
			"color" "220 220 220"
			"groupid" "21"
		}
	}
	solid
	{
		"id" "24"
		side
		{
			"id" "88"
			"plane" "(448 -816 128) (448 -816 0) (-192 -816 0)"
			"material" "DEV/DEV_MEASURECRATE01"
			"uaxis" "[1 0 0 -210.824] 0.265625"
			"vaxis" "[0 0 -1 -56.8889] 0.28125"
			"rotation" "0"
			"lightmapscale" "16"
			"smoothing_groups" "0"
		}
		side
		{
			"id" "87"
			"plane" "(448 -800 0) (-192 -800 0) (-192 -816 0)"
			"material" "DEV/DEV_MEASURECRATE01"
			"uaxis" "[1 0 0 0] 0.25"
			"vaxis" "[0 -1 0 -128] 0.25"
			"rotation" "0"
			"lightmapscale" "16"
			"smoothing_groups" "0"
		}
		side
		{
			"id" "86"
			"plane" "(-192 -800 128) (-192 -816 128) (-192 -816 0)"
			"material" "DEV/DEV_MEASURECRATE01"
			"uaxis" "[0 1 0 128] 0.25"
			"vaxis" "[0 0 -1 0] 0.25"
			"rotation" "0"
			"lightmapscale" "16"
			"smoothing_groups" "0"
		}
		side
		{
			"id" "85"
			"plane" "(448 -800 128) (448 -800 0) (448 -816 0)"
			"material" "DEV/DEV_MEASURECRATE01"
			"uaxis" "[0 1 0 128] 0.25"
			"vaxis" "[0 0 -1 0] 0.25"
			"rotation" "0"
			"lightmapscale" "16"
			"smoothing_groups" "0"
		}
		side
		{
			"id" "84"
			"plane" "(-192 -800 128) (-192 -800 0) (448 -800 0)"
			"material" "DEV/DEV_MEASURECRATE01"
			"uaxis" "[1 0 0 0] 0.25"
			"vaxis" "[0 0 -1 0] 0.25"
			"rotation" "0"
			"lightmapscale" "16"
			"smoothing_groups" "0"
		}
		side
		{
			"id" "83"
			"plane" "(448 -800 128) (448 -816 128) (-192 -816 128)"
			"material" "DEV/DEV_MEASURECRATE01"
			"uaxis" "[1 0 0 0] 0.25"
			"vaxis" "[0 -1 0 -128] 0.25"
			"rotation" "0"
			"lightmapscale" "16"
			"smoothing_groups" "0"
		}
		editor
		{
			"color" "220 220 220"
			"groupid" "21"
		}
	}
	solid
	{
		"id" "25"
		side
		{
			"id" "82"
			"plane" "(-192 304 128) (448 304 128) (448 304 656)"
			"material" "TOOLS/TOOLSSKYBOX"
			"uaxis" "[1 0 0 -18.8235] 0.265625"
			"vaxis" "[0 0 -1 -56.8889] 0.28125"
			"rotation" "0"
			"lightmapscale" "16"
			"smoothing_groups" "0"
		}
		side
		{
			"id" "81"
			"plane" "(448 288 656) (-192 288 656) (-192 304 656)"
			"material" "TOOLS/TOOLSSKYBOX"
			"uaxis" "[1 0 0 0] 0.25"
			"vaxis" "[0 -1 0 0] 0.25"
			"rotation" "0"
			"lightmapscale" "16"
			"smoothing_groups" "0"
		}
		side
		{
			"id" "80"
			"plane" "(-192 288 128) (-192 304 128) (-192 304 656)"
			"material" "TOOLS/TOOLSSKYBOX"
			"uaxis" "[0 1 0 0] 0.25"
			"vaxis" "[0 0 -1 0] 0.25"
			"rotation" "0"
			"lightmapscale" "16"
			"smoothing_groups" "0"
		}
		side
		{
			"id" "79"
			"plane" "(448 288 656) (448 304 656) (448 304 128)"
			"material" "TOOLS/TOOLSSKYBOX"
			"uaxis" "[0 1 0 0] 0.25"
			"vaxis" "[0 0 -1 0] 0.25"
			"rotation" "0"
			"lightmapscale" "16"
			"smoothing_groups" "0"
		}
		side
		{
			"id" "78"
			"plane" "(448 288 128) (-192 288 128) (-192 288 656)"
			"material" "TOOLS/TOOLSSKYBOX"
			"uaxis" "[1 0 0 0] 0.25"
			"vaxis" "[0 0 -1 0] 0.25"
			"rotation" "0"
			"lightmapscale" "16"
			"smoothing_groups" "0"
		}
		side
		{
			"id" "77"
			"plane" "(448 288 128) (448 304 128) (-192 304 128)"
			"material" "TOOLS/TOOLSSKYBOX"
			"uaxis" "[1 0 0 0] 0.25"
			"vaxis" "[0 -1 0 0] 0.25"
			"rotation" "0"
			"lightmapscale" "16"
			"smoothing_groups" "0"
		}
		editor
		{
			"color" "220 220 220"
			"groupid" "21"
		}
	}
	solid
	{
		"id" "26"
		side
		{
			"id" "76"
			"plane" "(-192 304 128) (-192 304 0) (448 304 0)"
			"material" "DEV/DEV_MEASURECRATE01"
			"uaxis" "[1 0 0 -210.824] 0.265625"
			"vaxis" "[0 0 -1 -56.8889] 0.28125"
			"rotation" "0"
			"lightmapscale" "16"
			"smoothing_groups" "0"
		}
		side
		{
			"id" "75"
			"plane" "(448 288 0) (448 304 0) (-192 304 0)"
			"material" "DEV/DEV_MEASURECRATE01"
			"uaxis" "[1 0 0 0] 0.25"
			"vaxis" "[0 -1 0 -128] 0.25"
			"rotation" "0"
			"lightmapscale" "16"
			"smoothing_groups" "0"
		}
		side
		{
			"id" "74"
			"plane" "(-192 288 128) (-192 288 0) (-192 304 0)"
			"material" "DEV/DEV_MEASURECRATE01"
			"uaxis" "[0 1 0 128] 0.25"
			"vaxis" "[0 0 -1 0] 0.25"
			"rotation" "0"
			"lightmapscale" "16"
			"smoothing_groups" "0"
		}
		side
		{
			"id" "73"
			"plane" "(448 288 128) (448 304 128) (448 304 0)"
			"material" "DEV/DEV_MEASURECRATE01"
			"uaxis" "[0 1 0 128] 0.25"
			"vaxis" "[0 0 -1 0] 0.25"
			"rotation" "0"
			"lightmapscale" "16"
			"smoothing_groups" "0"
		}
		side
		{
			"id" "72"
			"plane" "(448 288 128) (448 288 0) (-192 288 0)"
			"material" "DEV/DEV_MEASURECRATE01"
			"uaxis" "[1 0 0 0] 0.25"
			"vaxis" "[0 0 -1 0] 0.25"
			"rotation" "0"
			"lightmapscale" "16"
			"smoothing_groups" "0"
		}
		side
		{
			"id" "71"
			"plane" "(448 288 128) (-192 288 128) (-192 304 128)"
			"material" "DEV/DEV_MEASURECRATE01"
			"uaxis" "[1 0 0 0] 0.25"
			"vaxis" "[0 -1 0 -128] 0.25"
			"rotation" "0"
			"lightmapscale" "16"
			"smoothing_groups" "0"
		}
		editor
		{
			"color" "220 220 220"
			"groupid" "21"
		}
	}
	solid
	{
		"id" "27"
		side
		{
			"id" "70"
			"plane" "(464 -816 656) (464 304 656) (464 304 128)"
			"material" "TOOLS/TOOLSSKYBOX"
			"uaxis" "[0 1 0 42.667] 0.267857"
			"vaxis" "[0 0 -1 -56.8889] 0.28125"
			"rotation" "0"
			"lightmapscale" "16"
			"smoothing_groups" "0"
		}
		side
		{
			"id" "69"
			"plane" "(448 304 128) (464 304 128) (464 304 656)"
			"material" "TOOLS/TOOLSSKYBOX"
			"uaxis" "[1 0 0 -18.8235] 0.265625"
			"vaxis" "[0 0 -1 -56.8889] 0.28125"
			"rotation" "0"
			"lightmapscale" "16"
			"smoothing_groups" "0"
		}
		side
		{
			"id" "68"
			"plane" "(448 -816 656) (464 -816 656) (464 -816 128)"
			"material" "TOOLS/TOOLSSKYBOX"
			"uaxis" "[1 0 0 -18.8235] 0.265625"
			"vaxis" "[0 0 -1 -56.8889] 0.28125"
			"rotation" "0"
			"lightmapscale" "16"
			"smoothing_groups" "0"
		}
		side
		{
			"id" "67"
			"plane" "(448 -816 656) (448 304 656) (464 304 656)"
			"material" "TOOLS/TOOLSSKYBOX"
			"uaxis" "[1 0 0 0] 0.25"
			"vaxis" "[0 -1 0 0] 0.25"
			"rotation" "0"
			"lightmapscale" "16"
			"smoothing_groups" "0"
		}
		side
		{
			"id" "66"
			"plane" "(448 304 656) (448 -816 656) (448 -816 128)"
			"material" "TOOLS/TOOLSSKYBOX"
			"uaxis" "[0 1 0 0] 0.25"
			"vaxis" "[0 0 -1 0] 0.25"
			"rotation" "0"
			"lightmapscale" "16"
			"smoothing_groups" "0"
		}
		side
		{
			"id" "65"
			"plane" "(448 304 128) (448 -816 128) (464 -816 128)"
			"material" "TOOLS/TOOLSSKYBOX"
			"uaxis" "[1 0 0 0] 0.25"
			"vaxis" "[0 -1 0 0] 0.25"
			"rotation" "0"
			"lightmapscale" "16"
			"smoothing_groups" "0"
		}
		editor
		{
			"color" "220 220 220"
			"groupid" "21"
		}
	}
	solid
	{
		"id" "28"
		side
		{
			"id" "64"
			"plane" "(464 -816 128) (464 304 128) (464 304 0)"
			"material" "DEV/DEV_MEASURECRATE01"
			"uaxis" "[0 1 0 42.6669] 0.267857"
			"vaxis" "[0 0 -1 -56.8889] 0.28125"
			"rotation" "0"
			"lightmapscale" "16"
			"smoothing_groups" "0"
		}
		side
		{
			"id" "63"
			"plane" "(448 304 128) (448 304 0) (464 304 0)"
			"material" "DEV/DEV_MEASURECRATE01"
			"uaxis" "[1 0 0 -210.824] 0.265625"
			"vaxis" "[0 0 -1 -56.8889] 0.28125"
			"rotation" "0"
			"lightmapscale" "16"
			"smoothing_groups" "0"
		}
		side
		{
			"id" "62"
			"plane" "(448 -816 128) (464 -816 128) (464 -816 0)"
			"material" "DEV/DEV_MEASURECRATE01"
			"uaxis" "[1 0 0 -210.824] 0.265625"
			"vaxis" "[0 0 -1 -56.8889] 0.28125"
			"rotation" "0"
			"lightmapscale" "16"
			"smoothing_groups" "0"
		}
		side
		{
			"id" "61"
			"plane" "(448 304 0) (448 -816 0) (464 -816 0)"
			"material" "DEV/DEV_MEASURECRATE01"
			"uaxis" "[1 0 0 0] 0.25"
			"vaxis" "[0 -1 0 -128] 0.25"
			"rotation" "0"
			"lightmapscale" "16"
			"smoothing_groups" "0"
		}
		side
		{
			"id" "60"
			"plane" "(448 304 128) (448 -816 128) (448 -816 0)"
			"material" "DEV/DEV_MEASURECRATE01"
			"uaxis" "[0 1 0 128] 0.25"
			"vaxis" "[0 0 -1 0] 0.25"
			"rotation" "0"
			"lightmapscale" "16"
			"smoothing_groups" "0"
		}
		side
		{
			"id" "59"
			"plane" "(448 -816 128) (448 304 128) (464 304 128)"
			"material" "DEV/DEV_MEASURECRATE01"
			"uaxis" "[1 0 0 0] 0.25"
			"vaxis" "[0 -1 0 -128] 0.25"
			"rotation" "0"
			"lightmapscale" "16"
			"smoothing_groups" "0"
		}
		editor
		{
			"color" "220 220 220"
			"groupid" "21"
		}
	}
	solid
	{
		"id" "29"
		side
		{
			"id" "58"
			"plane" "(-208 304 656) (-208 -816 656) (-208 -816 128)"
			"material" "TOOLS/TOOLSSKYBOX"
			"uaxis" "[0 1 0 42.667] 0.267857"
			"vaxis" "[0 0 -1 -56.8889] 0.28125"
			"rotation" "0"
			"lightmapscale" "16"
			"smoothing_groups" "0"
		}
		side
		{
			"id" "57"
			"plane" "(-192 304 656) (-208 304 656) (-208 304 128)"
			"material" "TOOLS/TOOLSSKYBOX"
			"uaxis" "[1 0 0 -18.8235] 0.265625"
			"vaxis" "[0 0 -1 -56.8889] 0.28125"
			"rotation" "0"
			"lightmapscale" "16"
			"smoothing_groups" "0"
		}
		side
		{
			"id" "56"
			"plane" "(-192 -816 128) (-208 -816 128) (-208 -816 656)"
			"material" "TOOLS/TOOLSSKYBOX"
			"uaxis" "[1 0 0 -18.8235] 0.265625"
			"vaxis" "[0 0 -1 -56.8889] 0.28125"
			"rotation" "0"
			"lightmapscale" "16"
			"smoothing_groups" "0"
		}
		side
		{
			"id" "55"
			"plane" "(-192 304 656) (-192 -816 656) (-208 -816 656)"
			"material" "TOOLS/TOOLSSKYBOX"
			"uaxis" "[1 0 0 0] 0.25"
			"vaxis" "[0 -1 0 0] 0.25"
			"rotation" "0"
			"lightmapscale" "16"
			"smoothing_groups" "0"
		}
		side
		{
			"id" "54"
			"plane" "(-192 -816 656) (-192 304 656) (-192 304 128)"
			"material" "TOOLS/TOOLSSKYBOX"
			"uaxis" "[0 1 0 0] 0.25"
			"vaxis" "[0 0 -1 0] 0.25"
			"rotation" "0"
			"lightmapscale" "16"
			"smoothing_groups" "0"
		}
		side
		{
			"id" "53"
			"plane" "(-192 -816 128) (-192 304 128) (-208 304 128)"
			"material" "TOOLS/TOOLSSKYBOX"
			"uaxis" "[1 0 0 0] 0.25"
			"vaxis" "[0 -1 0 0] 0.25"
			"rotation" "0"
			"lightmapscale" "16"
			"smoothing_groups" "0"
		}
		editor
		{
			"color" "220 220 220"
			"groupid" "21"
		}
	}
	solid
	{
		"id" "30"
		side
		{
			"id" "52"
			"plane" "(-208 304 128) (-208 -816 128) (-208 -816 0)"
			"material" "DEV/DEV_MEASURECRATE01"
			"uaxis" "[0 1 0 42.6669] 0.267857"
			"vaxis" "[0 0 -1 -56.8889] 0.28125"
			"rotation" "0"
			"lightmapscale" "16"
			"smoothing_groups" "0"
		}
		side
		{
			"id" "51"
			"plane" "(-192 304 128) (-208 304 128) (-208 304 0)"
			"material" "DEV/DEV_MEASURECRATE01"
			"uaxis" "[1 0 0 -210.824] 0.265625"
			"vaxis" "[0 0 -1 -56.8889] 0.28125"
			"rotation" "0"
			"lightmapscale" "16"
			"smoothing_groups" "0"
		}
		side
		{
			"id" "50"
			"plane" "(-192 -816 128) (-192 -816 0) (-208 -816 0)"
			"material" "DEV/DEV_MEASURECRATE01"
			"uaxis" "[1 0 0 -210.824] 0.265625"
			"vaxis" "[0 0 -1 -56.8889] 0.28125"
			"rotation" "0"
			"lightmapscale" "16"
			"smoothing_groups" "0"
		}
		side
		{
			"id" "49"
			"plane" "(-192 -816 0) (-192 304 0) (-208 304 0)"
			"material" "DEV/DEV_MEASURECRATE01"
			"uaxis" "[1 0 0 0] 0.25"
			"vaxis" "[0 -1 0 -128] 0.25"
			"rotation" "0"
			"lightmapscale" "16"
			"smoothing_groups" "0"
		}
		side
		{
			"id" "48"
			"plane" "(-192 -816 128) (-192 304 128) (-192 304 0)"
			"material" "DEV/DEV_MEASURECRATE01"
			"uaxis" "[0 1 0 128] 0.25"
			"vaxis" "[0 0 -1 0] 0.25"
			"rotation" "0"
			"lightmapscale" "16"
			"smoothing_groups" "0"
		}
		side
		{
			"id" "47"
			"plane" "(-192 304 128) (-192 -816 128) (-208 -816 128)"
			"material" "DEV/DEV_MEASURECRATE01"
			"uaxis" "[1 0 0 0] 0.25"
			"vaxis" "[0 -1 0 -128] 0.25"
			"rotation" "0"
			"lightmapscale" "16"
			"smoothing_groups" "0"
		}
		editor
		{
			"color" "220 220 220"
			"groupid" "21"
		}
	}
	solid
	{
		"id" "31"
		side
		{
			"id" "40"
			"plane" "(464 -816 672) (-208 -816 672) (-208 304 672)"
			"material" "TOOLS/TOOLSSKYBOX"
			"uaxis" "[1 0 0 -18.8235] 0.265625"
			"vaxis" "[0 -1 0 -42.667] 0.267857"
			"rotation" "0"
			"lightmapscale" "16"
			"smoothing_groups" "0"
		}
		side
		{
			"id" "39"
			"plane" "(-208 -816 656) (-208 304 656) (-208 304 672)"
			"material" "TOOLS/TOOLSSKYBOX"
			"uaxis" "[0 1 0 42.667] 0.267857"
			"vaxis" "[0 0 -1 -56.8889] 0.28125"
			"rotation" "0"
			"lightmapscale" "16"
			"smoothing_groups" "0"
		}
		side
		{
			"id" "38"
			"plane" "(464 304 656) (464 -816 656) (464 -816 672)"
			"material" "TOOLS/TOOLSSKYBOX"
			"uaxis" "[0 1 0 42.667] 0.267857"
			"vaxis" "[0 0 -1 -56.8889] 0.28125"
			"rotation" "0"
			"lightmapscale" "16"
			"smoothing_groups" "0"
		}
		side
		{
			"id" "37"
			"plane" "(-208 304 656) (464 304 656) (464 304 672)"
			"material" "TOOLS/TOOLSSKYBOX"
			"uaxis" "[1 0 0 -18.8235] 0.265625"
			"vaxis" "[0 0 -1 -56.8889] 0.28125"
			"rotation" "0"
			"lightmapscale" "16"
			"smoothing_groups" "0"
		}
		side
		{
			"id" "36"
			"plane" "(464 -816 656) (-208 -816 656) (-208 -816 672)"
			"material" "TOOLS/TOOLSSKYBOX"
			"uaxis" "[1 0 0 -18.8235] 0.265625"
			"vaxis" "[0 0 -1 -56.8889] 0.28125"
			"rotation" "0"
			"lightmapscale" "16"
			"smoothing_groups" "0"
		}
		side
		{
			"id" "35"
			"plane" "(464 304 656) (-208 304 656) (-208 -816 656)"
			"material" "TOOLS/TOOLSSKYBOX"
			"uaxis" "[1 0 0 0] 0.25"
			"vaxis" "[0 -1 0 0] 0.25"
			"rotation" "0"
			"lightmapscale" "16"
			"smoothing_groups" "0"
		}
		editor
		{
			"color" "220 220 220"
			"groupid" "21"
		}
	}
	group
	{
		"id" "21"
		editor
		{
			"color" "220 220 220"
		}
	}
}
entity
{
	"id" "32"
	"classname" "trigger_once"
	"StartDisabled" "0"
	"spawnflags" "1"
	"origin" "344 -192 56"
	solid
	{
		"id" "33"
		side
		{
			"id" "179"
			"plane" "(320 -160 80) (368 -160 80) (368 -224 80)"
			"material" "TOOLS/TOOLSTRIGGER"
			"uaxis" "[1 0 0 0] 0.25"
			"vaxis" "[0 -1 0 0] 0.25"
			"rotation" "0"
			"lightmapscale" "16"
			"smoothing_groups" "0"
		}
		side
		{
			"id" "180"
			"plane" "(320 -224 32) (368 -224 32) (368 -160 32)"
			"material" "TOOLS/TOOLSTRIGGER"
			"uaxis" "[1 0 0 0] 0.25"
			"vaxis" "[0 -1 0 0] 0.25"
			"rotation" "0"
			"lightmapscale" "16"
			"smoothing_groups" "0"
		}
		side
		{
			"id" "181"
			"plane" "(320 -160 80) (320 -224 80) (320 -224 32)"
			"material" "TOOLS/TOOLSTRIGGER"
			"uaxis" "[0 1 0 0] 0.25"
			"vaxis" "[0 0 -1 0] 0.25"
			"rotation" "0"
			"lightmapscale" "16"
			"smoothing_groups" "0"
		}
		side
		{
			"id" "182"
			"plane" "(368 -160 32) (368 -224 32) (368 -224 80)"
			"material" "TOOLS/TOOLSTRIGGER"
			"uaxis" "[0 1 0 0] 0.25"
			"vaxis" "[0 0 -1 0] 0.25"
			"rotation" "0"
			"lightmapscale" "16"
			"smoothing_groups" "0"
		}
		side
		{
			"id" "183"
			"plane" "(368 -160 80) (320 -160 80) (320 -160 32)"
			"material" "TOOLS/TOOLSTRIGGER"
			"uaxis" "[1 0 0 0] 0.25"
			"vaxis" "[0 0 -1 0] 0.25"
			"rotation" "0"
			"lightmapscale" "16"
			"smoothing_groups" "0"
		}
		side
		{
			"id" "184"
			"plane" "(368 -224 32) (320 -224 32) (320 -224 80)"
			"material" "TOOLS/TOOLSTRIGGER"
			"uaxis" "[1 0 0 0] 0.25"
			"vaxis" "[0 0 -1 0] 0.25"
			"rotation" "0"
			"lightmapscale" "16"
			"smoothing_groups" "0"
		}
		editor
		{
			"color" "220 220 220"
		}
	}
	editor
	{
		"color" "255 255 255"
	}
	editor
	{
		"color" "220 220 220"
		"groupid" "21"
	}
}
entity
{
	"id" "35"
	"classname" "func_detail"
	solid
	{
		"id" "36"
		side
		{
			"id" "190"
			"plane" "(320 -160 17) (320 -224 17) (368 -224 17)"
			"material" "TOOLS/TOOLSTRIGGER"
			"uaxis" "[1 0 0 0] 0.25"
			"vaxis" "[0 -1 0 0] 0.25"
			"rotation" "0"
			"lightmapscale" "16"
			"smoothing_groups" "0"
		}
		side
		{
			"id" "189"
			"plane" "(320 -224 17) (320 -160 17) (320 -160 18)"
			"material" "TOOLS/TOOLSTRIGGER"
			"uaxis" "[0 1 0 0] 0.25"
			"vaxis" "[0 0 -1 4] 0.25"
			"rotation" "0"
			"lightmapscale" "16"
			"smoothing_groups" "0"
		}
		side
		{
			"id" "188"
			"plane" "(368 -160 17) (368 -224 17) (368 -224 18)"
			"material" "TOOLS/TOOLSTRIGGER"
			"uaxis" "[0 1 0 0] 0.25"
			"vaxis" "[0 0 -1 4] 0.25"
			"rotation" "0"
			"lightmapscale" "16"
			"smoothing_groups" "0"
		}
		side
		{
			"id" "187"
			"plane" "(320 -160 17) (368 -160 17) (368 -160 18)"
			"material" "TOOLS/TOOLSTRIGGER"
			"uaxis" "[1 0 0 0] 0.25"
			"vaxis" "[0 0 -1 4] 0.25"
			"rotation" "0"
			"lightmapscale" "16"
			"smoothing_groups" "0"
		}
		side
		{
			"id" "186"
			"plane" "(368 -224 17) (320 -224 17) (320 -224 18)"
			"material" "TOOLS/TOOLSTRIGGER"
			"uaxis" "[1 0 0 0] 0.25"
			"vaxis" "[0 0 -1 4] 0.25"
			"rotation" "0"
			"lightmapscale" "16"
			"smoothing_groups" "0"
		}
		side
		{
			"id" "185"
			"plane" "(320 -224 18) (320 -160 18) (368 -160 18)"
			"material" "TOOLS/TOOLSTRIGGER"
			"uaxis" "[1 0 0 0] 0.25"
			"vaxis" "[0 -1 0 0] 0.25"
			"rotation" "0"
			"lightmapscale" "16"
			"smoothing_groups" "0"
		}
		editor
		{
			"color" "220 220 220"
		}
	}
	editor
	{
		"color" "220 220 220"
		"groupid" "21"
	}
}
entity
{
	"id" "37"
	"classname" "light_environment"
	"angles" "0 284 0"
	"_light" "255 255 255 200"
	"_ambient" "255 255 255 20"
	"pitch" "-70"
	"origin" "-160 240 592"
	editor
	{
		"color" "220 220 220"
		"groupid" "21"
	}
}
entity
{
	"id" "39"
	"classname" "info_player_start"
	"angles" "0 180 0"
	"origin" "400 -192 64"
	editor
	{
		"color" "220 220 220"
		"groupid" "21"
	}
}
entity
{
	"id" "41"
	"classname" "npc_combine_s"
	"angles" "0 0 0"
	"renderamt" "255"
	"rendercolor" "255 255 255"
	"spawnflags" "4"
	"physdamagescale" "1.0"
	"additionalequipment" "weapon_smg1"
	"NumGrenades" "0"
	"targetname" "combik"
	"origin" "68.756 -192.224 17"
	editor
	{
		"color" "0 200 200"
	}
}
entity
{
	"id" "53"
	"classname" "trigger_hurt"
	"targetname" "heal"
	"StartDisabled" "0"
	"damage" "-50"
	"damagetype" "0"
	"spawnflags" "1"
	"origin" "128 -256 72.5"
	solid
	{
		"id" "51"
		side
		{
			"id" "1"
			"plane" "(-256 384 128) (512 384 128) (512 -896 128)"
			"material" "TOOLS/TOOLSTRIGGER"
			"uaxis" "[1 0 0 0] 0.25"
			"vaxis" "[0 -1 0 0] 0.25"
			"rotation" "0"
			"lightmapscale" "16"
			"smoothing_groups" "0"
		}
		side
		{
			"id" "2"
			"plane" "(-256 -896 17) (512 -896 17) (512 384 17)"
			"material" "TOOLS/TOOLSTRIGGER"
			"uaxis" "[1 0 0 0] 0.25"
			"vaxis" "[0 -1 0 0] 0.25"
			"rotation" "0"
			"lightmapscale" "16"
			"smoothing_groups" "0"
		}
		side
		{
			"id" "3"
			"plane" "(-256 384 128) (-256 -896 128) (-256 -896 17)"
			"material" "TOOLS/TOOLSTRIGGER"
			"uaxis" "[0 1 0 0] 0.25"
			"vaxis" "[0 0 -1 0] 0.25"
			"rotation" "0"
			"lightmapscale" "16"
			"smoothing_groups" "0"
		}
		side
		{
			"id" "4"
			"plane" "(512 384 17) (512 -896 17) (512 -896 128)"
			"material" "TOOLS/TOOLSTRIGGER"
			"uaxis" "[0 1 0 0] 0.25"
			"vaxis" "[0 0 -1 0] 0.25"
			"rotation" "0"
			"lightmapscale" "16"
			"smoothing_groups" "0"
		}
		side
		{
			"id" "5"
			"plane" "(512 384 128) (-256 384 128) (-256 384 17)"
			"material" "TOOLS/TOOLSTRIGGER"
			"uaxis" "[1 0 0 0] 0.25"
			"vaxis" "[0 0 -1 0] 0.25"
			"rotation" "0"
			"lightmapscale" "16"
			"smoothing_groups" "0"
		}
		side
		{
			"id" "6"
			"plane" "(512 -896 17) (-256 -896 17) (-256 -896 128)"
			"material" "TOOLS/TOOLSTRIGGER"
			"uaxis" "[1 0 0 0] 0.25"
			"vaxis" "[0 0 -1 0] 0.25"
			"rotation" "0"
			"lightmapscale" "16"
			"smoothing_groups" "0"
		}
		editor
		{
			"color" "220 30 220"
		}
	}
	editor
	{
		"color" "255 255 255"
	}
	editor
	{
		"color" "220 30 220"
	}
}
cameras
{
	"activecamera" "-1"
}
cordon
{
	"mins" "(99999 99999 99999)"
	"maxs" "(-99999 -99999 -99999)"
	"active" "0"
}
