// Created by Crowbar 0.62
version 1
nodes
  0 "Bip01" -1
  1 "Bip01 Pelvis" 0
  2 "Bip01 Spine" 1
  3 "Bip01 Spine1" 2
  4 "Bip01 Spine2" 3
  5 "Bip01 Spine3" 4
  6 "Bip01 Neck" 5
  7 "Bip01 R Clavicle" 6
  8 "Bip01 R UpperArm" 7
  9 "Bip01 R Forearm" 8
  10 "Bip01 R Hand" 9
  11 "pistol" 10
end
skeleton
  time 0
    0 22.384340 25.400583 1.566907 1.439244 0.819631 -1.754344
    1 0.000002 0.000001 0.000001 0.000000 -1.524578 -1.570795
    2 3.990396 -0.003599 0.184577 -0.004831 -0.003417 0.000803
    3 4.515677 -0.003556 -0.000532 0.149059 -0.056913 -0.015466
    4 4.515986 -0.003574 -0.000314 0.087508 -0.062601 0.073294
    5 4.516034 -0.003578 0.000151 -0.042076 0.034072 0.090792
    6 4.515705 -0.001596 -0.000001 0.000000 0.000000 0.000000
    7 0.000001 0.001601 -2.030331 -1.438402 1.162019 1.714125
    8 4.515704 -0.000001 -0.000001 0.429592 -0.137740 -1.692630
    9 12.817655 0.000000 0.000000 0.000000 0.000000 -0.422706
    10 11.983983 -0.000001 0.000000 2.629760 0.184294 0.268985
    11 5.678821 1.398256 0.815134 0.012823 -0.010835 1.643566
end
