// Created by Crowbar 0.62

$modelname "props_borealis/windlass01.mdl"

$staticprop

$bodygroup "Body"
{
	studio "windlass01_reference.smd"
}

$surfaceprop "metalpanel"

$contents "solid"

$illumposition 0 0 15.8

$cdmaterials "models\props_borealis\"

$cbox 0 0 0 0 0 0

$bbox -24.661 -24.661 0.043 24.661 24.661 31.558

$animation "a_idle" "windlass01_anims\idle.smd" {
	fps 30
}

$sequence "idle" {
	"a_idle"
	fadein 0.2
	fadeout 0.2
}


$collisionmodel "windlass01_physics.smd"
{
	$mass 500
	$inertia 1
	$damping 0
	$rotdamping 0
	$rootbone " "
	$concave

}
