// Created by Crowbar 0.62
version 1
nodes
  0 "static_prop" -1
end
skeleton
  time 0
    0 0.000000 0.000000 0.000000 0.000000 0.000000 0.000000
end
triangles
boxmrounds
  0 0.533900 -4.414100 -0.002100 -0.099102 -0.994925 -0.017400 0.494900 0.018900 1 0 1.000000
  0 0.533900 -4.430900 0.959600 -0.104503 -0.994524 0.000000 0.495200 0.162700 1 0 1.000000
  0 -2.502100 -4.111900 0.001600 -0.104503 -0.994524 0.000000 0.038800 0.019500 1 0 1.000000
boxmrounds
  0 0.533900 -4.430900 0.959600 -0.104503 -0.994524 0.000000 0.495200 0.162700 1 0 1.000000
  0 -2.502100 -4.111900 0.963300 -0.104503 -0.994524 0.000000 0.038800 0.163300 1 0 1.000000
  0 -2.502100 -4.111900 0.001600 -0.104503 -0.994524 0.000000 0.038800 0.019500 1 0 1.000000
boxmrounds
  0 2.502100 3.026600 0.077300 0.454518 0.890735 -0.001900 0.793100 0.117000 1 0 1.000000
  0 -0.217900 4.414600 0.147700 0.454518 0.890735 -0.001900 0.534300 0.111000 1 0 1.000000
  0 2.502100 3.028500 0.955900 0.454518 0.890735 -0.001900 0.793100 0.042500 1 0 1.000000
boxmrounds
  0 -0.217900 4.414600 0.147700 0.454518 0.890735 -0.001900 0.534300 0.111000 1 0 1.000000
  0 -0.217900 4.414100 0.964100 0.453921 0.891042 0.000500 0.534300 0.041800 1 0 1.000000
  0 2.502100 3.028500 0.955900 0.454518 0.890735 -0.001900 0.793100 0.042500 1 0 1.000000
boxmrounds
  0 -2.502100 -4.111900 0.963300 0.002000 0.000700 0.999998 0.240400 0.217200 1 0 1.000000
  0 0.533900 -4.430900 0.959600 0.001400 0.002000 0.999997 0.497700 0.190200 1 0 1.000000
  0 0.682700 -2.812600 0.956100 0.002100 0.000200 0.999998 0.510300 0.327400 1 0 1.000000
boxmrounds
  0 0.682700 -2.812600 0.956100 0.002100 0.000200 0.999998 0.510300 0.327400 1 0 1.000000
  0 -2.332400 -2.335100 0.963900 0.002400 -0.000600 0.999997 0.254700 0.367800 1 0 1.000000
  0 -2.502100 -4.111900 0.963300 0.002000 0.000700 0.999998 0.240400 0.217200 1 0 1.000000
boxmrounds
  0 -2.332400 -2.335100 0.963900 0.002400 -0.000600 0.999997 0.254700 0.367800 1 0 1.000000
  0 0.682700 -2.812600 0.956100 0.002100 0.000200 0.999998 0.510300 0.327400 1 0 1.000000
  0 0.959300 -1.204100 0.956800 0.002400 -0.000300 0.999997 0.533700 0.463700 1 0 1.000000
boxmrounds
  0 0.959300 -1.204100 0.956800 0.002400 -0.000300 0.999997 0.533700 0.463700 1 0 1.000000
  0 -2.026700 -0.569500 0.964000 0.002400 0.000400 0.999997 0.280700 0.517500 1 0 1.000000
  0 -2.332400 -2.335100 0.963900 0.002400 -0.000600 0.999997 0.254700 0.367800 1 0 1.000000
boxmrounds
  0 -2.026700 -0.569500 0.964000 0.002400 0.000400 0.999997 0.280700 0.517500 1 0 1.000000
  0 0.959300 -1.204100 0.956800 0.002400 -0.000300 0.999997 0.533700 0.463700 1 0 1.000000
  0 1.250600 0.074700 0.955500 0.002100 0.000100 0.999998 0.558400 0.572100 1 0 1.000000
boxmrounds
  0 1.250600 0.074700 0.955500 0.002100 0.000100 0.999998 0.558400 0.572100 1 0 1.000000
  0 -1.652700 1.017900 0.961000 0.001500 0.000700 0.999999 0.312400 0.652100 1 0 1.000000
  0 -2.026700 -0.569500 0.964000 0.002400 0.000400 0.999997 0.280700 0.517500 1 0 1.000000
boxmrounds
  0 -1.652700 1.017900 0.961000 0.001500 0.000700 0.999999 0.312400 0.652100 1 0 1.000000
  0 1.250600 0.074700 0.955500 0.002100 0.000100 0.999998 0.558400 0.572100 1 0 1.000000
  0 1.807600 1.610800 0.956700 0.000800 0.000400 0.999999 0.605700 0.702300 1 0 1.000000
boxmrounds
  0 1.807600 1.610800 0.956700 0.000800 0.000400 0.999999 0.605700 0.702300 1 0 1.000000
  0 -1.042300 2.704600 0.956900 0.000600 -0.000600 1.000000 0.364100 0.795100 1 0 1.000000
  0 -1.652700 1.017900 0.961000 0.001500 0.000700 0.999999 0.312400 0.652100 1 0 1.000000
boxmrounds
  0 -1.042300 2.704600 0.956900 0.000600 -0.000600 1.000000 0.364100 0.795100 1 0 1.000000
  0 1.807600 1.610800 0.956700 0.000800 0.000400 0.999999 0.605700 0.702300 1 0 1.000000
  0 2.502100 3.028500 0.955900 0.000500 -0.002000 0.999998 0.664500 0.822500 1 0 1.000000
boxmrounds
  0 2.502100 3.028500 0.955900 0.000500 -0.002000 0.999998 0.664500 0.822500 1 0 1.000000
  0 -0.217900 4.414100 0.964100 0.000700 -0.004600 0.999989 0.434000 0.940000 1 0 1.000000
  0 -1.042300 2.704600 0.956900 0.000600 -0.000600 1.000000 0.364100 0.795100 1 0 1.000000
boxmrounds
  0 1.807600 1.608800 0.064900 0.913167 -0.407585 0.000900 0.225400 0.737700 1 0 1.000000
  0 2.502100 3.026600 0.077300 0.898057 -0.439879 0.000900 0.224600 0.867800 1 0 1.000000
  0 2.502100 3.028500 0.955900 0.898037 -0.439918 0.001000 0.150200 0.867900 1 0 1.000000
boxmrounds
  0 2.502100 3.028500 0.955900 0.898037 -0.439918 0.001000 0.150200 0.867900 1 0 1.000000
  0 1.807600 1.610800 0.956700 0.927223 -0.374509 0.000600 0.149800 0.737900 1 0 1.000000
  0 1.807600 1.608800 0.064900 0.913167 -0.407585 0.000900 0.225400 0.737700 1 0 1.000000
boxmrounds
  0 1.250500 0.074900 0.051500 0.953307 -0.302002 0.000200 0.226400 0.600600 1 0 1.000000
  0 1.807600 1.608800 0.064900 0.913167 -0.407585 0.000900 0.225400 0.737700 1 0 1.000000
  0 1.807600 1.610800 0.956700 0.927223 -0.374509 0.000600 0.149800 0.737900 1 0 1.000000
boxmrounds
  0 1.807600 1.610800 0.956700 0.927223 -0.374509 0.000600 0.149800 0.737900 1 0 1.000000
  0 1.250600 0.074700 0.955500 0.965038 -0.262110 0.000000 0.149700 0.600500 1 0 1.000000
  0 1.250500 0.074900 0.051500 0.953307 -0.302002 0.000200 0.226400 0.600600 1 0 1.000000
boxmrounds
  0 0.959300 -1.204100 0.040300 0.978848 -0.204589 0.000000 0.227300 0.489400 1 0 1.000000
  0 1.250500 0.074900 0.051500 0.953307 -0.302002 0.000200 0.226400 0.600600 1 0 1.000000
  0 1.250600 0.074700 0.955500 0.965038 -0.262110 0.000000 0.149700 0.600500 1 0 1.000000
boxmrounds
  0 1.250600 0.074700 0.955500 0.965038 -0.262110 0.000000 0.149700 0.600500 1 0 1.000000
  0 0.959300 -1.204100 0.956800 0.982361 -0.186993 0.000000 0.149600 0.489400 1 0 1.000000
  0 0.959300 -1.204100 0.040300 0.978848 -0.204589 0.000000 0.227300 0.489400 1 0 1.000000
boxmrounds
  0 0.682700 -2.813400 0.026300 0.989592 -0.143899 0.000100 0.228600 0.351100 1 0 1.000000
  0 0.959300 -1.204100 0.040300 0.978848 -0.204589 0.000000 0.227300 0.489400 1 0 1.000000
  0 0.959300 -1.204100 0.956800 0.982361 -0.186993 0.000000 0.149600 0.489400 1 0 1.000000
boxmrounds
  0 0.959300 -1.204100 0.956800 0.982361 -0.186993 0.000000 0.149600 0.489400 1 0 1.000000
  0 0.682700 -2.812600 0.956100 0.993013 -0.118002 -0.000500 0.149800 0.351200 1 0 1.000000
  0 0.682700 -2.813400 0.026300 0.989592 -0.143899 0.000100 0.228600 0.351100 1 0 1.000000
boxmrounds
  0 0.533900 -4.414100 -0.002100 0.995749 -0.092104 -0.000800 0.231100 0.215900 1 0 1.000000
  0 0.682700 -2.813400 0.026300 0.989592 -0.143899 0.000100 0.228600 0.351100 1 0 1.000000
  0 0.682700 -2.812600 0.956100 0.993013 -0.118002 -0.000500 0.149800 0.351200 1 0 1.000000
boxmrounds
  0 0.682700 -2.812600 0.956100 0.993013 -0.118002 -0.000500 0.149800 0.351200 1 0 1.000000
  0 0.533900 -4.430900 0.959600 0.995795 -0.091599 -0.001600 0.149600 0.214500 1 0 1.000000
  0 0.533900 -4.414100 -0.002100 0.995749 -0.092104 -0.000800 0.231100 0.215900 1 0 1.000000
boxmrounds
  0 -1.042300 2.704600 0.956900 -0.914983 0.403492 0.000200 0.133800 0.801800 1 0 1.000000
  0 -0.217900 4.414100 0.964100 -0.900716 0.434408 0.000200 0.134200 0.960100 1 0 1.000000
  0 -0.217900 4.414600 0.147700 -0.900716 0.434408 0.000200 0.065000 0.960200 1 0 1.000000
boxmrounds
  0 -0.217900 4.414600 0.147700 -0.900716 0.434408 0.000200 0.065000 0.960200 1 0 1.000000
  0 -1.042300 2.705000 0.117900 -0.928194 0.372097 0.000100 0.062700 0.801900 1 0 1.000000
  0 -1.042300 2.704600 0.956900 -0.914983 0.403492 0.000200 0.133800 0.801800 1 0 1.000000
boxmrounds
  0 -1.652700 1.017900 0.961000 -0.952771 0.303691 0.000100 0.134200 0.650200 1 0 1.000000
  0 -1.042300 2.704600 0.956900 -0.914983 0.403492 0.000200 0.133800 0.801800 1 0 1.000000
  0 -1.042300 2.705000 0.117900 -0.928194 0.372097 0.000100 0.062700 0.801900 1 0 1.000000
boxmrounds
  0 -1.042300 2.705000 0.117900 -0.928194 0.372097 0.000100 0.062700 0.801900 1 0 1.000000
  0 -1.652700 1.017900 0.091100 -0.963781 0.266695 0.000000 0.060500 0.650200 1 0 1.000000
  0 -1.652700 1.017900 0.961000 -0.952771 0.303691 0.000100 0.134200 0.650200 1 0 1.000000
boxmrounds
  0 -2.026700 -0.569500 0.964000 -0.977742 0.209809 0.000000 0.134400 0.512100 1 0 1.000000
  0 -1.652700 1.017900 0.961000 -0.952771 0.303691 0.000100 0.134200 0.650200 1 0 1.000000
  0 -1.652700 1.017900 0.091100 -0.963781 0.266695 0.000000 0.060500 0.650200 1 0 1.000000
boxmrounds
  0 -1.652700 1.017900 0.091100 -0.963781 0.266695 0.000000 0.060500 0.650200 1 0 1.000000
  0 -2.026700 -0.569500 0.063400 -0.981744 0.190208 0.000000 0.058100 0.512100 1 0 1.000000
  0 -2.026700 -0.569500 0.964000 -0.977742 0.209809 0.000000 0.134400 0.512100 1 0 1.000000
boxmrounds
  0 -2.332400 -2.335100 0.963900 -0.989359 0.145494 0.000000 0.134300 0.360900 1 0 1.000000
  0 -2.026700 -0.569500 0.964000 -0.977742 0.209809 0.000000 0.134400 0.512100 1 0 1.000000
  0 -2.026700 -0.569500 0.063400 -0.981744 0.190208 0.000000 0.058100 0.512100 1 0 1.000000
boxmrounds
  0 -2.026700 -0.569500 0.063400 -0.981744 0.190208 0.000000 0.058100 0.512100 1 0 1.000000
  0 -2.332400 -2.335200 0.032600 -0.992737 0.120304 0.000000 0.055400 0.360900 1 0 1.000000
  0 -2.332400 -2.335100 0.963900 -0.989359 0.145494 0.000000 0.134300 0.360900 1 0 1.000000
boxmrounds
  0 -2.502100 -4.111900 0.963300 -0.995468 0.095097 0.000000 0.134000 0.212000 1 0 1.000000
  0 -2.332400 -2.335100 0.963900 -0.989359 0.145494 0.000000 0.134300 0.360900 1 0 1.000000
  0 -2.332400 -2.335200 0.032600 -0.992737 0.120304 0.000000 0.055400 0.360900 1 0 1.000000
boxmrounds
  0 -2.332400 -2.335200 0.032600 -0.992737 0.120304 0.000000 0.055400 0.360900 1 0 1.000000
  0 -2.502100 -4.111900 0.001600 -0.995468 0.095097 0.000000 0.052500 0.212000 1 0 1.000000
  0 -2.502100 -4.111900 0.963300 -0.995468 0.095097 0.000000 0.134000 0.212000 1 0 1.000000
boxmrounds
  0 2.502100 3.026600 0.077300 -0.013200 0.019500 -0.999723 0.705800 0.898800 1 0 1.000000
  0 -1.042300 2.705000 0.117900 -0.012500 0.019601 -0.999730 0.949300 0.720700 1 0 1.000000
  0 -0.217900 4.414600 0.147700 -0.013600 0.024000 -0.999619 0.964000 0.880900 1 0 1.000000
boxmrounds
  0 -1.042300 2.705000 0.117900 -0.012500 0.019601 -0.999730 0.949300 0.720700 1 0 1.000000
  0 2.502100 3.026600 0.077300 -0.013200 0.019500 -0.999723 0.705800 0.898800 1 0 1.000000
  0 1.807600 1.608800 0.064900 -0.011200 0.015700 -0.999814 0.694300 0.765500 1 0 1.000000
boxmrounds
  0 1.807600 1.608800 0.064900 -0.011200 0.015700 -0.999814 0.694300 0.765500 1 0 1.000000
  0 -1.652700 1.017900 0.091100 -0.009400 0.017100 -0.999810 0.919900 0.571500 1 0 1.000000
  0 -1.042300 2.705000 0.117900 -0.012500 0.019601 -0.999730 0.949300 0.720700 1 0 1.000000
boxmrounds
  0 -1.652700 1.017900 0.091100 -0.009400 0.017100 -0.999810 0.919900 0.571500 1 0 1.000000
  0 1.807600 1.608800 0.064900 -0.011200 0.015700 -0.999814 0.694300 0.765500 1 0 1.000000
  0 1.250500 0.074900 0.051500 -0.007600 0.013800 -0.999876 0.667800 0.629700 1 0 1.000000
boxmrounds
  0 1.250500 0.074900 0.051500 -0.007600 0.013800 -0.999876 0.667800 0.629700 1 0 1.000000
  0 -2.026700 -0.569500 0.063400 -0.005600 0.015799 -0.999859 0.877800 0.439800 1 0 1.000000
  0 -1.652700 1.017900 0.091100 -0.009400 0.017100 -0.999810 0.919900 0.571500 1 0 1.000000
boxmrounds
  0 -2.026700 -0.569500 0.063400 -0.005600 0.015799 -0.999859 0.877800 0.439800 1 0 1.000000
  0 1.250500 0.074900 0.051500 -0.007600 0.013800 -0.999876 0.667800 0.629700 1 0 1.000000
  0 0.959300 -1.204100 0.040300 -0.003400 0.012300 -0.999918 0.633100 0.524100 1 0 1.000000
boxmrounds
  0 0.959300 -1.204100 0.040300 -0.003400 0.012300 -0.999918 0.633100 0.524100 1 0 1.000000
  0 -2.332400 -2.335200 0.032600 -0.001300 0.014800 -0.999889 0.822900 0.298200 1 0 1.000000
  0 -2.026700 -0.569500 0.063400 -0.005600 0.015799 -0.999859 0.877800 0.439800 1 0 1.000000
boxmrounds
  0 -2.332400 -2.335200 0.032600 -0.001300 0.014800 -0.999889 0.822900 0.298200 1 0 1.000000
  0 0.959300 -1.204100 0.040300 -0.003400 0.012300 -0.999918 0.633100 0.524100 1 0 1.000000
  0 0.682700 -2.813400 0.026300 0.000200 0.014600 -0.999893 0.582900 0.395100 1 0 1.000000
boxmrounds
  0 0.682700 -2.813400 0.026300 0.000200 0.014600 -0.999893 0.582900 0.395100 1 0 1.000000
  0 -2.502100 -4.111900 0.001600 0.000600 0.017501 -0.999847 0.757600 0.161700 1 0 1.000000
  0 -2.332400 -2.335200 0.032600 -0.001300 0.014800 -0.999889 0.822900 0.298200 1 0 1.000000
boxmrounds
  0 -2.502100 -4.111900 0.001600 0.000600 0.017501 -0.999847 0.757600 0.161700 1 0 1.000000
  0 0.682700 -2.813400 0.026300 0.000200 0.014600 -0.999893 0.582900 0.395100 1 0 1.000000
  0 0.533900 -4.414100 -0.002100 0.000500 0.017701 -0.999843 0.523900 0.272300 1 0 1.000000
end
