// Created by Crowbar 0.62
version 1
nodes
  0 "ValveBiped.Bip01_R_Hand" -1
  1 "ValveBiped.Weapon_bone" 0
end
skeleton
  time 0
    0 -0.714971 9.360587 -3.466433 -3.108120 0.039692 -1.569846
    1 5.000000 -1.500000 -5.000000 0.000000 0.000000 0.000000
  time 1
    0 -0.714971 9.360587 -3.466433 -3.108120 0.039692 -1.569846
    1 5.000000 -1.500000 -5.000000 0.000000 0.000000 0.000000
end
