// Created by Crowbar 0.62
version 1
nodes
  0 "ValveBiped.Bip01_Pelvis" -1
  1 "ValveBiped.Bip01_L_Thigh" 0
  2 "ValveBiped.Bip01_L_Calf" 1
  3 "ValveBiped.Bip01_L_Foot" 2
  4 "ValveBiped.Bip01_L_Toe0" 3
  5 "ValveBiped.Bip01_R_Thigh" 0
  6 "ValveBiped.Bip01_R_Calf" 5
  7 "ValveBiped.Bip01_R_Foot" 6
  8 "ValveBiped.Bip01_R_Toe0" 7
  9 "ValveBiped.Bip01_Spine" 0
  10 "ValveBiped.Bip01_Spine1" 9
  11 "ValveBiped.Bip01_Spine2" 10
  12 "ValveBiped.Bip01_Spine4" 11
  13 "ValveBiped.Bip01_Neck1" 12
  14 "ValveBiped.Bip01_Head1" 13
  15 "ValveBiped.Bip01_L_Clavicle" 12
  16 "ValveBiped.Bip01_L_UpperArm" 15
  17 "ValveBiped.Bip01_L_Forearm" 16
  18 "ValveBiped.Bip01_L_Hand" 17
  19 "ValveBiped.Bip01_L_Finger2" 18
  20 "ValveBiped.Bip01_L_Finger21" 19
  21 "ValveBiped.Bip01_L_Finger22" 20
  22 "ValveBiped.Bip01_L_Finger1" 18
  23 "ValveBiped.Bip01_L_Finger11" 22
  24 "ValveBiped.Bip01_L_Finger12" 23
  25 "ValveBiped.Bip01_L_Finger0" 18
  26 "ValveBiped.Bip01_L_Finger01" 25
  27 "ValveBiped.Bip01_L_Finger02" 26
  28 "ValveBiped.Bip01_R_Clavicle" 12
  29 "ValveBiped.Bip01_R_UpperArm" 28
  30 "ValveBiped.Bip01_R_Forearm" 29
  31 "ValveBiped.Bip01_R_Hand" 30
  32 "ValveBiped.Bip01_R_Finger2" 31
  33 "ValveBiped.Bip01_R_Finger21" 32
  34 "ValveBiped.Bip01_R_Finger22" 33
  35 "ValveBiped.Bip01_R_Finger1" 31
  36 "ValveBiped.Bip01_R_Finger11" 35
  37 "ValveBiped.Bip01_R_Finger12" 36
  38 "ValveBiped.Bip01_R_Finger0" 31
  39 "ValveBiped.Bip01_R_Finger01" 38
  40 "ValveBiped.Bip01_R_Finger02" 39
  41 "ValveBiped.Cod" 0
end
skeleton
  time 0
    0 1.324690 -0.614165 15.443346 1.535986 -0.192793 -0.705196
    1 3.890452 -0.000008 -0.000003 2.880832 -1.045208 -0.100983
    2 17.848175 0.000000 0.000000 0.000000 0.000000 2.245459
    3 15.637954 0.000002 0.000000 0.315088 0.094764 -1.489313
    4 7.110239 -0.000001 0.000000 -0.007119 -0.003133 -0.631765
    5 -3.890451 0.000003 0.000008 -1.065136 -0.433504 -2.490892
    6 17.848179 0.000000 0.000001 0.000000 0.000000 2.367280
    7 15.637956 0.000000 0.000000 -1.455287 -0.585202 0.054800
    8 7.110240 0.000000 0.000000 -0.081152 -0.003133 -0.631765
    9 -0.050274 3.344753 -2.981894 1.570796 0.047895 1.585829
    10 4.018332 0.000000 0.000000 -0.019429 -0.119352 0.257226
    11 3.518571 0.000000 0.000000 -0.048630 -0.076973 0.455769
    12 8.942631 0.000000 0.000000 -0.078844 0.112914 0.222369
    13 3.307273 0.000000 0.000000 -3.141381 0.261799 0.400507
    14 3.593712 0.000000 0.000000 0.864491 0.015567 0.805451
    15 2.033350 1.000773 1.100821 2.385510 -1.528149 2.146497
    16 6.811802 0.000001 0.000000 -3.014530 -1.002864 0.339957
    17 12.394101 0.000002 0.000002 0.000000 0.000000 -0.997995
    18 9.334689 0.000001 -0.000034 -0.770904 0.517564 -0.080897
    19 4.454864 -0.071044 0.574018 0.095492 -0.008588 -0.706366
    20 1.426182 0.000000 0.000000 0.055915 -0.087980 -1.504213
    21 1.324317 0.000001 0.000001 0.009317 -0.033630 -0.575091
    22 4.479186 -0.026371 1.583719 0.481659 -0.035384 -1.246107
    23 1.341889 -0.000001 0.000003 0.023475 -0.208313 -0.755745
    24 1.225942 0.000003 -0.000001 0.026045 -0.124622 -0.538683
    25 2.631852 -0.344645 1.908320 -0.354021 -0.915168 -1.788213
    26 1.058428 -0.000001 0.000001 -0.001069 -0.012855 0.251002
    27 0.778705 0.000001 -0.000001 -0.000101 -0.003217 0.062752
    28 2.033356 1.000774 -1.100771 3.106140 1.193694 1.415614
    29 6.811800 0.000001 0.000000 2.057849 1.257064 -0.049191
    30 12.394100 0.000001 0.000001 0.000000 0.000000 -1.825177
    31 9.334719 0.000000 0.000000 -0.900345 0.015974 0.867063
    32 4.454831 -0.076363 -0.573336 0.047705 -0.153456 -0.767483
    33 1.426188 0.000000 0.000001 -0.053883 0.078891 -1.553286
    34 1.324321 -0.000001 0.000001 -0.013612 0.036969 -0.732283
    35 4.479149 -0.041050 -1.583408 -0.332628 0.218366 0.154976
    36 1.341884 0.000000 -0.000001 -0.042633 0.220746 -0.851609
    37 1.225946 -0.000002 0.000000 0.008155 0.000000 0.000001
    38 2.631822 -0.362328 -1.905044 0.415059 0.423435 -0.720789
    39 1.058428 0.000000 0.000000 0.015106 0.038913 0.767157
    40 0.778707 -0.000001 -0.000001 0.004785 0.022541 0.418310
    41 -0.044717 2.529043 4.661499 -0.013440 0.038360 -0.038541
end
