// Created by Crowbar 0.62
version 1
nodes
  0 "ValveBiped.Bip01_Pelvis" -1
  1 "ValveBiped.Bip01_L_Thigh" 0
  2 "ValveBiped.Bip01_L_Calf" 1
  3 "ValveBiped.Bip01_L_Foot" 2
  4 "ValveBiped.Bip01_L_Toe0" 3
  5 "ValveBiped.Bip01_R_Thigh" 0
  6 "ValveBiped.Bip01_R_Calf" 5
  7 "ValveBiped.Bip01_R_Foot" 6
  8 "ValveBiped.Bip01_R_Toe0" 7
  9 "ValveBiped.Bip01_Spine" 0
  10 "ValveBiped.Bip01_Spine1" 9
  11 "ValveBiped.Bip01_Spine2" 10
  12 "ValveBiped.Bip01_Spine4" 11
  13 "ValveBiped.Bip01_Neck1" 12
  14 "ValveBiped.Bip01_Head1" 13
  15 "ValveBiped.Bip01_L_Clavicle" 12
  16 "ValveBiped.Bip01_L_UpperArm" 15
  17 "ValveBiped.Bip01_L_Forearm" 16
  18 "ValveBiped.Bip01_L_Hand" 17
  19 "ValveBiped.Bip01_L_Finger2" 18
  20 "ValveBiped.Bip01_L_Finger21" 19
  21 "ValveBiped.Bip01_L_Finger22" 20
  22 "ValveBiped.Bip01_L_Finger1" 18
  23 "ValveBiped.Bip01_L_Finger11" 22
  24 "ValveBiped.Bip01_L_Finger12" 23
  25 "ValveBiped.Bip01_L_Finger0" 18
  26 "ValveBiped.Bip01_L_Finger01" 25
  27 "ValveBiped.Bip01_L_Finger02" 26
  28 "ValveBiped.Bip01_R_Clavicle" 12
  29 "ValveBiped.Bip01_R_UpperArm" 28
  30 "ValveBiped.Bip01_R_Forearm" 29
  31 "ValveBiped.Bip01_R_Hand" 30
  32 "ValveBiped.Bip01_R_Finger2" 31
  33 "ValveBiped.Bip01_R_Finger21" 32
  34 "ValveBiped.Bip01_R_Finger22" 33
  35 "ValveBiped.Bip01_R_Finger1" 31
  36 "ValveBiped.Bip01_R_Finger11" 35
  37 "ValveBiped.Bip01_R_Finger12" 36
  38 "ValveBiped.Bip01_R_Finger0" 31
  39 "ValveBiped.Bip01_R_Finger01" 38
  40 "ValveBiped.Bip01_R_Finger02" 39
  41 "ValveBiped.Cod" 0
end
skeleton
  time 0
    0 0.000000 0.000000 0.000000 0.000000 0.000000 -1.570796
    1 0.000000 0.000000 0.000000 0.000417 0.064361 -0.050129
    2 -0.000004 -0.000001 0.000000 0.000000 0.000000 0.007554
    3 0.000000 -0.000002 0.000000 -0.050390 -0.029949 0.050967
    4 0.000000 0.000001 0.000000 0.000000 0.000000 0.000000
    5 0.000000 0.000000 0.000000 0.000279 0.014698 -0.044622
    6 0.000000 0.000000 -0.000001 0.000000 0.000000 0.049562
    7 -0.000001 0.000001 0.000000 -0.010175 0.000589 0.011685
    8 0.000000 0.000000 0.000000 0.000000 0.000000 0.000000
    9 0.000000 0.000002 0.000000 0.000000 0.000000 -0.191986
    10 -0.000002 0.000000 0.000000 0.000051 0.000663 -0.192001
    11 0.000000 0.000000 0.000000 -0.000394 -0.001869 -0.191929
    12 0.000002 0.000000 0.000000 0.000000 0.000001 0.000000
    13 -0.000001 0.000000 0.000000 0.000004 0.000001 0.000001
    14 0.000000 0.000001 -0.000001 0.352229 -0.385738 -0.157891
    15 -0.000001 -0.000002 0.000000 -0.000004 0.000000 0.000000
    16 -0.000001 -0.000002 0.000000 -0.337302 -0.227346 0.304399
    17 -0.000001 -0.000001 0.000000 0.000000 0.000000 -0.495294
    18 0.000002 0.000000 0.000002 0.010500 -0.012535 0.722395
    19 0.000000 -0.000004 -0.000001 0.000000 0.000000 0.000000
    20 -0.000001 -0.000002 0.000000 0.000001 0.000000 0.000000
    21 -0.000001 0.000001 -0.000001 0.000000 0.000000 0.000000
    22 -0.000001 -0.000002 -0.000001 0.000000 0.000000 0.000000
    23 -0.000002 0.000001 -0.000002 0.000000 0.000001 0.000000
    24 -0.000003 0.000000 0.000001 0.000000 0.000000 0.000000
    25 -0.000001 -0.000003 -0.000002 0.000000 -0.000001 0.000000
    26 0.000000 0.000001 -0.000002 0.000001 0.000000 0.000000
    27 0.000001 -0.000001 0.000001 0.000000 0.000000 0.000000
    28 -0.000003 -0.000001 0.000000 0.000000 -0.000001 0.000000
    29 -0.000003 0.000001 -0.000001 0.198456 -0.484627 -0.267048
    30 -0.000001 -0.000001 0.000001 0.000000 0.000000 0.233520
    31 -0.000004 -0.000002 -0.000001 -0.122080 0.206014 -0.224285
    32 0.000001 0.000001 -0.000001 0.000000 0.000000 0.000000
    33 0.000000 0.000001 -0.000002 0.000000 0.000000 0.000000
    34 0.000000 0.000000 -0.000002 0.000000 0.000000 0.000000
    35 0.000000 0.000001 -0.000002 0.000000 0.000000 0.000000
    36 0.000002 0.000000 0.000002 0.000000 0.000000 0.000000
    37 -0.000001 -0.000001 0.000000 0.000000 -0.000001 0.000000
    38 0.000000 0.000000 0.000000 0.000000 0.000000 0.000000
    39 -0.000001 0.000000 -0.000001 0.000000 0.000000 0.000000
    40 -0.000001 0.000002 0.000002 0.000000 0.000000 0.000000
    41 0.000000 0.000000 0.000000 -0.191537 -0.010833 -0.006472
end
