// Created by Crowbar 0.62
version 1
nodes
  0 "ValveBiped.Bip01_Pelvis" -1
  1 "ValveBiped.Bip01_L_Thigh" 0
  2 "ValveBiped.Bip01_L_Calf" 1
  3 "ValveBiped.Bip01_L_Foot" 2
  4 "ValveBiped.Bip01_L_Toe0" 3
  5 "ValveBiped.Bip01_R_Thigh" 0
  6 "ValveBiped.Bip01_R_Calf" 5
  7 "ValveBiped.Bip01_R_Foot" 6
  8 "ValveBiped.Bip01_R_Toe0" 7
  9 "ValveBiped.Bip01_Spine" 0
  10 "ValveBiped.Bip01_Spine1" 9
  11 "ValveBiped.Bip01_Spine2" 10
  12 "ValveBiped.Bip01_Spine4" 11
  13 "ValveBiped.Bip01_Neck1" 12
  14 "ValveBiped.Bip01_Head1" 13
  15 "ValveBiped.Bip01_L_Clavicle" 12
  16 "ValveBiped.Bip01_L_UpperArm" 15
  17 "ValveBiped.Bip01_L_Forearm" 16
  18 "ValveBiped.Bip01_L_Hand" 17
  19 "ValveBiped.Bip01_L_Finger2" 18
  20 "ValveBiped.Bip01_L_Finger21" 19
  21 "ValveBiped.Bip01_L_Finger22" 20
  22 "ValveBiped.Bip01_L_Finger1" 18
  23 "ValveBiped.Bip01_L_Finger11" 22
  24 "ValveBiped.Bip01_L_Finger12" 23
  25 "ValveBiped.Bip01_L_Finger0" 18
  26 "ValveBiped.Bip01_L_Finger01" 25
  27 "ValveBiped.Bip01_L_Finger02" 26
  28 "ValveBiped.Bip01_R_Clavicle" 12
  29 "ValveBiped.Bip01_R_UpperArm" 28
  30 "ValveBiped.Bip01_R_Forearm" 29
  31 "ValveBiped.Bip01_R_Hand" 30
  32 "ValveBiped.Bip01_R_Finger2" 31
  33 "ValveBiped.Bip01_R_Finger21" 32
  34 "ValveBiped.Bip01_R_Finger22" 33
  35 "ValveBiped.Bip01_R_Finger1" 31
  36 "ValveBiped.Bip01_R_Finger11" 35
  37 "ValveBiped.Bip01_R_Finger12" 36
  38 "ValveBiped.Bip01_R_Finger0" 31
  39 "ValveBiped.Bip01_R_Finger01" 38
  40 "ValveBiped.Bip01_R_Finger02" 39
  41 "ValveBiped.Cod" 0
end
skeleton
  time 0
    0 -1.209417 -0.761799 31.053797 1.524240 -0.201051 0.374698
    1 3.890452 -0.000008 -0.000003 -1.870569 -0.681944 -1.502228
    2 17.848177 0.000002 0.000002 0.000000 0.000000 1.718610
    3 15.638507 0.000000 0.000000 0.030352 -0.054915 -0.981488
    4 7.109929 0.000000 0.000000 -0.007119 -0.003131 -0.631738
    5 -3.890450 0.000004 0.000007 -1.108291 -0.723133 -1.926701
    6 17.848179 -0.000003 0.000002 0.000000 0.000000 1.338093
    7 15.638511 0.000000 0.000000 -0.241559 -0.043595 -1.493931
    8 7.109930 0.000000 0.000000 -0.081154 -0.003131 -0.631749
    9 0.332046 3.329502 -2.981901 1.568641 -0.113169 1.512576
    10 4.018332 0.000000 0.000000 -0.110124 0.005357 0.338402
    11 3.518568 0.000001 -0.000003 -0.097942 0.001091 0.202290
    12 8.942633 -0.000001 0.000000 0.028088 -0.006304 0.161271
    13 3.307272 0.000001 0.000000 3.141590 0.000000 0.400478
    14 3.593714 -0.000001 0.000002 -0.225628 -0.036470 1.015286
    15 2.033346 1.000768 1.101697 1.848180 -1.411864 2.688434
    16 6.809416 0.000001 0.000000 -1.688155 -0.353278 -0.465235
    17 12.391796 0.000000 0.000001 0.000000 0.000000 -1.738019
    18 9.337076 0.000000 -0.000031 -0.939864 0.235809 0.122832
    19 4.454020 -0.070210 0.572073 0.096293 -0.007832 -0.804082
    20 1.426597 -0.000001 0.000000 0.023861 -0.079623 -1.125947
    21 1.322468 -0.000002 0.000000 0.009312 -0.033625 -0.575065
    22 4.477066 -0.028570 1.582474 0.476656 -0.055423 -1.136099
    23 1.344418 0.000000 0.000000 0.023466 -0.208305 -0.755723
    24 1.224671 0.000000 0.000000 0.026043 -0.124620 -0.538676
    25 2.630323 -0.345015 1.907214 -0.354022 -0.915164 -1.788195
    26 1.059292 0.000000 0.000001 0.000551 0.000004 0.000021
    27 0.781203 0.000000 0.000000 -0.000467 0.006940 -0.135953
    28 2.033353 1.000771 -1.101647 -2.346529 1.297366 2.275495
    29 6.809417 0.000001 0.000000 1.115411 0.950822 -0.638547
    30 12.391794 0.000000 0.000001 0.000000 0.000000 -1.558473
    31 9.337102 0.000000 0.000003 -1.005592 -0.285410 0.052914
    32 4.453986 -0.073766 -0.571672 -0.386562 0.126208 -1.146676
    33 1.426599 0.000002 0.000000 -0.051390 0.078806 -1.521754
    34 1.322465 -0.000001 0.000000 -0.034695 0.051519 -1.200268
    35 4.477036 -0.043465 -1.581290 -0.083016 0.164909 0.067468
    36 1.344414 0.000000 0.000000 0.024521 0.136363 -0.478036
    37 1.224670 0.000001 0.000000 -0.166394 0.224946 -1.318175
    38 2.630291 -0.359835 -1.904289 1.070466 0.381356 -0.978487
    39 1.059293 0.000000 0.000000 0.002193 0.017488 0.317162
    40 0.781204 0.000000 0.000000 0.006472 0.026012 0.488050
    41 -0.044717 2.528787 4.661499 0.152486 -0.033800 -0.095031
  time 1
    0 1.323770 -0.670382 30.806791 1.534690 -0.173702 0.355652
    1 3.890452 -0.000008 -0.000003 -1.821418 -0.771745 -1.347455
    2 17.848177 0.000002 0.000002 0.000000 0.000000 1.698347
    3 15.638507 0.000000 0.000000 0.017946 -0.186466 -1.062962
    4 7.109929 0.000000 0.000000 -0.007119 -0.003131 -0.631738
    5 -3.890450 0.000004 0.000007 -1.150623 -0.724756 -1.960189
    6 17.848179 -0.000003 0.000002 0.000000 0.000000 1.364820
    7 15.638511 0.000000 0.000000 -0.161232 -0.087010 -1.512267
    8 7.109930 0.000000 0.000000 -0.081154 -0.003131 -0.631749
    9 0.144541 3.345128 -2.981901 1.568479 -0.113140 1.561102
    10 4.018332 0.000000 0.000000 -0.106304 -0.004027 0.335358
    11 3.518568 0.000001 -0.000003 -0.090981 -0.008162 0.198316
    12 8.942633 -0.000001 0.000000 0.029295 -0.008881 0.158087
    13 3.307272 0.000001 0.000000 3.141590 0.000000 0.400478
    14 3.593714 -0.000001 0.000002 -0.236428 -0.035785 1.024016
    15 2.033346 1.000768 1.101697 1.848180 -1.411864 2.688434
    16 6.809416 0.000001 0.000000 -1.725547 -0.226871 -0.398593
    17 12.391796 0.000000 0.000001 0.000000 0.000000 -1.862362
    18 9.337076 0.000000 -0.000031 -0.996964 0.191617 0.152604
    19 4.454020 -0.070210 0.572073 0.096293 -0.007832 -0.804082
    20 1.426597 -0.000001 0.000000 0.023861 -0.079623 -1.125947
    21 1.322468 -0.000002 0.000000 0.009312 -0.033625 -0.575065
    22 4.477066 -0.028570 1.582474 0.476656 -0.055423 -1.136099
    23 1.344418 0.000000 0.000000 0.023466 -0.208305 -0.755723
    24 1.224671 0.000000 0.000000 0.026043 -0.124620 -0.538676
    25 2.630323 -0.345015 1.907214 -0.354022 -0.915164 -1.788195
    26 1.059292 0.000000 0.000001 0.000551 0.000004 0.000021
    27 0.781203 0.000000 0.000000 -0.000467 0.006940 -0.135953
    28 2.033353 1.000771 -1.101647 -2.336382 1.332542 2.281151
    29 6.809417 0.000001 0.000000 1.003252 1.036054 -0.751324
    30 12.391794 0.000000 0.000001 0.000000 0.000000 -1.554523
    31 9.337102 0.000000 0.000003 -1.012825 -0.284535 0.063189
    32 4.453986 -0.073766 -0.571672 -0.386562 0.126208 -1.146676
    33 1.426599 0.000002 0.000000 -0.051390 0.078806 -1.521754
    34 1.322465 -0.000001 0.000000 -0.034695 0.051519 -1.200268
    35 4.477036 -0.043465 -1.581290 -0.083016 0.164909 0.067468
    36 1.344414 0.000000 0.000000 0.024521 0.136363 -0.478036
    37 1.224670 0.000001 0.000000 -0.166394 0.224946 -1.318175
    38 2.630291 -0.359835 -1.904289 1.070466 0.381356 -0.978487
    39 1.059293 0.000000 0.000000 0.002193 0.017488 0.317162
    40 0.781204 0.000000 0.000000 0.006472 0.026012 0.488050
    41 -0.044717 2.528787 4.661499 0.152486 -0.033990 -0.046493
  time 2
    0 3.919458 -0.568808 30.683287 1.542336 -0.152128 0.341870
    1 3.890452 -0.000008 -0.000003 -1.846519 -0.808602 -1.191532
    2 17.848177 0.000002 0.000002 0.000000 0.000000 1.545685
    3 15.638507 0.000000 0.000000 0.014148 -0.276159 -1.082611
    4 7.109929 0.000000 0.000000 -0.007119 -0.003131 -0.631738
    5 -3.890450 0.000004 0.000007 -1.169119 -0.707683 -2.015341
    6 17.848179 -0.000003 0.000002 0.000000 0.000000 1.365957
    7 15.638511 0.000000 0.000000 -0.088966 -0.147082 -1.521053
    8 7.109930 0.000000 0.000000 -0.081154 -0.003131 -0.631749
    9 0.000005 3.345128 -2.981901 1.568317 -0.113084 1.596980
    10 4.018332 0.000000 0.000000 -0.102574 -0.011565 0.331392
    11 3.518568 0.000001 -0.000003 -0.084963 -0.015628 0.193776
    12 8.942633 -0.000001 0.000000 0.029504 -0.010786 0.156152
    13 3.307272 0.000001 0.000000 3.141590 0.000000 0.400478
    14 3.593714 -0.000001 0.000002 -0.244107 -0.037005 1.025526
    15 2.033346 1.000768 1.101697 1.848180 -1.411864 2.688434
    16 6.809416 0.000001 0.000000 -1.740465 -0.122521 -0.351545
    17 12.391796 0.000000 0.000001 0.000000 0.000000 -1.945310
    18 9.337076 0.000000 -0.000031 -1.044340 0.148247 0.162296
    19 4.454020 -0.070210 0.572073 0.096293 -0.007832 -0.804082
    20 1.426597 -0.000001 0.000000 0.023861 -0.079623 -1.125947
    21 1.322468 -0.000002 0.000000 0.009312 -0.033625 -0.575065
    22 4.477066 -0.028570 1.582474 0.476656 -0.055423 -1.136099
    23 1.344418 0.000000 0.000000 0.023466 -0.208305 -0.755723
    24 1.224671 0.000000 0.000000 0.026043 -0.124620 -0.538676
    25 2.630323 -0.345015 1.907214 -0.354022 -0.915164 -1.788195
    26 1.059292 0.000000 0.000001 0.000551 0.000004 0.000021
    27 0.781203 0.000000 0.000000 -0.000467 0.006940 -0.135953
    28 2.033353 1.000771 -1.101647 -2.326330 1.358610 2.288340
    29 6.809417 0.000001 0.000000 0.894028 1.094132 -0.858596
    30 12.391794 0.000000 0.000001 0.000000 0.000000 -1.549639
    31 9.337102 0.000000 0.000003 -1.017689 -0.283925 0.069147
    32 4.453986 -0.073766 -0.571672 -0.386562 0.126208 -1.146676
    33 1.426599 0.000002 0.000000 -0.051390 0.078806 -1.521754
    34 1.322465 -0.000001 0.000000 -0.034695 0.051519 -1.200268
    35 4.477036 -0.043465 -1.581290 -0.083016 0.164909 0.067468
    36 1.344414 0.000000 0.000000 0.024521 0.136363 -0.478036
    37 1.224670 0.000001 0.000000 -0.166394 0.224946 -1.318175
    38 2.630291 -0.359835 -1.904289 1.070466 0.381356 -0.978487
    39 1.059293 0.000000 0.000000 0.002193 0.017488 0.317162
    40 0.781204 0.000000 0.000000 0.006472 0.026012 0.488050
    41 -0.044717 2.528787 4.661499 0.152421 -0.034181 -0.010541
  time 3
    0 6.671401 -0.528179 30.415697 1.544290 -0.161044 0.334979
    1 3.890452 -0.000008 -0.000003 -1.888512 -0.783052 -1.123873
    2 17.848177 0.000002 0.000002 0.000000 0.000000 1.312119
    3 15.638507 0.000000 0.000000 0.024814 -0.300290 -1.018525
    4 7.109929 0.000000 0.000000 -0.007119 -0.003131 -0.631738
    5 -3.890450 0.000004 0.000007 -1.165496 -0.682984 -2.129995
    6 17.848179 -0.000003 0.000002 0.000000 0.000000 1.378955
    7 15.638511 0.000000 0.000000 -0.014662 -0.226222 -1.540916
    8 7.109930 0.000000 0.000000 -0.081154 -0.003131 -0.631749
    9 0.000005 3.345128 -2.981901 1.568156 -0.113055 1.590242
    10 4.018332 0.000000 0.000000 -0.098822 -0.016131 0.327027
    11 3.518568 0.000001 -0.000003 -0.080119 -0.020074 0.189164
    12 8.942633 -0.000001 0.000000 0.028879 -0.011769 0.155343
    13 3.307272 0.000001 0.000000 3.141590 0.000000 0.400478
    14 3.593714 -0.000001 0.000002 -0.248832 -0.041438 1.018812
    15 2.033346 1.000768 1.101697 1.848180 -1.411864 2.688434
    16 6.809416 0.000001 0.000000 -1.721530 -0.049147 -0.345203
    17 12.391796 0.000000 0.000001 0.000000 0.000000 -1.987415
    18 9.337076 0.000000 -0.000031 -1.061916 0.105634 0.159354
    19 4.454020 -0.070210 0.572073 0.096293 -0.007832 -0.804082
    20 1.426597 -0.000001 0.000000 0.023861 -0.079623 -1.125947
    21 1.322468 -0.000002 0.000000 0.009312 -0.033625 -0.575065
    22 4.477066 -0.028570 1.582474 0.476656 -0.055423 -1.136099
    23 1.344418 0.000000 0.000000 0.023466 -0.208305 -0.755723
    24 1.224671 0.000000 0.000000 0.026043 -0.124620 -0.538676
    25 2.630323 -0.345015 1.907214 -0.354022 -0.915164 -1.788195
    26 1.059292 0.000000 0.000001 0.000551 0.000004 0.000021
    27 0.781203 0.000000 0.000000 -0.000467 0.006940 -0.135953
    28 2.033353 1.000771 -1.101647 -2.342700 1.367029 2.270990
    29 6.809417 0.000001 0.000000 0.826449 1.110950 -0.910813
    30 12.391794 0.000000 0.000001 0.000000 0.000000 -1.548490
    31 9.337102 0.000000 0.000003 -1.017689 -0.283887 0.069147
    32 4.453986 -0.073766 -0.571672 -0.386562 0.126208 -1.146676
    33 1.426599 0.000002 0.000000 -0.051390 0.078806 -1.521754
    34 1.322465 -0.000001 0.000000 -0.034695 0.051519 -1.200268
    35 4.477036 -0.043465 -1.581290 -0.083016 0.164909 0.067468
    36 1.344414 0.000000 0.000000 0.024521 0.136363 -0.478036
    37 1.224670 0.000001 0.000000 -0.166394 0.224946 -1.318175
    38 2.630291 -0.359835 -1.904289 1.070466 0.381356 -0.978487
    39 1.059293 0.000000 0.000000 0.002193 0.017488 0.317162
    40 0.781204 0.000000 0.000000 0.006472 0.026012 0.488050
    41 -0.044717 2.528787 4.661499 0.152421 -0.034308 -0.017355
  time 4
    0 9.669446 -0.467235 30.127522 1.541061 -0.156286 0.332395
    1 3.890452 -0.000008 -0.000003 -1.932318 -0.744397 -1.090235
    2 17.848177 0.000002 0.000002 0.000000 0.000000 1.145704
    3 15.638507 0.000000 0.000000 0.022503 -0.257511 -0.937817
    4 7.109929 0.000000 0.000000 -0.007119 -0.003131 -0.631738
    5 -3.890450 0.000004 0.000007 -1.163399 -0.632700 -2.232636
    6 17.848179 -0.000003 0.000002 0.000000 0.000000 1.353853
    7 15.638511 0.000000 0.000000 0.065201 -0.313827 -1.547219
    8 7.109930 0.000000 0.000000 -0.081154 -0.003131 -0.631749
    9 0.000005 3.345128 -2.981901 1.568048 -0.113055 1.585159
    10 4.018332 0.000000 0.000000 -0.094957 -0.017354 0.322783
    11 3.518568 0.000001 -0.000003 -0.076387 -0.020973 0.184907
    12 8.942633 -0.000001 0.000000 0.027977 -0.011721 0.155448
    13 3.307272 0.000001 0.000000 3.141590 0.000000 0.400478
    14 3.593714 -0.000001 0.000002 -0.252249 -0.049747 1.005550
    15 2.033346 1.000768 1.101697 1.848180 -1.411864 2.688434
    16 6.809416 0.000001 0.000000 -1.685094 -0.006456 -0.365272
    17 12.391796 0.000000 0.000001 0.000000 0.000000 -1.996245
    18 9.337076 0.000000 -0.000031 -1.057812 0.067393 0.142968
    19 4.454020 -0.070210 0.572073 0.096293 -0.007832 -0.804082
    20 1.426597 -0.000001 0.000000 0.023861 -0.079623 -1.125947
    21 1.322468 -0.000002 0.000000 0.009312 -0.033625 -0.575065
    22 4.477066 -0.028570 1.582474 0.476656 -0.055423 -1.136099
    23 1.344418 0.000000 0.000000 0.023466 -0.208305 -0.755723
    24 1.224671 0.000000 0.000000 0.026043 -0.124620 -0.538676
    25 2.630323 -0.345015 1.907214 -0.354022 -0.915164 -1.788195
    26 1.059292 0.000000 0.000001 0.000551 0.000004 0.000021
    27 0.781203 0.000000 0.000000 -0.000467 0.006940 -0.135953
    28 2.033353 1.000771 -1.101647 -2.361559 1.366260 2.252202
    29 6.809417 0.000001 0.000000 0.794269 1.106264 -0.919415
    30 12.391794 0.000000 0.000001 0.000000 0.000000 -1.548418
    31 9.337102 0.000000 0.000003 -1.017689 -0.283887 0.069147
    32 4.453986 -0.073766 -0.571672 -0.386562 0.126208 -1.146676
    33 1.426599 0.000002 0.000000 -0.051390 0.078806 -1.521754
    34 1.322465 -0.000001 0.000000 -0.034695 0.051519 -1.200268
    35 4.477036 -0.043465 -1.581290 -0.083016 0.164909 0.067468
    36 1.344414 0.000000 0.000000 0.024521 0.136363 -0.478036
    37 1.224670 0.000001 0.000000 -0.166394 0.224946 -1.318175
    38 2.630291 -0.359835 -1.904289 1.070466 0.381356 -0.978487
    39 1.059293 0.000000 0.000000 0.002193 0.017488 0.317162
    40 0.781204 0.000000 0.000000 0.006472 0.026012 0.488050
    41 -0.044717 2.528787 4.661499 0.152421 -0.034435 -0.022445
  time 5
    0 12.937030 -0.345346 29.839348 1.534775 -0.138916 0.332203
    1 3.890452 -0.000008 -0.000003 -1.930410 -0.731481 -1.089660
    2 17.848177 0.000002 0.000002 0.000000 0.000000 1.131733
    3 15.638507 0.000000 0.000000 -0.066781 -0.173490 -0.941863
    4 7.109929 0.000000 0.000000 -0.007119 -0.003131 -0.631738
    5 -3.890450 0.000004 0.000007 -1.119828 -0.620055 -2.338303
    6 17.848179 -0.000003 0.000002 0.000000 0.000000 1.330620
    7 15.638511 0.000000 0.000000 0.177584 -0.266771 -1.395566
    8 7.109930 0.000000 0.000000 -0.081154 -0.003131 -0.631749
    9 0.000005 3.345128 -2.981901 1.567940 -0.113027 1.581494
    10 4.018332 0.000000 0.000000 -0.091047 -0.015532 0.319182
    11 3.518568 0.000001 -0.000003 -0.073598 -0.018504 0.181572
    12 8.942633 -0.000001 0.000000 0.027283 -0.010678 0.156434
    13 3.307272 0.000001 0.000000 3.141590 0.000000 0.400478
    14 3.593714 -0.000001 0.000002 -0.255793 -0.061054 0.989518
    15 2.033346 1.000768 1.101697 1.848180 -1.411864 2.688434
    16 6.809416 0.000001 0.000000 -1.652197 -0.043658 -0.392629
    17 12.391796 0.000000 0.000001 0.000000 0.000000 -1.966914
    18 9.337076 0.000000 -0.000031 -1.037827 0.057331 0.136622
    19 4.454020 -0.070210 0.572073 0.096293 -0.007832 -0.804082
    20 1.426597 -0.000001 0.000000 0.023861 -0.079623 -1.125947
    21 1.322468 -0.000002 0.000000 0.009312 -0.033625 -0.575065
    22 4.477066 -0.028570 1.582474 0.476656 -0.055423 -1.136099
    23 1.344418 0.000000 0.000000 0.023466 -0.208305 -0.755723
    24 1.224671 0.000000 0.000000 0.026043 -0.124620 -0.538676
    25 2.630323 -0.345015 1.907214 -0.354022 -0.915164 -1.788195
    26 1.059292 0.000000 0.000001 0.000551 0.000004 0.000021
    27 0.781203 0.000000 0.000000 -0.000467 0.006940 -0.135953
    28 2.033353 1.000771 -1.101647 -2.355911 1.360714 2.258337
    29 6.809417 0.000001 0.000000 0.841877 1.078539 -0.860317
    30 12.391794 0.000000 0.000001 0.000000 0.000000 -1.557539
    31 9.337102 0.000000 0.000003 -1.017561 -0.284116 0.069061
    32 4.453986 -0.073766 -0.571672 -0.386562 0.126208 -1.146676
    33 1.426599 0.000002 0.000000 -0.051390 0.078806 -1.521754
    34 1.322465 -0.000001 0.000000 -0.034695 0.051519 -1.200268
    35 4.477036 -0.043465 -1.581290 -0.083016 0.164909 0.067468
    36 1.344414 0.000000 0.000000 0.024521 0.136363 -0.478036
    37 1.224670 0.000001 0.000000 -0.166394 0.224946 -1.318175
    38 2.630291 -0.359835 -1.904289 1.070466 0.381356 -0.978487
    39 1.059293 0.000000 0.000000 0.002193 0.017488 0.317162
    40 0.781204 0.000000 0.000000 0.006472 0.026012 0.488050
    41 -0.044717 2.528787 4.661499 0.152421 -0.034499 -0.026092
  time 6
    0 16.376494 -0.192985 29.551173 1.526789 -0.133095 0.333639
    1 3.890452 -0.000008 -0.000003 -1.861598 -0.720362 -1.157990
    2 17.848177 0.000002 0.000002 0.000000 0.000000 1.213879
    3 15.638507 0.000000 0.000000 -0.250192 -0.059548 -1.089136
    4 7.109929 0.000000 0.000000 -0.007119 -0.003131 -0.631738
    5 -3.890450 0.000004 0.000007 -1.064910 -0.610559 -2.471310
    6 17.848179 -0.000003 0.000002 0.000000 0.000000 1.310148
    7 15.638511 0.000000 0.000000 0.285983 -0.215709 -1.195208
    8 7.109930 0.000000 0.000000 -0.081154 -0.003131 -0.631749
    9 0.066413 3.345128 -2.981901 1.567886 -0.113027 1.557733
    10 4.018332 0.000000 0.000000 -0.087340 -0.011397 0.316643
    11 3.518568 0.000001 -0.000003 -0.071732 -0.013447 0.179586
    12 8.942633 -0.000001 0.000000 0.026978 -0.008881 0.158298
    13 3.307272 0.000001 0.000000 3.141590 0.000000 0.400478
    14 3.593714 -0.000001 0.000002 -0.259379 -0.073260 0.974787
    15 2.033346 1.000768 1.101697 1.848180 -1.411864 2.688434
    16 6.809416 0.000001 0.000000 -1.628194 -0.264122 -0.418945
    17 12.391796 0.000000 0.000001 0.000000 0.000000 -1.848879
    18 9.337076 0.000000 -0.000031 -0.995447 0.113459 0.154219
    19 4.454020 -0.070210 0.572073 0.096293 -0.007832 -0.804082
    20 1.426597 -0.000001 0.000000 0.023861 -0.079623 -1.125947
    21 1.322468 -0.000002 0.000000 0.009312 -0.033625 -0.575065
    22 4.477066 -0.028570 1.582474 0.476656 -0.055423 -1.136099
    23 1.344418 0.000000 0.000000 0.023466 -0.208305 -0.755723
    24 1.224671 0.000000 0.000000 0.026043 -0.124620 -0.538676
    25 2.630323 -0.345015 1.907214 -0.354022 -0.915164 -1.788195
    26 1.059292 0.000000 0.000001 0.000551 0.000004 0.000021
    27 0.781203 0.000000 0.000000 -0.000467 0.006940 -0.135953
    28 2.033353 1.000771 -1.101647 -2.294644 1.345859 2.321411
    29 6.809417 0.000001 0.000000 1.042910 0.986562 -0.691365
    30 12.391794 0.000000 0.000001 0.000000 0.000000 -1.591440
    31 9.337102 0.000000 0.000003 -1.015065 -0.284991 0.065779
    32 4.453986 -0.073766 -0.571672 -0.386562 0.126208 -1.146676
    33 1.426599 0.000002 0.000000 -0.051390 0.078806 -1.521754
    34 1.322465 -0.000001 0.000000 -0.034695 0.051519 -1.200268
    35 4.477036 -0.043465 -1.581290 -0.083016 0.164909 0.067468
    36 1.344414 0.000000 0.000000 0.024521 0.136363 -0.478036
    37 1.224670 0.000001 0.000000 -0.166394 0.224946 -1.318175
    38 2.630291 -0.359835 -1.904289 1.070466 0.381356 -0.978487
    39 1.059293 0.000000 0.000000 0.002193 0.017488 0.317162
    40 0.781204 0.000000 0.000000 0.006472 0.026012 0.488050
    41 -0.044717 2.528787 4.661499 0.152356 -0.034594 -0.049900
  time 7
    0 19.800333 -0.020310 29.046868 1.557543 -0.078489 0.405326
    1 3.890452 -0.000008 -0.000003 -1.916762 -0.777517 -1.185782
    2 17.848177 0.000002 0.000002 0.000000 0.000000 1.328650
    3 15.638507 0.000000 0.000000 -0.318714 -0.098734 -1.323715
    4 7.109929 0.000000 0.000000 -0.007119 -0.003131 -0.631738
    5 -3.890450 0.000004 0.000007 -1.018383 -0.596192 -2.551152
    6 17.848179 -0.000003 0.000002 0.000000 0.000000 1.284884
    7 15.638511 0.000000 0.000000 0.384469 -0.173705 -0.979189
    8 7.109930 0.000000 0.000000 -0.081154 -0.003131 -0.631749
    9 0.000005 3.345128 -2.981901 1.567455 -0.112999 1.565476
    10 4.018332 0.000000 0.000000 -0.072964 -0.013902 0.326766
    11 3.518568 0.000001 -0.000003 -0.059885 -0.008162 0.189696
    12 8.942633 -0.000001 0.000000 0.032918 0.007047 0.160532
    13 3.307272 0.000001 0.000000 3.141590 0.000000 0.400478
    14 3.593714 -0.000001 0.000002 -0.349073 -0.078549 0.928497
    15 2.033346 1.000768 1.101697 1.848180 -1.411864 2.688434
    16 6.809416 0.000001 0.000000 -1.600748 -0.587956 -0.438446
    17 12.391796 0.000000 0.000001 0.000000 0.000000 -1.609970
    18 9.337076 0.000000 -0.000031 -0.956726 0.186784 0.097735
    19 4.454020 -0.070210 0.572073 0.096293 -0.007832 -0.804082
    20 1.426597 -0.000001 0.000000 0.023861 -0.079623 -1.125947
    21 1.322468 -0.000002 0.000000 0.009312 -0.033625 -0.575065
    22 4.477066 -0.028570 1.582474 0.476656 -0.055423 -1.136099
    23 1.344418 0.000000 0.000000 0.023466 -0.208305 -0.755723
    24 1.224671 0.000000 0.000000 0.026043 -0.124620 -0.538676
    25 2.630323 -0.345015 1.907214 -0.354022 -0.915164 -1.788195
    26 1.059292 0.000000 0.000001 0.000551 0.000004 0.000021
    27 0.781203 0.000000 0.000000 -0.000467 0.006940 -0.135953
    28 2.033353 1.000771 -1.101647 -2.221219 1.324324 2.397426
    29 6.809417 0.000001 0.000000 1.281613 0.858363 -0.524478
    30 12.391794 0.000000 0.000001 0.000000 0.000000 -1.631087
    31 9.337102 0.000000 0.000003 -1.016665 -0.285715 0.068888
    32 4.453986 -0.073766 -0.571672 -0.386562 0.126208 -1.146676
    33 1.426599 0.000002 0.000000 -0.051390 0.078806 -1.521754
    34 1.322465 -0.000001 0.000000 -0.034695 0.051519 -1.200268
    35 4.477036 -0.043465 -1.581290 -0.083016 0.164909 0.067468
    36 1.344414 0.000000 0.000000 0.024521 0.136363 -0.478036
    37 1.224670 0.000001 0.000000 -0.166394 0.224946 -1.318175
    38 2.630291 -0.359835 -1.904289 1.070466 0.381356 -0.978487
    39 1.059293 0.000000 0.000000 0.002193 0.017488 0.317162
    40 0.781204 0.000000 0.000000 0.006472 0.026012 0.488050
    41 -0.044717 2.528787 4.661499 0.152356 -0.034975 -0.042205
  time 8
    0 22.935100 0.162523 29.026284 1.546923 -0.051603 0.397956
    1 3.890452 -0.000008 -0.000003 -1.912181 -0.767723 -1.264079
    2 17.848177 0.000002 0.000002 0.000000 0.000000 1.415332
    3 15.638507 0.000000 0.000000 -0.250287 -0.171978 -1.442590
    4 7.109929 0.000000 0.000000 -0.007119 -0.003131 -0.631738
    5 -3.890450 0.000004 0.000007 -0.971284 -0.640031 -2.550111
    6 17.848179 -0.000003 0.000002 0.000000 0.000000 1.294795
    7 15.638511 0.000000 0.000000 0.295433 -0.051877 -0.870606
    8 7.109930 0.000000 0.000000 -0.081154 -0.003131 -0.631749
    9 0.000005 3.345128 -2.981901 1.567455 -0.112999 1.565417
    10 4.018332 0.000000 0.000000 -0.073213 -0.007263 0.326870
    11 3.518568 0.000001 -0.000003 -0.062380 -0.000300 0.191151
    12 8.942633 -0.000001 0.000000 0.034694 0.009851 0.164965
    13 3.307272 0.000001 0.000000 3.141590 0.000000 0.400478
    14 3.593714 -0.000001 0.000002 -0.327177 -0.131550 0.940710
    15 2.033346 1.000768 1.101697 1.848180 -1.411864 2.688434
    16 6.809416 0.000001 0.000000 -1.601034 -0.678484 -0.454633
    17 12.391796 0.000000 0.000001 0.000000 0.000000 -1.506127
    18 9.337076 0.000000 -0.000031 -0.941113 0.227030 0.051809
    19 4.454020 -0.070210 0.572073 0.096293 -0.007832 -0.804082
    20 1.426597 -0.000001 0.000000 0.023861 -0.079623 -1.125947
    21 1.322468 -0.000002 0.000000 0.009312 -0.033625 -0.575065
    22 4.477066 -0.028570 1.582474 0.476656 -0.055423 -1.136099
    23 1.344418 0.000000 0.000000 0.023466 -0.208305 -0.755723
    24 1.224671 0.000000 0.000000 0.026043 -0.124620 -0.538676
    25 2.630323 -0.345015 1.907214 -0.354022 -0.915164 -1.788195
    26 1.059292 0.000000 0.000001 0.000551 0.000004 0.000021
    27 0.781203 0.000000 0.000000 -0.000467 0.006940 -0.135953
    28 2.033353 1.000771 -1.101647 -2.251470 1.312140 2.368765
    29 6.809417 0.000001 0.000000 1.336888 0.820827 -0.498585
    30 12.391794 0.000000 0.000001 0.000000 0.000000 -1.626131
    31 9.337102 0.000000 0.000003 -1.016729 -0.285639 0.068888
    32 4.453986 -0.073766 -0.571672 -0.386562 0.126208 -1.146676
    33 1.426599 0.000002 0.000000 -0.051390 0.078806 -1.521754
    34 1.322465 -0.000001 0.000000 -0.034695 0.051519 -1.200268
    35 4.477036 -0.043465 -1.581290 -0.083016 0.164909 0.067468
    36 1.344414 0.000000 0.000000 0.024521 0.136363 -0.478036
    37 1.224670 0.000001 0.000000 -0.166394 0.224946 -1.318175
    38 2.630291 -0.359835 -1.904289 1.070466 0.381356 -0.978487
    39 1.059293 0.000000 0.000000 0.002193 0.017488 0.317162
    40 0.781204 0.000000 0.000000 0.006472 0.026012 0.488050
    41 -0.044717 2.528787 4.661499 0.152356 -0.035007 -0.042285
  time 9
    0 25.905800 0.314884 29.046868 1.536474 -0.027811 0.391161
    1 3.890452 -0.000008 -0.000003 -1.902637 -0.738294 -1.352630
    2 17.848177 0.000002 0.000002 0.000000 0.000000 1.459368
    3 15.638507 0.000000 0.000000 -0.179676 -0.241983 -1.545426
    4 7.109929 0.000000 0.000000 -0.007119 -0.003131 -0.631738
    5 -3.890450 0.000004 0.000007 -0.903305 -0.695580 -2.524380
    6 17.848179 -0.000003 0.000002 0.000000 0.000000 1.358321
    7 15.638511 0.000000 0.000000 0.256058 -0.025755 -0.940607
    8 7.109930 0.000000 0.000000 -0.081154 -0.003131 -0.631749
    9 0.000005 3.345128 -2.981901 1.567455 -0.112999 1.565535
    10 4.018332 0.000000 0.000000 -0.075812 -0.000575 0.327496
    11 3.518568 0.000001 -0.000003 -0.067077 0.007011 0.193350
    12 8.942633 -0.000001 0.000000 0.035957 0.012068 0.170119
    13 3.307272 0.000001 0.000000 3.141590 0.000000 0.400478
    14 3.593714 -0.000001 0.000002 -0.305914 -0.131314 0.940248
    15 2.033346 1.000768 1.101697 1.848180 -1.411864 2.688434
    16 6.809416 0.000001 0.000000 -1.616335 -0.751417 -0.458230
    17 12.391796 0.000000 0.000001 0.000000 0.000000 -1.420419
    18 9.337076 0.000000 -0.000031 -0.926213 0.272439 0.014422
    19 4.454020 -0.070210 0.572073 0.096293 -0.007832 -0.804082
    20 1.426597 -0.000001 0.000000 0.023861 -0.079623 -1.125947
    21 1.322468 -0.000002 0.000000 0.009312 -0.033625 -0.575065
    22 4.477066 -0.028570 1.582474 0.476656 -0.055423 -1.136099
    23 1.344418 0.000000 0.000000 0.023466 -0.208305 -0.755723
    24 1.224671 0.000000 0.000000 0.026043 -0.124620 -0.538676
    25 2.630323 -0.345015 1.907214 -0.354022 -0.915164 -1.788195
    26 1.059292 0.000000 0.000001 0.000551 0.000004 0.000021
    27 0.781203 0.000000 0.000000 -0.000467 0.006940 -0.135953
    28 2.033353 1.000771 -1.101647 -2.244960 1.302304 2.376721
    29 6.809417 0.000001 0.000000 1.374369 0.806067 -0.487660
    30 12.391794 0.000000 0.000001 0.000000 0.000000 -1.615070
    31 9.337102 0.000000 0.000003 -1.016857 -0.285372 0.068888
    32 4.453986 -0.073766 -0.571672 -0.386562 0.126208 -1.146676
    33 1.426599 0.000002 0.000000 -0.051390 0.078806 -1.521754
    34 1.322465 -0.000001 0.000000 -0.034695 0.051519 -1.200268
    35 4.477036 -0.043465 -1.581290 -0.083016 0.164909 0.067468
    36 1.344414 0.000000 0.000000 0.024521 0.136363 -0.478036
    37 1.224670 0.000001 0.000000 -0.166394 0.224946 -1.318175
    38 2.630291 -0.359835 -1.904289 1.070466 0.381356 -0.978487
    39 1.059293 0.000000 0.000000 0.002193 0.017488 0.317162
    40 0.781204 0.000000 0.000000 0.006472 0.026012 0.488050
    41 -0.044717 2.528787 4.661499 0.152356 -0.034975 -0.042165
  time 10
    0 28.712433 0.446930 29.077744 1.527723 -0.009840 0.386662
    1 3.890452 -0.000008 -0.000003 -1.890993 -0.696469 -1.447506
    2 17.848177 0.000002 0.000002 0.000000 0.000000 1.468805
    3 15.638507 0.000000 0.000000 -0.107609 -0.305537 -1.632696
    4 7.109929 0.000000 0.000000 -0.007119 -0.003131 -0.631738
    5 -3.890450 0.000004 0.000007 -0.816163 -0.754228 -2.475567
    6 17.848179 -0.000003 0.000002 0.000000 0.000000 1.447030
    7 15.638511 0.000000 0.000000 0.267546 -0.063209 -1.093883
    8 7.109930 0.000000 0.000000 -0.081154 -0.003131 -0.631749
    9 0.000005 3.345128 -2.981901 1.567509 -0.112999 1.566127
    10 4.018332 0.000000 0.000000 -0.080807 0.005801 0.328331
    11 3.518568 0.000001 -0.000003 -0.073955 0.013363 0.195833
    12 8.942633 -0.000001 0.000000 0.036470 0.013579 0.175537
    13 3.307272 0.000001 0.000000 3.141590 0.000000 0.400478
    14 3.593714 -0.000001 0.000002 -0.282119 -0.128530 0.938276
    15 2.033346 1.000768 1.101697 1.848180 -1.411864 2.688434
    16 6.809416 0.000001 0.000000 -1.635270 -0.773669 -0.459366
    17 12.391796 0.000000 0.000001 0.000000 0.000000 -1.410248
    18 9.337076 0.000000 -0.000031 -0.909975 0.299598 0.018807
    19 4.454020 -0.070210 0.572073 0.096293 -0.007832 -0.804082
    20 1.426597 -0.000001 0.000000 0.023861 -0.079623 -1.125947
    21 1.322468 -0.000002 0.000000 0.009312 -0.033625 -0.575065
    22 4.477066 -0.028570 1.582474 0.476656 -0.055423 -1.136099
    23 1.344418 0.000000 0.000000 0.023466 -0.208305 -0.755723
    24 1.224671 0.000000 0.000000 0.026043 -0.124620 -0.538676
    25 2.630323 -0.345015 1.907214 -0.354022 -0.915164 -1.788195
    26 1.059292 0.000000 0.000001 0.000551 0.000004 0.000021
    27 0.781203 0.000000 0.000000 -0.000467 0.006940 -0.135953
    28 2.033353 1.000771 -1.101647 -2.198531 1.301616 2.423020
    29 6.809417 0.000001 0.000000 1.384023 0.812900 -0.485337
    30 12.391794 0.000000 0.000001 0.000000 0.000000 -1.614639
    31 9.337102 0.000000 0.000003 -1.016857 -0.285372 0.068888
    32 4.453986 -0.073766 -0.571672 -0.386562 0.126208 -1.146676
    33 1.426599 0.000002 0.000000 -0.051390 0.078806 -1.521754
    34 1.322465 -0.000001 0.000000 -0.034695 0.051519 -1.200268
    35 4.477036 -0.043465 -1.581290 -0.083016 0.164909 0.067468
    36 1.344414 0.000000 0.000000 0.024521 0.136363 -0.478036
    37 1.224670 0.000001 0.000000 -0.166394 0.224946 -1.318175
    38 2.630291 -0.359835 -1.904289 1.070466 0.381356 -0.978487
    39 1.059293 0.000000 0.000000 0.002193 0.017488 0.317162
    40 0.781204 0.000000 0.000000 0.006472 0.026012 0.488050
    41 -0.044717 2.528787 4.661499 0.152356 -0.034975 -0.041563
  time 11
    0 31.386248 0.518032 29.170371 1.521436 0.000277 0.385897
    1 3.890452 -0.000008 -0.000003 -1.893284 -0.640687 -1.538453
    2 17.848177 0.000002 0.000002 0.000000 0.000000 1.444446
    3 15.638507 0.000000 0.000000 -0.027282 -0.350135 -1.706186
    4 7.109929 0.000000 0.000000 -0.007119 -0.003131 -0.631738
    5 -3.890450 0.000004 0.000007 -0.730641 -0.811056 -2.396955
    6 17.848179 -0.000003 0.000002 0.000000 0.000000 1.517136
    7 15.638511 0.000000 0.000000 0.295897 -0.146809 -1.227774
    8 7.109930 0.000000 0.000000 -0.081154 -0.003131 -0.631749
    9 0.000005 3.345128 -2.981901 1.567563 -0.112999 1.567545
    10 4.018332 0.000000 0.000000 -0.087837 0.011757 0.329166
    11 3.518568 0.000001 -0.000003 -0.082614 0.018600 0.198245
    12 8.942633 -0.000001 0.000000 0.036151 0.014334 0.180621
    13 3.307272 0.000001 0.000000 3.141590 0.000000 0.400478
    14 3.593714 -0.000001 0.000002 -0.257481 -0.122684 0.935967
    15 2.033346 1.000768 1.101697 1.848180 -1.411864 2.688434
    16 6.809416 0.000001 0.000000 -1.657361 -0.780923 -0.457094
    17 12.391796 0.000000 0.000001 0.000000 0.000000 -1.422075
    18 9.337076 0.000000 -0.000031 -0.894094 0.323700 0.036404
    19 4.454020 -0.070210 0.572073 0.096293 -0.007832 -0.804082
    20 1.426597 -0.000001 0.000000 0.023861 -0.079623 -1.125947
    21 1.322468 -0.000002 0.000000 0.009312 -0.033625 -0.575065
    22 4.477066 -0.028570 1.582474 0.476656 -0.055423 -1.136099
    23 1.344418 0.000000 0.000000 0.023466 -0.208305 -0.755723
    24 1.224671 0.000000 0.000000 0.026043 -0.124620 -0.538676
    25 2.630323 -0.345015 1.907214 -0.354022 -0.915164 -1.788195
    26 1.059292 0.000000 0.000001 0.000551 0.000004 0.000021
    27 0.781203 0.000000 0.000000 -0.000467 0.006940 -0.135953
    28 2.033353 1.000771 -1.101647 -2.144252 1.301980 2.476988
    29 6.809417 0.000001 0.000000 1.384402 0.825952 -0.488434
    30 12.391794 0.000000 0.000001 0.000000 0.000000 -1.616148
    31 9.337102 0.000000 0.000003 -1.016857 -0.285410 0.068888
    32 4.453986 -0.073766 -0.571672 -0.386562 0.126208 -1.146676
    33 1.426599 0.000002 0.000000 -0.051390 0.078806 -1.521754
    34 1.322465 -0.000001 0.000000 -0.034695 0.051519 -1.200268
    35 4.477036 -0.043465 -1.581290 -0.083016 0.164909 0.067468
    36 1.344414 0.000000 0.000000 0.024521 0.136363 -0.478036
    37 1.224670 0.000001 0.000000 -0.166394 0.224946 -1.318175
    38 2.630291 -0.359835 -1.904289 1.070466 0.381356 -0.978487
    39 1.059293 0.000000 0.000000 0.002193 0.017488 0.317162
    40 0.781204 0.000000 0.000000 0.006472 0.026012 0.488050
    41 -0.044717 2.528787 4.661499 0.152356 -0.034912 -0.040120
  time 12
    0 33.997562 0.518032 29.376210 1.518378 0.001201 0.388672
    1 3.890452 -0.000008 -0.000003 -1.928024 -0.565553 -1.615791
    2 17.848177 0.000002 0.000002 0.000000 0.000000 1.383220
    3 15.638507 0.000000 0.000000 0.067035 -0.357840 -1.766662
    4 7.109929 0.000000 0.000000 -0.007119 -0.003131 -0.631738
    5 -3.890450 0.000004 0.000007 -0.655797 -0.859127 -2.294598
    6 17.848179 -0.000003 0.000002 0.000000 0.000000 1.539232
    7 15.638511 0.000000 0.000000 0.339256 -0.265496 -1.265305
    8 7.109930 0.000000 0.000000 -0.081154 -0.003131 -0.631749
    9 0.000005 3.345128 -2.981901 1.567617 -0.112999 1.570560
    10 4.018332 0.000000 0.000000 -0.096087 0.017210 0.330001
    11 3.518568 0.000001 -0.000003 -0.092239 0.022735 0.200338
    12 8.942633 -0.000001 0.000000 0.034958 0.014322 0.184667
    13 3.307272 0.000001 0.000000 3.141590 0.000000 0.400478
    14 3.593714 -0.000001 0.000002 -0.234108 -0.113647 0.934792
    15 2.033346 1.000768 1.101697 1.848180 -1.411864 2.688434
    16 6.809416 0.000001 0.000000 -1.675914 -0.779453 -0.457094
    17 12.391796 0.000000 0.000001 0.000000 0.000000 -1.441708
    18 9.337076 0.000000 -0.000031 -0.879105 0.344842 0.057578
    19 4.454020 -0.070210 0.572073 0.096293 -0.007832 -0.804082
    20 1.426597 -0.000001 0.000000 0.023861 -0.079623 -1.125947
    21 1.322468 -0.000002 0.000000 0.009312 -0.033625 -0.575065
    22 4.477066 -0.028570 1.582474 0.476656 -0.055423 -1.136099
    23 1.344418 0.000000 0.000000 0.023466 -0.208305 -0.755723
    24 1.224671 0.000000 0.000000 0.026043 -0.124620 -0.538676
    25 2.630323 -0.345015 1.907214 -0.354022 -0.915164 -1.788195
    26 1.059292 0.000000 0.000001 0.000551 0.000004 0.000021
    27 0.781203 0.000000 0.000000 -0.000467 0.006940 -0.135953
    28 2.033353 1.000771 -1.101647 -2.087675 1.302547 2.532873
    29 6.809417 0.000001 0.000000 1.376073 0.839880 -0.496865
    30 12.391794 0.000000 0.000001 0.000000 0.000000 -1.617584
    31 9.337102 0.000000 0.000003 -1.016857 -0.285448 0.068888
    32 4.453986 -0.073766 -0.571672 -0.386562 0.126208 -1.146676
    33 1.426599 0.000002 0.000000 -0.051390 0.078806 -1.521754
    34 1.322465 -0.000001 0.000000 -0.034695 0.051519 -1.200268
    35 4.477036 -0.043465 -1.581290 -0.083016 0.164909 0.067468
    36 1.344414 0.000000 0.000000 0.024521 0.136363 -0.478036
    37 1.224670 0.000001 0.000000 -0.166394 0.224946 -1.318175
    38 2.630291 -0.359835 -1.904289 1.070466 0.381356 -0.978487
    39 1.059293 0.000000 0.000000 0.002193 0.017488 0.317162
    40 0.781204 0.000000 0.000000 0.006472 0.026012 0.488050
    41 -0.044717 2.528787 4.661499 0.152356 -0.034816 -0.037114
  time 13
    0 36.624502 0.457087 29.715845 1.518038 -0.006375 0.394128
    1 3.890452 -0.000008 -0.000003 -1.997599 -0.467614 -1.682684
    2 17.848177 0.000002 0.000002 0.000000 0.000000 1.282201
    3 15.638507 0.000000 0.000000 0.168694 -0.319836 -1.808037
    4 7.109929 0.000000 0.000000 -0.007119 -0.003131 -0.631738
    5 -3.890450 0.000004 0.000007 -0.597925 -0.883629 -2.174362
    6 17.848179 -0.000003 0.000002 0.000000 0.000000 1.497558
    7 15.638511 0.000000 0.000000 0.383913 -0.389235 -1.178878
    8 7.109930 0.000000 0.000000 -0.081154 -0.003131 -0.631749
    9 0.000005 3.345128 -2.981901 1.567778 -0.113027 1.575820
    10 4.018332 0.000000 0.000000 -0.104451 0.022064 0.331045
    11 3.518568 0.000001 -0.000003 -0.101695 0.025827 0.202148
    12 8.942633 -0.000001 0.000000 0.032959 0.013567 0.187077
    13 3.307272 0.000001 0.000000 3.141590 0.000000 0.400478
    14 3.593714 -0.000001 0.000002 -0.214152 -0.101698 0.936093
    15 2.033346 1.000768 1.101697 1.848180 -1.411864 2.688434
    16 6.809416 0.000001 0.000000 -1.667785 -0.752985 -0.480476
    17 12.391796 0.000000 0.000001 0.000000 0.000000 -1.473011
    18 9.337076 0.000000 -0.000031 -0.867774 0.349544 0.075753
    19 4.454020 -0.070210 0.572073 0.096293 -0.007832 -0.804082
    20 1.426597 -0.000001 0.000000 0.023861 -0.079623 -1.125947
    21 1.322468 -0.000002 0.000000 0.009312 -0.033625 -0.575065
    22 4.477066 -0.028570 1.582474 0.476656 -0.055423 -1.136099
    23 1.344418 0.000000 0.000000 0.023466 -0.208305 -0.755723
    24 1.224671 0.000000 0.000000 0.026043 -0.124620 -0.538676
    25 2.630323 -0.345015 1.907214 -0.354022 -0.915164 -1.788195
    26 1.059292 0.000000 0.000001 0.000551 0.000004 0.000021
    27 0.781203 0.000000 0.000000 -0.000467 0.006940 -0.135953
    28 2.033353 1.000771 -1.101647 -2.020856 1.306635 2.598344
    29 6.809417 0.000001 0.000000 1.341904 0.851136 -0.513898
    30 12.391794 0.000000 0.000001 0.000000 0.000000 -1.618374
    31 9.337102 0.000000 0.000003 -1.016857 -0.285448 0.068888
    32 4.453986 -0.073766 -0.571672 -0.386562 0.126208 -1.146676
    33 1.426599 0.000002 0.000000 -0.051390 0.078806 -1.521754
    34 1.322465 -0.000001 0.000000 -0.034695 0.051519 -1.200268
    35 4.477036 -0.043465 -1.581290 -0.083016 0.164909 0.067468
    36 1.344414 0.000000 0.000000 0.024521 0.136363 -0.478036
    37 1.224670 0.000001 0.000000 -0.166394 0.224946 -1.318175
    38 2.630291 -0.359835 -1.904289 1.070466 0.381356 -0.978487
    39 1.059293 0.000000 0.000000 0.002193 0.017488 0.317162
    40 0.781204 0.000000 0.000000 0.006472 0.026012 0.488050
    41 -0.044717 2.528787 4.661499 0.152421 -0.034689 -0.031744
  time 14
    0 39.310037 0.345356 30.148106 1.519313 -0.019218 0.400636
    1 3.890452 -0.000008 -0.000003 -2.111743 -0.417320 -1.691405
    2 17.848177 0.000002 0.000002 0.000000 0.000000 1.313582
    3 15.638507 0.000000 0.000000 0.058774 -0.159073 -1.698531
    4 7.109929 0.000000 0.000000 -0.007119 -0.003131 -0.631738
    5 -3.890450 0.000004 0.000007 -0.590869 -0.874822 -2.029720
    6 17.848179 -0.000003 0.000002 0.000000 0.000000 1.396095
    7 15.638511 0.000000 0.000000 0.427273 -0.483666 -1.025792
    8 7.109930 0.000000 0.000000 -0.081154 -0.003131 -0.631749
    9 0.000005 3.345128 -2.981901 1.567994 -0.113055 1.583918
    10 4.018332 0.000000 0.000000 -0.111706 0.026114 0.332488
    11 3.518568 0.000001 -0.000003 -0.109768 0.027828 0.203744
    12 8.942633 -0.000001 0.000000 0.030392 0.012045 0.187411
    13 3.307272 0.000001 0.000000 3.141590 0.000000 0.400478
    14 3.593714 -0.000001 0.000002 -0.199428 -0.087907 0.940878
    15 2.033346 1.000768 1.101697 1.848180 -1.411864 2.688434
    16 6.809416 0.000001 0.000000 -1.645407 -0.715637 -0.516258
    17 12.391796 0.000000 0.000001 0.000000 0.000000 -1.476086
    18 9.337076 0.000000 -0.000031 -0.861529 0.345599 0.062021
    19 4.454020 -0.070210 0.572073 0.096293 -0.007832 -0.804082
    20 1.426597 -0.000001 0.000000 0.023861 -0.079623 -1.125947
    21 1.322468 -0.000002 0.000000 0.009312 -0.033625 -0.575065
    22 4.477066 -0.028570 1.582474 0.476656 -0.055411 -1.136099
    23 1.344418 0.000000 0.000000 0.023466 -0.208305 -0.755723
    24 1.224671 0.000000 0.000000 0.026043 -0.124620 -0.538676
    25 2.630323 -0.345015 1.907214 -0.354022 -0.915164 -1.788195
    26 1.059292 0.000000 0.000001 0.000551 0.000004 0.000021
    27 0.781203 0.000000 0.000000 -0.000467 0.006940 -0.135953
    28 2.033353 1.000771 -1.101647 -1.998934 1.298014 2.620871
    29 6.809417 0.000001 0.000000 1.304424 0.855428 -0.519231
    30 12.391794 0.000000 0.000001 0.000000 0.000000 -1.606595
    31 9.337102 0.000000 0.000003 -1.016985 -0.285182 0.068974
    32 4.453986 -0.073766 -0.571672 -0.386562 0.126208 -1.146647
    33 1.426599 0.000002 0.000000 -0.051390 0.078806 -1.521754
    34 1.322465 -0.000001 0.000000 -0.034695 0.051519 -1.200268
    35 4.477036 -0.043465 -1.581290 -0.083016 0.164909 0.067468
    36 1.344414 0.000000 0.000000 0.024521 0.136363 -0.478036
    37 1.224670 0.000001 0.000000 -0.166394 0.224946 -1.318175
    38 2.630291 -0.359835 -1.904289 1.070466 0.381356 -0.978487
    39 1.059293 0.000000 0.000000 0.002193 0.017488 0.317162
    40 0.781204 0.000000 0.000000 0.006472 0.026012 0.488050
    41 -0.044717 2.528787 4.661499 0.152421 -0.034467 -0.023687
  time 15
    0 42.034635 0.162523 30.672995 1.520162 -0.031830 0.406378
    1 3.890452 -0.000008 -0.000003 -2.218635 -0.380794 -1.684601
    2 17.848177 0.000002 0.000002 0.000000 0.000000 1.370346
    3 15.638507 0.000000 0.000000 -0.028042 0.037567 -1.536968
    4 7.109929 0.000000 0.000000 -0.007119 -0.003131 -0.631738
    5 -3.890450 0.000004 0.000007 -0.639303 -0.823898 -1.877226
    6 17.848179 -0.000003 0.000002 0.000000 0.000000 1.264007
    7 15.638511 0.000000 0.000000 0.401238 -0.533180 -0.887318
    8 7.109930 0.000000 0.000000 -0.081154 -0.003131 -0.631749
    9 0.000005 3.345128 -2.981901 1.568263 -0.113084 1.594202
    10 4.018332 0.000000 0.000000 -0.116905 0.028871 0.334454
    11 3.518568 0.000001 -0.000003 -0.115262 0.028523 0.205234
    12 8.942633 -0.000001 0.000000 0.027713 0.009803 0.185564
    13 3.307272 0.000001 0.000000 3.141590 0.000000 0.400478
    14 3.593714 -0.000001 0.000002 -0.191159 -0.073538 0.948977
    15 2.033346 1.000768 1.101697 1.848180 -1.411864 2.688434
    16 6.809416 0.000001 0.000000 -1.620352 -0.684562 -0.552041
    17 12.391796 0.000000 0.000001 0.000000 0.000000 -1.462761
    18 9.337076 0.000000 -0.000031 -0.856979 0.341226 0.036866
    19 4.454020 -0.070210 0.572073 0.096293 -0.007832 -0.804082
    20 1.426597 -0.000001 0.000000 0.023861 -0.079623 -1.125947
    21 1.322468 -0.000002 0.000000 0.009312 -0.033625 -0.575065
    22 4.477066 -0.028570 1.582474 0.476656 -0.055423 -1.136099
    23 1.344418 0.000000 0.000000 0.023466 -0.208305 -0.755723
    24 1.224671 0.000000 0.000000 0.026043 -0.124620 -0.538676
    25 2.630323 -0.345015 1.907214 -0.354022 -0.915164 -1.788195
    26 1.059292 0.000000 0.000001 0.000551 0.000004 0.000021
    27 0.781203 0.000000 0.000000 -0.000467 0.006940 -0.135953
    28 2.033353 1.000771 -1.101647 -1.988978 1.287327 2.631990
    29 6.809417 0.000001 0.000000 1.270823 0.854465 -0.521640
    30 12.391794 0.000000 0.000001 0.000000 0.000000 -1.592589
    31 9.337102 0.000000 0.000003 -1.017177 -0.284877 0.068974
    32 4.453986 -0.073766 -0.571672 -0.386562 0.126208 -1.146676
    33 1.426599 0.000002 0.000000 -0.051390 0.078806 -1.521754
    34 1.322465 -0.000001 0.000000 -0.034695 0.051519 -1.200268
    35 4.477036 -0.043465 -1.581290 -0.083016 0.164909 0.067468
    36 1.344414 0.000000 0.000000 0.024521 0.136363 -0.478036
    37 1.224670 0.000001 0.000000 -0.166394 0.224946 -1.318175
    38 2.630291 -0.359835 -1.904289 1.070466 0.381356 -0.978487
    39 1.059293 0.000000 0.000000 0.002193 0.017488 0.317162
    40 0.781204 0.000000 0.000000 0.006472 0.026012 0.488050
    41 -0.044717 2.528787 4.661499 0.152421 -0.034213 -0.013347
  time 16
    0 44.767047 -0.111726 31.187593 1.519228 -0.053127 0.409920
    1 3.890452 -0.000008 -0.000003 -2.254615 -0.366269 -1.657000
    2 17.848177 0.000002 0.000002 0.000000 0.000000 1.408676
    3 15.638507 0.000000 0.000000 0.011299 0.243614 -1.224962
    4 7.109929 0.000000 0.000000 -0.007119 -0.003131 -0.631738
    5 -3.890450 0.000004 0.000007 -0.725111 -0.758607 -1.770707
    6 17.848179 -0.000003 0.000002 0.000000 0.000000 1.171399
    7 15.638511 0.000000 0.000000 0.204360 -0.495408 -0.851219
    8 7.109930 0.000000 0.000000 -0.081154 -0.003131 -0.631749
    9 0.039069 3.345128 -2.981901 1.568533 -0.113140 1.593020
    10 4.018332 0.000000 0.000000 -0.119437 0.029650 0.336750
    11 3.518568 0.000001 -0.000003 -0.117421 0.027481 0.206476
    12 8.942633 -0.000001 0.000000 0.025535 0.006927 0.181782
    13 3.307272 0.000001 0.000000 3.141590 0.000000 0.400478
    14 3.593714 -0.000001 0.000002 -0.189598 -0.060240 0.959679
    15 2.033346 1.000768 1.101697 1.848180 -1.411864 2.688434
    16 6.809416 0.000001 0.000000 -1.607729 -0.647900 -0.573813
    17 12.391796 0.000000 0.000001 0.000000 0.000000 -1.462839
    18 9.337076 0.000000 -0.000031 -0.856533 0.332117 0.021403
    19 4.454020 -0.070210 0.572073 0.096293 -0.007832 -0.804082
    20 1.426597 -0.000001 0.000000 0.023861 -0.079623 -1.125947
    21 1.322468 -0.000002 0.000000 0.009312 -0.033625 -0.575065
    22 4.477066 -0.028570 1.582474 0.476656 -0.055423 -1.136099
    23 1.344418 0.000000 0.000000 0.023466 -0.208305 -0.755723
    24 1.224671 0.000000 0.000000 0.026043 -0.124620 -0.538676
    25 2.630323 -0.345015 1.907214 -0.354022 -0.915164 -1.788195
    26 1.059292 0.000000 0.000001 0.000551 0.000004 0.000021
    27 0.781203 0.000000 0.000000 -0.000467 0.006940 -0.135953
    28 2.033353 1.000771 -1.101647 -2.014442 1.280567 2.607834
    29 6.809417 0.000001 0.000000 1.245079 0.855647 -0.522500
    30 12.391794 0.000000 0.000001 0.000000 0.000000 -1.580092
    31 9.337102 0.000000 0.000003 -1.015257 -0.284801 0.066557
    32 4.453986 -0.073766 -0.571672 -0.386562 0.126208 -1.146676
    33 1.426599 0.000002 0.000000 -0.051390 0.078806 -1.521754
    34 1.322465 -0.000001 0.000000 -0.034695 0.051519 -1.200268
    35 4.477036 -0.043465 -1.581290 -0.083016 0.164909 0.067468
    36 1.344414 0.000000 0.000000 0.024521 0.136363 -0.478036
    37 1.224670 0.000001 0.000000 -0.166394 0.224946 -1.318175
    38 2.630291 -0.359835 -1.904289 1.070466 0.381356 -0.978487
    39 1.059293 0.000000 0.000000 0.002193 0.017488 0.317162
    40 0.781204 0.000000 0.000000 0.006472 0.026012 0.488050
    41 -0.044717 2.528787 4.661499 0.152486 -0.033959 -0.014509
  time 17
    0 47.491645 -0.396133 31.496351 1.516764 -0.102512 0.410398
    1 3.890452 -0.000008 -0.000003 -2.207182 -0.433312 -1.628058
    2 17.848177 0.000002 0.000002 0.000000 0.000000 1.543563
    3 15.638507 0.000000 0.000000 0.033043 0.317661 -1.011198
    4 7.109929 0.000000 0.000000 -0.007119 -0.003131 -0.631738
    5 -3.890450 0.000004 0.000007 -0.826650 -0.714965 -1.745827
    6 17.848179 -0.000003 0.000002 0.000000 0.000000 1.177166
    7 15.638511 0.000000 0.000000 -0.080443 -0.342679 -1.040977
    8 7.109930 0.000000 0.000000 -0.081154 -0.003131 -0.631749
    9 0.179698 3.341221 -2.981901 1.568694 -0.113169 1.559447
    10 4.018332 0.000000 0.000000 -0.119346 0.027708 0.338872
    11 3.518568 0.000001 -0.000003 -0.116038 0.024233 0.207150
    12 8.942633 -0.000001 0.000000 0.024494 0.003619 0.176681
    13 3.307272 0.000001 0.000000 3.141590 0.000000 0.400478
    14 3.593714 -0.000001 0.000002 -0.193817 -0.049533 0.972311
    15 2.033346 1.000768 1.101697 1.848180 -1.411864 2.688434
    16 6.809416 0.000001 0.000000 -1.612988 -0.597416 -0.575801
    17 12.391796 0.000000 0.000001 0.000000 0.000000 -1.492171
    18 9.337076 0.000000 -0.000031 -0.860904 0.315907 0.028961
    19 4.454020 -0.070210 0.572073 0.096293 -0.007832 -0.804082
    20 1.426597 -0.000001 0.000000 0.023861 -0.079623 -1.125947
    21 1.322468 -0.000002 0.000000 0.009312 -0.033625 -0.575065
    22 4.477066 -0.028570 1.582474 0.476656 -0.055423 -1.136099
    23 1.344418 0.000000 0.000000 0.023466 -0.208305 -0.755723
    24 1.224671 0.000000 0.000000 0.026043 -0.124620 -0.538676
    25 2.630323 -0.345015 1.907214 -0.354022 -0.915164 -1.788195
    26 1.059292 0.000000 0.000001 0.000551 0.000004 0.000021
    27 0.781203 0.000000 0.000000 -0.000467 0.006940 -0.135953
    28 2.033353 1.000771 -1.101647 -2.108449 1.276560 2.515907
    29 6.809417 0.000001 0.000000 1.231828 0.857312 -0.521726
    30 12.391794 0.000000 0.000001 0.000000 0.000000 -1.570540
    31 9.337102 0.000000 0.000003 -1.008792 -0.285258 0.058095
    32 4.453986 -0.073766 -0.571672 -0.386562 0.126208 -1.146676
    33 1.426599 0.000002 0.000000 -0.051390 0.078806 -1.521754
    34 1.322465 -0.000001 0.000000 -0.034695 0.051519 -1.200268
    35 4.477036 -0.043465 -1.581290 -0.083016 0.164909 0.067468
    36 1.344414 0.000000 0.000000 0.024521 0.136363 -0.478036
    37 1.224670 0.000001 0.000000 -0.166394 0.224946 -1.318175
    38 2.630291 -0.359835 -1.904289 1.070466 0.381356 -0.978487
    39 1.059293 0.000000 0.000000 0.002193 0.017488 0.317162
    40 0.781204 0.000000 0.000000 0.006472 0.026012 0.488050
    41 -0.044717 2.528787 4.661499 0.152486 -0.033768 -0.048137
  time 18
    0 50.145929 -0.629753 31.527227 1.514725 -0.159843 0.405230
    1 3.890452 -0.000008 -0.000003 -2.128732 -0.517908 -1.606496
    2 17.848177 0.000002 0.000002 0.000000 0.000000 1.664406
    3 15.638507 0.000000 0.000000 0.049469 0.323452 -0.882116
    4 7.109929 0.000000 0.000000 -0.007119 -0.003131 -0.631738
    5 -3.890450 0.000004 0.000007 -0.919132 -0.713588 -1.831629
    6 17.848179 -0.000003 0.000002 0.000000 0.000000 1.236955
    7 15.638511 0.000000 0.000000 -0.160121 -0.238282 -1.216791
    8 7.109930 0.000000 0.000000 -0.081154 -0.003131 -0.631749
    9 0.339859 3.329502 -2.981901 1.568802 -0.113197 1.516063
    10 4.018332 0.000000 0.000000 -0.117222 0.022687 0.340159
    11 3.518568 0.000001 -0.000003 -0.111634 0.018504 0.206830
    12 8.942633 -0.000001 0.000000 0.024855 0.000144 0.171052
    13 3.307272 0.000001 0.000000 3.141590 0.000000 0.400478
    14 3.593714 -0.000001 0.000002 -0.202339 -0.042466 0.986748
    15 2.033346 1.000768 1.101697 1.848180 -1.411864 2.688434
    16 6.809416 0.000001 0.000000 -1.629915 -0.533208 -0.558573
    17 12.391796 0.000000 0.000001 0.000000 0.000000 -1.545393
    18 9.337076 0.000000 -0.000031 -0.873484 0.294863 0.051463
    19 4.454020 -0.070210 0.572073 0.096293 -0.007832 -0.804082
    20 1.426597 -0.000001 0.000000 0.023861 -0.079623 -1.125947
    21 1.322468 -0.000002 0.000000 0.009312 -0.033625 -0.575065
    22 4.477066 -0.028570 1.582474 0.476656 -0.055423 -1.136099
    23 1.344418 0.000000 0.000000 0.023466 -0.208305 -0.755723
    24 1.224671 0.000000 0.000000 0.026043 -0.124620 -0.538676
    25 2.630323 -0.345015 1.907214 -0.354022 -0.915164 -1.788195
    26 1.059292 0.000000 0.000001 0.000551 0.000004 0.000021
    27 0.781203 0.000000 0.000000 -0.000467 0.006940 -0.135953
    28 2.033353 1.000771 -1.101647 -2.234908 1.271743 2.391196
    29 6.809417 0.000001 0.000000 1.218294 0.862699 -0.531705
    30 12.391794 0.000000 0.000001 0.000000 0.000000 -1.563573
    31 9.337102 0.000000 0.000003 -1.002712 -0.285791 0.049115
    32 4.453986 -0.073766 -0.571672 -0.386562 0.126208 -1.146676
    33 1.426599 0.000002 0.000000 -0.051390 0.078806 -1.521754
    34 1.322465 -0.000001 0.000000 -0.034695 0.051519 -1.200268
    35 4.477036 -0.043465 -1.581290 -0.083016 0.164909 0.067468
    36 1.344414 0.000000 0.000000 0.024521 0.136363 -0.478036
    37 1.224670 0.000001 0.000000 -0.166394 0.224946 -1.318175
    38 2.630291 -0.359835 -1.904289 1.070466 0.381356 -0.978487
    39 1.059293 0.000000 0.000000 0.002193 0.017488 0.317162
    40 0.781204 0.000000 0.000000 0.006472 0.026012 0.488050
    41 -0.044717 2.528787 4.661499 0.152551 -0.033673 -0.091503
  time 19
    0 52.749431 -0.761799 31.331680 1.516679 -0.195923 0.392692
    1 3.890452 -0.000008 -0.000003 -2.002466 -0.597016 -1.573912
    2 17.848177 0.000002 0.000002 0.000000 0.000000 1.704272
    3 15.638507 0.000000 0.000000 0.038740 0.161673 -0.909821
    4 7.109929 0.000000 0.000000 -0.007119 -0.003131 -0.631738
    5 -3.890450 0.000004 0.000007 -1.015428 -0.719000 -1.899173
    6 17.848179 -0.000003 0.000002 0.000000 0.000000 1.294308
    7 15.638511 0.000000 0.000000 -0.207835 -0.133429 -1.371978
    8 7.109930 0.000000 0.000000 -0.081154 -0.003131 -0.631749
    9 0.402361 3.321690 -2.981901 1.568748 -0.113197 1.496794
    10 4.018332 0.000000 0.000000 -0.113899 0.014849 0.340072
    11 3.518568 0.000001 -0.000003 -0.105176 0.010487 0.205234
    12 8.942633 -0.000001 0.000000 0.026312 -0.003224 0.165704
    13 3.307272 0.000001 0.000000 3.141590 0.000000 0.400478
    14 3.593714 -0.000001 0.000002 -0.213562 -0.038547 1.001899
    15 2.033346 1.000768 1.101697 1.848180 -1.411864 2.688434
    16 6.809416 0.000001 0.000000 -1.653440 -0.456501 -0.522128
    17 12.391796 0.000000 0.000001 0.000000 0.000000 -1.622428
    18 9.337076 0.000000 -0.000031 -0.898377 0.269972 0.082330
    19 4.454020 -0.070210 0.572073 0.096293 -0.007832 -0.804082
    20 1.426597 -0.000001 0.000000 0.023861 -0.079623 -1.125947
    21 1.322468 -0.000002 0.000000 0.009312 -0.033625 -0.575065
    22 4.477066 -0.028570 1.582474 0.476656 -0.055423 -1.136099
    23 1.344418 0.000000 0.000000 0.023466 -0.208305 -0.755723
    24 1.224671 0.000000 0.000000 0.026043 -0.124620 -0.538676
    25 2.630323 -0.345015 1.907214 -0.354022 -0.915164 -1.788195
    26 1.059292 0.000000 0.000001 0.000551 0.000004 0.000021
    27 0.781203 0.000000 0.000000 -0.000467 0.006940 -0.135953
    28 2.033353 1.000771 -1.101647 -2.323459 1.274091 2.302048
    29 6.809417 0.000001 0.000000 1.186018 0.887138 -0.566544
    30 12.391794 0.000000 0.000001 0.000000 0.000000 -1.559910
    31 9.337102 0.000000 0.000003 -1.001624 -0.285905 0.047042
    32 4.453986 -0.073766 -0.571672 -0.386562 0.126208 -1.146676
    33 1.426599 0.000002 0.000000 -0.051390 0.078806 -1.521754
    34 1.322465 -0.000001 0.000000 -0.034695 0.051519 -1.200268
    35 4.477036 -0.043465 -1.581290 -0.083016 0.164909 0.067468
    36 1.344414 0.000000 0.000000 0.024521 0.136363 -0.478036
    37 1.224670 0.000001 0.000000 -0.166394 0.224946 -1.318175
    38 2.630291 -0.359835 -1.904289 1.070466 0.381356 -0.978487
    39 1.059293 0.000000 0.000000 0.002193 0.017488 0.317162
    40 0.781204 0.000000 0.000000 0.006472 0.026012 0.488050
    41 -0.044717 2.528787 4.661499 0.152551 -0.033705 -0.110742
  time 20
    0 55.313868 -0.761799 31.053797 1.524240 -0.201051 0.374698
    1 3.890452 -0.000008 -0.000003 -1.870569 -0.681944 -1.502228
    2 17.848177 0.000002 0.000002 0.000000 0.000000 1.718610
    3 15.638507 0.000000 0.000000 0.030352 -0.054915 -0.981488
    4 7.109929 0.000000 0.000000 -0.007119 -0.003131 -0.631738
    5 -3.890450 0.000004 0.000007 -1.108291 -0.723133 -1.926701
    6 17.848179 -0.000003 0.000002 0.000000 0.000000 1.338093
    7 15.638511 0.000000 0.000000 -0.241559 -0.043595 -1.493931
    8 7.109930 0.000000 0.000000 -0.081154 -0.003131 -0.631749
    9 0.332046 3.329502 -2.981901 1.568641 -0.113169 1.512576
    10 4.018332 0.000000 0.000000 -0.110124 0.005357 0.338402
    11 3.518568 0.000001 -0.000003 -0.097942 0.001091 0.202290
    12 8.942633 -0.000001 0.000000 0.028088 -0.006304 0.161271
    13 3.307272 0.000001 0.000000 3.141590 0.000000 0.400478
    14 3.593714 -0.000001 0.000002 -0.225628 -0.036470 1.015286
    15 2.033346 1.000768 1.101697 1.848180 -1.411864 2.688434
    16 6.809416 0.000001 0.000000 -1.688155 -0.353278 -0.465235
    17 12.391796 0.000000 0.000001 0.000000 0.000000 -1.738019
    18 9.337076 0.000000 -0.000031 -0.939864 0.235809 0.122832
    19 4.454020 -0.070210 0.572073 0.096293 -0.007832 -0.804082
    20 1.426597 -0.000001 0.000000 0.023861 -0.079623 -1.125947
    21 1.322468 -0.000002 0.000000 0.009312 -0.033625 -0.575065
    22 4.477066 -0.028570 1.582474 0.476656 -0.055423 -1.136099
    23 1.344418 0.000000 0.000000 0.023466 -0.208305 -0.755723
    24 1.224671 0.000000 0.000000 0.026043 -0.124620 -0.538676
    25 2.630323 -0.345015 1.907214 -0.354022 -0.915164 -1.788195
    26 1.059292 0.000000 0.000001 0.000551 0.000004 0.000021
    27 0.781203 0.000000 0.000000 -0.000467 0.006940 -0.135953
    28 2.033353 1.000771 -1.101647 -2.346529 1.297366 2.275495
    29 6.809417 0.000001 0.000000 1.115411 0.950822 -0.638547
    30 12.391794 0.000000 0.000001 0.000000 0.000000 -1.558473
    31 9.337102 0.000000 0.000003 -1.005592 -0.285410 0.052914
    32 4.453986 -0.073766 -0.571672 -0.386562 0.126208 -1.146676
    33 1.426599 0.000002 0.000000 -0.051390 0.078806 -1.521754
    34 1.322465 -0.000001 0.000000 -0.034695 0.051519 -1.200268
    35 4.477036 -0.043465 -1.581290 -0.083016 0.164909 0.067468
    36 1.344414 0.000000 0.000000 0.024521 0.136363 -0.478036
    37 1.224670 0.000001 0.000000 -0.166394 0.224946 -1.318175
    38 2.630291 -0.359835 -1.904289 1.070466 0.381356 -0.978487
    39 1.059293 0.000000 0.000000 0.002193 0.017488 0.317162
    40 0.781204 0.000000 0.000000 0.006472 0.026012 0.488050
    41 -0.044717 2.528787 4.661499 0.152486 -0.033800 -0.095031
end
