// Created by Crowbar 0.62
version 1
nodes
  0 "ValveBiped.Bip01_Pelvis" -1
  1 "ValveBiped.Bip01_L_Thigh" 0
  2 "ValveBiped.Bip01_L_Calf" 1
  3 "ValveBiped.Bip01_L_Foot" 2
  4 "ValveBiped.Bip01_L_Toe0" 3
  5 "ValveBiped.Bip01_R_Thigh" 0
  6 "ValveBiped.Bip01_R_Calf" 5
  7 "ValveBiped.Bip01_R_Foot" 6
  8 "ValveBiped.Bip01_R_Toe0" 7
  9 "ValveBiped.Bip01_Spine" 0
  10 "ValveBiped.Bip01_Spine1" 9
  11 "ValveBiped.Bip01_Spine2" 10
  12 "ValveBiped.Bip01_Spine4" 11
  13 "ValveBiped.Bip01_Neck1" 12
  14 "ValveBiped.Bip01_Head1" 13
  15 "ValveBiped.Bip01_L_Clavicle" 12
  16 "ValveBiped.Bip01_L_UpperArm" 15
  17 "ValveBiped.Bip01_L_Forearm" 16
  18 "ValveBiped.Bip01_L_Hand" 17
  19 "ValveBiped.Bip01_L_Finger2" 18
  20 "ValveBiped.Bip01_L_Finger21" 19
  21 "ValveBiped.Bip01_L_Finger22" 20
  22 "ValveBiped.Bip01_L_Finger1" 18
  23 "ValveBiped.Bip01_L_Finger11" 22
  24 "ValveBiped.Bip01_L_Finger12" 23
  25 "ValveBiped.Bip01_L_Finger0" 18
  26 "ValveBiped.Bip01_L_Finger01" 25
  27 "ValveBiped.Bip01_L_Finger02" 26
  28 "ValveBiped.Bip01_R_Clavicle" 12
  29 "ValveBiped.Bip01_R_UpperArm" 28
  30 "ValveBiped.Bip01_R_Forearm" 29
  31 "ValveBiped.Bip01_R_Hand" 30
  32 "ValveBiped.Bip01_R_Finger2" 31
  33 "ValveBiped.Bip01_R_Finger21" 32
  34 "ValveBiped.Bip01_R_Finger22" 33
  35 "ValveBiped.Bip01_R_Finger1" 31
  36 "ValveBiped.Bip01_R_Finger11" 35
  37 "ValveBiped.Bip01_R_Finger12" 36
  38 "ValveBiped.Bip01_R_Finger0" 31
  39 "ValveBiped.Bip01_R_Finger01" 38
  40 "ValveBiped.Bip01_R_Finger02" 39
  41 "ValveBiped.Cod" 0
end
skeleton
  time 0
    0 0.138281 -1.940055 27.883878 1.663483 -0.211030 0.052156
    1 3.890450 -0.000007 -0.000003 -2.200502 -0.991089 -1.279795
    2 17.848175 -0.000002 -0.000002 0.000000 0.000000 1.824091
    3 15.638507 0.000000 0.000000 0.280988 -0.013153 -1.139332
    4 7.109929 0.000000 0.000000 -0.007119 -0.003131 -0.631738
    5 -3.890452 0.000004 0.000008 -1.129171 -1.016376 -2.015908
    6 17.848179 -0.000001 0.000000 0.000000 0.000000 1.573675
    7 15.638511 0.000000 0.000000 0.103002 0.324527 -1.581026
    8 7.109930 0.000000 0.000000 -0.081166 -0.003119 -0.629956
    9 0.000005 3.345128 -2.981901 1.564491 -0.113084 1.553359
    10 4.018335 0.000001 0.000001 -0.099523 0.002613 0.320835
    11 3.518566 0.000001 0.000001 -0.087123 0.006675 0.187781
    12 8.942632 0.000001 0.000000 0.043728 0.002709 0.171527
    13 3.307271 0.000001 0.000000 3.141590 0.000000 0.400478
    14 3.593712 -0.000001 0.000002 0.097752 0.163819 1.134349
    15 2.033346 1.000768 1.101697 1.848180 -1.411864 2.688434
    16 6.809416 0.000001 0.000000 -1.539065 -0.805577 -0.517016
    17 12.391796 0.000000 0.000001 0.000000 0.000000 -1.324935
    18 9.337076 0.000000 -0.000031 -0.865811 0.452100 0.050136
    19 4.454020 -0.070210 0.572073 0.096293 -0.007832 -0.804082
    20 1.426597 -0.000001 0.000000 0.023861 -0.079623 -1.125947
    21 1.322468 -0.000002 0.000000 0.009312 -0.033625 -0.575065
    22 4.477066 -0.028570 1.582474 0.476656 -0.055423 -1.136099
    23 1.344418 0.000000 0.000000 0.023466 -0.208305 -0.755723
    24 1.224671 0.000000 0.000000 0.026043 -0.124620 -0.538676
    25 2.630323 -0.345015 1.907214 -0.354022 -0.915164 -1.788195
    26 1.059292 0.000000 0.000001 0.000551 0.000004 0.000021
    27 0.781203 0.000000 0.000000 -0.000467 0.006940 -0.135953
    28 2.033353 1.000771 -1.101647 -2.051107 1.251221 2.576009
    29 6.809417 0.000001 0.000000 1.273095 0.678788 -0.655579
    30 12.391794 0.000000 0.000001 0.000000 0.000000 -1.616148
    31 9.337102 0.000000 0.000003 -1.016857 -0.285410 0.068888
    32 4.453986 -0.073766 -0.571672 -0.386562 0.126208 -1.146676
    33 1.426599 0.000002 0.000000 -0.051390 0.078806 -1.521754
    34 1.322465 -0.000001 0.000000 -0.034695 0.051519 -1.200268
    35 4.477036 -0.043465 -1.581290 -0.083016 0.164909 0.067468
    36 1.344414 0.000000 0.000000 0.024521 0.136363 -0.478036
    37 1.224670 0.000001 0.000000 -0.166394 0.224946 -1.318175
    38 2.630291 -0.359835 -1.904289 1.070466 0.381356 -0.978487
    39 1.059293 0.000000 0.000000 0.002193 0.017488 0.317162
    40 0.781204 0.000000 0.000000 0.006472 0.026012 0.488050
    41 -0.044717 2.528787 4.661499 0.152551 -0.037961 -0.054670
  time 1
    0 1.816097 -3.575676 27.719207 1.663908 -0.226460 0.040288
    1 3.890450 -0.000007 -0.000003 -2.266354 -1.068589 -1.136714
    2 17.848175 -0.000002 -0.000002 0.000000 0.000000 1.729655
    3 15.638507 0.000000 0.000000 0.279247 -0.053615 -1.238377
    4 7.109929 0.000000 0.000000 -0.007119 -0.003131 -0.631738
    5 -3.890452 0.000004 0.000008 -1.130601 -0.967764 -2.099629
    6 17.848179 -0.000001 0.000000 0.000000 0.000000 1.626153
    7 15.638511 0.000000 0.000000 0.158499 0.262226 -1.644533
    8 7.109930 0.000000 0.000000 -0.081166 -0.003119 -0.629373
    9 0.000005 3.345128 -2.981901 1.564329 -0.113084 1.552532
    10 4.018335 0.000001 0.000001 -0.097195 -0.008785 0.319095
    11 3.518566 0.000001 0.000001 -0.081440 -0.004290 0.185333
    12 8.942632 0.000001 0.000000 0.045033 0.002061 0.169099
    13 3.307271 0.000001 0.000000 3.141590 0.000000 0.400478
    14 3.593712 -0.000001 0.000002 0.089736 0.164976 1.131705
    15 2.033346 1.000768 1.101697 1.848180 -1.411864 2.688434
    16 6.809416 0.000001 0.000000 -1.566320 -0.771807 -0.468832
    17 12.391796 0.000000 0.000001 0.000000 0.000000 -1.385647
    18 9.337076 0.000000 -0.000031 -0.893648 0.421192 0.071310
    19 4.454020 -0.070210 0.572073 0.096293 -0.007832 -0.804082
    20 1.426597 -0.000001 0.000000 0.023861 -0.079623 -1.125947
    21 1.322468 -0.000002 0.000000 0.009312 -0.033625 -0.575065
    22 4.477066 -0.028570 1.582474 0.476656 -0.055423 -1.136099
    23 1.344418 0.000000 0.000000 0.023466 -0.208305 -0.755723
    24 1.224671 0.000000 0.000000 0.026043 -0.124620 -0.538676
    25 2.630323 -0.345015 1.907214 -0.354022 -0.915164 -1.788195
    26 1.059292 0.000000 0.000001 0.000551 0.000004 0.000021
    27 0.781203 0.000000 0.000000 -0.000467 0.006940 -0.135953
    28 2.033353 1.000771 -1.101647 -2.073699 1.263931 2.552045
    29 6.809417 0.000001 0.000000 1.264198 0.706819 -0.660741
    30 12.391794 0.000000 0.000001 0.000000 0.000000 -1.618661
    31 9.337102 0.000000 0.000003 -1.016793 -0.285448 0.068888
    32 4.453986 -0.073766 -0.571672 -0.386562 0.126208 -1.146676
    33 1.426599 0.000002 0.000000 -0.051390 0.078806 -1.521754
    34 1.322465 -0.000001 0.000000 -0.034695 0.051519 -1.200268
    35 4.477036 -0.043465 -1.581290 -0.083016 0.164909 0.067468
    36 1.344414 0.000000 0.000000 0.024521 0.136363 -0.478036
    37 1.224670 0.000001 0.000000 -0.166394 0.224946 -1.318175
    38 2.630291 -0.359835 -1.904289 1.070466 0.381356 -0.978487
    39 1.059293 0.000000 0.000000 0.002193 0.017488 0.317162
    40 0.781204 0.000000 0.000000 0.006472 0.026012 0.488050
    41 -0.044717 2.528787 4.661499 0.152616 -0.038120 -0.055511
  time 2
    0 3.548603 -5.190983 27.626580 1.667986 -0.237224 0.028229
    1 3.890450 -0.000007 -0.000003 -2.348432 -1.083776 -1.012896
    2 17.848175 -0.000002 -0.000002 0.000000 0.000000 1.544148
    3 15.638507 0.000000 0.000000 0.288394 -0.060800 -1.285694
    4 7.109929 0.000000 0.000000 -0.007119 -0.003131 -0.631738
    5 -3.890452 0.000004 0.000008 -1.146428 -0.910838 -2.170862
    6 17.848179 -0.000001 0.000000 0.000000 0.000000 1.651255
    7 15.638511 0.000000 0.000000 0.221036 0.199378 -1.695626
    8 7.109930 0.000000 0.000000 -0.081166 -0.003119 -0.628925
    9 0.000005 3.345128 -2.981901 1.564276 -0.113084 1.552296
    10 4.018335 0.000001 0.000001 -0.094437 -0.018756 0.316695
    11 3.518566 0.000001 0.000001 -0.075779 -0.013818 0.182317
    12 8.942632 0.000001 0.000000 0.046073 0.001414 0.167041
    13 3.307271 0.000001 0.000000 3.141590 0.000000 0.400478
    14 3.593712 -0.000001 0.000002 0.083619 0.162727 1.129690
    15 2.033346 1.000768 1.101697 1.848180 -1.411864 2.688434
    16 6.809416 0.000001 0.000000 -1.588029 -0.734997 -0.428885
    17 12.391796 0.000000 0.000001 0.000000 0.000000 -1.444310
    18 9.337076 0.000000 -0.000031 -0.920235 0.385681 0.090061
    19 4.454020 -0.070210 0.572073 0.096293 -0.007832 -0.804082
    20 1.426597 -0.000001 0.000000 0.023861 -0.079623 -1.125947
    21 1.322468 -0.000002 0.000000 0.009312 -0.033625 -0.575065
    22 4.477066 -0.028570 1.582474 0.476656 -0.055423 -1.136099
    23 1.344418 0.000000 0.000000 0.023466 -0.208305 -0.755723
    24 1.224671 0.000000 0.000000 0.026043 -0.124620 -0.538676
    25 2.630323 -0.345015 1.907214 -0.354022 -0.915164 -1.788195
    26 1.059292 0.000000 0.000001 0.000551 0.000004 0.000021
    27 0.781203 0.000000 0.000000 -0.000467 0.006940 -0.135953
    28 2.033353 1.000771 -1.101647 -2.099546 1.277127 2.524630
    29 6.809417 0.000001 0.000000 1.256248 0.735638 -0.661171
    30 12.391794 0.000000 0.000001 0.000000 0.000000 -1.621247
    31 9.337102 0.000000 0.000003 -1.016793 -0.285524 0.068888
    32 4.453986 -0.073766 -0.571672 -0.386562 0.126208 -1.146676
    33 1.426599 0.000002 0.000000 -0.051390 0.078806 -1.521754
    34 1.322465 -0.000001 0.000000 -0.034695 0.051519 -1.200268
    35 4.477036 -0.043465 -1.581290 -0.083016 0.164909 0.067468
    36 1.344414 0.000000 0.000000 0.024521 0.136363 -0.478036
    37 1.224670 0.000001 0.000000 -0.166394 0.224946 -1.318175
    38 2.630291 -0.359835 -1.904289 1.070466 0.381356 -0.978487
    39 1.059293 0.000000 0.000000 0.002193 0.017488 0.317162
    40 0.781204 0.000000 0.000000 0.006472 0.026012 0.488050
    41 -0.044717 2.528787 4.661499 0.152616 -0.038184 -0.055752
  time 3
    0 5.378767 -6.796132 27.688331 1.673338 -0.242537 0.017031
    1 3.890450 -0.000007 -0.000003 -2.413617 -1.066791 -0.922428
    2 17.848175 -0.000002 -0.000002 0.000000 0.000000 1.320824
    3 15.638507 0.000000 0.000000 0.289027 -0.057657 -1.319741
    4 7.109929 0.000000 0.000000 -0.007119 -0.003131 -0.631738
    5 -3.890452 0.000004 0.000008 -1.176270 -0.841955 -2.227906
    6 17.848179 -0.000001 0.000000 0.000000 0.000000 1.641507
    7 15.638511 0.000000 0.000000 0.290616 0.138532 -1.730101
    8 7.109930 0.000000 0.000000 -0.081166 -0.003119 -0.628656
    9 0.000005 3.345128 -2.981901 1.564437 -0.113084 1.553005
    10 4.018335 0.000001 0.000001 -0.091431 -0.026390 0.313738
    11 3.518566 0.000001 0.000001 -0.070600 -0.020925 0.178876
    12 8.942632 0.000001 0.000000 0.047031 0.000995 0.165405
    13 3.307271 0.000001 0.000000 3.141590 0.000000 0.400478
    14 3.593712 -0.000001 0.000002 0.078725 0.157673 1.127172
    15 2.033346 1.000768 1.101697 1.848180 -1.411864 2.688434
    16 6.809416 0.000001 0.000000 -1.601895 -0.696227 -0.401149
    17 12.391796 0.000000 0.000001 0.000000 0.000000 -1.498400
    18 9.337076 0.000000 -0.000031 -0.943343 0.345434 0.105004
    19 4.454020 -0.070210 0.572073 0.096293 -0.007832 -0.804082
    20 1.426597 -0.000001 0.000000 0.023861 -0.079623 -1.125947
    21 1.322468 -0.000002 0.000000 0.009312 -0.033625 -0.575065
    22 4.477066 -0.028570 1.582474 0.476656 -0.055423 -1.136099
    23 1.344418 0.000000 0.000000 0.023466 -0.208305 -0.755723
    24 1.224671 0.000000 0.000000 0.026043 -0.124620 -0.538676
    25 2.630323 -0.345015 1.907214 -0.354022 -0.915164 -1.788195
    26 1.059292 0.000000 0.000001 0.000551 0.000004 0.000021
    27 0.781203 0.000000 0.000000 -0.000467 0.006940 -0.135953
    28 2.033353 1.000771 -1.101647 -2.128265 1.290242 2.494434
    29 6.809417 0.000001 0.000000 1.249528 0.763801 -0.655063
    30 12.391794 0.000000 0.000001 0.000000 0.000000 -1.623905
    31 9.337102 0.000000 0.000003 -1.016729 -0.285563 0.068888
    32 4.453986 -0.073766 -0.571672 -0.386562 0.126208 -1.146676
    33 1.426599 0.000002 0.000000 -0.051390 0.078806 -1.521754
    34 1.322465 -0.000001 0.000000 -0.034695 0.051519 -1.200268
    35 4.477036 -0.043465 -1.581290 -0.083016 0.164909 0.067468
    36 1.344414 0.000000 0.000000 0.024521 0.136363 -0.478036
    37 1.224670 0.000001 0.000000 -0.166394 0.224946 -1.318175
    38 2.630291 -0.359835 -1.904289 1.070466 0.381356 -0.978487
    39 1.059293 0.000000 0.000000 0.002193 0.017488 0.317162
    40 0.781204 0.000000 0.000000 0.006472 0.026012 0.488050
    41 -0.044717 2.528787 4.661499 0.152551 -0.038025 -0.055030
  time 4
    0 7.396438 -8.431753 27.770667 1.677331 -0.241151 0.008034
    1 3.890450 -0.000007 -0.000003 -2.423828 -1.045310 -0.892049
    2 17.848175 -0.000002 -0.000002 0.000000 0.000000 1.160041
    3 15.638507 0.000000 0.000000 0.294028 -0.082544 -1.340994
    4 7.109929 0.000000 0.000000 -0.007119 -0.003131 -0.631738
    5 -3.890452 0.000004 0.000008 -1.213168 -0.761412 -2.277097
    6 17.848179 -0.000001 0.000000 0.000000 0.000000 1.603570
    7 15.638511 0.000000 0.000000 0.367144 0.078779 -1.751111
    8 7.109930 0.000000 0.000000 -0.081166 -0.003119 -0.628432
    9 0.000005 3.345128 -2.981901 1.564868 -0.113055 1.555074
    10 4.018335 0.000001 0.000001 -0.088447 -0.031232 0.310346
    11 3.518566 0.000001 0.000001 -0.066238 -0.025024 0.175116
    12 8.942632 0.000001 0.000000 0.048211 0.001174 0.164314
    13 3.307271 0.000001 0.000000 3.141590 0.000000 0.400478
    14 3.593712 -0.000001 0.000002 0.074169 0.150585 1.124066
    15 2.033346 1.000768 1.101697 1.848180 -1.411864 2.688434
    16 6.809416 0.000001 0.000000 -1.605625 -0.656820 -0.389032
    17 12.391796 0.000000 0.000001 0.000000 0.000000 -1.545787
    18 9.337076 0.000000 -0.000031 -0.961187 0.300782 0.114697
    19 4.454020 -0.070210 0.572073 0.096293 -0.007832 -0.804082
    20 1.426597 -0.000001 0.000000 0.023861 -0.079623 -1.125947
    21 1.322468 -0.000002 0.000000 0.009312 -0.033625 -0.575065
    22 4.477066 -0.028570 1.582474 0.476656 -0.055423 -1.136099
    23 1.344418 0.000000 0.000000 0.023466 -0.208305 -0.755723
    24 1.224671 0.000000 0.000000 0.026043 -0.124620 -0.538676
    25 2.630323 -0.345015 1.907214 -0.354022 -0.915164 -1.788195
    26 1.059292 0.000000 0.000001 0.000551 0.000004 0.000021
    27 0.781203 0.000000 0.000000 -0.000467 0.006940 -0.135953
    28 2.033353 1.000771 -1.101647 -2.159090 1.302790 2.462130
    29 6.809417 0.000001 0.000000 1.244606 0.789818 -0.641213
    30 12.391794 0.000000 0.000001 0.000000 0.000000 -1.626490
    31 9.337102 0.000000 0.000003 -1.016729 -0.285639 0.068888
    32 4.453986 -0.073766 -0.571672 -0.386562 0.126208 -1.146676
    33 1.426599 0.000002 0.000000 -0.051390 0.078806 -1.521754
    34 1.322465 -0.000001 0.000000 -0.034695 0.051519 -1.200268
    35 4.477036 -0.043465 -1.581290 -0.083016 0.164909 0.067468
    36 1.344414 0.000000 0.000000 0.024521 0.136363 -0.478036
    37 1.224670 0.000001 0.000000 -0.166394 0.224946 -1.318175
    38 2.630291 -0.359835 -1.904289 1.070466 0.381356 -0.978487
    39 1.059293 0.000000 0.000000 0.002193 0.017488 0.317162
    40 0.781204 0.000000 0.000000 0.006472 0.026012 0.488050
    41 -0.044717 2.528787 4.661499 0.152551 -0.037580 -0.052906
  time 5
    0 9.617240 -10.168948 27.853002 1.705961 -0.210984 -0.035418
    1 3.890450 -0.000007 -0.000003 -2.380022 -1.039302 -0.919937
    2 17.848175 -0.000002 -0.000002 0.000000 0.000000 1.136487
    3 15.638507 0.000000 0.000000 0.221170 -0.087815 -1.264660
    4 7.109929 0.000000 0.000000 -0.007119 -0.003131 -0.631738
    5 -3.890452 0.000004 0.000008 -1.169405 -0.701927 -2.377278
    6 17.848179 -0.000001 0.000000 0.000000 0.000000 1.551498
    7 15.638511 0.000000 0.000000 0.403555 -0.100299 -1.645870
    8 7.109930 0.000000 0.000000 -0.080698 -0.003670 -0.766211
    9 0.000005 3.345128 -2.981901 1.566108 -0.113027 1.560039
    10 4.018335 0.000001 0.000001 -0.081146 -0.023658 0.317565
    11 3.518566 0.000001 0.000001 -0.062988 -0.017617 0.181502
    12 8.942632 0.000001 0.000000 0.041300 0.003895 0.162502
    13 3.307271 0.000001 0.000000 3.141590 0.000000 0.400478
    14 3.593712 -0.000001 0.000002 0.125260 0.138465 1.139762
    15 2.033346 1.000768 1.101697 1.848180 -1.411864 2.688434
    16 6.809416 0.000001 0.000000 -1.604860 -0.619570 -0.409574
    17 12.391796 0.000000 0.000001 0.000000 0.000000 -1.582846
    18 9.337076 0.000000 -0.000031 -0.961722 0.242977 0.109736
    19 4.454020 -0.070210 0.572073 0.096293 -0.007832 -0.804082
    20 1.426597 -0.000001 0.000000 0.023861 -0.079623 -1.125947
    21 1.322468 -0.000002 0.000000 0.009312 -0.033625 -0.575065
    22 4.477066 -0.028570 1.582474 0.476656 -0.055423 -1.136099
    23 1.344418 0.000000 0.000000 0.023466 -0.208305 -0.755723
    24 1.224671 0.000000 0.000000 0.026043 -0.124620 -0.538676
    25 2.630323 -0.345015 1.907214 -0.354022 -0.915164 -1.788195
    26 1.059292 0.000000 0.000001 0.000551 0.000004 0.000021
    27 0.781203 0.000000 0.000000 -0.000467 0.006940 -0.135953
    28 2.033353 1.000771 -1.101647 -2.190681 1.314286 2.429251
    29 6.809417 0.000001 0.000000 1.259276 0.825514 -0.587104
    30 12.391794 0.000000 0.000001 0.000000 0.000000 -1.628932
    31 9.337102 0.000000 0.000003 -1.016665 -0.285677 0.068888
    32 4.453986 -0.073766 -0.571672 -0.386562 0.126208 -1.146676
    33 1.426599 0.000002 0.000000 -0.051390 0.078806 -1.521754
    34 1.322465 -0.000001 0.000000 -0.034695 0.051519 -1.200268
    35 4.477036 -0.043465 -1.581290 -0.083016 0.164909 0.067468
    36 1.344414 0.000000 0.000000 0.024521 0.136363 -0.478036
    37 1.224670 0.000001 0.000000 -0.166394 0.224946 -1.318175
    38 2.630291 -0.359835 -1.904289 1.070466 0.381356 -0.978487
    39 1.059293 0.000000 0.000000 0.002193 0.017488 0.317162
    40 0.781204 0.000000 0.000000 0.006472 0.026012 0.488050
    41 -0.044717 2.528787 4.661499 0.152486 -0.036341 -0.047816
  time 6
    0 12.037266 -12.038188 27.945630 1.737310 -0.174164 -0.083656
    1 3.890450 -0.000007 -0.000003 -2.327149 -1.035138 -0.957791
    2 17.848175 -0.000002 -0.000002 0.000000 0.000000 1.137804
    3 15.638507 0.000000 0.000000 0.133468 -0.078786 -1.171995
    4 7.109929 0.000000 0.000000 -0.007119 -0.003131 -0.631738
    5 -3.890452 0.000004 0.000008 -1.120590 -0.642097 -2.478310
    6 17.848179 -0.000001 0.000000 0.000000 0.000000 1.497152
    7 15.638511 0.000000 0.000000 0.408465 -0.304680 -1.520766
    8 7.109930 0.000000 0.000000 -0.080159 -0.004161 -0.904035
    9 0.000005 3.345128 -2.981901 1.567455 -0.112999 1.565476
    10 4.018335 0.000001 0.000001 -0.072964 -0.013902 0.326766
    11 3.518566 0.000001 0.000001 -0.059885 -0.008162 0.189696
    12 8.942632 0.000001 0.000000 0.032918 0.007047 0.160532
    13 3.307271 0.000001 0.000000 3.141590 0.000000 0.400478
    14 3.593712 -0.000001 0.000002 0.186434 0.125059 1.157053
    15 2.033346 1.000768 1.101697 1.848180 -1.411864 2.688434
    16 6.809416 0.000001 0.000000 -1.600748 -0.587956 -0.438446
    17 12.391796 0.000000 0.000001 0.000000 0.000000 -1.609970
    18 9.337076 0.000000 -0.000031 -0.956726 0.186784 0.097735
    19 4.454020 -0.070210 0.572073 0.096293 -0.007832 -0.804082
    20 1.426597 -0.000001 0.000000 0.023861 -0.079623 -1.125947
    21 1.322468 -0.000002 0.000000 0.009312 -0.033625 -0.575065
    22 4.477066 -0.028570 1.582474 0.476656 -0.055423 -1.136099
    23 1.344418 0.000000 0.000000 0.023466 -0.208305 -0.755723
    24 1.224671 0.000000 0.000000 0.026043 -0.124620 -0.538676
    25 2.630323 -0.345015 1.907214 -0.354022 -0.915164 -1.788195
    26 1.059292 0.000000 0.000001 0.000551 0.000004 0.000021
    27 0.781203 0.000000 0.000000 -0.000467 0.006940 -0.135953
    28 2.033353 1.000771 -1.101647 -2.221219 1.324324 2.397426
    29 6.809417 0.000001 0.000000 1.281613 0.858363 -0.524478
    30 12.391794 0.000000 0.000001 0.000000 0.000000 -1.631087
    31 9.337102 0.000000 0.000003 -1.016665 -0.285715 0.068888
    32 4.453986 -0.073766 -0.571672 -0.386562 0.126208 -1.146676
    33 1.426599 0.000002 0.000000 -0.051390 0.078806 -1.521754
    34 1.322465 -0.000001 0.000000 -0.034695 0.051519 -1.200268
    35 4.477036 -0.043465 -1.581290 -0.083016 0.164909 0.067468
    36 1.344414 0.000000 0.000000 0.024521 0.136363 -0.478036
    37 1.224670 0.000001 0.000000 -0.166394 0.224946 -1.318175
    38 2.630291 -0.359835 -1.904289 1.070466 0.381356 -0.978487
    39 1.059293 0.000000 0.000000 0.002193 0.017488 0.317162
    40 0.781204 0.000000 0.000000 0.006472 0.026012 0.488050
    41 -0.044717 2.528787 4.661499 0.152356 -0.034975 -0.042205
  time 7
    0 12.035344 -12.038471 28.069133 1.737310 -0.174164 -0.083656
    1 3.890450 -0.000007 -0.000003 -2.327722 -1.035043 -0.957504
    2 17.848175 -0.000002 -0.000002 0.000000 0.000000 1.137804
    3 15.638507 0.000000 0.000000 0.133784 -0.078597 -1.171958
    4 7.109929 0.000000 0.000000 -0.007119 -0.003131 -0.631738
    5 -3.890452 0.000004 0.000008 -1.120972 -0.642196 -2.478027
    6 17.848179 -0.000001 0.000000 0.000000 0.000000 1.497152
    7 15.638511 0.000000 0.000000 0.408743 -0.304452 -1.520862
    8 7.109930 0.000000 0.000000 -0.080159 -0.004161 -0.904035
    9 0.000005 3.345128 -2.981901 1.567455 -0.112999 1.565476
    10 4.018335 0.000001 0.000001 -0.072964 -0.013902 0.326766
    11 3.518566 0.000001 0.000001 -0.059885 -0.008162 0.189696
    12 8.942632 0.000001 0.000000 0.032918 0.007047 0.160532
    13 3.307271 0.000001 0.000000 3.141590 0.000000 0.400478
    14 3.593712 -0.000001 0.000002 0.186434 0.125059 1.157053
    15 2.033346 1.000768 1.101697 1.848180 -1.411864 2.688434
    16 6.809416 0.000001 0.000000 -1.600748 -0.587956 -0.438446
    17 12.391796 0.000000 0.000001 0.000000 0.000000 -1.609970
    18 9.337076 0.000000 -0.000031 -0.956726 0.186784 0.097735
    19 4.454020 -0.070210 0.572073 0.096293 -0.007832 -0.804082
    20 1.426597 -0.000001 0.000000 0.023861 -0.079623 -1.125947
    21 1.322468 -0.000002 0.000000 0.009312 -0.033625 -0.575065
    22 4.477066 -0.028570 1.582474 0.476656 -0.055423 -1.136099
    23 1.344418 0.000000 0.000000 0.023466 -0.208305 -0.755723
    24 1.224671 0.000000 0.000000 0.026043 -0.124620 -0.538676
    25 2.630323 -0.345015 1.907214 -0.354022 -0.915164 -1.788195
    26 1.059292 0.000000 0.000001 0.000551 0.000004 0.000021
    27 0.781203 0.000000 0.000000 -0.000467 0.006940 -0.135953
    28 2.033353 1.000771 -1.101647 -2.221219 1.324324 2.397426
    29 6.809417 0.000001 0.000000 1.281613 0.858363 -0.524478
    30 12.391794 0.000000 0.000001 0.000000 0.000000 -1.631087
    31 9.337102 0.000000 0.000003 -1.016665 -0.285715 0.068888
    32 4.453986 -0.073766 -0.571672 -0.386562 0.126208 -1.146676
    33 1.426599 0.000002 0.000000 -0.051390 0.078806 -1.521754
    34 1.322465 -0.000001 0.000000 -0.034695 0.051519 -1.200268
    35 4.477036 -0.043465 -1.581290 -0.083016 0.164909 0.067468
    36 1.344414 0.000000 0.000000 0.024521 0.136363 -0.478036
    37 1.224670 0.000001 0.000000 -0.166394 0.224946 -1.318175
    38 2.630291 -0.359835 -1.904289 1.070466 0.381356 -0.978487
    39 1.059293 0.000000 0.000000 0.002193 0.017488 0.317162
    40 0.781204 0.000000 0.000000 0.006472 0.026012 0.488050
    41 -0.044717 2.528787 4.661499 0.152356 -0.034975 -0.042205
  time 8
    0 14.279584 -13.928026 27.708915 1.733232 -0.163447 -0.082125
    1 3.890450 -0.000007 -0.000003 -2.299472 -1.044364 -1.004463
    2 17.848175 -0.000002 -0.000002 0.000000 0.000000 1.255647
    3 15.638507 0.000000 0.000000 -0.000633 -0.039316 -1.210125
    4 7.109929 0.000000 0.000000 -0.007119 -0.003131 -0.631738
    5 -3.890452 0.000004 0.000008 -1.120018 -0.672799 -2.537624
    6 17.848179 -0.000001 0.000000 0.000000 0.000000 1.561490
    7 15.638511 0.000000 0.000000 0.329436 -0.197051 -1.328144
    8 7.109930 0.000000 0.000000 -0.080698 -0.003682 -0.767869
    9 0.058601 3.345128 -2.981901 1.567347 -0.112999 1.546208
    10 4.018335 0.000001 0.000001 -0.069099 -0.013686 0.325722
    11 3.518566 0.000001 0.000001 -0.056111 -0.004195 0.189483
    12 8.942632 0.000001 0.000000 0.039898 0.012033 0.163523
    13 3.307271 0.000001 0.000000 3.141590 0.000000 0.400478
    14 3.593712 -0.000001 0.000002 0.172469 0.117286 1.155248
    15 2.033346 1.000768 1.101697 1.848180 -1.411864 2.688434
    16 6.809416 0.000001 0.000000 -1.578561 -0.657114 -0.464667
    17 12.391796 0.000000 0.000001 0.000000 0.000000 -1.531043
    18 9.337076 0.000000 -0.000031 -0.940220 0.225156 0.071425
    19 4.454020 -0.070210 0.572073 0.096293 -0.007832 -0.804082
    20 1.426597 -0.000001 0.000000 0.023861 -0.079623 -1.125947
    21 1.322468 -0.000002 0.000000 0.009312 -0.033625 -0.575065
    22 4.477066 -0.028570 1.582474 0.476656 -0.055423 -1.136099
    23 1.344418 0.000000 0.000000 0.023466 -0.208305 -0.755723
    24 1.224671 0.000000 0.000000 0.026043 -0.124620 -0.538676
    25 2.630323 -0.345015 1.907214 -0.354022 -0.915164 -1.788195
    26 1.059292 0.000000 0.000001 0.000551 0.000004 0.000021
    27 0.781203 0.000000 0.000000 -0.000467 0.006940 -0.135953
    28 2.033353 1.000771 -1.101647 -2.190681 1.314286 2.429251
    29 6.809417 0.000001 0.000000 1.301490 0.815352 -0.521726
    30 12.391794 0.000000 0.000001 0.000000 0.000000 -1.629579
    31 9.337102 0.000000 0.000003 -1.014041 -0.285791 0.065002
    32 4.453986 -0.073766 -0.571672 -0.386562 0.126208 -1.146676
    33 1.426599 0.000002 0.000000 -0.051390 0.078806 -1.521754
    34 1.322465 -0.000001 0.000000 -0.034695 0.051519 -1.200268
    35 4.477036 -0.043465 -1.581290 -0.083016 0.164909 0.067468
    36 1.344414 0.000000 0.000000 0.024521 0.136363 -0.478036
    37 1.224670 0.000001 0.000000 -0.166394 0.224946 -1.318175
    38 2.630291 -0.359835 -1.904289 1.070466 0.381356 -0.978487
    39 1.059293 0.000000 0.000000 0.002193 0.017488 0.317162
    40 0.781204 0.000000 0.000000 0.006472 0.026012 0.488050
    41 -0.044717 2.528787 4.661499 0.152421 -0.035102 -0.061523
  time 9
    0 16.433978 -15.776953 27.431033 1.728900 -0.149634 -0.078679
    1 3.890450 -0.000007 -0.000003 -2.269218 -1.052265 -1.055351
    2 17.848175 -0.000002 -0.000002 0.000000 0.000000 1.372028
    3 15.638507 0.000000 0.000000 -0.104381 -0.003510 -1.269691
    4 7.109929 0.000000 0.000000 -0.007119 -0.003131 -0.631738
    5 -3.890452 0.000004 0.000008 -1.112677 -0.709701 -2.585964
    6 17.848179 -0.000001 0.000000 0.000000 0.000000 1.627534
    7 15.638511 0.000000 0.000000 0.259764 -0.095247 -1.163980
    8 7.109930 0.000000 0.000000 -0.081154 -0.003131 -0.631749
    9 0.109383 3.345128 -2.981901 1.567186 -0.113027 1.531076
    10 4.018335 0.000001 0.000001 -0.065731 -0.012907 0.324887
    11 3.518566 0.000001 0.000001 -0.052944 0.000144 0.189483
    12 8.942632 0.000001 0.000000 0.046642 0.016814 0.166636
    13 3.307271 0.000001 0.000000 3.141590 0.000000 0.400478
    14 3.593712 -0.000001 0.000002 0.159391 0.109876 1.154031
    15 2.033346 1.000768 1.101697 1.848180 -1.411864 2.688434
    16 6.809416 0.000001 0.000000 -1.552741 -0.728675 -0.495054
    17 12.391796 0.000000 0.000001 0.000000 0.000000 -1.443128
    18 9.337076 0.000000 -0.000031 -0.922912 0.267474 0.040270
    19 4.454020 -0.070210 0.572073 0.096293 -0.007832 -0.804082
    20 1.426597 -0.000001 0.000000 0.023861 -0.079623 -1.125947
    21 1.322468 -0.000002 0.000000 0.009312 -0.033625 -0.575065
    22 4.477066 -0.028570 1.582474 0.476656 -0.055423 -1.136099
    23 1.344418 0.000000 0.000000 0.023466 -0.208305 -0.755723
    24 1.224671 0.000000 0.000000 0.026043 -0.124620 -0.538676
    25 2.630323 -0.345015 1.907214 -0.354022 -0.915164 -1.788195
    26 1.059292 0.000000 0.000001 0.000551 0.000004 0.000021
    27 0.781203 0.000000 0.000000 -0.000467 0.006940 -0.135953
    28 2.033353 1.000771 -1.101647 -2.159090 1.302790 2.462130
    29 6.809417 0.000001 0.000000 1.320987 0.771466 -0.522586
    30 12.391794 0.000000 0.000001 0.000000 0.000000 -1.627280
    31 9.337102 0.000000 0.000003 -1.011737 -0.285867 0.061894
    32 4.453986 -0.073766 -0.571672 -0.386562 0.126208 -1.146676
    33 1.426599 0.000002 0.000000 -0.051390 0.078806 -1.521754
    34 1.322465 -0.000001 0.000000 -0.034695 0.051519 -1.200268
    35 4.477036 -0.043465 -1.581290 -0.083016 0.164909 0.067468
    36 1.344414 0.000000 0.000000 0.024521 0.136363 -0.478036
    37 1.224670 0.000001 0.000000 -0.166394 0.224946 -1.318175
    38 2.630291 -0.359835 -1.904289 1.070466 0.381356 -0.978487
    39 1.059293 0.000000 0.000000 0.002193 0.017488 0.317162
    40 0.781204 0.000000 0.000000 0.006472 0.026012 0.488050
    41 -0.044717 2.528787 4.661499 0.152421 -0.035261 -0.076674
  time 10
    0 18.436023 -17.534462 27.235486 1.723377 -0.118774 -0.065088
    1 3.890450 -0.000007 -0.000003 -2.234382 -1.051272 -1.122627
    2 17.848175 -0.000002 -0.000002 0.000000 0.000000 1.477948
    3 15.638507 0.000000 0.000000 -0.050924 -0.039600 -1.403730
    4 7.109929 0.000000 0.000000 -0.007119 -0.003131 -0.631738
    5 -3.890452 0.000004 0.000008 -1.081881 -0.784291 -2.564585
    6 17.848179 -0.000001 0.000000 0.000000 0.000000 1.706901
    7 15.638511 0.000000 0.000000 0.146084 -0.064210 -1.102669
    8 7.109930 0.000000 0.000000 -0.081154 -0.003131 -0.631749
    9 0.074226 3.345128 -2.981901 1.566808 -0.113027 1.538996
    10 4.018335 0.000001 0.000001 -0.065008 -0.008964 0.325096
    11 3.518566 0.000001 0.000001 -0.053238 0.006663 0.190725
    12 8.942632 0.000001 0.000000 0.051999 0.020590 0.170348
    13 3.307271 0.000001 0.000000 3.141590 0.000000 0.400478
    14 3.593712 -0.000001 0.000002 0.151375 0.104737 1.154073
    15 2.033346 1.000768 1.101697 1.848180 -1.411864 2.688434
    16 6.809416 0.000001 0.000000 -1.530172 -0.786903 -0.526955
    17 12.391796 0.000000 0.000001 0.000000 0.000000 -1.360653
    18 9.337076 0.000000 -0.000031 -0.905336 0.310548 0.006748
    19 4.454020 -0.070210 0.572073 0.096293 -0.007832 -0.804082
    20 1.426597 -0.000001 0.000000 0.023861 -0.079623 -1.125947
    21 1.322468 -0.000002 0.000000 0.009312 -0.033625 -0.575065
    22 4.477066 -0.028570 1.582474 0.476656 -0.055423 -1.136099
    23 1.344418 0.000000 0.000000 0.023466 -0.208305 -0.755723
    24 1.224671 0.000000 0.000000 0.026043 -0.124620 -0.538676
    25 2.630323 -0.345015 1.907214 -0.354022 -0.915164 -1.788195
    26 1.059292 0.000000 0.000001 0.000551 0.000004 0.000021
    27 0.781203 0.000000 0.000000 -0.000467 0.006940 -0.135953
    28 2.033353 1.000771 -1.101647 -2.128265 1.290242 2.494434
    29 6.809417 0.000001 0.000000 1.333008 0.736427 -0.529296
    30 12.391794 0.000000 0.000001 0.000000 0.000000 -1.624336
    31 9.337102 0.000000 0.000003 -1.012953 -0.285753 0.063880
    32 4.453986 -0.073766 -0.571672 -0.386562 0.126208 -1.146676
    33 1.426599 0.000002 0.000000 -0.051390 0.078806 -1.521754
    34 1.322465 -0.000001 0.000000 -0.034695 0.051519 -1.200268
    35 4.477036 -0.043465 -1.581290 -0.083016 0.164909 0.067468
    36 1.344414 0.000000 0.000000 0.024521 0.136363 -0.478036
    37 1.224670 0.000001 0.000000 -0.166394 0.224946 -1.318175
    38 2.630291 -0.359835 -1.904289 1.070466 0.381356 -0.978487
    39 1.059293 0.000000 0.000000 0.002193 0.017488 0.317162
    40 0.781204 0.000000 0.000000 0.006472 0.026012 0.488050
    41 -0.044717 2.528787 4.661499 0.152421 -0.035642 -0.068778
  time 11
    0 20.281813 -19.231028 27.091399 1.717515 -0.093180 -0.047574
    1 3.890450 -0.000007 -0.000003 -2.185709 -1.028561 -1.211753
    2 17.848175 -0.000002 -0.000002 0.000000 0.000000 1.548245
    3 15.638507 0.000000 0.000000 0.007216 -0.065953 -1.524538
    4 7.109929 0.000000 0.000000 -0.007119 -0.003131 -0.631738
    5 -3.890452 0.000004 0.000008 -1.009517 -0.873198 -2.526461
    6 17.848179 -0.000001 0.000000 0.000000 0.000000 1.794879
    7 15.638511 0.000000 0.000000 0.113564 -0.076589 -1.183271
    8 7.109930 0.000000 0.000000 -0.081154 -0.003131 -0.631749
    9 0.046881 3.345128 -2.981901 1.566269 -0.113027 1.545794
    10 4.018335 0.000001 0.000001 -0.066251 -0.002780 0.325914
    11 3.518566 0.000001 0.000001 -0.055985 0.014322 0.192605
    12 8.942632 0.000001 0.000000 0.055691 0.022927 0.173937
    13 3.307271 0.000001 0.000000 3.141590 0.000000 0.400478
    14 3.593712 -0.000001 0.000002 0.146987 0.101054 1.154367
    15 2.033346 1.000768 1.101697 1.848180 -1.411864 2.688434
    16 6.809416 0.000001 0.000000 -1.507603 -0.836260 -0.562075
    17 12.391796 0.000000 0.000001 0.000000 0.000000 -1.285274
    18 9.337076 0.000000 -0.000031 -0.885529 0.352898 -0.022273
    19 4.454020 -0.070210 0.572073 0.096293 -0.007832 -0.804082
    20 1.426597 -0.000001 0.000000 0.023861 -0.079623 -1.125947
    21 1.322468 -0.000002 0.000000 0.009312 -0.033625 -0.575065
    22 4.477066 -0.028570 1.582474 0.476656 -0.055423 -1.136099
    23 1.344418 0.000000 0.000000 0.023466 -0.208305 -0.755723
    24 1.224671 0.000000 0.000000 0.026043 -0.124620 -0.538676
    25 2.630323 -0.345015 1.907214 -0.354022 -0.915164 -1.788195
    26 1.059292 0.000000 0.000001 0.000551 0.000004 0.000021
    27 0.781203 0.000000 0.000000 -0.000467 0.006940 -0.135953
    28 2.033353 1.000771 -1.101647 -2.099546 1.277127 2.524630
    29 6.809417 0.000001 0.000000 1.342094 0.705417 -0.537124
    30 12.391794 0.000000 0.000001 0.000000 0.000000 -1.621463
    31 9.337102 0.000000 0.000003 -1.014297 -0.285639 0.065866
    32 4.453986 -0.073766 -0.571672 -0.386562 0.126208 -1.146676
    33 1.426599 0.000002 0.000000 -0.051390 0.078806 -1.521754
    34 1.322465 -0.000001 0.000000 -0.034695 0.051519 -1.200268
    35 4.477036 -0.043465 -1.581290 -0.083016 0.164909 0.067468
    36 1.344414 0.000000 0.000000 0.024521 0.136363 -0.478036
    37 1.224670 0.000001 0.000000 -0.166394 0.224946 -1.318175
    38 2.630291 -0.359835 -1.904289 1.070466 0.381356 -0.978487
    39 1.059293 0.000000 0.000000 0.002193 0.017488 0.317162
    40 0.781204 0.000000 0.000000 0.006472 0.026012 0.488050
    41 -0.044717 2.528787 4.661499 0.152486 -0.036182 -0.062044
  time 12
    0 21.983068 -20.907278 27.009063 1.711738 -0.070405 -0.026900
    1 3.890450 -0.000007 -0.000003 -2.133981 -0.985885 -1.305383
    2 17.848175 -0.000002 -0.000002 0.000000 0.000000 1.590964
    3 15.638507 0.000000 0.000000 0.065800 -0.081528 -1.635138
    4 7.109929 0.000000 0.000000 -0.007119 -0.003131 -0.631738
    5 -3.890452 0.000004 0.000008 -0.909407 -0.971503 -2.466107
    6 17.848179 -0.000001 0.000000 0.000000 0.000000 1.847113
    7 15.638511 0.000000 0.000000 0.138023 -0.118639 -1.303027
    8 7.109930 0.000000 0.000000 -0.081154 -0.003131 -0.631749
    9 0.011724 3.345128 -2.981901 1.565677 -0.113055 1.553182
    10 4.018335 0.000001 0.000001 -0.069347 0.005093 0.326940
    11 3.518566 0.000001 0.000001 -0.060912 0.022543 0.194556
    12 8.942632 0.000001 0.000000 0.057606 0.023646 0.177156
    13 3.307271 0.000001 0.000000 3.141590 0.000000 0.400478
    14 3.593712 -0.000001 0.000002 0.145426 0.098805 1.155458
    15 2.033346 1.000768 1.101697 1.848180 -1.411864 2.688434
    16 6.809416 0.000001 0.000000 -1.485703 -0.875226 -0.598047
    17 12.391796 0.000000 0.000001 0.000000 0.000000 -1.219594
    18 9.337076 0.000000 -0.000031 -0.864473 0.393243 -0.045466
    19 4.454020 -0.070210 0.572073 0.096293 -0.007832 -0.804082
    20 1.426597 -0.000001 0.000000 0.023861 -0.079623 -1.125947
    21 1.322468 -0.000002 0.000000 0.009312 -0.033625 -0.575065
    22 4.477066 -0.028570 1.582474 0.476656 -0.055423 -1.136099
    23 1.344418 0.000000 0.000000 0.023466 -0.208305 -0.755723
    24 1.224671 0.000000 0.000000 0.026043 -0.124620 -0.538676
    25 2.630323 -0.345015 1.907214 -0.354022 -0.915164 -1.788195
    26 1.059292 0.000000 0.000001 0.000551 0.000004 0.000021
    27 0.781203 0.000000 0.000000 -0.000467 0.006940 -0.135953
    28 2.033353 1.000771 -1.101647 -2.073699 1.263931 2.552045
    29 6.809417 0.000001 0.000000 1.347110 0.678481 -0.546673
    30 12.391794 0.000000 0.000001 0.000000 0.000000 -1.618661
    31 9.337102 0.000000 0.000003 -1.016025 -0.285486 0.068024
    32 4.453986 -0.073766 -0.571672 -0.386562 0.126208 -1.146676
    33 1.426599 0.000002 0.000000 -0.051390 0.078806 -1.521754
    34 1.322465 -0.000001 0.000000 -0.034695 0.051519 -1.200268
    35 4.477036 -0.043465 -1.581290 -0.083016 0.164909 0.067468
    36 1.344414 0.000000 0.000000 0.024521 0.136363 -0.478036
    37 1.224670 0.000001 0.000000 -0.166394 0.224946 -1.318175
    38 2.630291 -0.359835 -1.904289 1.070466 0.381356 -0.978487
    39 1.059293 0.000000 0.000000 0.002193 0.017488 0.317162
    40 0.781204 0.000000 0.000000 0.006472 0.026012 0.488050
    41 -0.044717 2.528787 4.661499 0.152486 -0.036754 -0.054710
  time 13
    0 23.571038 -22.614001 27.009063 1.707661 -0.056176 -0.005461
    1 3.890450 -0.000007 -0.000003 -2.078054 -0.924425 -1.406297
    2 17.848175 -0.000002 -0.000002 0.000000 0.000000 1.604716
    3 15.638507 0.000000 0.000000 0.118624 -0.090013 -1.733964
    4 7.109929 0.000000 0.000000 -0.007119 -0.003131 -0.631738
    5 -3.890452 0.000004 0.000008 -0.814351 -1.077287 -2.388535
    6 17.848179 -0.000001 0.000000 0.000000 0.000000 1.829891
    7 15.638511 0.000000 0.000000 0.178603 -0.175616 -1.404257
    8 7.109930 0.000000 0.000000 -0.081154 -0.003131 -0.631749
    9 0.000005 3.345128 -2.981901 1.565192 -0.113055 1.555487
    10 4.018335 0.000001 0.000001 -0.074004 0.013878 0.327635
    11 3.518566 0.000001 0.000001 -0.067559 0.030585 0.196046
    12 8.942632 0.000001 0.000000 0.057800 0.022867 0.179830
    13 3.307271 0.000001 0.000000 3.141590 0.000000 0.400478
    14 3.593712 -0.000001 0.000002 0.145721 0.098270 1.157976
    15 2.033346 1.000768 1.101697 1.848180 -1.411864 2.688434
    16 6.809416 0.000001 0.000000 -1.464568 -0.903948 -0.633829
    17 12.391796 0.000000 0.000001 0.000000 0.000000 -1.165662
    18 9.337076 0.000000 -0.000031 -0.842614 0.430103 -0.060756
    19 4.454020 -0.070210 0.572073 0.096293 -0.007832 -0.804082
    20 1.426597 -0.000001 0.000000 0.023861 -0.079623 -1.125947
    21 1.322468 -0.000002 0.000000 0.009312 -0.033625 -0.575065
    22 4.477066 -0.028570 1.582474 0.476656 -0.055423 -1.136099
    23 1.344418 0.000000 0.000000 0.023466 -0.208305 -0.755723
    24 1.224671 0.000000 0.000000 0.026043 -0.124620 -0.538676
    25 2.630323 -0.345015 1.907214 -0.354022 -0.915164 -1.788195
    26 1.059292 0.000000 0.000001 0.000551 0.000004 0.000021
    27 0.781203 0.000000 0.000000 -0.000467 0.006940 -0.135953
    28 2.033353 1.000771 -1.101647 -2.051107 1.251221 2.576009
    29 6.809417 0.000001 0.000000 1.348719 0.654655 -0.556652
    30 12.391794 0.000000 0.000001 0.000000 0.000000 -1.616148
    31 9.337102 0.000000 0.000003 -1.016857 -0.285410 0.068888
    32 4.453986 -0.073766 -0.571672 -0.386562 0.126208 -1.146676
    33 1.426599 0.000002 0.000000 -0.051390 0.078806 -1.521754
    34 1.322465 -0.000001 0.000000 -0.034695 0.051519 -1.200268
    35 4.477036 -0.043465 -1.581290 -0.083016 0.164909 0.067468
    36 1.344414 0.000000 0.000000 0.024521 0.136363 -0.478036
    37 1.224670 0.000001 0.000000 -0.166394 0.224946 -1.318175
    38 2.630291 -0.359835 -1.904289 1.070466 0.381356 -0.978487
    39 1.059293 0.000000 0.000000 0.002193 0.017488 0.317162
    40 0.781204 0.000000 0.000000 0.006472 0.026012 0.488050
    41 -0.044717 2.528787 4.661499 0.152551 -0.037262 -0.052465
  time 14
    0 25.088693 -24.351196 27.101690 1.706726 -0.051510 0.015404
    1 3.890450 -0.000007 -0.000003 -2.027471 -0.845885 -1.506636
    2 17.848175 -0.000002 -0.000002 0.000000 0.000000 1.587965
    3 15.638507 0.000000 0.000000 0.165149 -0.091100 -1.817515
    4 7.109929 0.000000 0.000000 -0.007119 -0.003131 -0.631738
    5 -3.890452 0.000004 0.000008 -0.759911 -1.178594 -2.288922
    6 17.848179 -0.000001 0.000000 0.000000 0.000000 1.727697
    7 15.638511 0.000000 0.000000 0.233915 -0.254847 -1.466713
    8 7.109930 0.000000 0.000000 -0.081154 -0.003131 -0.631749
    9 0.000005 3.345128 -2.981901 1.564814 -0.113084 1.554010
    10 4.018335 0.000001 0.000001 -0.079813 0.022531 0.327618
    11 3.518566 0.000001 0.000001 -0.075296 0.037644 0.196685
    12 8.942632 0.000001 0.000000 0.056440 0.020961 0.181888
    13 3.307271 0.000001 0.000000 3.141590 0.000000 0.400478
    14 3.593712 -0.000001 0.000002 0.147156 0.099747 1.162005
    15 2.033346 1.000768 1.101697 1.848180 -1.411864 2.688434
    16 6.809416 0.000001 0.000000 -1.445538 -0.922230 -0.666393
    17 12.391796 0.000000 0.000001 0.000000 0.000000 -1.124976
    18 9.337076 0.000000 -0.000031 -0.821380 0.462490 -0.067968
    19 4.454020 -0.070210 0.572073 0.096293 -0.007832 -0.804082
    20 1.426597 -0.000001 0.000000 0.023861 -0.079623 -1.125947
    21 1.322468 -0.000002 0.000000 0.009312 -0.033625 -0.575065
    22 4.477066 -0.028570 1.582474 0.476656 -0.055423 -1.136099
    23 1.344418 0.000000 0.000000 0.023466 -0.208305 -0.755723
    24 1.224671 0.000000 0.000000 0.026043 -0.124620 -0.538676
    25 2.630323 -0.345015 1.907214 -0.354022 -0.915164 -1.788195
    26 1.059292 0.000000 0.000001 0.000551 0.000004 0.000021
    27 0.781203 0.000000 0.000000 -0.000467 0.006940 -0.135953
    28 2.033353 1.000771 -1.101647 -2.032248 1.239522 2.596235
    29 6.809417 0.000001 0.000000 1.346637 0.633850 -0.567405
    30 12.391794 0.000000 0.000001 0.000000 0.000000 -1.613921
    31 9.337102 0.000000 0.000003 -1.016857 -0.285334 0.068974
    32 4.453986 -0.073766 -0.571672 -0.386562 0.126208 -1.146676
    33 1.426599 0.000002 0.000000 -0.051390 0.078806 -1.521754
    34 1.322465 -0.000001 0.000000 -0.034695 0.051519 -1.200268
    35 4.477036 -0.043465 -1.581290 -0.083016 0.164909 0.067468
    36 1.344414 0.000000 0.000000 0.024521 0.136363 -0.478036
    37 1.224670 0.000001 0.000000 -0.166394 0.224946 -1.318175
    38 2.630291 -0.359835 -1.904289 1.070466 0.381356 -0.978487
    39 1.059293 0.000000 0.000000 0.002193 0.017488 0.317162
    40 0.781204 0.000000 0.000000 0.006472 0.026012 0.488050
    41 -0.044717 2.528787 4.661499 0.152551 -0.037644 -0.053988
  time 15
    0 26.598536 -26.139178 27.338405 1.709275 -0.055391 0.034737
    1 3.890450 -0.000007 -0.000003 -2.047322 -0.778747 -1.564424
    2 17.848175 -0.000002 -0.000002 0.000000 0.000000 1.584966
    3 15.638507 0.000000 0.000000 0.186291 -0.088713 -1.816349
    4 7.109929 0.000000 0.000000 -0.007119 -0.003131 -0.631738
    5 -3.890452 0.000004 0.000008 -0.776310 -1.246984 -2.148442
    6 17.848179 -0.000001 0.000000 0.000000 0.000000 1.549467
    7 15.638511 0.000000 0.000000 0.318410 -0.366572 -1.479510
    8 7.109930 0.000000 0.000000 -0.081154 -0.003131 -0.631749
    9 0.000005 3.345128 -2.981901 1.564599 -0.113084 1.553241
    10 4.018335 0.000001 0.000001 -0.086187 0.030117 0.326853
    11 3.518566 0.000001 0.000001 -0.083369 0.043037 0.196365
    12 8.942632 0.000001 0.000000 0.053803 0.018408 0.183242
    13 3.307271 0.000001 0.000000 3.141590 0.000000 0.400478
    14 3.593712 -0.000001 0.000002 0.149139 0.103495 1.166748
    15 2.033346 1.000768 1.101697 1.848180 -1.411864 2.688434
    16 6.809416 0.000001 0.000000 -1.431002 -0.930366 -0.692047
    17 12.391796 0.000000 0.000001 0.000000 0.000000 -1.098405
    18 9.337076 0.000000 -0.000031 -0.802822 0.489617 -0.068314
    19 4.454020 -0.070210 0.572073 0.096293 -0.007832 -0.804082
    20 1.426597 -0.000001 0.000000 0.023861 -0.079623 -1.125947
    21 1.322468 -0.000002 0.000000 0.009312 -0.033625 -0.575065
    22 4.477066 -0.028570 1.582474 0.476656 -0.055423 -1.136099
    23 1.344418 0.000000 0.000000 0.023466 -0.208305 -0.755723
    24 1.224671 0.000000 0.000000 0.026043 -0.124620 -0.538676
    25 2.630323 -0.345015 1.907214 -0.354022 -0.915164 -1.788195
    26 1.059292 0.000000 0.000001 0.000551 0.000004 0.000021
    27 0.781203 0.000000 0.000000 -0.000467 0.006940 -0.135953
    28 2.033353 1.000771 -1.101647 -2.017122 1.229484 2.612531
    29 6.809417 0.000001 0.000000 1.340674 0.616769 -0.579706
    30 12.391794 0.000000 0.000001 0.000000 0.000000 -1.611982
    31 9.337102 0.000000 0.000003 -1.016921 -0.285296 0.068974
    32 4.453986 -0.073766 -0.571672 -0.386562 0.126208 -1.146676
    33 1.426599 0.000002 0.000000 -0.051390 0.078806 -1.521754
    34 1.322465 -0.000001 0.000000 -0.034695 0.051519 -1.200268
    35 4.477036 -0.043465 -1.581290 -0.083016 0.164909 0.067468
    36 1.344414 0.000000 0.000000 0.024521 0.136363 -0.478036
    37 1.224670 0.000001 0.000000 -0.166394 0.224946 -1.318175
    38 2.630291 -0.359835 -1.904289 1.070466 0.381356 -0.978487
    39 1.059293 0.000000 0.000000 0.002193 0.017488 0.317162
    40 0.781204 0.000000 0.000000 0.006472 0.026012 0.488050
    41 -0.044717 2.528787 4.661499 0.152551 -0.037866 -0.054790
  time 16
    0 28.174786 -27.998261 27.708915 1.713523 -0.068973 0.051103
    1 3.890450 -0.000007 -0.000003 -2.081108 -0.715442 -1.614737
    2 17.848175 -0.000002 -0.000002 0.000000 0.000000 1.585770
    3 15.638507 0.000000 0.000000 0.202243 -0.087082 -1.798158
    4 7.109929 0.000000 0.000000 -0.007119 -0.003131 -0.631738
    5 -3.890452 0.000004 0.000008 -0.846863 -1.256530 -1.979677
    6 17.848179 -0.000001 0.000000 0.000000 0.000000 1.329970
    7 15.638511 0.000000 0.000000 0.413005 -0.495908 -1.455349
    8 7.109930 0.000000 0.000000 -0.081154 -0.003131 -0.631749
    9 0.000005 3.345128 -2.981901 1.564545 -0.113084 1.553241
    10 4.018335 0.000001 0.000001 -0.092358 0.035894 0.325583
    11 3.518566 0.000001 0.000001 -0.090834 0.046368 0.195372
    12 8.942632 0.000001 0.000000 0.050389 0.015580 0.183840
    13 3.307271 0.000001 0.000000 3.141590 0.000000 0.400478
    14 3.593712 -0.000001 0.000002 0.150953 0.109491 1.170818
    15 2.033346 1.000768 1.101697 1.848180 -1.411864 2.688434
    16 6.809416 0.000001 0.000000 -1.422108 -0.930415 -0.708613
    17 12.391796 0.000000 0.000001 0.000000 0.000000 -1.085395
    18 9.337076 0.000000 -0.000031 -0.788190 0.510595 -0.063121
    19 4.454020 -0.070210 0.572073 0.096293 -0.007832 -0.804082
    20 1.426597 -0.000001 0.000000 0.023861 -0.079623 -1.125947
    21 1.322468 -0.000002 0.000000 0.009312 -0.033625 -0.575065
    22 4.477066 -0.028570 1.582474 0.476656 -0.055423 -1.136099
    23 1.344418 0.000000 0.000000 0.023466 -0.208305 -0.755723
    24 1.224671 0.000000 0.000000 0.026043 -0.124620 -0.538676
    25 2.630323 -0.345015 1.907214 -0.354022 -0.915164 -1.788195
    26 1.059292 0.000000 0.000001 0.000551 0.000004 0.000021
    27 0.781203 0.000000 0.000000 -0.000467 0.006940 -0.135953
    28 2.033353 1.000771 -1.101647 -2.006018 1.221591 2.624513
    29 6.809417 0.000001 0.000000 1.332440 0.603848 -0.592266
    30 12.391794 0.000000 0.000001 0.000000 0.000000 -1.610474
    31 9.337102 0.000000 0.000003 -1.016921 -0.285258 0.068974
    32 4.453986 -0.073766 -0.571672 -0.386562 0.126208 -1.146676
    33 1.426599 0.000002 0.000000 -0.051390 0.078806 -1.521754
    34 1.322465 -0.000001 0.000000 -0.034695 0.051519 -1.200268
    35 4.477036 -0.043465 -1.581290 -0.083016 0.164909 0.067468
    36 1.344414 0.000000 0.000000 0.024521 0.136363 -0.478036
    37 1.224670 0.000001 0.000000 -0.166394 0.224946 -1.318175
    38 2.630291 -0.359835 -1.904289 1.070466 0.381356 -0.978487
    39 1.059293 0.000000 0.000000 0.002193 0.017488 0.317162
    40 0.781204 0.000000 0.000000 0.006472 0.026012 0.488050
    41 -0.044717 2.528787 4.661499 0.152551 -0.037898 -0.054790
  time 17
    0 29.825258 -29.948761 28.161761 1.715816 -0.090177 0.063833
    1 3.890450 -0.000007 -0.000003 -2.118710 -0.654691 -1.658055
    2 17.848175 -0.000002 -0.000002 0.000000 0.000000 1.593890
    3 15.638507 0.000000 0.000000 0.213542 -0.068505 -1.752154
    4 7.109929 0.000000 0.000000 -0.007119 -0.003131 -0.631738
    5 -3.890452 0.000004 0.000008 -0.950500 -1.218644 -1.822169
    6 17.848179 -0.000001 0.000000 0.000000 0.000000 1.134924
    7 15.638511 0.000000 0.000000 0.463591 -0.578325 -1.394707
    8 7.109930 0.000000 0.000000 -0.081154 -0.003131 -0.631749
    9 0.000005 3.345128 -2.981901 1.564653 -0.113084 1.553891
    10 4.018335 0.000001 0.000001 -0.097511 0.039357 0.324261
    11 3.518566 0.000001 0.000001 -0.096747 0.047447 0.194130
    12 8.942632 0.000001 0.000000 0.046809 0.012728 0.183682
    13 3.307271 0.000001 0.000000 3.141590 0.000000 0.400478
    14 3.593712 -0.000001 0.000002 0.151037 0.117329 1.172665
    15 2.033346 1.000768 1.101697 1.848180 -1.411864 2.688434
    16 6.809416 0.000001 0.000000 -1.419717 -0.924730 -0.714577
    17 12.391796 0.000000 0.000001 0.000000 0.000000 -1.085237
    18 9.337076 0.000000 -0.000031 -0.779090 0.524438 -0.054121
    19 4.454020 -0.070210 0.572073 0.096293 -0.007832 -0.804082
    20 1.426597 -0.000001 0.000000 0.023861 -0.079623 -1.125947
    21 1.322468 -0.000002 0.000000 0.009312 -0.033625 -0.575065
    22 4.477066 -0.028570 1.582474 0.476656 -0.055423 -1.136099
    23 1.344418 0.000000 0.000000 0.023466 -0.208305 -0.755723
    24 1.224671 0.000000 0.000000 0.026043 -0.124620 -0.538676
    25 2.630323 -0.345015 1.907214 -0.354022 -0.915164 -1.788195
    26 1.059292 0.000000 0.000001 0.000551 0.000004 0.000021
    27 0.781203 0.000000 0.000000 -0.000467 0.006940 -0.135953
    28 2.033353 1.000771 -1.101647 -1.999125 1.216490 2.632086
    29 6.809417 0.000001 0.000000 1.323543 0.596008 -0.604137
    30 12.391794 0.000000 0.000001 0.000000 0.000000 -1.609468
    31 9.337102 0.000000 0.000003 -1.016921 -0.285258 0.068974
    32 4.453986 -0.073766 -0.571672 -0.386562 0.126208 -1.146676
    33 1.426599 0.000002 0.000000 -0.051390 0.078806 -1.521754
    34 1.322465 -0.000001 0.000000 -0.034695 0.051519 -1.200268
    35 4.477036 -0.043465 -1.581290 -0.083016 0.164909 0.067468
    36 1.344414 0.000000 0.000000 0.024521 0.136363 -0.478036
    37 1.224670 0.000001 0.000000 -0.166394 0.224946 -1.318175
    38 2.630291 -0.359835 -1.904289 1.070466 0.381356 -0.978487
    39 1.059293 0.000000 0.000000 0.002193 0.017488 0.317162
    40 0.781204 0.000000 0.000000 0.006472 0.026012 0.488050
    41 -0.044717 2.528787 4.661499 0.152551 -0.037802 -0.054108
  time 18
    0 31.510888 -31.990678 28.552855 1.713013 -0.113738 0.072351
    1 3.890450 -0.000007 -0.000003 -2.162135 -0.599524 -1.667926
    2 17.848175 -0.000002 -0.000002 0.000000 0.000000 1.636390
    3 15.638507 0.000000 0.000000 0.225094 0.047210 -1.557966
    4 7.109929 0.000000 0.000000 -0.007119 -0.003131 -0.631738
    5 -3.890452 0.000004 0.000008 -1.019528 -1.178889 -1.776477
    6 17.848179 -0.000001 0.000000 0.000000 0.000000 1.145566
    7 15.638511 0.000000 0.000000 0.245033 -0.279604 -1.301308
    8 7.109930 0.000000 0.000000 -0.081154 -0.003131 -0.631749
    9 0.000005 3.345128 -2.981901 1.564814 -0.113084 1.554896
    10 4.018335 0.000001 0.000001 -0.101128 0.040184 0.323305
    11 3.518566 0.000001 0.000001 -0.100416 0.046237 0.193031
    12 8.942632 0.000001 0.000000 0.043700 0.009995 0.182785
    13 3.307271 0.000001 0.000000 3.141590 0.000000 0.400478
    14 3.593712 -0.000001 0.000002 0.147789 0.126237 1.170944
    15 2.033346 1.000768 1.101697 1.848180 -1.411864 2.688434
    16 6.809416 0.000001 0.000000 -1.424499 -0.914878 -0.708518
    17 12.391796 0.000000 0.000001 0.000000 0.000000 -1.097774
    18 9.337076 0.000000 -0.000031 -0.776860 0.530225 -0.042466
    19 4.454020 -0.070210 0.572073 0.096293 -0.007832 -0.804082
    20 1.426597 -0.000001 0.000000 0.023861 -0.079623 -1.125947
    21 1.322468 -0.000002 0.000000 0.009312 -0.033625 -0.575065
    22 4.477066 -0.028570 1.582474 0.476656 -0.055423 -1.136099
    23 1.344418 0.000000 0.000000 0.023466 -0.208305 -0.755723
    24 1.224671 0.000000 0.000000 0.026043 -0.124620 -0.538676
    25 2.630323 -0.345015 1.907214 -0.354022 -0.915164 -1.788195
    26 1.059292 0.000000 0.000001 0.000551 0.000004 0.000021
    27 0.781203 0.000000 0.000000 -0.000467 0.006940 -0.135953
    28 2.033353 1.000771 -1.101647 -1.996732 1.214628 2.634674
    29 6.809417 0.000001 0.000000 1.314930 0.594475 -0.614374
    30 12.391794 0.000000 0.000001 0.000000 0.000000 -1.609181
    31 9.337102 0.000000 0.000003 -1.016921 -0.285258 0.068974
    32 4.453986 -0.073766 -0.571672 -0.386562 0.126208 -1.146676
    33 1.426599 0.000002 0.000000 -0.051390 0.078806 -1.521754
    34 1.322465 -0.000001 0.000000 -0.034695 0.051519 -1.200268
    35 4.477036 -0.043465 -1.581290 -0.083016 0.164909 0.067468
    36 1.344414 0.000000 0.000000 0.024521 0.136363 -0.478036
    37 1.224670 0.000001 0.000000 -0.166394 0.224946 -1.318175
    38 2.630291 -0.359835 -1.904289 1.070466 0.381356 -0.978487
    39 1.059293 0.000000 0.000000 0.002193 0.017488 0.317162
    40 0.781204 0.000000 0.000000 0.006472 0.026012 0.488050
    41 -0.044717 2.528787 4.661499 0.152551 -0.037612 -0.053147
  time 19
    0 33.184798 -34.052909 28.748402 1.703922 -0.135867 0.076562
    1 3.890450 -0.000007 -0.000003 -2.161563 -0.647784 -1.624512
    2 17.848175 -0.000002 -0.000002 0.000000 0.000000 1.731557
    3 15.638507 0.000000 0.000000 0.248262 0.058815 -1.341650
    4 7.109929 0.000000 0.000000 -0.007119 -0.003131 -0.631738
    5 -3.890452 0.000004 0.000008 -1.076638 -1.139380 -1.758030
    6 17.848179 -0.000001 0.000000 0.000000 0.000000 1.196013
    7 15.638511 0.000000 0.000000 0.051767 0.113411 -1.287938
    8 7.109930 0.000000 0.000000 -0.081154 -0.003131 -0.631749
    9 0.000005 3.345128 -2.981901 1.564976 -0.113084 1.555665
    10 4.018335 0.000001 0.000001 -0.103004 0.038075 0.322783
    11 3.518566 0.000001 0.000001 -0.101507 0.042629 0.192250
    12 8.942632 0.000001 0.000000 0.041619 0.007574 0.181272
    13 3.307271 0.000001 0.000000 3.141590 0.000000 0.400478
    14 3.593712 -0.000001 0.000002 0.140870 0.135531 1.165153
    15 2.033346 1.000768 1.101697 1.848180 -1.411864 2.688434
    16 6.809416 0.000001 0.000000 -1.437122 -0.900762 -0.689396
    17 12.391796 0.000000 0.000001 0.000000 0.000000 -1.124030
    18 9.337076 0.000000 -0.000031 -0.782480 0.527299 -0.028331
    19 4.454020 -0.070210 0.572073 0.096293 -0.007832 -0.804082
    20 1.426597 -0.000001 0.000000 0.023861 -0.079623 -1.125947
    21 1.322468 -0.000002 0.000000 0.009312 -0.033625 -0.575065
    22 4.477066 -0.028570 1.582474 0.476656 -0.055423 -1.136099
    23 1.344418 0.000000 0.000000 0.023466 -0.208305 -0.755723
    24 1.224671 0.000000 0.000000 0.026043 -0.124620 -0.538676
    25 2.630323 -0.345015 1.907214 -0.354022 -0.915164 -1.788195
    26 1.059292 0.000000 0.000001 0.000551 0.000004 0.000021
    27 0.781203 0.000000 0.000000 -0.000467 0.006940 -0.135953
    28 2.033353 1.000771 -1.101647 -1.999125 1.216490 2.632086
    29 6.809417 0.000001 0.000000 1.306885 0.600213 -0.622804
    30 12.391794 0.000000 0.000001 0.000000 0.000000 -1.609468
    31 9.337102 0.000000 0.000003 -1.016921 -0.285258 0.068974
    32 4.453986 -0.073766 -0.571672 -0.386562 0.126208 -1.146676
    33 1.426599 0.000002 0.000000 -0.051390 0.078806 -1.521754
    34 1.322465 -0.000001 0.000000 -0.034695 0.051519 -1.200268
    35 4.477036 -0.043465 -1.581290 -0.083016 0.164909 0.067468
    36 1.344414 0.000000 0.000000 0.024521 0.136363 -0.478036
    37 1.224670 0.000001 0.000000 -0.166394 0.224946 -1.318175
    38 2.630291 -0.359835 -1.904289 1.070466 0.381356 -0.978487
    39 1.059293 0.000000 0.000000 0.002193 0.017488 0.317162
    40 0.781204 0.000000 0.000000 0.006472 0.026012 0.488050
    41 -0.044717 2.528787 4.661499 0.152551 -0.037485 -0.052305
  time 20
    0 34.823550 -36.054196 28.686650 1.691094 -0.175273 0.073595
    1 3.890450 -0.000007 -0.000003 -2.153259 -0.714070 -1.593270
    2 17.848175 -0.000002 -0.000002 0.000000 0.000000 1.825773
    3 15.638507 0.000000 0.000000 0.271176 0.056262 -1.123876
    4 7.109929 0.000000 0.000000 -0.007119 -0.003131 -0.631738
    5 -3.890452 0.000004 0.000008 -1.114679 -1.107743 -1.790194
    6 17.848179 -0.000001 0.000000 0.000000 0.000000 1.269206
    7 15.638511 0.000000 0.000000 -0.080906 0.451497 -1.336548
    8 7.109930 0.000000 0.000000 -0.081154 -0.003131 -0.631749
    9 0.066413 3.345128 -2.981901 1.564976 -0.113084 1.535923
    10 4.018335 0.000001 0.000001 -0.103411 0.032850 0.322591
    11 3.518566 0.000001 0.000001 -0.100207 0.036577 0.191612
    12 8.942632 0.000001 0.000000 0.040800 0.005633 0.179232
    13 3.307271 0.000001 0.000000 3.141590 0.000000 0.400478
    14 3.593712 -0.000001 0.000002 0.130913 0.144568 1.156256
    15 2.033346 1.000768 1.101697 1.848180 -1.411864 2.688434
    16 6.809416 0.000001 0.000000 -1.453284 -0.886156 -0.662134
    17 12.391796 0.000000 0.000001 0.000000 0.000000 -1.160931
    18 9.337076 0.000000 -0.000031 -0.793097 0.515889 -0.008310
    19 4.454020 -0.070210 0.572073 0.096293 -0.007832 -0.804082
    20 1.426597 -0.000001 0.000000 0.023861 -0.079623 -1.125947
    21 1.322468 -0.000002 0.000000 0.009312 -0.033625 -0.575065
    22 4.477066 -0.028570 1.582474 0.476656 -0.055423 -1.136099
    23 1.344418 0.000000 0.000000 0.023466 -0.208305 -0.755723
    24 1.224671 0.000000 0.000000 0.026043 -0.124620 -0.538676
    25 2.630323 -0.345015 1.907214 -0.354022 -0.915164 -1.788195
    26 1.059292 0.000000 0.000001 0.000551 0.000004 0.000021
    27 0.781203 0.000000 0.000000 -0.000467 0.006940 -0.135953
    28 2.033353 1.000771 -1.101647 -2.006018 1.221591 2.624513
    29 6.809417 0.000001 0.000000 1.302436 0.611075 -0.625041
    30 12.391794 0.000000 0.000001 0.000000 0.000000 -1.610114
    31 9.337102 0.000000 0.000003 -1.012697 -0.285563 0.064657
    32 4.453986 -0.073766 -0.571672 -0.386562 0.126208 -1.146676
    33 1.426599 0.000002 0.000000 -0.051390 0.078806 -1.521754
    34 1.322465 -0.000001 0.000000 -0.034695 0.051519 -1.200268
    35 4.477036 -0.043465 -1.581290 -0.083016 0.164909 0.067468
    36 1.344414 0.000000 0.000000 0.024521 0.136363 -0.478036
    37 1.224670 0.000001 0.000000 -0.166394 0.224946 -1.318175
    38 2.630291 -0.359835 -1.904289 1.070466 0.381356 -0.978487
    39 1.059293 0.000000 0.000000 0.002193 0.017488 0.317162
    40 0.781204 0.000000 0.000000 0.006472 0.026012 0.488050
    41 -0.044717 2.528787 4.661499 0.152551 -0.037453 -0.072064
  time 21
    0 36.423240 -37.964066 28.439643 1.678096 -0.201375 0.068235
    1 3.890450 -0.000007 -0.000003 -2.150682 -0.791190 -1.534811
    2 17.848175 -0.000002 -0.000002 0.000000 0.000000 1.878514
    3 15.638507 0.000000 0.000000 0.288932 0.048297 -0.998075
    4 7.109929 0.000000 0.000000 -0.007119 -0.003131 -0.631738
    5 -3.890452 0.000004 0.000008 -1.137180 -1.095344 -1.875617
    6 17.848179 -0.000001 0.000000 0.000000 0.000000 1.404056
    7 15.638511 0.000000 0.000000 0.000347 0.425921 -1.422688
    8 7.109930 0.000000 0.000000 -0.081154 -0.003131 -0.631749
    9 0.089851 3.345128 -2.981901 1.564868 -0.113084 1.527825
    10 4.018335 0.000001 0.000001 -0.102733 0.024688 0.322400
    11 3.518566 0.000001 0.000001 -0.096978 0.028164 0.190796
    12 8.942632 0.000001 0.000000 0.041175 0.004267 0.176804
    13 3.307271 0.000001 0.000000 3.141590 0.000000 0.400478
    14 3.593712 -0.000001 0.000002 0.119353 0.152727 1.146729
    15 2.033346 1.000768 1.101697 1.848180 -1.411864 2.688434
    16 6.809416 0.000001 0.000000 -1.477000 -0.865864 -0.622091
    17 12.391796 0.000000 0.000001 0.000000 0.000000 -1.208555
    18 9.337076 0.000000 -0.000031 -0.811387 0.498955 0.012172
    19 4.454020 -0.070210 0.572073 0.096293 -0.007832 -0.804082
    20 1.426597 -0.000001 0.000000 0.023861 -0.079623 -1.125947
    21 1.322468 -0.000002 0.000000 0.009312 -0.033625 -0.575065
    22 4.477066 -0.028570 1.582474 0.476656 -0.055423 -1.136099
    23 1.344418 0.000000 0.000000 0.023466 -0.208305 -0.755723
    24 1.224671 0.000000 0.000000 0.026043 -0.124620 -0.538676
    25 2.630323 -0.345015 1.907214 -0.354022 -0.915164 -1.788195
    26 1.059292 0.000000 0.000001 0.000551 0.000004 0.000021
    27 0.781203 0.000000 0.000000 -0.000467 0.006940 -0.135953
    28 2.033353 1.000771 -1.101647 -2.017122 1.229484 2.612531
    29 6.809417 0.000001 0.000000 1.295811 0.628244 -0.631148
    30 12.391794 0.000000 0.000001 0.000000 0.000000 -1.611551
    31 9.337102 0.000000 0.000003 -1.011161 -0.285677 0.063016
    32 4.453986 -0.073766 -0.571672 -0.386562 0.126208 -1.146676
    33 1.426599 0.000002 0.000000 -0.051390 0.078806 -1.521754
    34 1.322465 -0.000001 0.000000 -0.034695 0.051519 -1.200268
    35 4.477036 -0.043465 -1.581290 -0.083016 0.164909 0.067468
    36 1.344414 0.000000 0.000000 0.024521 0.136363 -0.478036
    37 1.224670 0.000001 0.000000 -0.166394 0.224946 -1.318175
    38 2.630291 -0.359835 -1.904289 1.070466 0.381356 -0.978487
    39 1.059293 0.000000 0.000000 0.002193 0.017488 0.317162
    40 0.781204 0.000000 0.000000 0.006472 0.026012 0.488050
    41 -0.044717 2.528787 4.661499 0.152551 -0.037548 -0.080161
  time 22
    0 38.007303 -39.752048 28.141177 1.667901 -0.193798 0.062971
    1 3.890450 -0.000007 -0.000003 -2.167384 -0.887946 -1.404955
    2 17.848175 -0.000002 -0.000002 0.000000 0.000000 1.878587
    3 15.638507 0.000000 0.000000 0.292129 0.028066 -1.027930
    4 7.109929 0.000000 0.000000 -0.007119 -0.003131 -0.631738
    5 -3.890452 0.000004 0.000008 -1.139182 -1.055688 -1.925282
    6 17.848179 -0.000001 0.000000 0.000000 0.000000 1.493496
    7 15.638511 0.000000 0.000000 0.052508 0.381641 -1.504818
    8 7.109930 0.000000 0.000000 -0.081166 -0.003119 -0.630852
    9 0.000005 3.345128 -2.981901 1.564707 -0.113084 1.554364
    10 4.018335 0.000001 0.000001 -0.101376 0.014238 0.321896
    11 3.518566 0.000001 0.000001 -0.092448 0.017893 0.189590
    12 8.942632 0.000001 0.000000 0.042313 0.003368 0.174165
    13 3.307271 0.000001 0.000000 3.141590 0.000000 0.400478
    14 3.593712 -0.000001 0.000002 0.107836 0.159408 1.139091
    15 2.033346 1.000768 1.101697 1.848180 -1.411864 2.688434
    16 6.809416 0.000001 0.000000 -1.509898 -0.835525 -0.567850
    17 12.391796 0.000000 0.000001 0.000000 0.000000 -1.265483
    18 9.337076 0.000000 -0.000031 -0.838867 0.478503 0.028384
    19 4.454020 -0.070210 0.572073 0.096293 -0.007832 -0.804082
    20 1.426597 -0.000001 0.000000 0.023861 -0.079623 -1.125947
    21 1.322468 -0.000002 0.000000 0.009312 -0.033625 -0.575065
    22 4.477066 -0.028570 1.582474 0.476656 -0.055423 -1.136099
    23 1.344418 0.000000 0.000000 0.023466 -0.208305 -0.755723
    24 1.224671 0.000000 0.000000 0.026043 -0.124620 -0.538676
    25 2.630323 -0.345015 1.907214 -0.354022 -0.915164 -1.788195
    26 1.059292 0.000000 0.000001 0.000551 0.000004 0.000021
    27 0.781203 0.000000 0.000000 -0.000467 0.006940 -0.135953
    28 2.033353 1.000771 -1.101647 -2.032248 1.239522 2.596235
    29 6.809417 0.000001 0.000000 1.282181 0.652990 -0.647751
    30 12.391794 0.000000 0.000001 0.000000 0.000000 -1.613921
    31 9.337102 0.000000 0.000003 -1.016857 -0.285334 0.068974
    32 4.453986 -0.073766 -0.571672 -0.386562 0.126208 -1.146676
    33 1.426599 0.000002 0.000000 -0.051390 0.078806 -1.521754
    34 1.322465 -0.000001 0.000000 -0.034695 0.051519 -1.200268
    35 4.477036 -0.043465 -1.581290 -0.083016 0.164909 0.067468
    36 1.344414 0.000000 0.000000 0.024521 0.136363 -0.478036
    37 1.224670 0.000001 0.000000 -0.166394 0.224946 -1.318175
    38 2.630291 -0.359835 -1.904289 1.070466 0.381356 -0.978487
    39 1.059293 0.000000 0.000000 0.002193 0.017488 0.317162
    40 0.781204 0.000000 0.000000 0.006472 0.026012 0.488050
    41 -0.044717 2.528787 4.661499 0.152551 -0.037739 -0.053628
  time 23
    0 39.626524 -41.428299 27.883878 1.663483 -0.211030 0.052156
    1 3.890450 -0.000007 -0.000003 -2.200502 -0.991089 -1.279795
    2 17.848175 -0.000002 -0.000002 0.000000 0.000000 1.824091
    3 15.638507 0.000000 0.000000 0.280988 -0.013153 -1.139332
    4 7.109929 0.000000 0.000000 -0.007119 -0.003131 -0.631738
    5 -3.890452 0.000004 0.000008 -1.129171 -1.016376 -2.015908
    6 17.848179 -0.000001 0.000000 0.000000 0.000000 1.573675
    7 15.638511 0.000000 0.000000 0.103002 0.324527 -1.581026
    8 7.109930 0.000000 0.000000 -0.081166 -0.003119 -0.629956
    9 0.000005 3.345128 -2.981901 1.564491 -0.113084 1.553359
    10 4.018335 0.000001 0.000001 -0.099523 0.002613 0.320835
    11 3.518566 0.000001 0.000001 -0.087123 0.006675 0.187781
    12 8.942632 0.000001 0.000000 0.043728 0.002709 0.171527
    13 3.307271 0.000001 0.000000 3.141590 0.000000 0.400478
    14 3.593712 -0.000001 0.000002 0.097752 0.163819 1.134349
    15 2.033346 1.000768 1.101697 1.848180 -1.411864 2.688434
    16 6.809416 0.000001 0.000000 -1.539065 -0.805577 -0.517016
    17 12.391796 0.000000 0.000001 0.000000 0.000000 -1.324935
    18 9.337076 0.000000 -0.000031 -0.865811 0.452100 0.050136
    19 4.454020 -0.070210 0.572073 0.096293 -0.007832 -0.804082
    20 1.426597 -0.000001 0.000000 0.023861 -0.079623 -1.125947
    21 1.322468 -0.000002 0.000000 0.009312 -0.033625 -0.575065
    22 4.477066 -0.028570 1.582474 0.476656 -0.055423 -1.136099
    23 1.344418 0.000000 0.000000 0.023466 -0.208305 -0.755723
    24 1.224671 0.000000 0.000000 0.026043 -0.124620 -0.538676
    25 2.630323 -0.345015 1.907214 -0.354022 -0.915164 -1.788195
    26 1.059292 0.000000 0.000001 0.000551 0.000004 0.000021
    27 0.781203 0.000000 0.000000 -0.000467 0.006940 -0.135953
    28 2.033353 1.000771 -1.101647 -2.051107 1.251221 2.576009
    29 6.809417 0.000001 0.000000 1.273095 0.678788 -0.655579
    30 12.391794 0.000000 0.000001 0.000000 0.000000 -1.616148
    31 9.337102 0.000000 0.000003 -1.016857 -0.285410 0.068888
    32 4.453986 -0.073766 -0.571672 -0.386562 0.126208 -1.146676
    33 1.426599 0.000002 0.000000 -0.051390 0.078806 -1.521754
    34 1.322465 -0.000001 0.000000 -0.034695 0.051519 -1.200268
    35 4.477036 -0.043465 -1.581290 -0.083016 0.164909 0.067468
    36 1.344414 0.000000 0.000000 0.024521 0.136363 -0.478036
    37 1.224670 0.000001 0.000000 -0.166394 0.224946 -1.318175
    38 2.630291 -0.359835 -1.904289 1.070466 0.381356 -0.978487
    39 1.059293 0.000000 0.000000 0.002193 0.017488 0.317162
    40 0.781204 0.000000 0.000000 0.006472 0.026012 0.488050
    41 -0.044717 2.528787 4.661499 0.152551 -0.037961 -0.054670
end
