// Created by Crowbar 0.62
version 1
nodes
  0 "ValveBiped.Bip01_Pelvis" -1
  1 "ValveBiped.Bip01_L_Thigh" 0
  2 "ValveBiped.Bip01_L_Calf" 1
  3 "ValveBiped.Bip01_L_Foot" 2
  4 "ValveBiped.Bip01_L_Toe0" 3
  5 "ValveBiped.Bip01_R_Thigh" 0
  6 "ValveBiped.Bip01_R_Calf" 5
  7 "ValveBiped.Bip01_R_Foot" 6
  8 "ValveBiped.Bip01_R_Toe0" 7
  9 "ValveBiped.Bip01_Spine" 0
  10 "ValveBiped.Bip01_Spine1" 9
  11 "ValveBiped.Bip01_Spine2" 10
  12 "ValveBiped.Bip01_Spine4" 11
  13 "ValveBiped.Bip01_Neck1" 12
  14 "ValveBiped.Bip01_Head1" 13
  15 "ValveBiped.Bip01_L_Clavicle" 12
  16 "ValveBiped.Bip01_L_UpperArm" 15
  17 "ValveBiped.Bip01_L_Forearm" 16
  18 "ValveBiped.Bip01_L_Hand" 17
  19 "ValveBiped.Bip01_L_Finger2" 18
  20 "ValveBiped.Bip01_L_Finger21" 19
  21 "ValveBiped.Bip01_L_Finger22" 20
  22 "ValveBiped.Bip01_L_Finger1" 18
  23 "ValveBiped.Bip01_L_Finger11" 22
  24 "ValveBiped.Bip01_L_Finger12" 23
  25 "ValveBiped.Bip01_L_Finger0" 18
  26 "ValveBiped.Bip01_L_Finger01" 25
  27 "ValveBiped.Bip01_L_Finger02" 26
  28 "ValveBiped.Bip01_R_Clavicle" 12
  29 "ValveBiped.Bip01_R_UpperArm" 28
  30 "ValveBiped.Bip01_R_Forearm" 29
  31 "ValveBiped.Bip01_R_Hand" 30
  32 "ValveBiped.Bip01_R_Finger2" 31
  33 "ValveBiped.Bip01_R_Finger21" 32
  34 "ValveBiped.Bip01_R_Finger22" 33
  35 "ValveBiped.Bip01_R_Finger1" 31
  36 "ValveBiped.Bip01_R_Finger11" 35
  37 "ValveBiped.Bip01_R_Finger12" 36
  38 "ValveBiped.Bip01_R_Finger0" 31
  39 "ValveBiped.Bip01_R_Finger01" 38
  40 "ValveBiped.Bip01_R_Finger02" 39
  41 "ValveBiped.Cod" 0
end
skeleton
  time 0
    0 0.290629 -0.182828 36.292398 1.619561 -0.065000 0.507448
    1 3.890456 -0.000008 -0.000001 -2.005806 -0.462221 -1.467056
    2 17.848175 0.000000 0.000003 0.000000 0.000000 1.713782
    3 15.638507 0.000000 0.000000 -0.283298 -0.085569 -1.109513
    4 7.109929 0.000000 0.000000 -0.007119 -0.003131 -0.631738
    5 -3.890447 0.000004 0.000010 -1.359041 -0.260045 -1.867955
    6 17.848179 0.000002 0.000000 0.000000 0.000000 0.752875
    7 15.638511 0.000000 0.000000 0.034998 -0.240421 -1.345334
    8 7.109930 0.000000 0.000000 -0.080459 -0.003910 -0.830708
    9 0.214855 3.341221 -2.981901 1.436777 0.029401 1.504774
    10 4.018332 0.000000 0.000007 -0.104066 -0.001870 0.080858
    11 3.518564 0.000000 -0.000001 -0.186952 0.004075 0.056312
    12 8.942632 0.000001 0.000005 0.030878 0.015951 0.174992
    13 3.307272 0.000000 -0.000002 3.141590 0.000000 0.400478
    14 3.593712 0.000001 0.000002 -0.039278 -0.010473 0.532070
    15 2.033346 1.000768 1.101697 1.848180 -1.411864 2.688434
    16 6.809416 0.000001 0.000000 -1.660135 -0.037531 -1.155799
    17 12.391796 0.000000 0.000001 0.000000 0.000000 -1.618643
    18 9.337076 0.000000 -0.000031 -0.502420 0.222262 0.192471
    19 4.454020 -0.070210 0.572073 0.096293 -0.007832 -0.804082
    20 1.426597 -0.000001 0.000000 0.023861 -0.079623 -1.125947
    21 1.322468 -0.000002 0.000000 0.009312 -0.033625 -0.575065
    22 4.477066 -0.028570 1.582474 0.476656 -0.055423 -1.136099
    23 1.344418 0.000000 0.000000 0.023466 -0.208305 -0.755723
    24 1.224671 0.000000 0.000000 0.026043 -0.124620 -0.538676
    25 2.630323 -0.345015 1.907214 -0.354022 -0.915164 -1.788195
    26 1.059292 0.000000 0.000001 0.000551 0.000004 0.000021
    27 0.781203 0.000000 0.000000 -0.000467 0.006940 -0.135953
    28 2.033353 1.000771 -1.101647 -2.215475 1.326429 2.402986
    29 6.809417 0.000001 0.000000 0.713628 0.670466 -0.814724
    30 12.391794 0.000000 0.000001 0.000000 0.000000 -1.543677
    31 9.337102 0.000000 0.000003 -0.988375 -0.253773 0.029428
    32 4.453986 -0.073766 -0.571672 -0.386562 0.126208 -1.146676
    33 1.426599 0.000002 0.000000 -0.051390 0.078806 -1.521754
    34 1.322465 -0.000001 0.000000 -0.034695 0.051519 -1.200268
    35 4.477036 -0.043465 -1.581290 -0.083016 0.164909 0.067468
    36 1.344414 0.000000 0.000000 0.024521 0.136363 -0.478036
    37 1.224670 0.000001 0.000000 -0.166394 0.224946 -1.318175
    38 2.630291 -0.359835 -1.904289 1.070466 0.381356 -0.978487
    39 1.059293 0.000000 0.000000 0.002193 0.017488 0.317162
    40 0.781204 0.000000 0.000000 0.006472 0.026012 0.488050
    41 -0.044717 2.528787 4.661499 0.009206 -0.086850 -0.022245
  time 1
    0 6.156402 0.010163 36.168894 1.615313 -0.020558 0.497590
    1 3.890456 -0.000008 -0.000001 -1.930791 -0.592190 -1.267049
    2 17.848175 0.000000 0.000003 0.000000 0.000000 1.559510
    3 15.638507 0.000000 0.000000 -0.219175 -0.227543 -1.232143
    4 7.109929 0.000000 0.000000 -0.007119 -0.003131 -0.631738
    5 -3.890447 0.000004 0.000010 -1.452953 0.033001 -1.989515
    6 17.848179 0.000002 0.000000 0.000000 0.000000 0.396252
    7 15.638511 0.000000 0.000000 0.240863 -0.277420 -1.095889
    8 7.109930 0.000000 0.000000 -0.080183 -0.004137 -0.897043
    9 0.066413 3.345128 -2.981901 1.434352 0.029316 1.533086
    10 4.018332 0.000000 0.000007 -0.072602 -0.009983 0.091973
    11 3.518564 0.000000 -0.000001 -0.152522 -0.006544 0.063336
    12 8.942632 0.000001 0.000005 0.032918 0.007047 0.160532
    13 3.307272 0.000000 -0.000002 3.141590 0.000000 0.400478
    14 3.593712 0.000001 0.000002 -0.102224 -0.060390 0.529678
    15 2.033346 1.000768 1.101697 1.848180 -1.411864 2.688434
    16 6.809416 0.000001 0.000000 -1.600652 -0.078310 -1.094742
    17 12.391796 0.000000 0.000001 0.000000 0.000000 -1.615726
    18 9.337076 0.000000 -0.000031 -0.554881 0.186751 0.199049
    19 4.454020 -0.070210 0.572073 0.096293 -0.007832 -0.804082
    20 1.426597 -0.000001 0.000000 0.023861 -0.079623 -1.125947
    21 1.322468 -0.000002 0.000000 0.009312 -0.033625 -0.575065
    22 4.477066 -0.028570 1.582474 0.476656 -0.055423 -1.136099
    23 1.344418 0.000000 0.000000 0.023466 -0.208305 -0.755723
    24 1.224671 0.000000 0.000000 0.026043 -0.124620 -0.538676
    25 2.630323 -0.345015 1.907214 -0.354022 -0.915164 -1.788195
    26 1.059292 0.000000 0.000001 0.000551 0.000004 0.000021
    27 0.781203 0.000000 0.000000 -0.000467 0.006940 -0.135953
    28 2.033353 1.000771 -1.101647 -2.221219 1.324324 2.397426
    29 6.809417 0.000001 0.000000 0.777043 0.640902 -0.840101
    30 12.391794 0.000000 0.000001 0.000000 0.000000 -1.557970
    31 9.337102 0.000000 0.000003 -1.037275 -0.295842 0.056886
    32 4.453986 -0.073766 -0.571672 -0.386562 0.126208 -1.146676
    33 1.426599 0.000002 0.000000 -0.051390 0.078806 -1.521754
    34 1.322465 -0.000001 0.000000 -0.034695 0.051519 -1.200268
    35 4.477036 -0.043465 -1.581290 -0.083016 0.164909 0.067468
    36 1.344414 0.000000 0.000000 0.024521 0.136363 -0.478036
    37 1.224670 0.000001 0.000000 -0.166394 0.224946 -1.318175
    38 2.630291 -0.359835 -1.904289 1.070466 0.381356 -0.978487
    39 1.059293 0.000000 0.000000 0.002193 0.017488 0.317162
    40 0.781204 0.000000 0.000000 0.006472 0.026012 0.488050
    41 -0.044717 2.528787 4.661499 0.013956 -0.136375 -0.033708
  time 2
    0 12.139366 -0.335188 37.064293 1.618711 -0.047121 0.532046
    1 3.890456 -0.000008 -0.000001 -1.950261 -0.547148 -1.191628
    2 17.848175 0.000000 0.000003 0.000000 0.000000 1.178109
    3 15.638507 0.000000 0.000000 -0.155116 -0.274741 -1.160002
    4 7.109929 0.000000 0.000000 -0.007119 -0.003131 -0.631738
    5 -3.890447 0.000004 0.000010 -1.507107 0.136915 -2.084020
    6 17.848179 0.000002 0.000000 0.000000 0.000000 0.227770
    7 15.638511 0.000000 0.000000 0.237899 -0.128833 -0.647901
    8 7.109930 0.000000 0.000000 -0.079871 -0.004365 -0.970325
    9 0.160166 3.345128 -2.981901 1.436993 0.029401 1.525047
    10 4.018332 0.000000 0.000007 -0.084921 -0.021836 0.087311
    11 3.518564 0.000000 -0.000001 -0.165606 -0.016707 0.063584
    12 8.942632 0.000001 0.000005 0.028435 0.013878 0.176734
    13 3.307272 0.000000 -0.000002 3.141590 0.000000 0.400478
    14 3.593712 0.000001 0.000002 -0.075350 -0.055100 0.542227
    15 2.033346 1.000768 1.101697 1.848180 -1.411864 2.688434
    16 6.809416 0.000001 0.000000 -1.634314 -0.114336 -1.096067
    17 12.391796 0.000000 0.000001 0.000000 0.000000 -1.624083
    18 9.337076 0.000000 -0.000031 -0.510628 0.237387 0.257668
    19 4.454020 -0.070210 0.572073 0.096293 -0.007832 -0.804082
    20 1.426597 -0.000001 0.000000 0.023861 -0.079623 -1.125947
    21 1.322468 -0.000002 0.000000 0.009312 -0.033625 -0.575065
    22 4.477066 -0.028570 1.582474 0.476656 -0.055423 -1.136099
    23 1.344418 0.000000 0.000000 0.023466 -0.208305 -0.755723
    24 1.224671 0.000000 0.000000 0.026043 -0.124620 -0.538676
    25 2.630323 -0.345015 1.907214 -0.354022 -0.915164 -1.788195
    26 1.059292 0.000000 0.000001 0.000551 0.000004 0.000021
    27 0.781203 0.000000 0.000000 -0.000467 0.006940 -0.135953
    28 2.033353 1.000771 -1.101647 -2.214613 1.326713 2.403753
    29 6.809417 0.000001 0.000000 0.758397 0.666349 -0.832961
    30 12.391794 0.000000 0.000001 0.000000 0.000000 -1.541954
    31 9.337102 0.000000 0.000003 -0.984598 -0.247720 0.031068
    32 4.453986 -0.073766 -0.571672 -0.386562 0.126208 -1.146676
    33 1.426599 0.000002 0.000000 -0.051390 0.078806 -1.521754
    34 1.322465 -0.000001 0.000000 -0.034695 0.051519 -1.200268
    35 4.477036 -0.043465 -1.581290 -0.083016 0.164909 0.067468
    36 1.344414 0.000000 0.000000 0.024521 0.136363 -0.478036
    37 1.224670 0.000001 0.000000 -0.166394 0.224946 -1.318175
    38 2.630291 -0.359835 -1.904289 1.070466 0.381356 -0.978487
    39 1.059293 0.000000 0.000000 0.002193 0.017488 0.317162
    40 0.781204 0.000000 0.000000 0.006472 0.026012 0.488050
    41 -0.044717 2.528787 4.661499 0.011288 -0.112486 -0.023166
  time 3
    0 18.344994 -0.578964 37.764146 1.627802 -0.068696 0.566980
    1 3.890456 -0.000008 -0.000001 -1.991013 -0.424748 -1.195653
    2 17.848175 0.000000 0.000003 0.000000 0.000000 0.720121
    3 15.638507 0.000000 0.000000 -0.052823 -0.155575 -0.974854
    4 7.109929 0.000000 0.000000 -0.007119 -0.003131 -0.631738
    5 -3.890447 0.000004 0.000010 -1.545149 0.116103 -2.141915
    6 17.848179 0.000002 0.000000 0.000000 0.000000 0.270581
    7 15.638511 0.000000 0.000000 0.105503 -0.039408 -0.277172
    8 7.109930 0.000000 0.000000 -0.080974 -0.003358 -0.687595
    9 0.230481 3.337315 -2.981901 1.439094 0.029401 1.522447
    10 4.018332 0.000000 0.000007 -0.094708 -0.041539 0.071831
    11 3.518564 0.000000 -0.000001 -0.175314 -0.031615 0.054503
    12 8.942632 0.000001 0.000005 0.027422 0.027996 0.198036
    13 3.307272 0.000000 -0.000002 3.141590 0.000000 0.400478
    14 3.593712 0.000001 0.000002 -0.054466 -0.051481 0.537526
    15 2.033346 1.000768 1.101697 1.848180 -1.411864 2.688434
    16 6.809416 0.000001 0.000000 -1.655544 -0.155654 -1.094742
    17 12.391796 0.000000 0.000001 0.000000 0.000000 -1.616356
    18 9.337076 0.000000 -0.000031 -0.458703 0.292430 0.324480
    19 4.454020 -0.070210 0.572073 0.096293 -0.007832 -0.804082
    20 1.426597 -0.000001 0.000000 0.023861 -0.079623 -1.125947
    21 1.322468 -0.000002 0.000000 0.009312 -0.033625 -0.575065
    22 4.477066 -0.028570 1.582474 0.476656 -0.055423 -1.136099
    23 1.344418 0.000000 0.000000 0.023466 -0.208305 -0.755723
    24 1.224671 0.000000 0.000000 0.026043 -0.124620 -0.538676
    25 2.630323 -0.345015 1.907214 -0.354022 -0.915164 -1.788195
    26 1.059292 0.000000 0.000001 0.000551 0.000004 0.000021
    27 0.781203 0.000000 0.000000 -0.000467 0.006940 -0.135953
    28 2.033353 1.000771 -1.101647 -2.206955 1.329425 2.411134
    29 6.809417 0.000001 0.000000 0.733220 0.674758 -0.834940
    30 12.391794 0.000000 0.000001 0.000000 0.000000 -1.523279
    31 9.337102 0.000000 0.000003 -0.928017 -0.191565 0.007151
    32 4.453986 -0.073766 -0.571672 -0.386562 0.126208 -1.146676
    33 1.426599 0.000002 0.000000 -0.051390 0.078806 -1.521754
    34 1.322465 -0.000001 0.000000 -0.034695 0.051519 -1.200268
    35 4.477036 -0.043465 -1.581290 -0.083016 0.164909 0.067468
    36 1.344414 0.000000 0.000000 0.024521 0.136363 -0.478036
    37 1.224670 0.000001 0.000000 -0.166394 0.224946 -1.318175
    38 2.630291 -0.359835 -1.904289 1.070466 0.381356 -0.978487
    39 1.059293 0.000000 0.000000 0.002193 0.017488 0.317162
    40 0.781204 0.000000 0.000000 0.006472 0.026012 0.488050
    41 -0.044717 2.528787 4.661499 0.009336 -0.084531 -0.004689
  time 4
    0 24.620936 -0.518020 38.011152 1.621600 -0.080245 0.592343
    1 3.890456 -0.000008 -0.000001 -1.836784 -0.267148 -1.285066
    2 17.848175 0.000000 0.000003 0.000000 0.000000 0.313850
    3 15.638507 0.000000 0.000000 -0.126030 -0.028421 -0.739765
    4 7.109929 0.000000 0.000000 -0.007119 -0.003131 -0.631738
    5 -3.890447 0.000004 0.000010 -1.587576 0.244027 -2.158753
    6 17.848179 0.000002 0.000000 0.000000 0.000000 0.199907
    7 15.638511 0.000000 0.000000 -0.082481 -0.064529 -0.338387
    8 7.109930 0.000000 0.000000 -0.081154 -0.003131 -0.631749
    9 0.265638 3.337315 -2.981901 1.440711 0.029344 1.527293
    10 4.018332 0.000000 0.000007 -0.111842 -0.054122 0.066474
    11 3.518564 0.000000 -0.000001 -0.192424 -0.040520 0.053155
    12 8.942632 0.000001 0.000005 0.027311 0.038938 0.212303
    13 3.307272 0.000000 -0.000002 3.141590 0.000000 0.400478
    14 3.593712 0.000001 0.000002 -0.020209 -0.042080 0.544241
    15 2.033346 1.000768 1.101697 1.848180 -1.411864 2.688434
    16 6.809416 0.000001 0.000000 -1.690354 -0.191924 -1.096446
    17 12.391796 0.000000 0.000001 0.000000 0.000000 -1.614701
    18 9.337076 0.000000 -0.000031 -0.400621 0.345040 0.388234
    19 4.454020 -0.070210 0.572073 0.096293 -0.007832 -0.804082
    20 1.426597 -0.000001 0.000000 0.023861 -0.079623 -1.125947
    21 1.322468 -0.000002 0.000000 0.009312 -0.033625 -0.575065
    22 4.477066 -0.028570 1.582474 0.476656 -0.055423 -1.136099
    23 1.344418 0.000000 0.000000 0.023466 -0.208305 -0.755723
    24 1.224671 0.000000 0.000000 0.026043 -0.124620 -0.538676
    25 2.630323 -0.345015 1.907214 -0.354022 -0.915164 -1.788195
    26 1.059292 0.000000 0.000001 0.000551 0.000004 0.000021
    27 0.781203 0.000000 0.000000 -0.000467 0.006940 -0.135953
    28 2.033353 1.000771 -1.101647 -2.198627 1.332258 2.418994
    29 6.809417 0.000001 0.000000 0.698579 0.700074 -0.836832
    30 12.391794 0.000000 0.000001 0.000000 0.000000 -1.503528
    31 9.337102 0.000000 0.000003 -0.871756 -0.131528 -0.012018
    32 4.453986 -0.073766 -0.571672 -0.386562 0.126208 -1.146676
    33 1.426599 0.000002 0.000000 -0.051390 0.078806 -1.521754
    34 1.322465 -0.000001 0.000000 -0.034695 0.051519 -1.200268
    35 4.477036 -0.043465 -1.581290 -0.083016 0.164909 0.067468
    36 1.344414 0.000000 0.000000 0.024521 0.136363 -0.478036
    37 1.224670 0.000001 0.000000 -0.166394 0.224946 -1.318175
    38 2.630291 -0.359835 -1.904289 1.070466 0.381356 -0.978487
    39 1.059293 0.000000 0.000000 0.002193 0.017488 0.317162
    40 0.781204 0.000000 0.000000 0.006472 0.026012 0.488050
    41 -0.044717 2.528787 4.661499 0.008490 -0.051939 0.023166
  time 5
    0 30.818750 -0.203140 37.681810 1.610725 -0.096275 0.611293
    1 3.890456 -0.000008 -0.000001 -1.792596 -0.197644 -1.340459
    2 17.848175 0.000000 0.000003 0.000000 0.000000 0.276032
    3 15.638507 0.000000 0.000000 -0.203983 0.203104 -0.749315
    4 7.109929 0.000000 0.000000 -0.007119 -0.003131 -0.631738
    5 -3.890447 0.000004 0.000010 -1.710854 0.015632 -2.107481
    6 17.848179 0.000002 0.000000 0.000000 0.000000 0.778220
    7 15.638511 0.000000 0.000000 -0.084519 -0.070718 -0.587545
    8 7.109930 0.000000 0.000000 -0.081154 -0.003131 -0.631749
    9 0.320327 3.333409 -2.981901 1.441843 0.029288 1.524634
    10 4.018332 0.000000 0.000007 -0.132841 -0.063566 0.062317
    11 3.518564 0.000000 -0.000001 -0.213413 -0.045997 0.052020
    12 8.942632 0.000001 0.000005 0.028629 0.050215 0.224089
    13 3.307272 0.000000 -0.000002 3.141590 0.000000 0.400478
    14 3.593712 0.000001 0.000002 0.020926 -0.027990 0.549739
    15 2.033346 1.000768 1.101697 1.848180 -1.411864 2.688434
    16 6.809416 0.000001 0.000000 -1.727937 -0.216774 -1.104966
    17 12.391796 0.000000 0.000001 0.000000 0.000000 -1.614858
    18 9.337076 0.000000 -0.000031 -0.337721 0.390415 0.447603
    19 4.454020 -0.070210 0.572073 0.096293 -0.007832 -0.804082
    20 1.426597 -0.000001 0.000000 0.023861 -0.079623 -1.125947
    21 1.322468 -0.000002 0.000000 0.009312 -0.033625 -0.575065
    22 4.477066 -0.028570 1.582474 0.476656 -0.055423 -1.136099
    23 1.344418 0.000000 0.000000 0.023466 -0.208305 -0.755723
    24 1.224671 0.000000 0.000000 0.026043 -0.124620 -0.538676
    25 2.630323 -0.345015 1.907214 -0.354022 -0.915164 -1.788195
    26 1.059292 0.000000 0.000001 0.000551 0.000004 0.000021
    27 0.781203 0.000000 0.000000 -0.000467 0.006940 -0.135953
    28 2.033353 1.000771 -1.101647 -2.190394 1.335011 2.426951
    29 6.809417 0.000001 0.000000 0.655230 0.727142 -0.839929
    30 12.391794 0.000000 0.000001 0.000000 0.000000 -1.483992
    31 9.337102 0.000000 0.000003 -0.817800 -0.072213 -0.028337
    32 4.453986 -0.073766 -0.571672 -0.386562 0.126208 -1.146676
    33 1.426599 0.000002 0.000000 -0.051390 0.078806 -1.521754
    34 1.322465 -0.000001 0.000000 -0.034695 0.051519 -1.200268
    35 4.477036 -0.043465 -1.581290 -0.083016 0.164909 0.067468
    36 1.344414 0.000000 0.000000 0.024521 0.136363 -0.478036
    37 1.224670 0.000001 0.000000 -0.166394 0.224946 -1.318175
    38 2.630291 -0.359835 -1.904289 1.070466 0.381356 -0.978487
    39 1.059293 0.000000 0.000000 0.002193 0.017488 0.317162
    40 0.781204 0.000000 0.000000 0.006472 0.026012 0.488050
    41 -0.044717 2.528787 4.661499 0.009271 -0.013628 0.045171
  time 6
    0 36.868123 0.172683 36.930498 1.599596 -0.123255 0.623640
    1 3.890456 -0.000008 -0.000001 -1.729797 -0.147445 -1.467727
    2 17.848175 0.000000 0.000003 0.000000 0.000000 0.366371
    3 15.638507 0.000000 0.000000 -0.159642 0.165005 -1.018015
    4 7.109929 0.000000 0.000000 -0.007119 -0.003131 -0.631738
    5 -3.890447 0.000004 0.000010 -1.618658 -0.171728 -2.114670
    6 17.848179 0.000002 0.000000 0.000000 0.000000 1.196663
    7 15.638511 0.000000 0.000000 -0.157434 -0.068033 -0.803183
    8 7.109930 0.000000 0.000000 -0.081154 -0.003131 -0.631749
    9 0.410174 3.321690 -2.981901 1.442597 0.029259 1.506606
    10 4.018332 0.000000 0.000007 -0.157478 -0.066754 0.059830
    11 3.518564 0.000000 -0.000001 -0.238491 -0.045793 0.051381
    12 8.942632 0.000001 0.000005 0.030073 0.059719 0.232796
    13 3.307272 0.000000 -0.000002 3.141590 0.000000 0.400478
    14 3.593712 0.000001 0.000002 0.069232 -0.007582 0.555782
    15 2.033346 1.000768 1.101697 1.848180 -1.411864 2.688434
    16 6.809416 0.000001 0.000000 -1.769824 -0.225058 -1.124466
    17 12.391796 0.000000 0.000001 0.000000 0.000000 -1.620220
    18 9.337076 0.000000 -0.000031 -0.273661 0.425434 0.496990
    19 4.454020 -0.070210 0.572073 0.096293 -0.007832 -0.804082
    20 1.426597 -0.000001 0.000000 0.023861 -0.079623 -1.125947
    21 1.322468 -0.000002 0.000000 0.009312 -0.033625 -0.575065
    22 4.477066 -0.028570 1.582474 0.476656 -0.055423 -1.136099
    23 1.344418 0.000000 0.000000 0.023466 -0.208305 -0.755723
    24 1.224671 0.000000 0.000000 0.026043 -0.124620 -0.538676
    25 2.630323 -0.345015 1.907214 -0.354022 -0.915164 -1.788195
    26 1.059292 0.000000 0.000001 0.000551 0.000004 0.000021
    27 0.781203 0.000000 0.000000 -0.000467 0.006940 -0.135953
    28 2.033353 1.000771 -1.101647 -2.182735 1.337520 2.434236
    29 6.809417 0.000001 0.000000 0.604688 0.756793 -0.841305
    30 12.391794 0.000000 0.000001 0.000000 0.000000 -1.465246
    31 9.337102 0.000000 0.000003 -0.768707 -0.018229 -0.043275
    32 4.453986 -0.073766 -0.571672 -0.386562 0.126208 -1.146676
    33 1.426599 0.000002 0.000000 -0.051390 0.078806 -1.521754
    34 1.322465 -0.000001 0.000000 -0.034695 0.051519 -1.200268
    35 4.477036 -0.043465 -1.581290 -0.083016 0.164909 0.067468
    36 1.344414 0.000000 0.000000 0.024521 0.136363 -0.478036
    37 1.224670 0.000001 0.000000 -0.166394 0.224946 -1.318175
    38 2.630291 -0.359835 -1.904289 1.070466 0.381356 -0.978487
    39 1.059293 0.000000 0.000000 0.002193 0.017488 0.317162
    40 0.781204 0.000000 0.000000 0.006472 0.026012 0.488050
    41 -0.044717 2.528787 4.661499 0.012524 0.031799 0.053547
  time 7
    0 42.761241 0.467248 36.220354 1.595009 -0.143951 0.630627
    1 3.890456 -0.000008 -0.000001 -1.682937 -0.081537 -1.602662
    2 17.848175 0.000000 0.000003 0.000000 0.000000 0.450785
    3 15.638507 0.000000 0.000000 -0.059407 0.090627 -1.290214
    4 7.109929 0.000000 0.000000 -0.007119 -0.003131 -0.631738
    5 -3.890447 0.000004 0.000010 -1.561452 -0.349101 -2.068411
    6 17.848179 0.000002 0.000000 0.000000 0.000000 1.491628
    7 15.638511 0.000000 0.000000 -0.149373 -0.050649 -1.008125
    8 7.109930 0.000000 0.000000 -0.081154 -0.003131 -0.631749
    9 0.476582 3.313877 -2.981901 1.443136 0.029231 1.490470
    10 4.018332 0.000000 0.000007 -0.183156 -0.063638 0.055916
    11 3.518564 0.000000 -0.000001 -0.265330 -0.040005 0.048827
    12 8.942632 0.000001 0.000005 0.031086 0.067054 0.239938
    13 3.307272 0.000000 -0.000002 3.141590 0.000000 0.400478
    14 3.593712 0.000001 0.000002 0.120197 0.019422 0.559559
    15 2.033346 1.000768 1.101697 1.848180 -1.411864 2.688434
    16 6.809416 0.000001 0.000000 -1.813910 -0.211383 -1.152960
    17 12.391796 0.000000 0.000001 0.000000 0.000000 -1.629366
    18 9.337076 0.000000 -0.000031 -0.218970 0.451673 0.526646
    19 4.454020 -0.070210 0.572073 0.096293 -0.007832 -0.804082
    20 1.426597 -0.000001 0.000000 0.023861 -0.079623 -1.125947
    21 1.322468 -0.000002 0.000000 0.009312 -0.033625 -0.575065
    22 4.477066 -0.028570 1.582474 0.476656 -0.055423 -1.136099
    23 1.344418 0.000000 0.000000 0.023466 -0.208305 -0.755723
    24 1.224671 0.000000 0.000000 0.026043 -0.124620 -0.538676
    25 2.630323 -0.345015 1.907214 -0.354022 -0.915164 -1.788195
    26 1.059292 0.000000 0.000001 0.000551 0.000004 0.000021
    27 0.781203 0.000000 0.000000 -0.000467 0.006940 -0.135953
    28 2.033353 1.000771 -1.101647 -2.176417 1.339504 2.440275
    29 6.809417 0.000001 0.000000 0.546479 0.783905 -0.844918
    30 12.391794 0.000000 0.000001 0.000000 0.000000 -1.449732
    31 9.337102 0.000000 0.000003 -0.729408 0.025896 -0.053378
    32 4.453986 -0.073766 -0.571672 -0.386562 0.126208 -1.146676
    33 1.426599 0.000002 0.000000 -0.051390 0.078806 -1.521754
    34 1.322465 -0.000001 0.000000 -0.034695 0.051519 -1.200268
    35 4.477036 -0.043465 -1.581290 -0.083016 0.164909 0.067468
    36 1.344414 0.000000 0.000000 0.024521 0.136363 -0.478036
    37 1.224670 0.000001 0.000000 -0.166394 0.224946 -1.318175
    38 2.630291 -0.359835 -1.904289 1.070466 0.381356 -0.978487
    39 1.059293 0.000000 0.000000 0.002193 0.017488 0.317162
    40 0.781204 0.000000 0.000000 0.006472 0.026012 0.488050
    41 -0.044717 2.528787 4.661499 0.019096 0.084849 0.065371
  time 8
    0 48.658265 0.497720 35.973347 1.598917 -0.137992 0.632541
    1 3.890456 -0.000008 -0.000001 -1.722448 0.068115 -1.741814
    2 17.848175 0.000000 0.000003 0.000000 0.000000 0.349327
    3 15.638507 0.000000 0.000000 0.065009 0.049455 -1.351456
    4 7.109929 0.000000 0.000000 -0.007119 -0.003131 -0.631738
    5 -3.890447 0.000004 0.000010 -1.497573 -0.506350 -1.945905
    6 17.848179 0.000002 0.000000 0.000000 0.000000 1.603814
    7 15.638511 0.000000 0.000000 -0.139645 -0.046189 -1.149464
    8 7.109930 0.000000 0.000000 -0.081154 -0.003131 -0.631749
    9 0.457050 3.313877 -2.981901 1.443621 0.029231 1.497326
    10 4.018332 0.000000 0.000007 -0.207364 -0.054110 0.049967
    11 3.518564 0.000000 -0.000001 -0.291583 -0.028931 0.043896
    12 8.942632 0.000001 0.000005 0.031113 0.071188 0.245690
    13 3.307272 0.000000 -0.000002 3.141590 0.000000 0.400478
    14 3.593712 0.000001 0.000002 0.168925 0.052336 0.561825
    15 2.033346 1.000768 1.101697 1.848180 -1.411864 2.688434
    16 6.809416 0.000001 0.000000 -1.859048 -0.173740 -1.186470
    17 12.391796 0.000000 0.000001 0.000000 0.000000 -1.640799
    18 9.337076 0.000000 -0.000031 -0.185691 0.472322 0.526184
    19 4.454020 -0.070210 0.572073 0.096293 -0.007832 -0.804082
    20 1.426597 -0.000001 0.000000 0.023861 -0.079623 -1.125947
    21 1.322468 -0.000002 0.000000 0.009312 -0.033625 -0.575065
    22 4.477066 -0.028570 1.582474 0.476656 -0.055423 -1.136099
    23 1.344418 0.000000 0.000000 0.023466 -0.208305 -0.755723
    24 1.224671 0.000000 0.000000 0.026043 -0.124620 -0.538676
    25 2.630323 -0.345015 1.907214 -0.354022 -0.915164 -1.788195
    26 1.059292 0.000000 0.000001 0.000551 0.000004 0.000021
    27 0.781203 0.000000 0.000000 -0.000467 0.006940 -0.135953
    28 2.033353 1.000771 -1.101647 -2.172109 1.340840 2.444397
    29 6.809417 0.000001 0.000000 0.482970 0.805936 -0.852747
    30 12.391794 0.000000 0.000001 0.000000 0.000000 -1.440610
    31 9.337102 0.000000 0.000003 -0.704830 0.055896 -0.054673
    32 4.453986 -0.073766 -0.571672 -0.386562 0.126208 -1.146676
    33 1.426599 0.000002 0.000000 -0.051390 0.078806 -1.521754
    34 1.322465 -0.000001 0.000000 -0.034695 0.051519 -1.200268
    35 4.477036 -0.043465 -1.581290 -0.083016 0.164909 0.067468
    36 1.344414 0.000000 0.000000 0.024521 0.136363 -0.478036
    37 1.224670 0.000001 0.000000 -0.166394 0.224946 -1.318175
    38 2.630291 -0.359835 -1.904289 1.070466 0.381356 -0.978487
    39 1.059293 0.000000 0.000000 0.002193 0.017488 0.317162
    40 0.781204 0.000000 0.000000 0.006472 0.026012 0.488050
    41 -0.044717 2.528787 4.661499 0.029247 0.142029 0.100562
  time 9
    0 54.801390 0.314888 36.302689 1.609961 -0.113045 0.629861
    1 3.890456 -0.000008 -0.000001 -1.764919 0.090731 -1.817907
    2 17.848175 0.000000 0.000003 0.000000 0.000000 0.504916
    3 15.638507 0.000000 0.000000 -0.070832 0.220050 -1.232143
    4 7.109929 0.000000 0.000000 -0.006724 -0.003610 -0.750414
    5 -3.890447 0.000004 0.000010 -1.432073 -0.614003 -1.783288
    6 17.848179 0.000002 0.000000 0.000000 0.000000 1.505925
    7 15.638511 0.000000 0.000000 -0.101659 -0.052924 -1.200461
    8 7.109930 0.000000 0.000000 -0.081154 -0.003131 -0.631749
    9 0.375016 3.325596 -2.981901 1.444160 0.029259 1.521087
    10 4.018332 0.000000 0.000007 -0.227391 -0.039633 0.042419
    11 3.518564 0.000000 -0.000001 -0.314249 -0.014166 0.037156
    12 8.942632 0.000001 0.000005 0.030114 0.071836 0.249807
    13 3.307272 0.000000 -0.000002 3.141590 0.000000 0.400478
    14 3.593712 0.000001 0.000002 0.209511 0.088398 0.563630
    15 2.033346 1.000768 1.101697 1.848180 -1.411864 2.688434
    16 6.809416 0.000001 0.000000 -1.900935 -0.117963 -1.224808
    17 12.391796 0.000000 0.000001 0.000000 0.000000 -1.648605
    18 9.337076 0.000000 -0.000031 -0.179178 0.485672 0.489721
    19 4.454020 -0.070210 0.572073 0.096293 -0.007832 -0.804082
    20 1.426597 -0.000001 0.000000 0.023861 -0.079623 -1.125947
    21 1.322468 -0.000002 0.000000 0.009312 -0.033625 -0.575065
    22 4.477066 -0.028570 1.582474 0.476656 -0.055423 -1.136099
    23 1.344418 0.000000 0.000000 0.023466 -0.208305 -0.755723
    24 1.224671 0.000000 0.000000 0.026043 -0.124620 -0.538676
    25 2.630323 -0.345015 1.907214 -0.354022 -0.915164 -1.788195
    26 1.059292 0.000000 0.000001 0.000551 0.000004 0.000021
    27 0.781203 0.000000 0.000000 -0.000467 0.006940 -0.135953
    28 2.033353 1.000771 -1.101647 -2.170578 1.341325 2.445930
    29 6.809417 0.000001 0.000000 0.424666 0.820521 -0.859284
    30 12.391794 0.000000 0.000001 0.000000 0.000000 -1.438815
    31 9.337102 0.000000 0.000003 -0.697853 0.067165 -0.049838
    32 4.453986 -0.073766 -0.571672 -0.386562 0.126208 -1.146676
    33 1.426599 0.000002 0.000000 -0.051390 0.078806 -1.521754
    34 1.322465 -0.000001 0.000000 -0.034695 0.051519 -1.200268
    35 4.477036 -0.043465 -1.581290 -0.083016 0.164909 0.067468
    36 1.344414 0.000000 0.000000 0.024521 0.136363 -0.478036
    37 1.224670 0.000001 0.000000 -0.166394 0.224946 -1.318175
    38 2.630291 -0.359835 -1.904289 1.070466 0.381356 -0.978487
    39 1.059293 0.000000 0.000000 0.002193 0.017488 0.317162
    40 0.781204 0.000000 0.000000 0.006472 0.026012 0.488050
    41 -0.044717 2.528787 4.661499 0.040504 0.191395 0.148418
  time 10
    0 61.311715 0.081269 37.043710 1.624233 -0.085465 0.623161
    1 3.890456 -0.000008 -0.000001 -1.829817 0.319349 -1.927637
    2 17.848175 0.000000 0.000003 0.000000 0.000000 0.137633
    3 15.638507 0.000000 0.000000 -0.214396 0.452899 -0.776801
    4 7.109929 0.000000 0.000000 -0.007119 -0.003131 -0.631738
    5 -3.890447 0.000004 0.000010 -1.347028 -0.633241 -1.646025
    6 17.848179 0.000002 0.000000 0.000000 0.000000 1.228832
    7 15.638511 0.000000 0.000000 -0.015403 -0.120004 -1.163407
    8 7.109930 0.000000 0.000000 -0.081154 -0.003131 -0.631749
    9 0.285170 3.333409 -2.981901 1.444699 0.029288 1.547094
    10 4.018332 0.000000 0.000007 -0.240772 -0.022315 0.035235
    11 3.518564 0.000000 -0.000001 -0.330374 0.002205 0.030309
    12 8.942632 0.000001 0.000005 0.028380 0.069295 0.251267
    13 3.307272 0.000000 -0.000002 3.141590 0.000000 0.400478
    14 3.593712 0.000001 0.000002 0.236597 0.123303 0.566358
    15 2.033346 1.000768 1.101697 1.848180 -1.411864 2.688434
    16 6.809416 0.000001 0.000000 -1.933162 -0.057480 -1.265703
    17 12.391796 0.000000 0.000001 0.000000 0.000000 -1.645767
    18 9.337076 0.000000 -0.000031 -0.197736 0.488105 0.420947
    19 4.454020 -0.070210 0.572073 0.096293 -0.007832 -0.804082
    20 1.426597 -0.000001 0.000000 0.023861 -0.079623 -1.125947
    21 1.322468 -0.000002 0.000000 0.009312 -0.033625 -0.575065
    22 4.477066 -0.028570 1.582474 0.476656 -0.055423 -1.136099
    23 1.344418 0.000000 0.000000 0.023466 -0.208305 -0.755723
    24 1.224671 0.000000 0.000000 0.026043 -0.124620 -0.538676
    25 2.630323 -0.345015 1.907214 -0.354022 -0.915164 -1.788195
    26 1.059292 0.000000 0.000001 0.000551 0.000004 0.000021
    27 0.781203 0.000000 0.000000 -0.000467 0.006940 -0.135953
    28 2.033353 1.000771 -1.101647 -2.171822 1.340961 2.444684
    29 6.809417 0.000001 0.000000 0.384062 0.827572 -0.857392
    30 12.391794 0.000000 0.000001 0.000000 0.000000 -1.443124
    31 9.337102 0.000000 0.000003 -0.707710 0.058789 -0.043275
    32 4.453986 -0.073766 -0.571672 -0.386562 0.126208 -1.146676
    33 1.426599 0.000002 0.000000 -0.051390 0.078806 -1.521754
    34 1.322465 -0.000001 0.000000 -0.034695 0.051519 -1.200268
    35 4.477036 -0.043465 -1.581290 -0.083016 0.164909 0.067468
    36 1.344414 0.000000 0.000000 0.024521 0.136363 -0.478036
    37 1.224670 0.000001 0.000000 -0.166394 0.224946 -1.318175
    38 2.630291 -0.359835 -1.904289 1.070466 0.381356 -0.978487
    39 1.059293 0.000000 0.000000 0.002193 0.017488 0.317162
    40 0.781204 0.000000 0.000000 0.006472 0.026012 0.488050
    41 -0.044717 2.528787 4.661499 0.046099 0.212647 0.184810
  time 11
    0 68.017357 -0.233610 37.774438 1.636382 -0.070220 0.612155
    1 3.890456 -0.000008 -0.000001 -1.901492 0.357057 -2.000376
    2 17.848175 0.000000 0.000003 0.000000 0.000000 0.129294
    3 15.638507 0.000000 0.000000 -0.399390 0.620657 -0.644949
    4 7.109929 0.000000 0.000000 -0.007119 -0.003131 -0.631738
    5 -3.890447 0.000004 0.000010 -1.247014 -0.563178 -1.540546
    6 17.848179 0.000002 0.000000 0.000000 0.000000 0.847595
    7 15.638511 0.000000 0.000000 0.115602 -0.251571 -1.039640
    8 7.109930 0.000000 0.000000 -0.081154 -0.003131 -0.631749
    9 0.234387 3.337315 -2.981901 1.445238 0.029316 1.561398
    10 4.018332 0.000000 0.000007 -0.245632 -0.004554 0.030713
    11 3.518564 0.000000 -0.000001 -0.337649 0.018013 0.025379
    12 8.942632 0.000001 0.000005 0.026506 0.064345 0.249015
    13 3.307272 0.000000 -0.000002 3.141590 0.000000 0.400478
    14 3.593712 0.000001 0.000002 0.246258 0.152363 0.570261
    15 2.033346 1.000768 1.101697 1.848180 -1.411864 2.688434
    16 6.809416 0.000001 0.000000 -1.948750 -0.009103 -1.304136
    17 12.391796 0.000000 0.000001 0.000000 0.000000 -1.628814
    18 9.337076 0.000000 -0.000031 -0.230836 0.476958 0.336423
    19 4.454020 -0.070210 0.572073 0.096293 -0.007832 -0.804082
    20 1.426597 -0.000001 0.000000 0.023861 -0.079623 -1.125947
    21 1.322468 -0.000002 0.000000 0.009312 -0.033625 -0.575065
    22 4.477066 -0.028570 1.582474 0.476656 -0.055423 -1.136099
    23 1.344418 0.000000 0.000000 0.023466 -0.208305 -0.755723
    24 1.224671 0.000000 0.000000 0.026043 -0.124620 -0.538676
    25 2.630323 -0.345015 1.907214 -0.354022 -0.915164 -1.788195
    26 1.059292 0.000000 0.000001 0.000551 0.000004 0.000021
    27 0.781203 0.000000 0.000000 -0.000467 0.006940 -0.135953
    28 2.033353 1.000771 -1.101647 -2.175268 1.339868 2.441425
    29 6.809417 0.000001 0.000000 0.371001 0.828273 -0.841650
    30 12.391794 0.000000 0.000001 0.000000 0.000000 -1.451384
    31 9.337102 0.000000 0.000003 -0.729408 0.034880 -0.038008
    32 4.453986 -0.073766 -0.571672 -0.386562 0.126208 -1.146676
    33 1.426599 0.000002 0.000000 -0.051390 0.078806 -1.521754
    34 1.322465 -0.000001 0.000000 -0.034695 0.051519 -1.200268
    35 4.477036 -0.043465 -1.581290 -0.083016 0.164909 0.067468
    36 1.344414 0.000000 0.000000 0.024521 0.136363 -0.478036
    37 1.224670 0.000001 0.000000 -0.166394 0.224946 -1.318175
    38 2.630291 -0.359835 -1.904289 1.070466 0.381356 -0.978487
    39 1.059293 0.000000 0.000000 0.002193 0.017488 0.317162
    40 0.781204 0.000000 0.000000 0.006472 0.026012 0.488050
    41 -0.044717 2.528787 4.661499 0.040634 0.192475 0.188738
  time 12
    0 74.609715 -0.467229 38.186115 1.642159 -0.078166 0.595310
    1 3.890456 -0.000008 -0.000001 -1.985382 0.344614 -2.066981
    2 17.848175 0.000000 0.000003 0.000000 0.000000 0.240554
    3 15.638507 0.000000 0.000000 -0.557260 0.723610 -0.613307
    4 7.109929 0.000000 0.000000 -0.007119 -0.003131 -0.631738
    5 -3.890447 0.000004 0.000010 -1.281719 -0.445487 -1.430338
    6 17.848179 0.000002 0.000000 0.000000 0.000000 0.463109
    7 15.638511 0.000000 0.000000 0.314612 -0.305044 -0.889228
    8 7.109930 0.000000 0.000000 -0.081154 -0.003131 -0.631749
    9 0.261732 3.337315 -2.981901 1.445669 0.029344 1.553537
    10 4.018332 0.000000 0.000007 -0.241269 0.011577 0.030591
    11 3.518564 0.000000 -0.000001 -0.334924 0.031531 0.023747
    12 8.942632 0.000001 0.000005 0.025021 0.058017 0.242471
    13 3.307272 0.000000 -0.000002 3.141590 0.000000 0.400478
    14 3.593712 0.000001 0.000002 0.237103 0.172257 0.574584
    15 2.033346 1.000768 1.101697 1.848180 -1.411864 2.688434
    16 6.809416 0.000001 0.000000 -1.943969 0.019325 -1.335942
    17 12.391796 0.000000 0.000001 0.000000 0.000000 -1.601533
    18 9.337076 0.000000 -0.000031 -0.268933 0.451081 0.252014
    19 4.454020 -0.070210 0.572073 0.096293 -0.007832 -0.804082
    20 1.426597 -0.000001 0.000000 0.023861 -0.079623 -1.125947
    21 1.322468 -0.000002 0.000000 0.009312 -0.033625 -0.575065
    22 4.477066 -0.028570 1.582474 0.476656 -0.055423 -1.136099
    23 1.344418 0.000000 0.000000 0.023466 -0.208305 -0.755723
    24 1.224671 0.000000 0.000000 0.026043 -0.124620 -0.538676
    25 2.630323 -0.345015 1.907214 -0.354022 -0.915164 -1.788195
    26 1.059292 0.000000 0.000001 0.000551 0.000004 0.000021
    27 0.781203 0.000000 0.000000 -0.000467 0.006940 -0.135953
    28 2.033353 1.000771 -1.101647 -2.180534 1.338249 2.436441
    29 6.809417 0.000001 0.000000 0.390025 0.823192 -0.810423
    30 12.391794 0.000000 0.000001 0.000000 0.000000 -1.462445
    31 9.337102 0.000000 0.000003 -0.759299 -0.001592 -0.035590
    32 4.453986 -0.073766 -0.571672 -0.386562 0.126208 -1.146676
    33 1.426599 0.000002 0.000000 -0.051390 0.078806 -1.521754
    34 1.322465 -0.000001 0.000000 -0.034695 0.051519 -1.200268
    35 4.477036 -0.043465 -1.581290 -0.083016 0.164909 0.067468
    36 1.344414 0.000000 0.000000 0.024521 0.136363 -0.478036
    37 1.224670 0.000001 0.000000 -0.166394 0.224946 -1.318175
    38 2.630291 -0.359835 -1.904289 1.070466 0.381356 -0.978487
    39 1.059293 0.000000 0.000000 0.002193 0.017488 0.317162
    40 0.781204 0.000000 0.000000 0.006472 0.026012 0.488050
    41 -0.044717 2.528787 4.661499 0.029442 0.144030 0.156754
  time 13
    0 80.932533 -0.741478 37.764146 1.639950 -0.098585 0.573584
    1 3.890456 -0.000008 -0.000001 -2.071468 0.346507 -2.127069
    2 17.848175 0.000000 0.000003 0.000000 0.000000 0.342086
    3 15.638507 0.000000 0.000000 -0.573401 0.665894 -0.593257
    4 7.109929 0.000000 0.000000 -0.007119 -0.003131 -0.631738
    5 -3.890447 0.000004 0.000010 -1.249112 -0.511909 -1.455501
    6 17.848179 0.000002 0.000000 0.000000 0.000000 0.611932
    7 15.638511 0.000000 0.000000 0.302845 -0.272141 -0.854753
    8 7.109930 0.000000 0.000000 -0.081154 -0.003131 -0.631749
    9 0.328140 3.329502 -2.981901 1.445992 0.029344 1.534209
    10 4.018332 0.000000 0.000007 -0.228272 0.024425 0.034992
    11 3.518564 0.000000 -0.000001 -0.322699 0.041527 0.025556
    12 8.942632 0.000001 0.000005 0.024272 0.051282 0.232110
    13 3.307272 0.000000 -0.000002 3.141590 0.000000 0.400478
    14 3.593712 0.000001 0.000002 0.210187 0.182022 0.577689
    15 2.033346 1.000768 1.101697 1.848180 -1.411864 2.688434
    16 6.809416 0.000001 0.000000 -1.919009 0.030108 -1.357242
    17 12.391796 0.000000 0.000001 0.000000 0.000000 -1.568496
    18 9.337076 0.000000 -0.000031 -0.309082 0.412774 0.174528
    19 4.454020 -0.070210 0.572073 0.096293 -0.007832 -0.804082
    20 1.426597 -0.000001 0.000000 0.023861 -0.079623 -1.125947
    21 1.322468 -0.000002 0.000000 0.009312 -0.033625 -0.575065
    22 4.477066 -0.028570 1.582474 0.476656 -0.055423 -1.136099
    23 1.344418 0.000000 0.000000 0.023466 -0.208305 -0.755723
    24 1.224671 0.000000 0.000000 0.026043 -0.124620 -0.538676
    25 2.630323 -0.345015 1.907214 -0.354022 -0.915164 -1.788195
    26 1.059292 0.000000 0.000001 0.000551 0.000004 0.000021
    27 0.781203 0.000000 0.000000 -0.000467 0.006940 -0.135953
    28 2.033353 1.000771 -1.101647 -2.186947 1.336185 2.430306
    29 6.809417 0.000001 0.000000 0.434983 0.811016 -0.770594
    30 12.391794 0.000000 0.000001 0.000000 0.000000 -1.475876
    31 9.337102 0.000000 0.000003 -0.795910 -0.047200 -0.033432
    32 4.453986 -0.073766 -0.571672 -0.386562 0.126208 -1.146676
    33 1.426599 0.000002 0.000000 -0.051390 0.078806 -1.521754
    34 1.322465 -0.000001 0.000000 -0.034695 0.051519 -1.200268
    35 4.477036 -0.043465 -1.581290 -0.083016 0.164909 0.067468
    36 1.344414 0.000000 0.000000 0.024521 0.136363 -0.478036
    37 1.224670 0.000001 0.000000 -0.166394 0.224946 -1.318175
    38 2.630291 -0.359835 -1.904289 1.070466 0.381356 -0.978487
    39 1.059293 0.000000 0.000000 0.002193 0.017488 0.317162
    40 0.781204 0.000000 0.000000 0.006472 0.026012 0.488050
    41 -0.044717 2.528787 4.661499 0.019356 0.087676 0.109059
  time 14
    0 86.985812 -0.751635 37.424512 1.632474 -0.108148 0.550805
    1 3.890456 -0.000008 -0.000001 -2.257288 0.252590 -2.018776
    2 17.848175 0.000000 0.000003 0.000000 0.000000 0.734020
    3 15.638507 0.000000 0.000000 -0.327734 0.493976 -0.639007
    4 7.109929 0.000000 0.000000 -0.007119 -0.003131 -0.631738
    5 -3.890447 0.000004 0.000010 -1.255881 -0.519880 -1.557006
    6 17.848179 0.000002 0.000000 0.000000 0.000000 0.772371
    7 15.638511 0.000000 0.000000 0.138950 -0.212797 -1.024551
    8 7.109930 0.000000 0.000000 -0.080998 -0.003335 -0.681500
    9 0.359391 3.325596 -2.981901 1.443944 0.029430 1.510448
    10 4.018332 0.000000 0.000007 -0.198933 0.020290 0.046054
    11 3.518564 0.000000 -0.000001 -0.290807 0.034468 0.033112
    12 8.942632 0.000001 0.000005 0.025507 0.042665 0.218248
    13 3.307272 0.000000 -0.000002 3.141590 0.000000 0.400478
    14 3.593712 0.000001 0.000002 0.150362 0.140199 0.562623
    15 2.033346 1.000768 1.101697 1.848180 -1.411864 2.688434
    16 6.809416 0.000001 0.000000 -1.856370 0.021825 -1.317673
    17 12.391796 0.000000 0.000001 0.000000 0.000000 -1.582058
    18 9.337076 0.000000 -0.000031 -0.351907 0.364867 0.175509
    19 4.454020 -0.070210 0.572073 0.096293 -0.007832 -0.804082
    20 1.426597 -0.000001 0.000000 0.023861 -0.079623 -1.125947
    21 1.322468 -0.000002 0.000000 0.009312 -0.033625 -0.575065
    22 4.477066 -0.028570 1.582474 0.476656 -0.055423 -1.136099
    23 1.344418 0.000000 0.000000 0.023466 -0.208305 -0.755723
    24 1.224671 0.000000 0.000000 0.026043 -0.124620 -0.538676
    25 2.630323 -0.345015 1.907214 -0.354022 -0.915164 -1.788195
    26 1.059292 0.000000 0.000001 0.000551 0.000004 0.000021
    27 0.781203 0.000000 0.000000 -0.000467 0.006940 -0.135953
    28 2.033353 1.000771 -1.101647 -2.194032 1.333837 2.423404
    29 6.809417 0.000001 0.000000 0.506064 0.776021 -0.769647
    30 12.391794 0.000000 0.000001 0.000000 0.000000 -1.491749
    31 9.337102 0.000000 0.000003 -0.839242 -0.098444 -0.026006
    32 4.453986 -0.073766 -0.571672 -0.386562 0.126208 -1.146676
    33 1.426599 0.000002 0.000000 -0.051390 0.078806 -1.521754
    34 1.322465 -0.000001 0.000000 -0.034695 0.051519 -1.200268
    35 4.477036 -0.043465 -1.581290 -0.083016 0.164909 0.067468
    36 1.344414 0.000000 0.000000 0.024521 0.136363 -0.478036
    37 1.224670 0.000001 0.000000 -0.166394 0.224946 -1.318175
    38 2.630291 -0.359835 -1.904289 1.070466 0.381356 -0.978487
    39 1.059293 0.000000 0.000000 0.002193 0.017488 0.317162
    40 0.781204 0.000000 0.000000 0.006472 0.026012 0.488050
    41 -0.044717 2.528787 4.661499 0.012524 0.033164 0.057355
  time 15
    0 92.855492 -0.599274 36.642324 1.625678 -0.108980 0.530801
    1 3.890456 -0.000008 -0.000001 -2.172061 -0.029587 -1.840619
    2 17.848175 0.000000 0.000003 0.000000 0.000000 1.377368
    3 15.638507 0.000000 0.000000 -0.323778 0.194218 -0.928193
    4 7.109929 0.000000 0.000000 -0.007119 -0.003131 -0.631738
    5 -3.890447 0.000004 0.000010 -1.272661 -0.498772 -1.666836
    6 17.848179 0.000002 0.000000 0.000000 0.000000 0.899829
    7 15.638511 0.000000 0.000000 -0.035786 -0.163056 -1.228538
    8 7.109930 0.000000 0.000000 -0.080830 -0.003538 -0.731206
    9 0.363297 3.325596 -2.981901 1.441681 0.029458 1.493957
    10 4.018332 0.000000 0.000007 -0.167944 0.014046 0.057621
    11 3.518564 0.000000 -0.000001 -0.256964 0.025371 0.040987
    12 8.942632 0.000001 0.000005 0.027075 0.033844 0.203982
    13 3.307272 0.000000 -0.000002 3.141590 0.000000 0.400478
    14 3.593712 0.000001 0.000002 0.088007 0.092509 0.549151
    15 2.033346 1.000768 1.101697 1.848180 -1.411864 2.688434
    16 6.809416 0.000001 0.000000 -1.790767 0.009914 -1.270341
    17 12.391796 0.000000 0.000001 0.000000 0.000000 -1.597669
    18 9.337076 0.000000 -0.000031 -0.399015 0.314921 0.179432
    19 4.454020 -0.070210 0.572073 0.096293 -0.007832 -0.804082
    20 1.426597 -0.000001 0.000000 0.023861 -0.079623 -1.125947
    21 1.322468 -0.000002 0.000000 0.009312 -0.033625 -0.575065
    22 4.477066 -0.028570 1.582474 0.476656 -0.055423 -1.136099
    23 1.344418 0.000000 0.000000 0.023466 -0.208305 -0.755723
    24 1.224671 0.000000 0.000000 0.026043 -0.124620 -0.538676
    25 2.630323 -0.345015 1.907214 -0.354022 -0.915164 -1.788195
    26 1.059292 0.000000 0.000001 0.000551 0.000004 0.000021
    27 0.781203 0.000000 0.000000 -0.000467 0.006940 -0.135953
    28 2.033353 1.000771 -1.101647 -2.201498 1.331327 2.416310
    29 6.809417 0.000001 0.000000 0.577240 0.739580 -0.777217
    30 12.391794 0.000000 0.000001 0.000000 0.000000 -1.508987
    31 9.337102 0.000000 0.000003 -0.886926 -0.152048 -0.013486
    32 4.453986 -0.073766 -0.571672 -0.386562 0.126208 -1.146676
    33 1.426599 0.000002 0.000000 -0.051390 0.078806 -1.521754
    34 1.322465 -0.000001 0.000000 -0.034695 0.051519 -1.200268
    35 4.477036 -0.043465 -1.581290 -0.083016 0.164909 0.067468
    36 1.344414 0.000000 0.000000 0.024521 0.136363 -0.478036
    37 1.224670 0.000001 0.000000 -0.166394 0.224946 -1.318175
    38 2.630291 -0.359835 -1.904289 1.070466 0.381356 -0.978487
    39 1.059293 0.000000 0.000000 0.002193 0.017488 0.317162
    40 0.781204 0.000000 0.000000 0.006472 0.026012 0.488050
    41 -0.044717 2.528787 4.661499 0.009141 -0.013787 0.014509
  time 16
    0 98.725172 -0.396126 36.415901 1.623554 -0.103482 0.517593
    1 3.890456 -0.000008 -0.000001 -2.093515 -0.319334 -1.659780
    2 17.848175 0.000000 0.000003 0.000000 0.000000 1.783054
    3 15.638507 0.000000 0.000000 -0.318240 0.053993 -0.996143
    4 7.109929 0.000000 0.000000 -0.007119 -0.003131 -0.631738
    5 -3.890447 0.000004 0.000010 -1.306031 -0.395744 -1.770234
    6 17.848179 0.000002 0.000000 0.000000 0.000000 0.864411
    7 15.638511 0.000000 0.000000 -0.121579 -0.144124 -1.327857
    8 7.109930 0.000000 0.000000 -0.080710 -0.003670 -0.764373
    9 0.343765 3.329502 -2.981901 1.439202 0.029458 1.482963
    10 4.018332 0.000000 0.000007 -0.136095 0.006400 0.069326
    11 3.518564 0.000000 -0.000001 -0.222052 0.014981 0.048792
    12 8.942632 0.000001 0.000005 0.028893 0.024904 0.189540
    13 3.307272 0.000000 -0.000002 3.141590 0.000000 0.400478
    14 3.593712 0.000001 0.000002 0.024428 0.041393 0.538659
    15 2.033346 1.000768 1.101697 1.848180 -1.411864 2.688434
    16 6.809416 0.000001 0.000000 -1.724399 -0.009985 -1.217519
    17 12.391796 0.000000 0.000001 0.000000 0.000000 -1.610837
    18 9.337076 0.000000 -0.000031 -0.447461 0.265862 0.186471
    19 4.454020 -0.070210 0.572073 0.096293 -0.007832 -0.804082
    20 1.426597 -0.000001 0.000000 0.023861 -0.079623 -1.125947
    21 1.322468 -0.000002 0.000000 0.009312 -0.033625 -0.575065
    22 4.477066 -0.028570 1.582474 0.476656 -0.055423 -1.136099
    23 1.344418 0.000000 0.000000 0.023466 -0.208305 -0.755723
    24 1.224671 0.000000 0.000000 0.026043 -0.124620 -0.538676
    25 2.630323 -0.345015 1.907214 -0.354022 -0.915164 -1.788195
    26 1.059292 0.000000 0.000001 0.000551 0.000004 0.000021
    27 0.781203 0.000000 0.000000 -0.000467 0.006940 -0.135953
    28 2.033353 1.000771 -1.101647 -2.208678 1.328818 2.409409
    29 6.809417 0.000001 0.000000 0.648321 0.703578 -0.790551
    30 12.391794 0.000000 0.000001 0.000000 0.000000 -1.526512
    31 9.337102 0.000000 0.000003 -0.936466 -0.204966 0.003265
    32 4.453986 -0.073766 -0.571672 -0.386562 0.126208 -1.146676
    33 1.426599 0.000002 0.000000 -0.051390 0.078806 -1.521754
    34 1.322465 -0.000001 0.000000 -0.034695 0.051519 -1.200268
    35 4.477036 -0.043465 -1.581290 -0.083016 0.164909 0.067468
    36 1.344414 0.000000 0.000000 0.024521 0.136363 -0.478036
    37 1.224670 0.000001 0.000000 -0.166394 0.224946 -1.318175
    38 2.630291 -0.359835 -1.904289 1.070466 0.381356 -0.978487
    39 1.059293 0.000000 0.000000 0.002193 0.017488 0.317162
    40 0.781204 0.000000 0.000000 0.006472 0.026012 0.488050
    41 -0.044717 2.528787 4.661499 0.008295 -0.053400 -0.021122
  time 17
    0 104.590945 -0.182820 36.292398 1.619561 -0.065000 0.507448
    1 3.890456 -0.000008 -0.000001 -2.005806 -0.462221 -1.467056
    2 17.848175 0.000000 0.000003 0.000000 0.000000 1.713782
    3 15.638507 0.000000 0.000000 -0.283298 -0.085569 -1.109513
    4 7.109929 0.000000 0.000000 -0.007119 -0.003131 -0.631738
    5 -3.890447 0.000004 0.000010 -1.359041 -0.260045 -1.867955
    6 17.848179 0.000002 0.000000 0.000000 0.000000 0.752875
    7 15.638511 0.000000 0.000000 0.034998 -0.240421 -1.345334
    8 7.109930 0.000000 0.000000 -0.080459 -0.003910 -0.830708
    9 0.214855 3.341221 -2.981901 1.436777 0.029401 1.504774
    10 4.018332 0.000000 0.000007 -0.104066 -0.001870 0.080858
    11 3.518564 0.000000 -0.000001 -0.186952 0.004075 0.056312
    12 8.942632 0.000001 0.000005 0.030878 0.015951 0.174992
    13 3.307272 0.000000 -0.000002 3.141590 0.000000 0.400478
    14 3.593712 0.000001 0.000002 -0.039278 -0.010473 0.532070
    15 2.033346 1.000768 1.101697 1.848180 -1.411864 2.688434
    16 6.809416 0.000001 0.000000 -1.660135 -0.037531 -1.155799
    17 12.391796 0.000000 0.000001 0.000000 0.000000 -1.618643
    18 9.337076 0.000000 -0.000031 -0.502420 0.222262 0.192471
    19 4.454020 -0.070210 0.572073 0.096293 -0.007832 -0.804082
    20 1.426597 -0.000001 0.000000 0.023861 -0.079623 -1.125947
    21 1.322468 -0.000002 0.000000 0.009312 -0.033625 -0.575065
    22 4.477066 -0.028570 1.582474 0.476656 -0.055423 -1.136099
    23 1.344418 0.000000 0.000000 0.023466 -0.208305 -0.755723
    24 1.224671 0.000000 0.000000 0.026043 -0.124620 -0.538676
    25 2.630323 -0.345015 1.907214 -0.354022 -0.915164 -1.788195
    26 1.059292 0.000000 0.000001 0.000551 0.000004 0.000021
    27 0.781203 0.000000 0.000000 -0.000467 0.006940 -0.135953
    28 2.033353 1.000771 -1.101647 -2.215475 1.326429 2.402986
    29 6.809417 0.000001 0.000000 0.713628 0.670466 -0.814724
    30 12.391794 0.000000 0.000001 0.000000 0.000000 -1.543677
    31 9.337102 0.000000 0.000003 -0.988375 -0.253773 0.029428
    32 4.453986 -0.073766 -0.571672 -0.386562 0.126208 -1.146676
    33 1.426599 0.000002 0.000000 -0.051390 0.078806 -1.521754
    34 1.322465 -0.000001 0.000000 -0.034695 0.051519 -1.200268
    35 4.477036 -0.043465 -1.581290 -0.083016 0.164909 0.067468
    36 1.344414 0.000000 0.000000 0.024521 0.136363 -0.478036
    37 1.224670 0.000001 0.000000 -0.166394 0.224946 -1.318175
    38 2.630291 -0.359835 -1.904289 1.070466 0.381356 -0.978487
    39 1.059293 0.000000 0.000000 0.002193 0.017488 0.317162
    40 0.781204 0.000000 0.000000 0.006472 0.026012 0.488050
    41 -0.044717 2.528787 4.661499 0.009206 -0.086850 -0.022245
end
