// Created by Crowbar 0.62
version 1
nodes
  0 "ValveBiped.Bip01_Pelvis" -1
  1 "ValveBiped.Bip01_L_Thigh" 0
  2 "ValveBiped.Bip01_L_Calf" 1
  3 "ValveBiped.Bip01_L_Foot" 2
  4 "ValveBiped.Bip01_L_Toe0" 3
  5 "ValveBiped.Bip01_R_Thigh" 0
  6 "ValveBiped.Bip01_R_Calf" 5
  7 "ValveBiped.Bip01_R_Foot" 6
  8 "ValveBiped.Bip01_R_Toe0" 7
  9 "ValveBiped.Bip01_Spine" 0
  10 "ValveBiped.Bip01_Spine1" 9
  11 "ValveBiped.Bip01_Spine2" 10
  12 "ValveBiped.Bip01_Spine4" 11
  13 "ValveBiped.Bip01_Neck1" 12
  14 "ValveBiped.Bip01_Head1" 13
  15 "ValveBiped.Bip01_L_Clavicle" 12
  16 "ValveBiped.Bip01_L_UpperArm" 15
  17 "ValveBiped.Bip01_L_Forearm" 16
  18 "ValveBiped.Bip01_L_Hand" 17
  19 "ValveBiped.Bip01_L_Finger2" 18
  20 "ValveBiped.Bip01_L_Finger21" 19
  21 "ValveBiped.Bip01_L_Finger22" 20
  22 "ValveBiped.Bip01_L_Finger1" 18
  23 "ValveBiped.Bip01_L_Finger11" 22
  24 "ValveBiped.Bip01_L_Finger12" 23
  25 "ValveBiped.Bip01_L_Finger0" 18
  26 "ValveBiped.Bip01_L_Finger01" 25
  27 "ValveBiped.Bip01_L_Finger02" 26
  28 "ValveBiped.Bip01_R_Clavicle" 12
  29 "ValveBiped.Bip01_R_UpperArm" 28
  30 "ValveBiped.Bip01_R_Forearm" 29
  31 "ValveBiped.Bip01_R_Hand" 30
  32 "ValveBiped.Bip01_R_Finger2" 31
  33 "ValveBiped.Bip01_R_Finger21" 32
  34 "ValveBiped.Bip01_R_Finger22" 33
  35 "ValveBiped.Bip01_R_Finger1" 31
  36 "ValveBiped.Bip01_R_Finger11" 35
  37 "ValveBiped.Bip01_R_Finger12" 36
  38 "ValveBiped.Bip01_R_Finger0" 31
  39 "ValveBiped.Bip01_R_Finger01" 38
  40 "ValveBiped.Bip01_R_Finger02" 39
  41 "ValveBiped.Cod" 0
end
skeleton
  time 0
    0 -0.002349 0.000005 0.002999 0.000040 0.000000 -1.570796
    1 0.003615 -0.000004 -0.000003 -0.000063 0.000031 -0.000020
    2 0.003882 0.000000 0.000000 0.000000 0.000000 0.000039
    3 0.001312 0.000000 0.000000 -0.000031 -0.000012 -0.000012
    4 0.000337 0.000000 0.000000 -0.000001 -0.000003 -0.000008
    5 -0.003615 0.000004 0.000007 -0.000034 0.000035 -0.000089
    6 0.003879 0.000000 0.000000 0.000000 0.000000 0.000068
    7 0.001315 0.000000 0.000000 0.000069 0.000003 -0.000032
    8 0.000338 0.000000 0.000000 -0.000006 -0.000003 -0.000044
    9 0.000005 0.001276 -0.001341 0.000023 0.000019 0.000029
    10 0.002584 0.000000 0.000000 0.000000 0.000000 -0.000004
    11 0.002833 0.000000 0.000000 0.000000 0.000000 0.000014
    12 0.000963 0.000000 0.000000 0.000000 0.000000 0.000014
    13 0.002483 0.000000 0.000000 0.000094 0.000000 0.000027
    14 0.003758 -0.000001 0.000000 0.000000 -0.000001 0.000004
    15 0.002034 0.000737 0.000101 0.000007 -0.000049 0.000090
    16 0.000614 0.000001 0.000000 -0.000069 0.000014 -0.000063
    17 0.000792 0.000000 0.000001 0.000000 0.000000 -0.000053
    18 0.000853 0.000000 -0.000031 0.000064 -0.000013 0.000056
    19 0.000759 -0.003802 0.001743 0.000008 0.000006 -0.000015
    20 0.000772 -0.000001 0.000000 0.000000 0.000003 -0.000019
    21 0.002115 -0.000002 0.000000 0.000000 0.000004 -0.000008
    22 0.000367 -0.001225 0.000394 0.000005 -0.000010 -0.000009
    23 0.000627 0.000000 0.000000 0.000000 0.000011 -0.000009
    24 0.001977 0.000000 0.000000 0.000000 0.000007 -0.000008
    25 0.001336 -0.001255 0.000905 -0.000036 -0.000020 -0.000004
    26 0.000666 0.000000 0.000001 0.000000 0.000004 0.000021
    27 0.003836 0.000000 0.000000 0.000000 0.000001 0.000010
    28 0.002041 0.000741 -0.000051 -0.000091 0.000037 0.000024
    29 0.000615 0.000001 0.000000 0.000073 -0.000006 -0.000075
    30 0.000790 0.000000 0.000001 0.000000 0.000000 -0.000040
    31 0.000880 0.000000 0.000003 0.000000 0.000007 0.000070
    32 0.000725 -0.003451 -0.001342 -0.000011 -0.000002 -0.000019
    33 0.000774 0.000002 0.000000 0.000000 -0.000004 -0.000017
    34 0.002113 -0.000001 0.000000 0.000000 -0.000003 -0.000009
    35 0.000337 -0.000495 -0.003116 -0.000011 0.000001 -0.000013
    36 0.000623 0.000000 0.000000 0.000000 -0.000009 -0.000025
    37 0.001976 0.000001 0.000000 0.000000 -0.000004 -0.000025
    38 0.001305 -0.000449 -0.001887 0.000001 0.000020 -0.000023
    39 0.000667 0.000000 0.000000 0.000000 -0.000009 0.000022
    40 0.003836 0.000000 0.000000 0.000000 -0.000006 0.000002
    41 -0.001747 0.001366 0.001201 -0.000034 0.000000 0.000000
  time 1
    0 -0.002349 0.142208 0.002999 0.000040 0.000000 -1.570796
    1 0.003615 -0.000004 -0.000003 0.000223 -0.015630 -0.000212
    2 0.003882 0.000000 0.000000 0.000000 0.000000 -0.002448
    3 0.001312 0.000000 0.000000 -0.008514 0.013389 0.000718
    4 0.000337 0.000000 0.000000 -0.000001 -0.000003 -0.000008
    5 -0.003615 0.000004 0.000007 0.000920 -0.011625 -0.016266
    6 0.003879 0.000000 0.000000 0.000000 0.000000 0.010060
    7 0.001315 0.000000 0.000000 -0.007806 0.008513 0.006366
    8 0.000338 0.000000 0.000000 -0.000006 -0.000003 -0.000044
    9 0.000005 0.001276 -0.001341 0.079993 0.010428 0.000148
    10 0.002584 0.000000 0.000000 -0.043896 -0.001258 0.000048
    11 0.002833 0.000000 0.000000 -0.080497 0.008066 -0.000482
    12 0.000963 0.000000 0.000000 0.000000 0.000000 0.000014
    13 0.002483 0.000000 0.000000 6.282320 -0.037164 -0.065384
    14 0.003758 -0.000001 0.000000 0.067123 0.040943 0.033494
    15 0.002034 0.000737 0.000101 0.000007 -0.000049 0.000090
    16 0.000614 0.000001 0.000000 0.018388 -0.042628 0.061562
    17 0.000792 0.000000 0.000001 0.000000 0.000000 -0.102083
    18 0.000853 0.000000 -0.000031 -0.038389 -0.003531 0.056944
    19 0.000759 -0.003802 0.001743 0.000008 0.000006 -0.000015
    20 0.000772 -0.000001 0.000000 0.000000 0.000003 -0.000019
    21 0.002115 -0.000002 0.000000 0.000000 0.000004 -0.000008
    22 0.000367 -0.001225 0.000394 0.000005 -0.000010 -0.000009
    23 0.000627 0.000000 0.000000 0.000000 0.000011 -0.000009
    24 0.001977 0.000000 0.000000 0.000000 0.000007 -0.000008
    25 0.001336 -0.001255 0.000905 -0.000036 -0.000020 -0.000004
    26 0.000666 0.000000 0.000001 0.000000 0.000004 0.000021
    27 0.003836 0.000000 0.000000 0.000000 0.000001 0.000010
    28 0.002041 0.000741 -0.000051 -0.000091 0.000037 0.000024
    29 0.000615 0.000001 0.000000 -0.009013 -0.053660 -0.010742
    30 0.000790 0.000000 0.000001 0.000000 0.000000 0.006999
    31 0.000880 0.000000 0.000003 -0.010433 0.032254 -0.015990
    32 0.000725 -0.003451 -0.001342 -0.000011 -0.000002 -0.000019
    33 0.000774 0.000002 0.000000 0.000000 -0.000004 -0.000017
    34 0.002113 -0.000001 0.000000 0.000000 -0.000003 -0.000009
    35 0.000337 -0.000495 -0.003116 -0.000011 0.000001 -0.000013
    36 0.000623 0.000000 0.000000 0.000000 -0.000009 -0.000025
    37 0.001976 0.000001 0.000000 0.000000 -0.000004 -0.000025
    38 0.001305 -0.000449 -0.001887 0.000001 0.000020 -0.000023
    39 0.000667 0.000000 0.000000 0.000000 -0.000009 0.000022
    40 0.003836 0.000000 0.000000 0.000000 -0.000006 0.000002
    41 -0.001747 0.001366 0.001201 -0.000034 0.080338 0.006894
  time 2
    0 -0.002349 0.294569 0.002999 0.000040 0.000000 -1.570796
    1 0.003615 -0.000004 -0.000003 0.000414 -0.031007 0.000938
    2 0.003882 0.000000 0.000000 0.000000 0.000000 -0.005447
    3 0.001312 0.000000 0.000000 -0.016743 0.026506 0.000535
    4 0.000337 0.000000 0.000000 -0.000001 -0.000003 -0.000008
    5 -0.003615 0.000004 0.000007 0.002064 -0.024024 -0.031118
    6 0.003879 0.000000 0.000000 0.000000 0.000000 0.018509
    7 0.001315 0.000000 0.000000 -0.016052 0.017660 0.012956
    8 0.000338 0.000000 0.000000 -0.000006 -0.000003 -0.000044
    9 0.000005 0.001276 -0.001341 0.160016 0.020779 0.001152
    10 0.002584 0.000000 0.000000 -0.087769 -0.002529 0.000153
    11 0.002833 0.000000 0.000000 -0.161098 0.016059 -0.001653
    12 0.000963 0.000000 0.000000 0.000000 0.000000 0.000014
    13 0.002483 0.000000 0.000000 0.000861 -0.073382 -0.130909
    14 0.003758 -0.000001 0.000000 0.134584 0.081609 0.067320
    15 0.002034 0.000737 0.000101 0.000007 -0.000049 0.000090
    16 0.000614 0.000001 0.000000 0.032350 -0.086692 0.123472
    17 0.000792 0.000000 0.000001 0.000000 0.000000 -0.198750
    18 0.000853 0.000000 -0.000031 -0.074969 -0.004485 0.109505
    19 0.000759 -0.003802 0.001743 0.000008 0.000006 -0.000015
    20 0.000772 -0.000001 0.000000 0.000000 0.000003 -0.000019
    21 0.002115 -0.000002 0.000000 0.000000 0.000004 -0.000008
    22 0.000367 -0.001225 0.000394 0.000005 -0.000010 -0.000009
    23 0.000627 0.000000 0.000000 0.000000 0.000011 -0.000009
    24 0.001977 0.000000 0.000000 0.000000 0.000007 -0.000008
    25 0.001336 -0.001255 0.000905 -0.000036 -0.000020 -0.000004
    26 0.000666 0.000000 0.000001 0.000000 0.000004 0.000021
    27 0.003836 0.000000 0.000000 0.000000 0.000001 0.000010
    28 0.002041 0.000741 -0.000051 -0.000091 0.000037 0.000024
    29 0.000615 0.000001 0.000000 -0.019992 -0.108364 -0.020291
    30 0.000790 0.000000 0.000001 0.000000 0.000000 0.015115
    31 0.000880 0.000000 0.000003 -0.021762 0.064538 -0.032827
    32 0.000725 -0.003451 -0.001342 -0.000011 -0.000002 -0.000019
    33 0.000774 0.000002 0.000000 0.000000 -0.000004 -0.000017
    34 0.002113 -0.000001 0.000000 0.000000 -0.000003 -0.000009
    35 0.000337 -0.000495 -0.003116 -0.000011 0.000001 -0.000013
    36 0.000623 0.000000 0.000000 0.000000 -0.000009 -0.000025
    37 0.001976 0.000001 0.000000 0.000000 -0.000004 -0.000025
    38 0.001305 -0.000449 -0.001887 0.000001 0.000020 -0.000023
    39 0.000667 0.000000 0.000000 0.000000 -0.000009 0.000022
    40 0.003836 0.000000 0.000000 0.000000 -0.000006 0.000002
    41 -0.001747 0.001366 0.001201 0.000552 0.160708 0.013868
end
