// Created by Crowbar 0.62
version 1
nodes
  0 "ValveBiped.Bip01_Pelvis" -1
  1 "ValveBiped.Bip01_L_Thigh" 0
  2 "ValveBiped.Bip01_L_Calf" 1
  3 "ValveBiped.Bip01_L_Foot" 2
  4 "ValveBiped.Bip01_L_Toe0" 3
  5 "ValveBiped.Bip01_R_Thigh" 0
  6 "ValveBiped.Bip01_R_Calf" 5
  7 "ValveBiped.Bip01_R_Foot" 6
  8 "ValveBiped.Bip01_R_Toe0" 7
  9 "ValveBiped.Bip01_Spine" 0
  10 "ValveBiped.Bip01_Spine1" 9
  11 "ValveBiped.Bip01_Spine2" 10
  12 "ValveBiped.Bip01_Spine4" 11
  13 "ValveBiped.Bip01_Neck1" 12
  14 "ValveBiped.Bip01_Head1" 13
  15 "ValveBiped.Bip01_L_Clavicle" 12
  16 "ValveBiped.Bip01_L_UpperArm" 15
  17 "ValveBiped.Bip01_L_Forearm" 16
  18 "ValveBiped.Bip01_L_Hand" 17
  19 "ValveBiped.Bip01_L_Finger2" 18
  20 "ValveBiped.Bip01_L_Finger21" 19
  21 "ValveBiped.Bip01_L_Finger22" 20
  22 "ValveBiped.Bip01_L_Finger1" 18
  23 "ValveBiped.Bip01_L_Finger11" 22
  24 "ValveBiped.Bip01_L_Finger12" 23
  25 "ValveBiped.Bip01_L_Finger0" 18
  26 "ValveBiped.Bip01_L_Finger01" 25
  27 "ValveBiped.Bip01_L_Finger02" 26
  28 "ValveBiped.Bip01_R_Clavicle" 12
  29 "ValveBiped.Bip01_R_UpperArm" 28
  30 "ValveBiped.Bip01_R_Forearm" 29
  31 "ValveBiped.Bip01_R_Hand" 30
  32 "ValveBiped.Bip01_R_Finger2" 31
  33 "ValveBiped.Bip01_R_Finger21" 32
  34 "ValveBiped.Bip01_R_Finger22" 33
  35 "ValveBiped.Bip01_R_Finger1" 31
  36 "ValveBiped.Bip01_R_Finger11" 35
  37 "ValveBiped.Bip01_R_Finger12" 36
  38 "ValveBiped.Bip01_R_Finger0" 31
  39 "ValveBiped.Bip01_R_Finger01" 38
  40 "ValveBiped.Bip01_R_Finger02" 39
  41 "ValveBiped.Cod" 0
end
skeleton
  time 0
    0 1.321910 -0.609438 15.451209 1.536049 -0.192782 -0.705196
    1 3.890452 -0.000008 -0.000003 -3.402268 -1.045168 -0.101030
    2 17.848175 -0.000001 0.000000 0.000000 0.000000 2.245431
    3 15.638507 0.000000 0.000000 0.315075 0.094763 -1.489287
    4 7.109929 0.000000 0.000000 -0.007119 -0.003131 -0.631738
    5 -3.890451 0.000003 0.000008 -1.065196 -0.433482 -2.490892
    6 17.848179 0.000000 0.000001 0.000000 0.000000 2.367262
    7 15.638511 0.000000 0.000000 -1.455258 -0.585197 0.054784
    8 7.109930 0.000000 0.000000 -0.081154 -0.003131 -0.631749
    9 -0.046871 3.345128 -2.981901 1.570796 0.047921 1.585809
    10 4.018332 0.000000 0.000000 -0.019416 -0.119343 0.257210
    11 3.518571 0.000000 0.000000 -0.048625 -0.076965 0.455754
    12 8.942631 0.000000 0.000000 -0.078838 0.112907 0.222365
    13 3.307273 0.000000 0.000000 3.141782 0.261791 0.400478
    14 3.593712 0.000001 0.000000 0.864456 0.015546 0.805448
    15 2.033346 1.000768 1.101697 2.385451 -1.528127 2.146508
    16 6.809416 0.000001 0.000000 -3.014467 -1.002858 0.339871
    17 12.391796 0.000000 0.000001 0.000000 0.000000 -0.997952
    18 9.337076 0.000000 -0.000031 -0.770882 0.517533 -0.080892
    19 4.454020 -0.070210 0.572073 0.095490 -0.008587 -0.706335
    20 1.426597 -0.000001 0.000000 0.055908 -0.087976 -1.504206
    21 1.322468 -0.000002 0.000000 0.009312 -0.033625 -0.575065
    22 4.477066 -0.028570 1.582474 0.481653 -0.035390 -1.246096
    23 1.344418 0.000000 0.000000 0.023466 -0.208305 -0.755723
    24 1.224671 0.000000 0.000000 0.026043 -0.124620 -0.538676
    25 2.630323 -0.345015 1.907214 -0.354022 -0.915164 -1.788195
    26 1.059292 0.000000 0.000001 -0.001067 -0.012855 0.250988
    27 0.781203 0.000000 0.000000 -0.000096 -0.003210 0.062757
    28 2.033353 1.000771 -1.101647 -3.176988 1.193701 1.415651
    29 6.809417 0.000001 0.000000 2.057825 1.257063 -0.049195
    30 12.391794 0.000000 0.000001 0.000000 0.000000 -1.825155
    31 9.337102 0.000000 0.000003 -0.900367 0.015997 0.866982
    32 4.453986 -0.073766 -0.571672 0.047699 -0.153453 -0.767464
    33 1.426599 0.000002 0.000000 -0.053883 0.078890 -1.553256
    34 1.322465 -0.000001 0.000000 -0.013603 0.036958 -0.732277
    35 4.477036 -0.043465 -1.581290 -0.332631 0.218360 0.154973
    36 1.344414 0.000000 0.000000 -0.042629 0.220735 -0.851579
    37 1.224670 0.000001 0.000000 0.008150 -0.000004 -0.000025
    38 2.630291 -0.359835 -1.904289 0.415078 0.423437 -0.720800
    39 1.059293 0.000000 0.000000 0.015101 0.038905 0.767148
    40 0.781204 0.000000 0.000000 0.004782 0.022537 0.418308
    41 -0.044717 2.528787 4.661499 -0.030941 -0.072619 0.100041
  time 1
    0 0.978150 -0.545179 15.286537 1.538003 -0.199804 -0.697635
    1 3.890452 -0.000008 -0.000003 -3.403413 -1.048480 -0.080042
    2 17.848175 -0.000001 0.000000 0.000000 0.000000 2.255014
    3 15.638507 0.000000 0.000000 0.297762 0.112631 -1.488230
    4 7.109929 0.000000 0.000000 -0.007119 -0.003131 -0.631738
    5 -3.890451 0.000003 0.000008 -1.048893 -0.401304 -2.495149
    6 17.848179 0.000000 0.000001 0.000000 0.000000 2.375873
    7 15.638511 0.000000 0.000000 -1.452849 -0.571089 0.017158
    8 7.109930 0.000000 0.000000 -0.081154 -0.003131 -0.631749
    9 -0.050778 3.345128 -2.981901 1.570796 0.047354 1.586046
    10 4.018332 0.000000 0.000000 -0.012545 -0.119594 0.246234
    11 3.518571 0.000000 0.000000 -0.042356 -0.077900 0.448057
    12 8.942631 0.000000 0.000000 -0.079504 0.115124 0.228557
    13 3.307273 0.000000 0.000000 3.141782 0.242736 0.400478
    14 3.593712 0.000001 0.000000 0.812268 0.004239 0.831300
    15 2.033346 1.000768 1.101697 2.385451 -1.528127 2.146508
    16 6.809416 0.000001 0.000000 -2.745456 -1.003299 0.043576
    17 12.391796 0.000000 0.000001 0.000000 0.000000 -1.120561
    18 9.337076 0.000000 -0.000031 -0.772042 0.434607 -0.022907
    19 4.454020 -0.070210 0.572073 0.095490 -0.008587 -0.706366
    20 1.426597 -0.000001 0.000000 0.055908 -0.087976 -1.504206
    21 1.322468 -0.000002 0.000000 0.009312 -0.033625 -0.575065
    22 4.477066 -0.028570 1.582474 0.481653 -0.035390 -1.246096
    23 1.344418 0.000000 0.000000 0.023466 -0.208305 -0.755723
    24 1.224671 0.000000 0.000000 0.026043 -0.124620 -0.538676
    25 2.630323 -0.345015 1.907214 -0.354022 -0.915164 -1.788195
    26 1.059292 0.000000 0.000001 -0.001067 -0.012843 0.250988
    27 0.781203 0.000000 0.000000 -0.000096 -0.003210 0.062757
    28 2.033353 1.000771 -1.101647 -3.176988 1.193701 1.415651
    29 6.809417 0.000001 0.000000 1.902602 1.200869 -0.166102
    30 12.391794 0.000000 0.000001 0.000000 0.000000 -1.830398
    31 9.337102 0.000000 0.000003 -0.897551 -0.043774 0.814138
    32 4.453986 -0.073766 -0.571672 0.047699 -0.153453 -0.767464
    33 1.426599 0.000002 0.000000 -0.053883 0.078890 -1.553256
    34 1.322465 -0.000001 0.000000 -0.013603 0.036958 -0.732277
    35 4.477036 -0.043465 -1.581290 -0.332631 0.218360 0.154973
    36 1.344414 0.000000 0.000000 -0.042629 0.220735 -0.851579
    37 1.224670 0.000001 0.000000 0.008150 -0.000004 -0.000025
    38 2.630291 -0.359835 -1.904289 0.415078 0.423437 -0.720800
    39 1.059293 0.000000 0.000000 0.015101 0.038905 0.767148
    40 0.781204 0.000000 0.000000 0.004782 0.022537 0.418308
    41 -0.044717 2.528787 4.661499 -0.031136 -0.071570 0.099800
  time 2
    0 0.630483 -0.481384 15.121866 1.539957 -0.209921 -0.692945
    1 3.890452 -0.000008 -0.000003 -3.400454 -1.050420 -0.063079
    2 17.848175 -0.000001 0.000000 0.000000 0.000000 2.264157
    3 15.638507 0.000000 0.000000 0.277317 0.131609 -1.488303
    4 7.109929 0.000000 0.000000 -0.007119 -0.003131 -0.631738
    5 -3.890451 0.000003 0.000008 -1.035831 -0.370700 -2.500257
    6 17.848179 0.000000 0.000001 0.000000 0.000000 2.385053
    7 15.638511 0.000000 0.000000 -1.451089 -0.557345 -0.021233
    8 7.109930 0.000000 0.000000 -0.081154 -0.003131 -0.631749
    9 -0.050778 3.345128 -2.981901 1.570796 0.046446 1.586400
    10 4.018332 0.000000 0.000000 -0.005628 -0.122423 0.233224
    11 3.518571 0.000000 0.000000 -0.036673 -0.081088 0.439223
    12 8.942631 0.000000 0.000000 -0.081406 0.118576 0.235382
    13 3.307273 0.000000 0.000000 3.141686 0.222338 0.400478
    14 3.593712 0.000001 0.000000 0.758477 -0.008695 0.857320
    15 2.033346 1.000768 1.101697 2.385451 -1.528127 2.146508
    16 6.809416 0.000001 0.000000 -2.472332 -0.964823 -0.251676
    17 12.391796 0.000000 0.000001 0.000000 0.000000 -1.225744
    18 9.337076 0.000000 -0.000031 -0.774183 0.347111 0.023999
    19 4.454020 -0.070210 0.572073 0.095490 -0.008587 -0.706335
    20 1.426597 -0.000001 0.000000 0.055908 -0.087976 -1.504206
    21 1.322468 -0.000002 0.000000 0.009312 -0.033625 -0.575065
    22 4.477066 -0.028570 1.582474 0.481653 -0.035390 -1.246096
    23 1.344418 0.000000 0.000000 0.023466 -0.208305 -0.755723
    24 1.224671 0.000000 0.000000 0.026043 -0.124620 -0.538676
    25 2.630323 -0.345015 1.907214 -0.354022 -0.915164 -1.788195
    26 1.059292 0.000000 0.000001 -0.001067 -0.012855 0.250988
    27 0.781203 0.000000 0.000000 -0.000096 -0.003210 0.062757
    28 2.033353 1.000771 -1.101647 -3.176988 1.193701 1.415651
    29 6.809417 0.000001 0.000000 1.762901 1.140296 -0.263223
    30 12.391794 0.000000 0.000001 0.000000 0.000000 -1.831619
    31 9.337102 0.000000 0.000003 -0.890958 -0.106781 0.757495
    32 4.453986 -0.073766 -0.571672 0.047699 -0.153453 -0.767464
    33 1.426599 0.000002 0.000000 -0.053883 0.078890 -1.553256
    34 1.322465 -0.000001 0.000000 -0.013603 0.036958 -0.732277
    35 4.477036 -0.043465 -1.581290 -0.332631 0.218360 0.154973
    36 1.344414 0.000000 0.000000 -0.042629 0.220735 -0.851579
    37 1.224670 0.000001 0.000000 0.008150 -0.000004 -0.000025
    38 2.630291 -0.359835 -1.904289 0.415078 0.423437 -0.720800
    39 1.059293 0.000000 0.000000 0.015101 0.038905 0.767148
    40 0.781204 0.000000 0.000000 0.004782 0.022537 0.418308
    41 -0.044717 2.528787 4.661499 -0.031397 -0.070935 0.100241
  time 3
    0 0.282816 -0.418054 14.957195 1.540806 -0.218052 -0.676387
    1 3.890452 -0.000008 -0.000003 -3.405894 -1.053969 -0.045254
    2 17.848175 -0.000001 0.000000 0.000000 0.000000 2.271180
    3 15.638507 0.000000 0.000000 0.270290 0.152006 -1.483345
    4 7.109929 0.000000 0.000000 -0.007119 -0.003131 -0.631738
    5 -3.890451 0.000003 0.000008 -1.028013 -0.335127 -2.493352
    6 17.848179 0.000000 0.000001 0.000000 0.000000 2.391552
    7 15.638511 0.000000 0.000000 -1.447569 -0.559075 -0.061247
    8 7.109930 0.000000 0.000000 -0.081154 -0.003131 -0.631749
    9 -0.050778 3.345128 -2.981901 1.570796 0.046248 1.586459
    10 4.018332 0.000000 0.000000 0.002012 -0.122195 0.222545
    11 3.518571 0.000000 0.000000 -0.029649 -0.082070 0.430000
    12 8.942631 0.000000 0.000000 -0.082086 0.119846 0.237704
    13 3.307273 0.000000 0.000000 3.141686 0.201125 0.400478
    14 3.593712 0.000001 0.000000 0.697218 -0.014884 0.884641
    15 2.033346 1.000768 1.101697 2.385451 -1.528127 2.146508
    16 6.809416 0.000001 0.000000 -2.229237 -0.904683 -0.515974
    17 12.391796 0.000000 0.000001 0.000000 0.000000 -1.297811
    18 9.337076 0.000000 -0.000031 -0.769633 0.259188 0.050713
    19 4.454020 -0.070210 0.572073 0.095490 -0.008587 -0.706335
    20 1.426597 -0.000001 0.000000 0.055908 -0.087976 -1.504206
    21 1.322468 -0.000002 0.000000 0.009312 -0.033625 -0.575065
    22 4.477066 -0.028570 1.582474 0.481653 -0.035390 -1.246096
    23 1.344418 0.000000 0.000000 0.023466 -0.208305 -0.755723
    24 1.224671 0.000000 0.000000 0.026043 -0.124620 -0.538676
    25 2.630323 -0.345015 1.907214 -0.354022 -0.915164 -1.788195
    26 1.059292 0.000000 0.000001 -0.001067 -0.012855 0.250988
    27 0.781203 0.000000 0.000000 -0.000096 -0.003210 0.062757
    28 2.033353 1.000771 -1.101647 -3.176988 1.193701 1.415651
    29 6.809417 0.000001 0.000000 1.645347 1.068772 -0.334107
    30 12.391794 0.000000 0.000001 0.000000 0.000000 -1.832050
    31 9.337102 0.000000 0.000003 -0.880461 -0.170131 0.698953
    32 4.453986 -0.073766 -0.571672 0.047699 -0.153453 -0.767464
    33 1.426599 0.000002 0.000000 -0.053883 0.078890 -1.553256
    34 1.322465 -0.000001 0.000000 -0.013603 0.036958 -0.732277
    35 4.477036 -0.043465 -1.581290 -0.332631 0.218360 0.154973
    36 1.344414 0.000000 0.000000 -0.042629 0.220735 -0.851579
    37 1.224670 0.000001 0.000000 0.008150 -0.000004 -0.000025
    38 2.630291 -0.359835 -1.904289 0.415078 0.423437 -0.720800
    39 1.059293 0.000000 0.000000 0.015101 0.038905 0.767148
    40 0.781204 0.000000 0.000000 0.004782 0.022537 0.418308
    41 -0.044717 2.528787 4.661499 -0.032633 -0.070586 0.100882
  time 4
    0 -0.049225 -0.365344 14.802816 1.539447 -0.218976 -0.633127
    1 3.890452 -0.000008 -0.000003 -3.434049 -1.061113 -0.020241
    2 17.848175 -0.000001 0.000000 0.000000 0.000000 2.274252
    3 15.638507 0.000000 0.000000 0.294218 0.173419 -1.465592
    4 7.109929 0.000000 0.000000 -0.007119 -0.003131 -0.631738
    5 -3.890451 0.000003 0.000008 -1.075493 -0.438205 -2.469986
    6 17.848179 0.000000 0.000001 0.000000 0.000000 2.417466
    7 15.638511 0.000000 0.000000 -1.454054 -0.678900 0.040173
    8 7.109930 0.000000 0.000000 -0.081154 -0.003131 -0.631749
    9 -0.046871 3.345128 -2.981901 1.570796 0.047921 1.585809
    10 4.018332 0.000000 0.000000 0.011008 -0.113362 0.218736
    11 3.518571 0.000000 0.000000 -0.019458 -0.076282 0.421415
    12 8.942631 0.000000 0.000000 -0.078991 0.115496 0.230685
    13 3.307273 0.000000 0.000000 3.141686 0.179577 0.400478
    14 3.593712 0.000001 0.000000 0.623767 -0.005076 0.913683
    15 2.033346 1.000768 1.101697 2.385451 -1.528127 2.146508
    16 6.809416 0.000001 0.000000 -2.019231 -0.845327 -0.749791
    17 12.391796 0.000000 0.000001 0.000000 0.000000 -1.319809
    18 9.337076 0.000000 -0.000031 -0.754465 0.175801 0.047078
    19 4.454020 -0.070210 0.572073 0.095490 -0.008587 -0.706366
    20 1.426597 -0.000001 0.000000 0.055908 -0.087976 -1.504206
    21 1.322468 -0.000002 0.000000 0.009312 -0.033625 -0.575065
    22 4.477066 -0.028570 1.582474 0.481653 -0.035390 -1.246096
    23 1.344418 0.000000 0.000000 0.023466 -0.208305 -0.755723
    24 1.224671 0.000000 0.000000 0.026043 -0.124620 -0.538676
    25 2.630323 -0.345015 1.907214 -0.354022 -0.915164 -1.788195
    26 1.059292 0.000000 0.000001 -0.001067 -0.012855 0.250988
    27 0.781203 0.000000 0.000000 -0.000096 -0.003210 0.062757
    28 2.033353 1.000771 -1.101647 -3.176988 1.193701 1.415651
    29 6.809417 0.000001 0.000000 1.555999 0.980780 -0.372990
    30 12.391794 0.000000 0.000001 0.000000 0.000000 -1.834779
    31 9.337102 0.000000 0.000003 -0.866252 -0.230931 0.640497
    32 4.453986 -0.073766 -0.571672 0.047699 -0.153453 -0.767464
    33 1.426599 0.000002 0.000000 -0.053883 0.078890 -1.553256
    34 1.322465 -0.000001 0.000000 -0.013603 0.036958 -0.732277
    35 4.477036 -0.043465 -1.581290 -0.332631 0.218360 0.154973
    36 1.344414 0.000000 0.000000 -0.042629 0.220735 -0.851579
    37 1.224670 0.000001 0.000000 0.008150 -0.000004 -0.000025
    38 2.630291 -0.359835 -1.904289 0.415078 0.423437 -0.720800
    39 1.059293 0.000000 0.000000 0.015101 0.038905 0.767148
    40 0.781204 0.000000 0.000000 0.004782 0.022537 0.418308
    41 -0.044717 2.528787 4.661499 -0.036147 -0.070490 0.101243
  time 5
    0 -0.365641 -0.313099 14.669021 1.536644 -0.213201 -0.568522
    1 3.890452 -0.000008 -0.000003 -3.480623 -1.080606 0.017134
    2 17.848175 -0.000001 0.000000 0.000000 0.000000 2.273594
    3 15.638507 0.000000 0.000000 0.331881 0.191689 -1.438216
    4 7.109929 0.000000 0.000000 -0.007119 -0.003131 -0.631738
    5 -3.890451 0.000003 0.000008 -1.145951 -0.561406 -2.438200
    6 17.848179 0.000000 0.000001 0.000000 0.000000 2.447441
    7 15.638511 0.000000 0.000000 -1.521873 -0.810694 0.213600
    8 7.109930 0.000000 0.000000 -0.081154 -0.003131 -0.631749
    9 -0.042965 3.345128 -2.981901 1.570796 0.051126 1.584509
    10 4.018332 0.000000 0.000000 0.019959 -0.098058 0.221571
    11 3.518571 0.000000 0.000000 -0.007821 -0.065136 0.414072
    12 8.942631 0.000000 0.000000 -0.072371 0.106651 0.215592
    13 3.307273 0.000000 0.000000 3.141686 0.158185 0.400478
    14 3.593712 0.000001 0.000000 0.544916 0.018865 0.941423
    15 2.033346 1.000768 1.101697 2.385451 -1.528127 2.146508
    16 6.809416 0.000001 0.000000 -1.848337 -0.790530 -0.946216
    17 12.391796 0.000000 0.000001 0.000000 0.000000 -1.308692
    18 9.337076 0.000000 -0.000031 -0.731982 0.103957 0.027980
    19 4.454020 -0.070210 0.572073 0.095490 -0.008587 -0.706366
    20 1.426597 -0.000001 0.000000 0.055908 -0.087976 -1.504206
    21 1.322468 -0.000002 0.000000 0.009312 -0.033625 -0.575065
    22 4.477066 -0.028570 1.582474 0.481653 -0.035390 -1.246096
    23 1.344418 0.000000 0.000000 0.023466 -0.208305 -0.755723
    24 1.224671 0.000000 0.000000 0.026043 -0.124620 -0.538676
    25 2.630323 -0.345015 1.907214 -0.354022 -0.915164 -1.788195
    26 1.059292 0.000000 0.000001 -0.001067 -0.012855 0.250988
    27 0.781203 0.000000 0.000000 -0.000096 -0.003210 0.062757
    28 2.033353 1.000771 -1.101647 -3.176988 1.193701 1.415651
    29 6.809417 0.000001 0.000000 1.493153 0.885737 -0.387356
    30 12.391794 0.000000 0.000001 0.000000 0.000000 -1.842608
    31 9.337102 0.000000 0.000003 -0.849226 -0.286324 0.584027
    32 4.453986 -0.073766 -0.571672 0.047699 -0.153453 -0.767464
    33 1.426599 0.000002 0.000000 -0.053883 0.078890 -1.553256
    34 1.322465 -0.000001 0.000000 -0.013603 0.036958 -0.732277
    35 4.477036 -0.043465 -1.581290 -0.332631 0.218360 0.154973
    36 1.344414 0.000000 0.000000 -0.042629 0.220735 -0.851579
    37 1.224670 0.000001 0.000000 0.008150 -0.000004 -0.000025
    38 2.630291 -0.359835 -1.904289 0.415078 0.423437 -0.720800
    39 1.059293 0.000000 0.000000 0.015101 0.038905 0.767148
    40 0.781204 0.000000 0.000000 0.004782 0.022537 0.418308
    41 -0.044717 2.528787 4.661499 -0.041417 -0.070649 0.101243
  time 6
    0 -0.486739 -0.352735 14.771940 1.534350 -0.204701 -0.499611
    1 3.890452 -0.000008 -0.000003 -3.517081 -1.130853 0.044064
    2 17.848175 -0.000001 0.000000 0.000000 0.000000 2.261963
    3 15.638507 0.000000 0.000000 0.352707 0.194548 -1.419661
    4 7.109929 0.000000 0.000000 -0.007119 -0.003131 -0.631738
    5 -3.890451 0.000003 0.000008 -1.225371 -0.686035 -2.390522
    6 17.848179 0.000000 0.000001 0.000000 0.000000 2.477580
    7 15.638511 0.000000 0.000000 -1.630365 -0.941941 0.417300
    8 7.109930 0.000000 0.000000 -0.081154 -0.003131 -0.631749
    9 -0.039059 3.345128 -2.981901 1.570796 0.054841 1.583090
    10 4.018332 0.000000 0.000000 0.026333 -0.082478 0.227624
    11 3.518571 0.000000 0.000000 0.001698 -0.053260 0.407970
    12 8.942631 0.000000 0.000000 -0.064170 0.096955 0.197403
    13 3.307273 0.000000 0.000000 3.141686 0.137463 0.400478
    14 3.593712 0.000001 0.000000 0.472392 0.047282 0.964631
    15 2.033346 1.000768 1.101697 2.385451 -1.528127 2.146508
    16 6.809416 0.000001 0.000000 -1.727650 -0.734458 -1.090671
    17 12.391796 0.000000 0.000001 0.000000 0.000000 -1.308534
    18 9.337076 0.000000 -0.000031 -0.706822 0.046283 0.024749
    19 4.454020 -0.070210 0.572073 0.095490 -0.008587 -0.706366
    20 1.426597 -0.000001 0.000000 0.055908 -0.087976 -1.504206
    21 1.322468 -0.000002 0.000000 0.009312 -0.033625 -0.575065
    22 4.477066 -0.028570 1.582474 0.481653 -0.035390 -1.246096
    23 1.344418 0.000000 0.000000 0.023466 -0.208305 -0.755723
    24 1.224671 0.000000 0.000000 0.026043 -0.124620 -0.538676
    25 2.630323 -0.345015 1.907214 -0.354022 -0.915164 -1.788195
    26 1.059292 0.000000 0.000001 -0.001067 -0.012855 0.250988
    27 0.781203 0.000000 0.000000 -0.000096 -0.003210 0.062757
    28 2.033353 1.000771 -1.101647 -3.176988 1.193701 1.415651
    29 6.809417 0.000001 0.000000 1.452738 0.800329 -0.389593
    30 12.391794 0.000000 0.000001 0.000000 0.000000 -1.858122
    31 9.337102 0.000000 0.000003 -0.830985 -0.333684 0.532047
    32 4.453986 -0.073766 -0.571672 0.047699 -0.153453 -0.767464
    33 1.426599 0.000002 0.000000 -0.053883 0.078890 -1.553256
    34 1.322465 -0.000001 0.000000 -0.013603 0.036958 -0.732277
    35 4.477036 -0.043465 -1.581290 -0.332631 0.218360 0.154973
    36 1.344414 0.000000 0.000000 -0.042629 0.220735 -0.851579
    37 1.224670 0.000001 0.000000 0.008150 -0.000004 -0.000025
    38 2.630291 -0.359835 -1.904289 0.415078 0.423437 -0.720800
    39 1.059293 0.000000 0.000000 0.015101 0.038905 0.767148
    40 0.781204 0.000000 0.000000 0.004782 0.022537 0.418308
    41 -0.044717 2.528787 4.661499 -0.047534 -0.071062 0.101002
  time 7
    0 -0.607836 -0.362362 14.967487 1.534095 -0.192921 -0.428690
    1 3.890452 -0.000008 -0.000003 -3.560696 -1.195010 0.091406
    2 17.848175 -0.000001 0.000000 0.000000 0.000000 2.244700
    3 15.638507 0.000000 0.000000 0.357422 0.196936 -1.401397
    4 7.109929 0.000000 0.000000 -0.007119 -0.003131 -0.631738
    5 -3.890451 0.000003 0.000008 -1.295066 -0.794721 -2.327992
    6 17.848179 0.000000 0.000001 0.000000 0.000000 2.504062
    7 15.638511 0.000000 0.000000 -1.711247 -1.077513 0.572296
    8 7.109930 0.000000 0.000000 -0.081154 -0.003131 -0.631749
    9 -0.035152 3.345128 -2.981901 1.570796 0.058953 1.581494
    10 4.018332 0.000000 0.000000 0.029430 -0.066658 0.236372
    11 3.518571 0.000000 0.000000 0.008513 -0.040556 0.403110
    12 8.942631 0.000000 0.000000 -0.054261 0.086948 0.176910
    13 3.307273 0.000000 0.000000 3.141590 0.117904 0.400478
    14 3.593712 0.000001 0.000000 0.408982 0.079040 0.982593
    15 2.033346 1.000768 1.101697 2.385451 -1.528127 2.146508
    16 6.809416 0.000001 0.000000 -1.650189 -0.683484 -1.187227
    17 12.391796 0.000000 0.000001 0.000000 0.000000 -1.339364
    18 9.337076 0.000000 -0.000031 -0.678450 0.000579 0.047828
    19 4.454020 -0.070210 0.572073 0.095490 -0.008587 -0.706366
    20 1.426597 -0.000001 0.000000 0.055908 -0.087976 -1.504206
    21 1.322468 -0.000002 0.000000 0.009312 -0.033625 -0.575065
    22 4.477066 -0.028570 1.582474 0.481653 -0.035390 -1.246096
    23 1.344418 0.000000 0.000000 0.023466 -0.208305 -0.755723
    24 1.224671 0.000000 0.000000 0.026043 -0.124620 -0.538676
    25 2.630323 -0.345015 1.907214 -0.354022 -0.915164 -1.788195
    26 1.059292 0.000000 0.000001 -0.001067 -0.012855 0.250988
    27 0.781203 0.000000 0.000000 -0.000096 -0.003210 0.062757
    28 2.033353 1.000771 -1.101647 -3.176988 1.193701 1.415651
    29 6.809417 0.000001 0.000000 1.436174 0.729375 -0.382797
    30 12.391794 0.000000 0.000001 0.000000 0.000000 -1.884266
    31 9.337102 0.000000 0.000003 -0.813383 -0.370765 0.487665
    32 4.453986 -0.073766 -0.571672 0.047699 -0.153453 -0.767464
    33 1.426599 0.000002 0.000000 -0.053883 0.078890 -1.553256
    34 1.322465 -0.000001 0.000000 -0.013603 0.036958 -0.732277
    35 4.477036 -0.043465 -1.581290 -0.332631 0.218360 0.154973
    36 1.344414 0.000000 0.000000 -0.042629 0.220735 -0.851579
    37 1.224670 0.000001 0.000000 0.008150 -0.000004 -0.000025
    38 2.630291 -0.359835 -1.904289 0.415078 0.423437 -0.720800
    39 1.059293 0.000000 0.000000 0.015101 0.038905 0.767148
    40 0.781204 0.000000 0.000000 0.004782 0.022537 0.418308
    41 -0.044717 2.528787 4.661499 -0.054171 -0.071666 0.100321
  time 8
    0 -0.713308 -0.341982 15.286537 1.537068 -0.177768 -0.357961
    1 3.890452 -0.000008 -0.000003 -3.618437 -1.267257 0.162228
    2 17.848175 -0.000001 0.000000 0.000000 0.000000 2.219609
    3 15.638507 0.000000 0.000000 0.351820 0.199134 -1.383134
    4 7.109929 0.000000 0.000000 -0.007119 -0.003131 -0.631738
    5 -3.890451 0.000003 0.000008 -1.325385 -0.872608 -2.264232
    6 17.848179 0.000000 0.000001 0.000000 0.000000 2.523477
    7 15.638511 0.000000 0.000000 -1.574683 -1.235793 0.480044
    8 7.109930 0.000000 0.000000 -0.081154 -0.003131 -0.631749
    9 -0.027340 3.345128 -2.981901 1.570796 0.063349 1.579780
    10 4.018332 0.000000 0.000000 0.029113 -0.050203 0.246965
    11 3.518571 0.000000 0.000000 0.012497 -0.026642 0.399102
    12 8.942631 0.000000 0.000000 -0.042632 0.077073 0.154956
    13 3.307273 0.000000 0.000000 3.141590 0.100011 0.400478
    14 3.593712 0.000001 0.000000 0.356583 0.113367 0.994512
    15 2.033346 1.000768 1.101697 2.385451 -1.528127 2.146508
    16 6.809416 0.000001 0.000000 -1.636514 -0.678484 -1.194895
    17 12.391796 0.000000 0.000001 0.000000 0.000000 -1.462839
    18 9.337076 0.000000 -0.000031 -0.636250 -0.024411 0.155258
    19 4.454020 -0.070210 0.572073 0.095490 -0.008587 -0.706335
    20 1.426597 -0.000001 0.000000 0.055908 -0.087976 -1.504206
    21 1.322468 -0.000002 0.000000 0.009312 -0.033625 -0.575065
    22 4.477066 -0.028570 1.582474 0.481653 -0.035390 -1.246096
    23 1.344418 0.000000 0.000000 0.023466 -0.208305 -0.755723
    24 1.224671 0.000000 0.000000 0.026043 -0.124620 -0.538676
    25 2.630323 -0.345015 1.907214 -0.354022 -0.915164 -1.788195
    26 1.059292 0.000000 0.000001 -0.001067 -0.012855 0.250988
    27 0.781203 0.000000 0.000000 -0.000096 -0.003210 0.062757
    28 2.033353 1.000771 -1.101647 -3.176988 1.193701 1.415651
    29 6.809417 0.000001 0.000000 1.490124 0.687153 -0.361463
    30 12.391794 0.000000 0.000001 0.000000 0.000000 -1.943161
    31 9.337102 0.000000 0.000003 -0.802118 -0.387669 0.463315
    32 4.453986 -0.073766 -0.571672 0.047699 -0.153453 -0.767464
    33 1.426599 0.000002 0.000000 -0.053883 0.078890 -1.553256
    34 1.322465 -0.000001 0.000000 -0.013603 0.036958 -0.732277
    35 4.477036 -0.043465 -1.581290 -0.332631 0.218360 0.154973
    36 1.344414 0.000000 0.000000 -0.042629 0.220735 -0.851579
    37 1.224670 0.000001 0.000000 0.008150 -0.000004 -0.000025
    38 2.630291 -0.359835 -1.904289 0.415078 0.423437 -0.720800
    39 1.059293 0.000000 0.000000 0.015101 0.038905 0.767148
    40 0.781204 0.000000 0.000000 0.004782 0.022537 0.418308
    41 -0.044717 2.528787 4.661499 -0.061068 -0.072174 0.098918
  time 9
    0 -0.771904 -0.291593 15.780551 1.544120 -0.159381 -0.289624
    1 3.890452 -0.000008 -0.000003 -3.691161 -1.340309 0.251258
    2 17.848175 -0.000001 0.000000 0.000000 0.000000 2.184644
    3 15.638507 0.000000 0.000000 0.345427 0.201190 -1.364689
    4 7.109929 0.000000 0.000000 -0.007119 -0.003131 -0.631738
    5 -3.890451 0.000003 0.000008 -1.285818 -0.917677 -2.214473
    6 17.848179 0.000000 0.000001 0.000000 0.000000 2.536719
    7 15.638511 0.000000 0.000000 -0.630035 -1.304921 -0.460053
    8 7.109930 0.000000 0.000000 -0.081154 -0.003131 -0.631749
    9 -0.023433 3.345128 -2.981901 1.570796 0.067944 1.577948
    10 4.018332 0.000000 0.000000 0.025745 -0.032454 0.258340
    11 3.518571 0.000000 0.000000 0.013902 -0.011050 0.395448
    12 8.942631 0.000000 0.000000 -0.029504 0.067617 0.132475
    13 3.307273 0.000000 0.000000 3.141590 0.084276 0.400478
    14 3.593712 0.000001 0.000000 0.315955 0.149664 0.999674
    15 2.033346 1.000768 1.101697 2.385451 -1.528127 2.146508
    16 6.809416 0.000001 0.000000 -1.684903 -0.742104 -1.128158
    17 12.391796 0.000000 0.000001 0.000000 0.000000 -1.647817
    18 9.337076 0.000000 -0.000031 -0.574599 -0.026186 0.330365
    19 4.454020 -0.070210 0.572073 0.095490 -0.008587 -0.706335
    20 1.426597 -0.000001 0.000000 0.055908 -0.087976 -1.504206
    21 1.322468 -0.000002 0.000000 0.009312 -0.033625 -0.575065
    22 4.477066 -0.028570 1.582474 0.481653 -0.035390 -1.246096
    23 1.344418 0.000000 0.000000 0.023466 -0.208305 -0.755723
    24 1.224671 0.000000 0.000000 0.026043 -0.124620 -0.538676
    25 2.630323 -0.345015 1.907214 -0.354022 -0.915164 -1.788195
    26 1.059292 0.000000 0.000001 -0.001067 -0.012855 0.250988
    27 0.781203 0.000000 0.000000 -0.000096 -0.003210 0.062757
    28 2.033353 1.000771 -1.101647 -3.176988 1.193701 1.415651
    29 6.809417 0.000001 0.000000 1.610895 0.672787 -0.325161
    30 12.391794 0.000000 0.000001 0.000000 0.000000 -2.033516
    31 9.337102 0.000000 0.000003 -0.798726 -0.383329 0.461761
    32 4.453986 -0.073766 -0.571672 0.047699 -0.153453 -0.767464
    33 1.426599 0.000002 0.000000 -0.053883 0.078890 -1.553256
    34 1.322465 -0.000001 0.000000 -0.013603 0.036958 -0.732277
    35 4.477036 -0.043465 -1.581290 -0.332631 0.218360 0.154973
    36 1.344414 0.000000 0.000000 -0.042629 0.220735 -0.851579
    37 1.224670 0.000001 0.000000 0.008150 -0.000004 -0.000025
    38 2.630291 -0.359835 -1.904289 0.415078 0.423437 -0.720800
    39 1.059293 0.000000 0.000000 0.015101 0.038905 0.767148
    40 0.781204 0.000000 0.000000 0.004782 0.022537 0.418308
    41 -0.044717 2.528787 4.661499 -0.067835 -0.072269 0.096433
  time 10
    0 -0.760184 -0.241669 16.500987 1.555164 -0.138269 -0.225690
    1 3.890452 -0.000008 -0.000003 -3.757300 -1.407541 0.329747
    2 17.848175 -0.000001 0.000000 0.000000 0.000000 2.138560
    3 15.638507 0.000000 0.000000 0.349257 0.203151 -1.345879
    4 7.109929 0.000000 0.000000 -0.007119 -0.003131 -0.631738
    5 -3.890451 0.000003 0.000008 -1.187139 -0.942474 -2.179755
    6 17.848179 0.000000 0.000001 0.000000 0.000000 2.546223
    7 15.638511 0.000000 0.000000 0.054639 -1.015985 -1.187759
    8 7.109930 0.000000 0.000000 -0.081154 -0.003131 -0.631749
    9 -0.015620 3.345128 -2.981901 1.570796 0.072623 1.576116
    10 4.018332 0.000000 0.000000 0.020140 -0.012883 0.269420
    11 3.518571 0.000000 0.000000 0.013336 0.006484 0.391617
    12 8.942631 0.000000 0.000000 -0.015307 0.058701 0.110398
    13 3.307273 0.000000 0.000000 3.141590 0.071188 0.400478
    14 3.593712 0.000001 0.000000 0.286971 0.187204 0.997156
    15 2.033346 1.000768 1.101697 2.385451 -1.528127 2.146508
    16 6.809416 0.000001 0.000000 -1.752801 -0.824938 -1.061799
    17 12.391796 0.000000 0.000001 0.000000 0.000000 -1.808430
    18 9.337076 0.000000 -0.000031 -0.505097 -0.018755 0.488163
    19 4.454020 -0.070210 0.572073 0.095490 -0.008587 -0.706335
    20 1.426597 -0.000001 0.000000 0.055908 -0.087976 -1.504206
    21 1.322468 -0.000002 0.000000 0.009312 -0.033625 -0.575065
    22 4.477066 -0.028570 1.582474 0.481653 -0.035390 -1.246096
    23 1.344418 0.000000 0.000000 0.023466 -0.208305 -0.755723
    24 1.224671 0.000000 0.000000 0.026043 -0.124620 -0.538676
    25 2.630323 -0.345015 1.907214 -0.354022 -0.915164 -1.788195
    26 1.059292 0.000000 0.000001 -0.001067 -0.012855 0.250988
    27 0.781203 0.000000 0.000000 -0.000096 -0.003210 0.062757
    28 2.033353 1.000771 -1.101647 -3.176988 1.193701 1.415651
    29 6.809417 0.000001 0.000000 1.725609 0.668276 -0.282923
    30 12.391794 0.000000 0.000001 0.000000 0.000000 -2.123152
    31 9.337102 0.000000 0.000003 -0.798598 -0.368024 0.471086
    32 4.453986 -0.073766 -0.571672 0.047699 -0.153453 -0.767464
    33 1.426599 0.000002 0.000000 -0.053883 0.078890 -1.553256
    34 1.322465 -0.000001 0.000000 -0.013603 0.036958 -0.732277
    35 4.477036 -0.043465 -1.581290 -0.332631 0.218360 0.154973
    36 1.344414 0.000000 0.000000 -0.042629 0.220735 -0.851579
    37 1.224670 0.000001 0.000000 0.008150 -0.000004 -0.000025
    38 2.630291 -0.359835 -1.904289 0.415078 0.423437 -0.720800
    39 1.059293 0.000000 0.000000 0.015101 0.038905 0.767148
    40 0.781204 0.000000 0.000000 0.004782 0.022537 0.418308
    41 -0.044717 2.528787 4.661499 -0.074147 -0.071475 0.092706
  time 11
    0 -0.646900 -0.232838 17.437554 1.569692 -0.115401 -0.168455
    1 3.890452 -0.000008 -0.000003 -3.724565 -1.464365 0.299559
    2 17.848175 -0.000001 0.000000 0.000000 0.000000 2.081284
    3 15.638507 0.000000 0.000000 0.372203 0.205893 -1.326485
    4 7.109929 0.000000 0.000000 -0.007119 -0.003131 -0.631738
    5 -3.890451 0.000003 0.000008 -1.057855 -0.955710 -2.155159
    6 17.848179 0.000000 0.000001 0.000000 0.000000 2.550935
    7 15.638511 0.000000 0.000000 0.181846 -0.593661 -1.417054
    8 7.109930 0.000000 0.000000 -0.081154 -0.003131 -0.631749
    9 -0.011714 3.345128 -2.981901 1.570796 0.077331 1.574342
    10 4.018332 0.000000 0.000000 0.013336 0.008689 0.279125
    11 3.518571 0.000000 0.000000 0.011532 0.025911 0.387076
    12 8.942631 0.000000 0.000000 -0.000680 0.050215 0.089658
    13 3.307273 0.000000 0.000000 3.141590 0.061265 0.400478
    14 3.593712 0.000001 0.000000 0.268661 0.224743 0.985867
    15 2.033346 1.000768 1.101697 2.385451 -1.528127 2.146508
    16 6.809416 0.000001 0.000000 -1.766286 -0.834593 -1.076188
    17 12.391796 0.000000 0.000001 0.000000 0.000000 -1.912351
    18 9.337076 0.000000 -0.000031 -0.455848 -0.025989 0.559302
    19 4.454020 -0.070210 0.572073 0.095490 -0.008587 -0.706366
    20 1.426597 -0.000001 0.000000 0.055908 -0.087976 -1.504206
    21 1.322468 -0.000002 0.000000 0.009312 -0.033625 -0.575065
    22 4.477066 -0.028570 1.582474 0.481653 -0.035390 -1.246096
    23 1.344418 0.000000 0.000000 0.023466 -0.208305 -0.755723
    24 1.224671 0.000000 0.000000 0.026043 -0.124620 -0.538676
    25 2.630323 -0.345015 1.907214 -0.354022 -0.915164 -1.788195
    26 1.059292 0.000000 0.000001 -0.001067 -0.012855 0.250988
    27 0.781203 0.000000 0.000000 -0.000096 -0.003210 0.062757
    28 2.033353 1.000771 -1.101647 -3.176988 1.193701 1.415651
    29 6.809417 0.000001 0.000000 1.758452 0.660217 -0.250836
    30 12.391794 0.000000 0.000001 0.000000 0.000000 -2.179965
    31 9.337102 0.000000 0.000003 -0.798022 -0.351958 0.479635
    32 4.453986 -0.073766 -0.571672 0.047699 -0.153453 -0.767464
    33 1.426599 0.000002 0.000000 -0.053883 0.078890 -1.553256
    34 1.322465 -0.000001 0.000000 -0.013603 0.036958 -0.732277
    35 4.477036 -0.043465 -1.581290 -0.332631 0.218360 0.154973
    36 1.344414 0.000000 0.000000 -0.042629 0.220735 -0.851579
    37 1.224670 0.000001 0.000000 0.008150 -0.000004 -0.000025
    38 2.630291 -0.359835 -1.904289 0.415078 0.423437 -0.720800
    39 1.059293 0.000000 0.000000 0.015101 0.038905 0.767148
    40 0.781204 0.000000 0.000000 0.004782 0.022537 0.418308
    41 -0.044717 2.528787 4.661499 -0.079417 -0.069379 0.087495
  time 12
    0 -0.439862 -0.265101 18.590252 1.586938 -0.092025 -0.120696
    1 3.890452 -0.000008 -0.000003 -3.315514 -1.498525 -0.120484
    2 17.848175 -0.000001 0.000000 0.000000 0.000000 2.013621
    3 15.638507 0.000000 0.000000 0.419488 0.211684 -1.305597
    4 7.109929 0.000000 0.000000 -0.007119 -0.003131 -0.631738
    5 -3.890451 0.000003 0.000008 -0.928762 -0.965747 -2.133874
    6 17.848179 0.000000 0.000001 0.000000 0.000000 2.549392
    7 15.638511 0.000000 0.000000 0.161834 -0.177618 -1.566892
    8 7.109930 0.000000 0.000000 -0.081154 -0.003131 -0.631749
    9 -0.003901 3.345128 -2.981901 1.570796 0.081897 1.572687
    10 4.018332 0.000000 0.000000 0.006284 0.031927 0.286604
    11 3.518571 0.000000 0.000000 0.009121 0.046644 0.381400
    12 8.942631 0.000000 0.000000 0.013600 0.041934 0.071029
    13 3.307273 0.000000 0.000000 3.141590 0.053571 0.400478
    14 3.593712 0.000001 0.000000 0.256974 0.261897 0.967905
    15 2.033346 1.000768 1.101697 2.385451 -1.528127 2.146508
    16 6.809416 0.000001 0.000000 -1.709959 -0.710932 -1.188079
    17 12.391796 0.000000 0.000001 0.000000 0.000000 -1.966835
    18 9.337076 0.000000 -0.000031 -0.442643 -0.059889 0.514588
    19 4.454020 -0.070210 0.572073 0.095490 -0.008587 -0.706335
    20 1.426597 -0.000001 0.000000 0.055908 -0.087976 -1.504206
    21 1.322468 -0.000002 0.000000 0.009312 -0.033625 -0.575065
    22 4.477066 -0.028570 1.582474 0.481653 -0.035390 -1.246096
    23 1.344418 0.000000 0.000000 0.023466 -0.208305 -0.755723
    24 1.224671 0.000000 0.000000 0.026043 -0.124620 -0.538676
    25 2.630323 -0.345015 1.907214 -0.354022 -0.915164 -1.788195
    26 1.059292 0.000000 0.000001 -0.001067 -0.012855 0.250988
    27 0.781203 0.000000 0.000000 -0.000096 -0.003210 0.062757
    28 2.033353 1.000771 -1.101647 -3.176988 1.193701 1.415651
    29 6.809417 0.000001 0.000000 1.678853 0.647778 -0.234577
    30 12.391794 0.000000 0.000001 0.000000 0.000000 -2.200003
    31 9.337102 0.000000 0.000003 -0.796934 -0.336806 0.485765
    32 4.453986 -0.073766 -0.571672 0.047699 -0.153453 -0.767464
    33 1.426599 0.000002 0.000000 -0.053883 0.078890 -1.553256
    34 1.322465 -0.000001 0.000000 -0.013603 0.036958 -0.732277
    35 4.477036 -0.043465 -1.581290 -0.332631 0.218360 0.154973
    36 1.344414 0.000000 0.000000 -0.042629 0.220735 -0.851579
    37 1.224670 0.000001 0.000000 0.008150 -0.000004 -0.000025
    38 2.630291 -0.359835 -1.904289 0.415078 0.423437 -0.720800
    39 1.059293 0.000000 0.000000 0.015101 0.038905 0.767148
    40 0.781204 0.000000 0.000000 0.004782 0.022537 0.418308
    41 -0.044717 2.528787 4.661499 -0.083321 -0.065694 0.080802
  time 13
    0 -0.135165 -0.379087 19.928205 1.606138 -0.069666 -0.085283
    1 3.890452 -0.000008 -0.000003 -2.682181 -1.476524 -0.779060
    2 17.848175 -0.000001 0.000000 0.000000 0.000000 1.936887
    3 15.638507 0.000000 0.000000 0.489941 0.223359 -1.282231
    4 7.109929 0.000000 0.000000 -0.007119 -0.003131 -0.631738
    5 -3.890451 0.000003 0.000008 -0.829129 -0.981049 -2.111265
    6 17.848179 0.000000 0.000001 0.000000 0.000000 2.540212
    7 15.638511 0.000000 0.000000 0.083916 0.156554 -1.710715
    8 7.109930 0.000000 0.000000 -0.081154 -0.003131 -0.631749
    9 0.000005 3.345128 -2.981901 1.570850 0.086293 1.571269
    10 4.018332 0.000000 0.000000 -0.000203 0.055968 0.291214
    11 3.518571 0.000000 0.000000 0.006563 0.067773 0.374234
    12 8.942631 0.000000 0.000000 0.026895 0.033581 0.055109
    13 3.307273 0.000000 0.000000 3.141590 0.046812 0.400478
    14 3.593712 0.000001 0.000000 0.247355 0.298066 0.945998
    15 2.033346 1.000768 1.101697 2.385451 -1.528127 2.146508
    16 6.809416 0.000001 0.000000 -1.654301 -0.511837 -1.320796
    17 12.391796 0.000000 0.000001 0.000000 0.000000 -1.969280
    18 9.337076 0.000000 -0.000031 -0.447015 -0.100333 0.381599
    19 4.454020 -0.070210 0.572073 0.095490 -0.008587 -0.706366
    20 1.426597 -0.000001 0.000000 0.055908 -0.087976 -1.504206
    21 1.322468 -0.000002 0.000000 0.009312 -0.033625 -0.575065
    22 4.477066 -0.028570 1.582474 0.481653 -0.035390 -1.246096
    23 1.344418 0.000000 0.000000 0.023466 -0.208305 -0.755723
    24 1.224671 0.000000 0.000000 0.026043 -0.124620 -0.538676
    25 2.630323 -0.345015 1.907214 -0.354022 -0.915164 -1.788195
    26 1.059292 0.000000 0.000001 -0.001067 -0.012855 0.250988
    27 0.781203 0.000000 0.000000 -0.000096 -0.003210 0.062757
    28 2.033353 1.000771 -1.101647 -3.176988 1.193701 1.415651
    29 6.809417 0.000001 0.000000 1.535555 0.637091 -0.227179
    30 12.391794 0.000000 0.000001 0.000000 0.000000 -2.203379
    31 9.337102 0.000000 0.000003 -0.796870 -0.318380 0.494486
    32 4.453986 -0.073766 -0.571672 0.047699 -0.153453 -0.767464
    33 1.426599 0.000002 0.000000 -0.053883 0.078890 -1.553256
    34 1.322465 -0.000001 0.000000 -0.013603 0.036958 -0.732277
    35 4.477036 -0.043465 -1.581290 -0.332631 0.218360 0.154973
    36 1.344414 0.000000 0.000000 -0.042629 0.220735 -0.851579
    37 1.224670 0.000001 0.000000 0.008150 -0.000004 -0.000025
    38 2.630291 -0.359835 -1.904289 0.415078 0.423437 -0.720800
    39 1.059293 0.000000 0.000000 0.015101 0.038905 0.767148
    40 0.781204 0.000000 0.000000 0.004782 0.022537 0.418308
    41 -0.044717 2.528787 4.661499 -0.085599 -0.060547 0.072906
  time 14
    0 0.235940 -0.564639 21.369077 1.619476 -0.063521 -0.124141
    1 3.890452 -0.000008 -0.000003 -2.472979 -1.402999 -1.000438
    2 17.848175 -0.000001 0.000000 0.000000 0.000000 1.858910
    3 15.638507 0.000000 0.000000 0.505860 0.227897 -1.287006
    4 7.109929 0.000000 0.000000 -0.007119 -0.003131 -0.631738
    5 -3.890451 0.000003 0.000008 -0.878993 -0.965206 -2.102372
    6 17.848179 0.000000 0.000001 0.000000 0.000000 2.440861
    7 15.638511 0.000000 0.000000 0.067147 0.109179 -1.669077
    8 7.109930 0.000000 0.000000 -0.081154 -0.003131 -0.631749
    9 0.000005 3.345128 -2.981901 1.571012 0.086293 1.571919
    10 4.018332 0.000000 0.000000 -0.014647 0.055968 0.279108
    11 3.518571 0.000000 0.000000 -0.006857 0.069870 0.363982
    12 8.942631 0.000000 0.000000 0.027894 0.036277 0.061161
    13 3.307273 0.000000 0.000000 3.141590 0.040915 0.400478
    14 3.593712 0.000001 0.000000 0.260729 0.290379 0.931519
    15 2.033346 1.000768 1.101697 2.385451 -1.528127 2.146508
    16 6.809416 0.000001 0.000000 -1.658222 -0.309214 -1.395675
    17 12.391796 0.000000 0.000001 0.000000 0.000000 -1.977243
    18 9.337076 0.000000 -0.000031 -0.463699 -0.129071 0.265572
    19 4.454020 -0.070210 0.572073 0.095490 -0.008587 -0.706335
    20 1.426597 -0.000001 0.000000 0.055908 -0.087976 -1.504206
    21 1.322468 -0.000002 0.000000 0.009312 -0.033625 -0.575065
    22 4.477066 -0.028570 1.582474 0.481653 -0.035390 -1.246096
    23 1.344418 0.000000 0.000000 0.023466 -0.208305 -0.755723
    24 1.224671 0.000000 0.000000 0.026043 -0.124620 -0.538676
    25 2.630323 -0.345015 1.907214 -0.354022 -0.915164 -1.788195
    26 1.059292 0.000000 0.000001 -0.001067 -0.012855 0.250988
    27 0.781203 0.000000 0.000000 -0.000096 -0.003210 0.062757
    28 2.033353 1.000771 -1.101647 -3.176988 1.193701 1.415651
    29 6.809417 0.000001 0.000000 1.379858 0.666436 -0.248255
    30 12.391794 0.000000 0.000001 0.000000 0.000000 -2.194042
    31 9.337102 0.000000 0.000003 -0.797894 -0.297821 0.505366
    32 4.453986 -0.073766 -0.571672 0.047699 -0.153453 -0.767464
    33 1.426599 0.000002 0.000000 -0.053883 0.078890 -1.553256
    34 1.322465 -0.000001 0.000000 -0.013603 0.036958 -0.732277
    35 4.477036 -0.043465 -1.581290 -0.332631 0.218360 0.154973
    36 1.344414 0.000000 0.000000 -0.042629 0.220735 -0.851579
    37 1.224670 0.000001 0.000000 0.008150 -0.000004 -0.000025
    38 2.630291 -0.359835 -1.904289 0.415078 0.423437 -0.720800
    39 1.059293 0.000000 0.000000 0.015101 0.038905 0.767148
    40 0.781204 0.000000 0.000000 0.004782 0.022537 0.418308
    41 -0.044717 2.528787 4.661499 -0.082280 -0.054639 0.065692
  time 15
    0 0.646109 -0.801442 22.881993 1.632304 -0.057331 -0.174006
    1 3.890452 -0.000008 -0.000003 -2.400828 -1.323797 -1.084580
    2 17.848175 -0.000001 0.000000 0.000000 0.000000 1.773910
    3 15.638507 0.000000 0.000000 0.511779 0.230615 -1.290688
    4 7.109929 0.000000 0.000000 -0.007119 -0.003131 -0.631738
    5 -3.890451 0.000003 0.000008 -0.928476 -0.941294 -2.084682
    6 17.848179 0.000000 0.000001 0.000000 0.000000 2.331762
    7 15.638511 0.000000 0.000000 0.038426 0.065490 -1.636893
    8 7.109930 0.000000 0.000000 -0.081154 -0.003131 -0.631749
    9 0.000005 3.345128 -2.981901 1.571227 0.086293 1.572983
    10 4.018332 0.000000 0.000000 -0.027260 0.056387 0.265124
    11 3.518571 0.000000 0.000000 -0.018913 0.071788 0.352346
    12 8.942631 0.000000 0.000000 0.027852 0.037440 0.068672
    13 3.307273 0.000000 0.000000 3.141590 0.035798 0.400478
    14 3.593712 0.000001 0.000000 0.272036 0.282584 0.912843
    15 2.033346 1.000768 1.101697 2.385451 -1.528127 2.146508
    16 6.809416 0.000001 0.000000 -1.676201 -0.160409 -1.459193
    17 12.391796 0.000000 0.000001 0.000000 0.000000 -1.937819
    18 9.337076 0.000000 -0.000031 -0.481097 -0.133641 0.142161
    19 4.454020 -0.070210 0.572073 0.095490 -0.008587 -0.706335
    20 1.426597 -0.000001 0.000000 0.055908 -0.087976 -1.504206
    21 1.322468 -0.000002 0.000000 0.009312 -0.033625 -0.575065
    22 4.477066 -0.028570 1.582474 0.481653 -0.035390 -1.246096
    23 1.344418 0.000000 0.000000 0.023466 -0.208305 -0.755723
    24 1.224671 0.000000 0.000000 0.026043 -0.124620 -0.538676
    25 2.630323 -0.345015 1.907214 -0.354022 -0.915164 -1.788195
    26 1.059292 0.000000 0.000001 -0.001067 -0.012843 0.250988
    27 0.781203 0.000000 0.000000 -0.000096 -0.003210 0.062757
    28 2.033353 1.000771 -1.101647 -3.176988 1.193701 1.415651
    29 6.809417 0.000001 0.000000 1.241199 0.691708 -0.278191
    30 12.391794 0.000000 0.000001 0.000000 0.000000 -2.176517
    31 9.337102 0.000000 0.000003 -0.799110 -0.276311 0.517022
    32 4.453986 -0.073766 -0.571672 0.047699 -0.153453 -0.767464
    33 1.426599 0.000002 0.000000 -0.053883 0.078890 -1.553256
    34 1.322465 -0.000001 0.000000 -0.013603 0.036958 -0.732277
    35 4.477036 -0.043465 -1.581290 -0.332631 0.218360 0.154973
    36 1.344414 0.000000 0.000000 -0.042629 0.220735 -0.851579
    37 1.224670 0.000001 0.000000 0.008150 -0.000004 -0.000025
    38 2.630291 -0.359835 -1.904289 0.415078 0.423437 -0.720800
    39 1.059293 0.000000 0.000000 0.015101 0.038905 0.767148
    40 0.781204 0.000000 0.000000 0.004782 0.022537 0.418308
    41 -0.044717 2.528787 4.661499 -0.077530 -0.047777 0.057716
  time 16
    0 1.064090 -1.089495 24.394909 1.644793 -0.051325 -0.233538
    1 3.890452 -0.000008 -0.000003 -2.370764 -1.244925 -1.126077
    2 17.848175 -0.000001 0.000000 0.000000 0.000000 1.684229
    3 15.638507 0.000000 0.000000 0.506525 0.230379 -1.292656
    4 7.109929 0.000000 0.000000 -0.007119 -0.003131 -0.631738
    5 -3.890451 0.000003 0.000008 -0.974431 -0.911084 -2.061316
    6 17.848179 0.000000 0.000001 0.000000 0.000000 2.214865
    7 15.638511 0.000000 0.000000 0.003219 0.023304 -1.613974
    8 7.109930 0.000000 0.000000 -0.081154 -0.003131 -0.631749
    9 0.000005 3.345128 -2.981901 1.571604 0.086293 1.574697
    10 4.018332 0.000000 0.000000 -0.037680 0.056687 0.249365
    11 3.518571 0.000000 0.000000 -0.029251 0.072950 0.339256
    12 8.942631 0.000000 0.000000 0.026811 0.037080 0.077028
    13 3.307273 0.000000 0.000000 3.141590 0.031400 0.400478
    14 3.593712 0.000001 0.000000 0.280010 0.274147 0.889299
    15 2.033346 1.000768 1.101697 2.385451 -1.528127 2.146508
    16 6.809416 0.000001 0.000000 -1.700778 -0.106346 -1.475759
    17 12.391796 0.000000 0.000001 0.000000 0.000000 -1.901155
    18 9.337076 0.000000 -0.000031 -0.496799 -0.113025 0.086196
    19 4.454020 -0.070210 0.572073 0.095490 -0.008587 -0.706335
    20 1.426597 -0.000001 0.000000 0.055908 -0.087976 -1.504206
    21 1.322468 -0.000002 0.000000 0.009312 -0.033625 -0.575065
    22 4.477066 -0.028570 1.582474 0.481653 -0.035390 -1.246096
    23 1.344418 0.000000 0.000000 0.023466 -0.208305 -0.755723
    24 1.224671 0.000000 0.000000 0.026043 -0.124620 -0.538676
    25 2.630323 -0.345015 1.907214 -0.354022 -0.915164 -1.788195
    26 1.059292 0.000000 0.000001 -0.001067 -0.012855 0.250988
    27 0.781203 0.000000 0.000000 -0.000096 -0.003210 0.062757
    28 2.033353 1.000771 -1.101647 -3.176988 1.193701 1.415651
    29 6.809417 0.000001 0.000000 1.160653 0.712425 -0.315268
    30 12.391794 0.000000 0.000001 0.000000 0.000000 -2.154683
    31 9.337102 0.000000 0.000003 -0.800390 -0.254839 0.528506
    32 4.453986 -0.073766 -0.571672 0.047699 -0.153453 -0.767464
    33 1.426599 0.000002 0.000000 -0.053883 0.078890 -1.553256
    34 1.322465 -0.000001 0.000000 -0.013603 0.036958 -0.732277
    35 4.477036 -0.043465 -1.581290 -0.332631 0.218360 0.154973
    36 1.344414 0.000000 0.000000 -0.042629 0.220735 -0.851579
    37 1.224670 0.000001 0.000000 0.008150 -0.000004 -0.000025
    38 2.630291 -0.359835 -1.904289 0.415078 0.423437 -0.720800
    39 1.059293 0.000000 0.000000 0.015101 0.038905 0.767148
    40 0.781204 0.000000 0.000000 0.004782 0.022537 0.418308
    41 -0.044717 2.528787 4.661499 -0.071999 -0.040916 0.050060
  time 17
    0 1.458633 -1.418643 25.856365 1.657197 -0.045504 -0.299865
    1 3.890452 -0.000008 -0.000003 -2.356353 -1.170407 -1.151281
    2 17.848175 -0.000001 0.000000 0.000000 0.000000 1.592866
    3 15.638507 0.000000 0.000000 0.490415 0.226053 -1.292839
    4 7.109929 0.000000 0.000000 -0.007119 -0.003131 -0.631738
    5 -3.890451 0.000003 0.000008 -1.013235 -0.877282 -2.034828
    6 17.848179 0.000000 0.000001 0.000000 0.000000 2.093175
    7 15.638511 0.000000 0.000000 -0.026706 -0.012148 -1.598216
    8 7.109930 0.000000 0.000000 -0.081154 -0.003131 -0.631749
    9 0.000005 3.345128 -2.981901 1.572143 0.086293 1.577061
    10 4.018332 0.000000 0.000000 -0.045659 0.056531 0.232128
    11 3.518571 0.000000 0.000000 -0.037512 0.073022 0.324783
    12 8.942631 0.000000 0.000000 0.024938 0.035319 0.085595
    13 3.307273 0.000000 0.000000 3.141590 0.027648 0.400478
    14 3.593712 0.000001 0.000000 0.283933 0.264724 0.860719
    15 2.033346 1.000768 1.101697 2.385451 -1.528127 2.146508
    16 6.809416 0.000001 0.000000 -1.722104 -0.122178 -1.448970
    17 12.391796 0.000000 0.000001 0.000000 0.000000 -1.880103
    18 9.337076 0.000000 -0.000031 -0.510182 -0.076067 0.094100
    19 4.454020 -0.070210 0.572073 0.095490 -0.008587 -0.706366
    20 1.426597 -0.000001 0.000000 0.055908 -0.087976 -1.504206
    21 1.322468 -0.000002 0.000000 0.009312 -0.033625 -0.575065
    22 4.477066 -0.028570 1.582474 0.481653 -0.035390 -1.246096
    23 1.344418 0.000000 0.000000 0.023466 -0.208305 -0.755723
    24 1.224671 0.000000 0.000000 0.026043 -0.124620 -0.538676
    25 2.630323 -0.345015 1.907214 -0.354022 -0.915164 -1.788195
    26 1.059292 0.000000 0.000001 -0.001067 -0.012855 0.250988
    27 0.781203 0.000000 0.000000 -0.000096 -0.003210 0.062757
    28 2.033353 1.000771 -1.101647 -3.176988 1.193701 1.415651
    29 6.809417 0.000001 0.000000 1.129703 0.728236 -0.357764
    30 12.391794 0.000000 0.000001 0.000000 0.000000 -2.130191
    31 9.337102 0.000000 0.000003 -0.801606 -0.233710 0.539818
    32 4.453986 -0.073766 -0.571672 0.047699 -0.153453 -0.767464
    33 1.426599 0.000002 0.000000 -0.053883 0.078890 -1.553256
    34 1.322465 -0.000001 0.000000 -0.013603 0.036958 -0.732277
    35 4.477036 -0.043465 -1.581290 -0.332631 0.218360 0.154973
    36 1.344414 0.000000 0.000000 -0.042629 0.220735 -0.851579
    37 1.224670 0.000001 0.000000 0.008150 -0.000004 -0.000025
    38 2.630291 -0.359835 -1.904289 0.415078 0.423437 -0.720800
    39 1.059293 0.000000 0.000000 0.015101 0.038905 0.767148
    40 0.781204 0.000000 0.000000 0.004782 0.022537 0.418308
    41 -0.044717 2.528787 4.661499 -0.066794 -0.035007 0.044128
  time 18
    0 1.810207 -1.768569 27.214902 1.669855 -0.044257 -0.369829
    1 3.890452 -0.000008 -0.000003 -2.342705 -1.102418 -1.178211
    2 17.848175 -0.000001 0.000000 0.000000 0.000000 1.500698
    3 15.638507 0.000000 0.000000 0.464209 0.216458 -1.291016
    4 7.109929 0.000000 0.000000 -0.007119 -0.003131 -0.631738
    5 -3.890451 0.000003 0.000008 -1.037833 -0.843234 -2.015341
    6 17.848179 0.000000 0.000001 0.000000 0.000000 1.974490
    7 15.638511 0.000000 0.000000 -0.043476 -0.038043 -1.585228
    8 7.109930 0.000000 0.000000 -0.081154 -0.003131 -0.631749
    9 0.011724 3.345128 -2.981901 1.572844 0.086293 1.575584
    10 4.018332 0.000000 0.000000 -0.051016 0.055752 0.213952
    11 3.518571 0.000000 0.000000 -0.043488 0.071848 0.309316
    12 8.942631 0.000000 0.000000 0.022440 0.032358 0.093722
    13 3.307273 0.000000 0.000000 3.141590 0.024461 0.400478
    14 3.593712 0.000001 0.000000 0.283385 0.254017 0.827481
    15 2.033346 1.000768 1.101697 2.385451 -1.528127 2.146508
    16 6.809416 0.000001 0.000000 -1.737309 -0.163447 -1.409211
    17 12.391796 0.000000 0.000001 0.000000 0.000000 -1.850456
    18 9.337076 0.000000 -0.000031 -0.522405 -0.032401 0.114236
    19 4.454020 -0.070210 0.572073 0.095490 -0.008587 -0.706366
    20 1.426597 -0.000001 0.000000 0.055908 -0.087976 -1.504206
    21 1.322468 -0.000002 0.000000 0.009312 -0.033625 -0.575065
    22 4.477066 -0.028570 1.582474 0.481653 -0.035390 -1.246096
    23 1.344418 0.000000 0.000000 0.023466 -0.208305 -0.755723
    24 1.224671 0.000000 0.000000 0.026043 -0.124620 -0.538676
    25 2.630323 -0.345015 1.907214 -0.354022 -0.915164 -1.788195
    26 1.059292 0.000000 0.000001 -0.001067 -0.012843 0.250988
    27 0.781203 0.000000 0.000000 -0.000096 -0.003210 0.062757
    28 2.033353 1.000771 -1.101647 -3.176988 1.193701 1.415651
    29 6.809417 0.000001 0.000000 1.112003 0.737040 -0.403787
    30 12.391794 0.000000 0.000001 0.000000 0.000000 -2.102969
    31 9.337102 0.000000 0.000003 -0.802438 -0.212314 0.550438
    32 4.453986 -0.073766 -0.571672 0.047699 -0.153453 -0.767464
    33 1.426599 0.000002 0.000000 -0.053883 0.078890 -1.553256
    34 1.322465 -0.000001 0.000000 -0.013603 0.036958 -0.732277
    35 4.477036 -0.043465 -1.581290 -0.332631 0.218360 0.154973
    36 1.344414 0.000000 0.000000 -0.042629 0.220735 -0.851579
    37 1.224670 0.000001 0.000000 0.008150 -0.000004 -0.000025
    38 2.630291 -0.359835 -1.904289 0.415078 0.423437 -0.720800
    39 1.059293 0.000000 0.000000 0.015101 0.038905 0.767148
    40 0.781204 0.000000 0.000000 0.004782 0.022537 0.418308
    41 -0.044717 2.528787 4.661499 -0.062304 -0.030083 0.035872
  time 19
    0 2.099278 -2.129117 28.429351 1.682768 -0.045043 -0.439218
    1 3.890452 -0.000008 -0.000003 -2.325240 -1.044837 -1.206865
    2 17.848175 -0.000001 0.000000 0.000000 0.000000 1.413138
    3 15.638507 0.000000 0.000000 0.428540 0.200528 -1.288537
    4 7.109929 0.000000 0.000000 -0.007119 -0.003131 -0.631738
    5 -3.890451 0.000003 0.000008 -1.044984 -0.810712 -2.001245
    6 17.848179 0.000000 0.000001 0.000000 0.000000 1.863198
    7 15.638511 0.000000 0.000000 -0.047274 -0.047736 -1.574055
    8 7.109930 0.000000 0.000000 -0.081154 -0.003131 -0.631749
    9 0.035162 3.345128 -2.981901 1.573760 0.086293 1.573042
    10 4.018332 0.000000 0.000000 -0.053706 0.054278 0.195637
    11 3.518571 0.000000 0.000000 -0.047052 0.069403 0.293459
    12 8.942631 0.000000 0.000000 0.019442 0.028427 0.100899
    13 3.307273 0.000000 0.000000 3.141590 0.021788 0.400478
    14 3.593712 0.000001 0.000000 0.278449 0.241618 0.790675
    15 2.033346 1.000768 1.101697 2.385451 -1.528127 2.146508
    16 6.809416 0.000001 0.000000 -1.747733 -0.228097 -1.359040
    17 12.391796 0.000000 0.000001 0.000000 0.000000 -1.807326
    18 9.337076 0.000000 -0.000031 -0.532933 0.017940 0.139564
    19 4.454020 -0.070210 0.572073 0.095490 -0.008587 -0.706366
    20 1.426597 -0.000001 0.000000 0.055908 -0.087976 -1.504206
    21 1.322468 -0.000002 0.000000 0.009312 -0.033625 -0.575065
    22 4.477066 -0.028570 1.582474 0.481653 -0.035390 -1.246096
    23 1.344418 0.000000 0.000000 0.023466 -0.208305 -0.755723
    24 1.224671 0.000000 0.000000 0.026043 -0.124620 -0.538676
    25 2.630323 -0.345015 1.907214 -0.354022 -0.915164 -1.788195
    26 1.059292 0.000000 0.000001 -0.001067 -0.012855 0.250988
    27 0.781203 0.000000 0.000000 -0.000096 -0.003210 0.062757
    28 2.033353 1.000771 -1.101647 -3.176988 1.193701 1.415651
    29 6.809417 0.000001 0.000000 1.106987 0.740194 -0.452046
    30 12.391794 0.000000 0.000001 0.000000 0.000000 -2.073378
    31 9.337102 0.000000 0.000003 -0.802950 -0.190804 0.560972
    32 4.453986 -0.073766 -0.571672 0.047699 -0.153453 -0.767464
    33 1.426599 0.000002 0.000000 -0.053883 0.078890 -1.553256
    34 1.322465 -0.000001 0.000000 -0.013603 0.036958 -0.732277
    35 4.477036 -0.043465 -1.581290 -0.332631 0.218360 0.154973
    36 1.344414 0.000000 0.000000 -0.042629 0.220735 -0.851579
    37 1.224670 0.000001 0.000000 0.008150 -0.000004 -0.000025
    38 2.630291 -0.359835 -1.904289 0.415078 0.423437 -0.720800
    39 1.059293 0.000000 0.000000 0.015101 0.038905 0.767148
    40 0.781204 0.000000 0.000000 0.004782 0.022537 0.418308
    41 -0.044717 2.528787 4.661499 -0.058660 -0.025858 0.028136
  time 20
    0 2.321941 -2.479972 29.448254 1.695852 -0.045366 -0.504397
    1 3.890452 -0.000008 -0.000003 -2.287637 -0.989717 -1.243091
    2 17.848175 -0.000001 0.000000 0.000000 0.000000 1.404141
    3 15.638507 0.000000 0.000000 0.385623 0.178997 -1.332537
    4 7.109929 0.000000 0.000000 -0.007119 -0.003131 -0.631738
    5 -3.890451 0.000003 0.000008 -1.036689 -0.780305 -1.988380
    6 17.848179 0.000000 0.000001 0.000000 0.000000 1.761816
    7 15.638511 0.000000 0.000000 -0.045421 -0.038816 -1.563836
    8 7.109930 0.000000 0.000000 -0.081154 -0.003131 -0.631749
    9 0.050788 3.345128 -2.981901 1.574784 0.086293 1.572215
    10 4.018332 0.000000 0.000000 -0.053864 0.052097 0.178174
    11 3.518571 0.000000 0.000000 -0.048290 0.065723 0.278063
    12 8.942631 0.000000 0.000000 0.016098 0.023777 0.106809
    13 3.307273 0.000000 0.000000 3.141590 0.019535 0.400478
    14 3.593712 0.000001 0.000000 0.269800 0.227078 0.752149
    15 2.033346 1.000768 1.101697 2.385451 -1.528127 2.146508
    16 6.809416 0.000001 0.000000 -1.755001 -0.314018 -1.301769
    17 12.391796 0.000000 0.000001 0.000000 0.000000 -1.745667
    18 9.337076 0.000000 -0.000031 -0.541231 0.074561 0.161893
    19 4.454020 -0.070210 0.572073 0.095490 -0.008587 -0.706335
    20 1.426597 -0.000001 0.000000 0.055908 -0.087976 -1.504206
    21 1.322468 -0.000002 0.000000 0.009312 -0.033625 -0.575065
    22 4.477066 -0.028570 1.582474 0.481653 -0.035390 -1.246096
    23 1.344418 0.000000 0.000000 0.023466 -0.208305 -0.755723
    24 1.224671 0.000000 0.000000 0.026043 -0.124620 -0.538676
    25 2.630323 -0.345015 1.907214 -0.354022 -0.915164 -1.788195
    26 1.059292 0.000000 0.000001 -0.001067 -0.012855 0.250988
    27 0.781203 0.000000 0.000000 -0.000096 -0.003210 0.062757
    28 2.033353 1.000771 -1.101647 -3.176988 1.193701 1.415651
    29 6.809417 0.000001 0.000000 1.114370 0.739756 -0.500650
    30 12.391794 0.000000 0.000001 0.000000 0.000000 -2.041632
    31 9.337102 0.000000 0.000003 -0.803078 -0.169180 0.571938
    32 4.453986 -0.073766 -0.571672 0.047699 -0.153453 -0.767464
    33 1.426599 0.000002 0.000000 -0.053883 0.078890 -1.553256
    34 1.322465 -0.000001 0.000000 -0.013603 0.036958 -0.732277
    35 4.477036 -0.043465 -1.581290 -0.332631 0.218360 0.154973
    36 1.344414 0.000000 0.000000 -0.042629 0.220735 -0.851579
    37 1.224670 0.000001 0.000000 0.008150 -0.000004 -0.000025
    38 2.630291 -0.359835 -1.904289 0.415078 0.423437 -0.720800
    39 1.059293 0.000000 0.000000 0.015101 0.038905 0.767148
    40 0.781204 0.000000 0.000000 0.004782 0.022537 0.418308
    41 -0.044717 2.528787 4.661499 -0.055667 -0.022046 0.023447
  time 21
    0 2.478196 -2.810976 30.292193 1.708935 -0.046290 -0.563067
    1 3.890452 -0.000008 -0.000003 -2.251275 -0.934171 -1.275483
    2 17.848175 -0.000001 0.000000 0.000000 0.000000 1.408895
    3 15.638507 0.000000 0.000000 0.339920 0.155953 -1.384337
    4 7.109929 0.000000 0.000000 -0.007119 -0.003131 -0.631738
    5 -3.890451 0.000003 0.000008 -1.016191 -0.753343 -1.979961
    6 17.848179 0.000000 0.000001 0.000000 0.000000 1.673513
    7 15.638511 0.000000 0.000000 -0.046441 -0.018974 -1.556292
    8 7.109930 0.000000 0.000000 -0.081154 -0.003131 -0.631749
    9 0.066413 3.345128 -2.981901 1.575969 0.086293 1.572096
    10 4.018332 0.000000 0.000000 -0.051852 0.049137 0.162624
    11 3.518571 0.000000 0.000000 -0.047451 0.060906 0.264122
    12 8.942631 0.000000 0.000000 0.012601 0.018744 0.111277
    13 3.307273 0.000000 0.000000 3.141590 0.017641 0.400478
    14 3.593712 0.000001 0.000000 0.258409 0.210053 0.714126
    15 2.033346 1.000768 1.101697 2.385451 -1.528127 2.146508
    16 6.809416 0.000001 0.000000 -1.760835 -0.418613 -1.241564
    17 12.391796 0.000000 0.000001 0.000000 0.000000 -1.661773
    18 9.337076 0.000000 -0.000031 -0.545959 0.136279 0.173836
    19 4.454020 -0.070210 0.572073 0.095490 -0.008587 -0.706335
    20 1.426597 -0.000001 0.000000 0.055908 -0.087976 -1.504206
    21 1.322468 -0.000002 0.000000 0.009312 -0.033625 -0.575065
    22 4.477066 -0.028570 1.582474 0.481653 -0.035390 -1.246096
    23 1.344418 0.000000 0.000000 0.023466 -0.208305 -0.755723
    24 1.224671 0.000000 0.000000 0.026043 -0.124620 -0.538676
    25 2.630323 -0.345015 1.907214 -0.354022 -0.915164 -1.788195
    26 1.059292 0.000000 0.000001 -0.001067 -0.012855 0.250988
    27 0.781203 0.000000 0.000000 -0.000096 -0.003210 0.062757
    28 2.033353 1.000771 -1.101647 -3.176988 1.193701 1.415651
    29 6.809417 0.000001 0.000000 1.134056 0.737390 -0.546845
    30 12.391794 0.000000 0.000001 0.000000 0.000000 -2.008593
    31 9.337102 0.000000 0.000003 -0.802886 -0.147517 0.582991
    32 4.453986 -0.073766 -0.571672 0.047699 -0.153453 -0.767464
    33 1.426599 0.000002 0.000000 -0.053883 0.078890 -1.553256
    34 1.322465 -0.000001 0.000000 -0.013603 0.036958 -0.732277
    35 4.477036 -0.043465 -1.581290 -0.332631 0.218360 0.154973
    36 1.344414 0.000000 0.000000 -0.042629 0.220735 -0.851579
    37 1.224670 0.000001 0.000000 0.008150 -0.000004 -0.000025
    38 2.630291 -0.359835 -1.904289 0.415078 0.423437 -0.720800
    39 1.059293 0.000000 0.000000 0.015101 0.038905 0.767148
    40 0.781204 0.000000 0.000000 0.004782 0.022537 0.418308
    41 -0.044717 2.528787 4.661499 -0.053260 -0.018584 0.020481
  time 22
    0 2.587574 -3.091657 30.961170 1.721169 -0.048323 -0.613889
    1 3.890452 -0.000008 -0.000003 -2.213958 -0.871765 -1.310271
    2 17.848175 -0.000001 0.000000 0.000000 0.000000 1.396460
    3 15.638507 0.000000 0.000000 0.280766 0.124897 -1.446855
    4 7.109929 0.000000 0.000000 -0.007119 -0.003131 -0.631738
    5 -3.890451 0.000003 0.000008 -0.992164 -0.729873 -1.976177
    6 17.848179 0.000000 0.000001 0.000000 0.000000 1.599671
    7 15.638511 0.000000 0.000000 -0.052092 -0.002546 -1.549702
    8 7.109930 0.000000 0.000000 -0.081154 -0.003131 -0.631749
    9 0.082039 3.345128 -2.981901 1.577263 0.086293 1.571978
    10 4.018332 0.000000 0.000000 -0.048236 0.045326 0.149962
    11 3.518571 0.000000 0.000000 -0.045019 0.055045 0.252592
    12 8.942631 0.000000 0.000000 0.009229 0.013770 0.114338
    13 3.307273 0.000000 0.000000 3.141590 0.016047 0.400478
    14 3.593712 0.000001 0.000000 0.245457 0.190502 0.679125
    15 2.033346 1.000768 1.101697 2.385451 -1.528127 2.146508
    16 6.809416 0.000001 0.000000 -1.767051 -0.538795 -1.180980
    17 12.391796 0.000000 0.000001 0.000000 0.000000 -1.553357
    18 9.337076 0.000000 -0.000031 -0.546495 0.201021 0.169912
    19 4.454020 -0.070210 0.572073 0.095490 -0.008587 -0.706366
    20 1.426597 -0.000001 0.000000 0.055908 -0.087976 -1.504206
    21 1.322468 -0.000002 0.000000 0.009312 -0.033625 -0.575065
    22 4.477066 -0.028570 1.582474 0.481653 -0.035390 -1.246096
    23 1.344418 0.000000 0.000000 0.023466 -0.208305 -0.755723
    24 1.224671 0.000000 0.000000 0.026043 -0.124620 -0.538676
    25 2.630323 -0.345015 1.907214 -0.354022 -0.915164 -1.788195
    26 1.059292 0.000000 0.000001 -0.001067 -0.012855 0.250988
    27 0.781203 0.000000 0.000000 -0.000096 -0.003210 0.062757
    28 2.033353 1.000771 -1.101647 -3.176988 1.193701 1.415651
    29 6.809417 0.000001 0.000000 1.165480 0.735288 -0.588136
    30 12.391794 0.000000 0.000001 0.000000 0.000000 -1.975123
    31 9.337102 0.000000 0.000003 -0.802310 -0.125893 0.594215
    32 4.453986 -0.073766 -0.571672 0.047699 -0.153453 -0.767464
    33 1.426599 0.000002 0.000000 -0.053883 0.078890 -1.553256
    34 1.322465 -0.000001 0.000000 -0.013603 0.036958 -0.732277
    35 4.477036 -0.043465 -1.581290 -0.332631 0.218360 0.154973
    36 1.344414 0.000000 0.000000 -0.042629 0.220735 -0.851579
    37 1.224670 0.000001 0.000000 0.008150 -0.000004 -0.000025
    38 2.630291 -0.359835 -1.904289 0.415078 0.423437 -0.720800
    39 1.059293 0.000000 0.000000 0.015101 0.038905 0.767148
    40 0.781204 0.000000 0.000000 0.004782 0.022537 0.418308
    41 -0.044717 2.528787 4.661499 -0.051373 -0.015375 0.018317
  time 23
    0 2.665701 -3.311858 31.475767 1.731533 -0.051372 -0.656384
    1 3.890452 -0.000008 -0.000003 -2.167289 -0.786885 -1.357421
    2 17.848175 -0.000001 0.000000 0.000000 0.000000 1.333478
    3 15.638507 0.000000 0.000000 0.184139 0.064818 -1.541525
    4 7.109929 0.000000 0.000000 -0.007119 -0.003131 -0.631738
    5 -3.890451 0.000003 0.000008 -0.994071 -0.701730 -2.017706
    6 17.848179 0.000000 0.000001 0.000000 0.000000 1.525747
    7 15.638511 0.000000 0.000000 -0.057744 -0.090105 -1.547983
    8 7.109930 0.000000 0.000000 -0.081154 -0.003131 -0.631749
    9 0.097664 3.345128 -2.981901 1.578556 0.086293 1.571801
    10 4.018332 0.000000 0.000000 -0.043760 0.040580 0.140917
    11 3.518571 0.000000 0.000000 -0.041538 0.048346 0.244291
    12 8.942631 0.000000 0.000000 0.006370 0.009384 0.116185
    13 3.307273 0.000000 0.000000 3.141590 0.014657 0.400478
    14 3.593712 0.000001 0.000000 0.232251 0.168830 0.649160
    15 2.033346 1.000768 1.101697 2.385451 -1.528127 2.146508
    16 6.809416 0.000001 0.000000 -1.775753 -0.671132 -1.120869
    17 12.391796 0.000000 0.000001 0.000000 0.000000 -1.420025
    18 9.337076 0.000000 -0.000031 -0.543461 0.266290 0.146719
    19 4.454020 -0.070210 0.572073 0.095490 -0.008587 -0.706335
    20 1.426597 -0.000001 0.000000 0.055908 -0.087976 -1.504206
    21 1.322468 -0.000002 0.000000 0.009312 -0.033625 -0.575065
    22 4.477066 -0.028570 1.582474 0.481653 -0.035390 -1.246096
    23 1.344418 0.000000 0.000000 0.023466 -0.208305 -0.755723
    24 1.224671 0.000000 0.000000 0.026043 -0.124620 -0.538676
    25 2.630323 -0.345015 1.907214 -0.354022 -0.915164 -1.788195
    26 1.059292 0.000000 0.000001 -0.001067 -0.012855 0.250988
    27 0.781203 0.000000 0.000000 -0.000096 -0.003210 0.062757
    28 2.033353 1.000771 -1.101647 -3.176988 1.193701 1.415651
    29 6.809417 0.000001 0.000000 1.206841 0.735551 -0.623062
    30 12.391794 0.000000 0.000001 0.000000 0.000000 -1.941797
    31 9.337102 0.000000 0.000003 -0.801286 -0.104345 0.605613
    32 4.453986 -0.073766 -0.571672 0.047699 -0.153453 -0.767464
    33 1.426599 0.000002 0.000000 -0.053883 0.078890 -1.553256
    34 1.322465 -0.000001 0.000000 -0.013603 0.036958 -0.732277
    35 4.477036 -0.043465 -1.581290 -0.332631 0.218360 0.154973
    36 1.344414 0.000000 0.000000 -0.042629 0.220735 -0.851579
    37 1.224670 0.000001 0.000000 0.008150 -0.000004 -0.000025
    38 2.630291 -0.359835 -1.904289 0.415078 0.423437 -0.720800
    39 1.059293 0.000000 0.000000 0.015101 0.038905 0.767148
    40 0.781204 0.000000 0.000000 0.004782 0.022537 0.418308
    41 -0.044717 2.528787 4.661499 -0.049811 -0.012453 0.016714
  time 24
    0 2.720391 -3.461422 31.887445 1.738755 -0.055252 -0.690840
    1 3.890452 -0.000008 -0.000003 -2.129686 -0.705033 -1.398630
    2 17.848175 -0.000001 0.000000 0.000000 0.000000 1.257110
    3 15.638507 0.000000 0.000000 0.090266 -0.007717 -1.623363
    4 7.109929 0.000000 0.000000 -0.007119 -0.003131 -0.631738
    5 -3.890451 0.000003 0.000008 -1.002652 -0.672110 -2.065951
    6 17.848179 0.000000 0.000001 0.000000 0.000000 1.450848
    7 15.638511 0.000000 0.000000 -0.053760 -0.194047 -1.551517
    8 7.109930 0.000000 0.000000 -0.081154 -0.003131 -0.631749
    9 0.113290 3.345128 -2.981901 1.579795 0.086265 1.571624
    10 4.018332 0.000000 0.000000 -0.039194 0.034923 0.135769
    11 3.518571 0.000000 0.000000 -0.037638 0.041095 0.239538
    12 8.942631 0.000000 0.000000 0.004413 0.006076 0.117100
    13 3.307273 0.000000 0.000000 3.141590 0.013411 0.400478
    14 3.593712 0.000001 0.000000 0.219806 0.145810 0.625532
    15 2.033346 1.000768 1.101697 2.385451 -1.528127 2.146508
    16 6.809416 0.000001 0.000000 -1.790193 -0.811900 -1.059622
    17 12.391796 0.000000 0.000001 0.000000 0.000000 -1.262645
    18 9.337076 0.000000 -0.000031 -0.537573 0.329783 0.102870
    19 4.454020 -0.070210 0.572073 0.095490 -0.008587 -0.706335
    20 1.426597 -0.000001 0.000000 0.055908 -0.087976 -1.504206
    21 1.322468 -0.000002 0.000000 0.009312 -0.033625 -0.575065
    22 4.477066 -0.028570 1.582474 0.481653 -0.035390 -1.246096
    23 1.344418 0.000000 0.000000 0.023466 -0.208305 -0.755723
    24 1.224671 0.000000 0.000000 0.026043 -0.124620 -0.538676
    25 2.630323 -0.345015 1.907214 -0.354022 -0.915164 -1.788195
    26 1.059292 0.000000 0.000001 -0.001067 -0.012855 0.250988
    27 0.781203 0.000000 0.000000 -0.000096 -0.003210 0.062757
    28 2.033353 1.000771 -1.101647 -3.176988 1.193701 1.415651
    29 6.809417 0.000001 0.000000 1.255490 0.739712 -0.650504
    30 12.391794 0.000000 0.000001 0.000000 0.000000 -1.909404
    31 9.337102 0.000000 0.000003 -0.799942 -0.082987 0.617011
    32 4.453986 -0.073766 -0.571672 0.047699 -0.153453 -0.767464
    33 1.426599 0.000002 0.000000 -0.053883 0.078890 -1.553256
    34 1.322465 -0.000001 0.000000 -0.013603 0.036958 -0.732277
    35 4.477036 -0.043465 -1.581290 -0.332631 0.218360 0.154973
    36 1.344414 0.000000 0.000000 -0.042629 0.220735 -0.851579
    37 1.224670 0.000001 0.000000 0.008150 -0.000004 -0.000025
    38 2.630291 -0.359835 -1.904289 0.415078 0.423437 -0.720800
    39 1.059293 0.000000 0.000000 0.015101 0.038905 0.767148
    40 0.781204 0.000000 0.000000 0.004782 0.022537 0.418308
    41 -0.044717 2.528787 4.661499 -0.048575 -0.009911 0.015471
  time 25
    0 2.751642 -3.550505 32.185911 1.742238 -0.060334 -0.717543
    1 3.890452 -0.000008 -0.000003 -2.127968 -0.690034 -1.413485
    2 17.848175 -0.000001 0.000000 0.000000 0.000000 1.222877
    3 15.638507 0.000000 0.000000 0.077637 -0.024119 -1.610568
    4 7.109929 0.000000 0.000000 -0.007119 -0.003131 -0.631738
    5 -3.890451 0.000003 0.000008 -1.021720 -0.631421 -2.096129
    6 17.848179 0.000000 0.000001 0.000000 0.000000 1.359214
    7 15.638511 0.000000 0.000000 -0.041901 -0.288342 -1.559443
    8 7.109930 0.000000 0.000000 -0.081154 -0.003131 -0.631749
    9 0.132822 3.345128 -2.981901 1.580927 0.086265 1.570796
    10 4.018332 0.000000 0.000000 -0.035126 0.028619 0.134204
    11 3.518571 0.000000 0.000000 -0.033780 0.033725 0.238154
    12 8.942631 0.000000 0.000000 0.003580 0.004231 0.117487
    13 3.307273 0.000000 0.000000 3.141590 0.012224 0.400478
    14 3.593712 0.000001 0.000000 0.208710 0.122575 0.608536
    15 2.033346 1.000768 1.101697 2.385451 -1.528127 2.146508
    16 6.809416 0.000001 0.000000 -1.816205 -0.957716 -0.992506
    17 12.391796 0.000000 0.000001 0.000000 0.000000 -1.082320
    18 9.337076 0.000000 -0.000031 -0.529989 0.389429 0.038423
    19 4.454020 -0.070210 0.572073 0.095490 -0.008587 -0.706335
    20 1.426597 -0.000001 0.000000 0.055908 -0.087976 -1.504206
    21 1.322468 -0.000002 0.000000 0.009312 -0.033625 -0.575065
    22 4.477066 -0.028570 1.582474 0.481653 -0.035390 -1.246096
    23 1.344418 0.000000 0.000000 0.023466 -0.208305 -0.755723
    24 1.224671 0.000000 0.000000 0.026043 -0.124620 -0.538676
    25 2.630323 -0.345015 1.907214 -0.354022 -0.915164 -1.788195
    26 1.059292 0.000000 0.000001 -0.001067 -0.012855 0.250988
    27 0.781203 0.000000 0.000000 -0.000096 -0.003210 0.062757
    28 2.033353 1.000771 -1.101647 -3.176988 1.193701 1.415651
    29 6.809417 0.000001 0.000000 1.307831 0.748209 -0.670203
    30 12.391794 0.000000 0.000001 0.000000 0.000000 -1.878664
    31 9.337102 0.000000 0.000003 -0.798214 -0.061782 0.628581
    32 4.453986 -0.073766 -0.571672 0.047699 -0.153453 -0.767464
    33 1.426599 0.000002 0.000000 -0.053883 0.078890 -1.553256
    34 1.322465 -0.000001 0.000000 -0.013603 0.036958 -0.732277
    35 4.477036 -0.043465 -1.581290 -0.332631 0.218360 0.154973
    36 1.344414 0.000000 0.000000 -0.042629 0.220735 -0.851579
    37 1.224670 0.000001 0.000000 0.008150 -0.000004 -0.000025
    38 2.630291 -0.359835 -1.904289 0.415078 0.423437 -0.720800
    39 1.059293 0.000000 0.000000 0.015101 0.038905 0.767148
    40 0.781204 0.000000 0.000000 0.004782 0.022537 0.418308
    41 -0.044717 2.528787 4.661499 -0.047534 -0.007910 0.013788
  time 26
    0 2.275064 -3.071239 32.762260 1.742493 -0.066894 -0.737259
    1 3.890452 -0.000008 -0.000003 -2.129686 -0.664107 -1.405818
    2 17.848175 -0.000001 0.000000 0.000000 0.000000 1.162821
    3 15.638507 0.000000 0.000000 0.050988 -0.020432 -1.567298
    4 7.109929 0.000000 0.000000 -0.007119 -0.003131 -0.631738
    5 -3.890451 0.000003 0.000008 -1.054900 -0.557815 -2.087331
    6 17.848179 0.000000 0.000001 0.000000 0.000000 1.218434
    7 15.638511 0.000000 0.000000 -0.031061 -0.368164 -1.568038
    8 7.109930 0.000000 0.000000 -0.081154 -0.003131 -0.631749
    9 0.152353 3.345128 -2.981901 1.581843 0.086236 1.568491
    10 4.018332 0.000000 0.000000 -0.031826 0.022183 0.135404
    11 3.518571 0.000000 0.000000 -0.030320 0.026845 0.239431
    12 8.942631 0.000000 0.000000 0.003858 0.003871 0.117786
    13 3.307273 0.000000 0.000000 3.141590 0.011050 0.400478
    14 3.593712 0.000001 0.000000 0.199260 0.100261 0.597330
    15 2.033346 1.000768 1.101697 2.385451 -1.528127 2.146508
    16 6.809416 0.000001 0.000000 -1.865933 -1.105395 -0.907689
    17 12.391796 0.000000 0.000001 0.000000 0.000000 -0.878971
    18 9.337076 0.000000 -0.000031 -0.521959 0.443650 -0.046966
    19 4.454020 -0.070210 0.572073 0.095490 -0.008587 -0.706366
    20 1.426597 -0.000001 0.000000 0.055908 -0.087976 -1.504206
    21 1.322468 -0.000002 0.000000 0.009312 -0.033625 -0.575065
    22 4.477066 -0.028570 1.582474 0.481653 -0.035390 -1.246096
    23 1.344418 0.000000 0.000000 0.023466 -0.208305 -0.755723
    24 1.224671 0.000000 0.000000 0.026043 -0.124620 -0.538676
    25 2.630323 -0.345015 1.907214 -0.354022 -0.915164 -1.788195
    26 1.059292 0.000000 0.000001 -0.001067 -0.012843 0.250988
    27 0.781203 0.000000 0.000000 -0.000096 -0.003210 0.062757
    28 2.033353 1.000771 -1.101647 -3.176988 1.193701 1.415651
    29 6.809417 0.000001 0.000000 1.359982 0.760429 -0.682591
    30 12.391794 0.000000 0.000001 0.000000 0.000000 -1.850365
    31 9.337102 0.000000 0.000003 -0.796166 -0.040805 0.640151
    32 4.453986 -0.073766 -0.571672 0.047699 -0.153453 -0.767464
    33 1.426599 0.000002 0.000000 -0.053883 0.078890 -1.553256
    34 1.322465 -0.000001 0.000000 -0.013603 0.036958 -0.732277
    35 4.477036 -0.043465 -1.581290 -0.332631 0.218360 0.154973
    36 1.344414 0.000000 0.000000 -0.042629 0.220735 -0.851579
    37 1.224670 0.000001 0.000000 0.008150 -0.000004 -0.000025
    38 2.630291 -0.359835 -1.904289 0.415078 0.423437 -0.720800
    39 1.059293 0.000000 0.000000 0.015101 0.038905 0.767148
    40 0.781204 0.000000 0.000000 0.004782 0.022537 0.418308
    41 -0.044717 2.528787 4.661499 -0.046623 -0.006512 0.011022
  time 27
    0 1.763330 -2.551807 33.348901 1.716666 -0.057470 -0.739365
    1 3.890452 -0.000008 -0.000003 -2.152973 -0.608703 -1.373330
    2 17.848175 -0.000001 0.000000 0.000000 0.000000 1.103789
    3 15.638507 0.000000 0.000000 0.047507 0.013271 -1.522241
    4 7.109929 0.000000 0.000000 -0.007119 -0.003131 -0.631738
    5 -3.890451 0.000003 0.000008 -1.102189 -0.477763 -2.041450
    6 17.848179 0.000000 0.000001 0.000000 0.000000 1.071967
    7 15.638511 0.000000 0.000000 -0.017812 -0.414857 -1.573577
    8 7.109930 0.000000 0.000000 -0.081154 -0.003131 -0.631749
    9 0.128915 3.345128 -2.981901 1.580280 0.086293 1.568609
    10 4.018332 0.000000 0.000000 -0.027960 0.000276 0.144483
    11 3.518571 0.000000 0.000000 -0.030676 0.009480 0.253621
    12 8.942631 0.000000 0.000000 -0.009340 0.019775 0.134058
    13 3.307273 0.000000 0.000000 3.141590 0.009803 0.400478
    14 3.593712 0.000001 0.000000 0.217232 0.054991 0.622763
    15 2.033346 1.000768 1.101697 2.385451 -1.528127 2.146508
    16 6.809416 0.000001 0.000000 -2.078140 -1.223322 -0.649260
    17 12.391796 0.000000 0.000001 0.000000 0.000000 -0.752262
    18 9.337076 0.000000 -0.000031 -0.520621 0.496424 -0.084469
    19 4.454020 -0.070210 0.572073 0.095490 -0.008587 -0.706335
    20 1.426597 -0.000001 0.000000 0.055908 -0.087976 -1.504206
    21 1.322468 -0.000002 0.000000 0.009312 -0.033625 -0.575065
    22 4.477066 -0.028570 1.582474 0.481653 -0.035390 -1.246096
    23 1.344418 0.000000 0.000000 0.023466 -0.208305 -0.755723
    24 1.224671 0.000000 0.000000 0.026043 -0.124620 -0.538676
    25 2.630323 -0.345015 1.907214 -0.354022 -0.915164 -1.788195
    26 1.059292 0.000000 0.000001 -0.001067 -0.012855 0.250988
    27 0.781203 0.000000 0.000000 -0.000096 -0.003210 0.062757
    28 2.033353 1.000771 -1.101647 -3.176988 1.193701 1.415651
    29 6.809417 0.000001 0.000000 1.421220 0.822623 -0.689903
    30 12.391794 0.000000 0.000001 0.000000 0.000000 -1.823503
    31 9.337102 0.000000 0.000003 -0.795526 -0.019256 0.653017
    32 4.453986 -0.073766 -0.571672 0.047699 -0.153453 -0.767464
    33 1.426599 0.000002 0.000000 -0.053883 0.078890 -1.553256
    34 1.322465 -0.000001 0.000000 -0.013603 0.036958 -0.732277
    35 4.477036 -0.043465 -1.581290 -0.332631 0.218360 0.154973
    36 1.344414 0.000000 0.000000 -0.042629 0.220735 -0.851579
    37 1.224670 0.000001 0.000000 0.008150 -0.000004 -0.000025
    38 2.630291 -0.359835 -1.904289 0.415078 0.423437 -0.720800
    39 1.059293 0.000000 0.000000 0.015101 0.038905 0.767148
    40 0.781204 0.000000 0.000000 0.004782 0.022537 0.418308
    41 -0.044717 2.528787 4.661499 -0.045907 -0.007942 0.010982
  time 28
    0 1.232064 -2.002368 33.945834 1.688715 -0.046844 -0.740609
    1 3.890452 -0.000008 -0.000003 -2.173301 -0.549608 -1.343621
    2 17.848175 -0.000001 0.000000 0.000000 0.000000 1.038833
    3 15.638507 0.000000 0.000000 0.045481 0.047919 -1.473175
    4 7.109929 0.000000 0.000000 -0.007119 -0.003131 -0.631738
    5 -3.890451 0.000003 0.000008 -1.191143 -0.445339 -1.953000
    6 17.848179 0.000000 0.000001 0.000000 0.000000 1.013802
    7 15.638511 0.000000 0.000000 -0.008177 -0.346684 -1.552472
    8 7.109930 0.000000 0.000000 -0.081154 -0.003131 -0.631749
    9 0.105477 3.345128 -2.981901 1.578502 0.086293 1.568964
    10 4.018332 0.000000 0.000000 -0.024276 -0.022903 0.154084
    11 3.518571 0.000000 0.000000 -0.031599 -0.008665 0.268804
    12 8.942631 0.000000 0.000000 -0.023273 0.037152 0.151367
    13 3.307273 0.000000 0.000000 3.141590 0.008413 0.400478
    14 3.593712 0.000001 0.000000 0.237989 0.007451 0.649664
    15 2.033346 1.000768 1.101697 2.385451 -1.528127 2.146508
    16 6.809416 0.000001 0.000000 -2.434175 -1.293215 -0.245902
    17 12.391796 0.000000 0.000001 0.000000 0.000000 -0.643531
    18 9.337076 0.000000 -0.000031 -0.522852 0.543739 -0.117240
    19 4.454020 -0.070210 0.572073 0.095490 -0.008587 -0.706335
    20 1.426597 -0.000001 0.000000 0.055908 -0.087976 -1.504206
    21 1.322468 -0.000002 0.000000 0.009312 -0.033625 -0.575065
    22 4.477066 -0.028570 1.582474 0.481653 -0.035390 -1.246096
    23 1.344418 0.000000 0.000000 0.023466 -0.208305 -0.755723
    24 1.224671 0.000000 0.000000 0.026043 -0.124620 -0.538676
    25 2.630323 -0.345015 1.907214 -0.354022 -0.915164 -1.788195
    26 1.059292 0.000000 0.000001 -0.001067 -0.012855 0.250988
    27 0.781203 0.000000 0.000000 -0.000096 -0.003210 0.062757
    28 2.033353 1.000771 -1.101647 -3.176988 1.193701 1.415651
    29 6.809417 0.000001 0.000000 1.473371 0.889591 -0.695839
    30 12.391794 0.000000 0.000001 0.000000 0.000000 -1.800304
    31 9.337102 0.000000 0.000003 -0.794950 0.002330 0.665882
    32 4.453986 -0.073766 -0.571672 0.047699 -0.153453 -0.767464
    33 1.426599 0.000002 0.000000 -0.053883 0.078890 -1.553256
    34 1.322465 -0.000001 0.000000 -0.013603 0.036958 -0.732277
    35 4.477036 -0.043465 -1.581290 -0.332631 0.218360 0.154973
    36 1.344414 0.000000 0.000000 -0.042629 0.220735 -0.851579
    37 1.224670 0.000001 0.000000 0.008150 -0.000004 -0.000025
    38 2.630291 -0.359835 -1.904289 0.415078 0.423437 -0.720800
    39 1.059293 0.000000 0.000000 0.015101 0.038905 0.767148
    40 0.781204 0.000000 0.000000 0.004782 0.022537 0.418308
    41 -0.044717 2.528787 4.661499 -0.045191 -0.009784 0.011263
  time 29
    0 0.685172 -1.443235 34.553059 1.659490 -0.035295 -0.741470
    1 3.890452 -0.000008 -0.000003 -2.188095 -0.487864 -1.318417
    2 17.848175 -0.000001 0.000000 0.000000 0.000000 0.966927
    3 15.638507 0.000000 0.000000 0.043392 0.080866 -1.420025
    4 7.109929 0.000000 0.000000 -0.007119 -0.003131 -0.631738
    5 -3.890451 0.000003 0.000008 -1.276093 -0.402927 -1.867671
    6 17.848179 0.000000 0.000001 0.000000 0.000000 0.947921
    7 15.638511 0.000000 0.000000 0.000903 -0.277647 -1.524682
    8 7.109930 0.000000 0.000000 -0.081154 -0.003131 -0.631749
    9 0.078132 3.345128 -2.981901 1.576616 0.086293 1.569377
    10 4.018332 0.000000 0.000000 -0.020818 -0.046944 0.164033
    11 3.518571 0.000000 0.000000 -0.033004 -0.027325 0.284732
    12 8.942631 0.000000 0.000000 -0.037553 0.055585 0.169257
    13 3.307273 0.000000 0.000000 3.141590 0.006819 0.400478
    14 3.593712 0.000001 0.000000 0.260687 -0.041738 0.676859
    15 2.033346 1.000768 1.101697 2.385451 -1.528127 2.146508
    16 6.809416 0.000001 0.000000 -2.662926 -1.265915 0.017828
    17 12.391796 0.000000 0.000001 0.000000 0.000000 -0.680353
    18 9.337076 0.000000 -0.000031 -0.531863 0.574319 -0.079103
    19 4.454020 -0.070210 0.572073 0.095490 -0.008587 -0.706335
    20 1.426597 -0.000001 0.000000 0.055908 -0.087976 -1.504206
    21 1.322468 -0.000002 0.000000 0.009312 -0.033625 -0.575065
    22 4.477066 -0.028570 1.582474 0.481653 -0.035390 -1.246096
    23 1.344418 0.000000 0.000000 0.023466 -0.208305 -0.755723
    24 1.224671 0.000000 0.000000 0.026043 -0.124620 -0.538676
    25 2.630323 -0.345015 1.907214 -0.354022 -0.915164 -1.788195
    26 1.059292 0.000000 0.000001 -0.001067 -0.012855 0.250988
    27 0.781203 0.000000 0.000000 -0.000096 -0.003210 0.062757
    28 2.033353 1.000771 -1.101647 -3.176988 1.193701 1.415651
    29 6.809417 0.000001 0.000000 1.496371 0.959144 -0.700570
    30 12.391794 0.000000 0.000001 0.000000 0.000000 -1.792331
    31 9.337102 0.000000 0.000003 -0.794246 0.023726 0.678575
    32 4.453986 -0.073766 -0.571672 0.047699 -0.153453 -0.767464
    33 1.426599 0.000002 0.000000 -0.053883 0.078890 -1.553256
    34 1.322465 -0.000001 0.000000 -0.013603 0.036958 -0.732277
    35 4.477036 -0.043465 -1.581290 -0.332631 0.218360 0.154973
    36 1.344414 0.000000 0.000000 -0.042629 0.220735 -0.851579
    37 1.224670 0.000001 0.000000 0.008150 -0.000004 -0.000025
    38 2.630291 -0.359835 -1.904289 0.415078 0.423437 -0.720800
    39 1.059293 0.000000 0.000000 0.015101 0.038905 0.767148
    40 0.781204 0.000000 0.000000 0.004782 0.022537 0.418308
    41 -0.044717 2.528787 4.661499 -0.044541 -0.011881 0.011744
  time 30
    0 0.134374 -0.874409 35.160284 1.629586 -0.023330 -0.742427
    1 3.890452 -0.000008 -0.000003 -2.198688 -0.423566 -1.298100
    2 17.848175 -0.000001 0.000000 0.000000 0.000000 0.886829
    3 15.638507 0.000000 0.000000 0.041493 0.111969 -1.362538
    4 7.109929 0.000000 0.000000 -0.007119 -0.003131 -0.631738
    5 -3.890451 0.000003 0.000008 -1.355513 -0.351364 -1.787734
    6 17.848179 0.000000 0.000001 0.000000 0.000000 0.873347
    7 15.638511 0.000000 0.000000 0.009612 -0.209065 -1.489538
    8 7.109930 0.000000 0.000000 -0.081154 -0.003131 -0.631749
    9 0.050788 3.345128 -2.981901 1.574622 0.086321 1.569909
    10 4.018332 0.000000 0.000000 -0.017563 -0.071428 0.174121
    11 3.518571 0.000000 0.000000 -0.034807 -0.046213 0.301015
    12 8.942631 0.000000 0.000000 -0.051791 0.074664 0.187323
    13 3.307273 0.000000 0.000000 3.141590 0.004926 0.400478
    14 3.593712 0.000001 0.000000 0.284608 -0.092019 0.703424
    15 2.033346 1.000768 1.101697 2.385451 -1.528127 2.146508
    16 6.809416 0.000001 0.000000 -2.658718 -1.174553 0.026632
    17 12.391796 0.000000 0.000001 0.000000 0.000000 -0.869667
    18 9.337076 0.000000 -0.000031 -0.548101 0.587208 0.034904
    19 4.454020 -0.070210 0.572073 0.095490 -0.008587 -0.706335
    20 1.426597 -0.000001 0.000000 0.055908 -0.087976 -1.504206
    21 1.322468 -0.000002 0.000000 0.009312 -0.033625 -0.575065
    22 4.477066 -0.028570 1.582474 0.481653 -0.035390 -1.246096
    23 1.344418 0.000000 0.000000 0.023466 -0.208305 -0.755723
    24 1.224671 0.000000 0.000000 0.026043 -0.124620 -0.538676
    25 2.630323 -0.345015 1.907214 -0.354022 -0.915164 -1.788195
    26 1.059292 0.000000 0.000001 -0.001067 -0.012855 0.250988
    27 0.781203 0.000000 0.000000 -0.000096 -0.003210 0.062757
    28 2.033353 1.000771 -1.101647 -3.176988 1.193701 1.415651
    29 6.809417 0.000001 0.000000 1.484445 1.029485 -0.705731
    30 12.391794 0.000000 0.000001 0.000000 0.000000 -1.802890
    31 9.337102 0.000000 0.000003 -0.793414 0.044779 0.691268
    32 4.453986 -0.073766 -0.571672 0.047699 -0.153453 -0.767464
    33 1.426599 0.000002 0.000000 -0.053883 0.078890 -1.553256
    34 1.322465 -0.000001 0.000000 -0.013603 0.036958 -0.732277
    35 4.477036 -0.043465 -1.581290 -0.332631 0.218360 0.154973
    36 1.344414 0.000000 0.000000 -0.042629 0.220735 -0.851579
    37 1.224670 0.000001 0.000000 0.008150 -0.000004 -0.000025
    38 2.630291 -0.359835 -1.904289 0.415078 0.423437 -0.720800
    39 1.059293 0.000000 0.000000 0.015101 0.038905 0.767148
    40 0.781204 0.000000 0.000000 0.004782 0.022537 0.418308
    41 -0.044717 2.528787 4.661499 -0.043955 -0.014104 0.012305
  time 31
    0 -0.416424 -0.306047 35.767508 1.599681 -0.011411 -0.744054
    1 3.890452 -0.000008 -0.000003 -2.206228 -0.356570 -1.283245
    2 17.848175 -0.000001 0.000000 0.000000 0.000000 0.796855
    3 15.638507 0.000000 0.000000 0.039784 0.140992 -1.300093
    4 7.109929 0.000000 0.000000 -0.007119 -0.003131 -0.631738
    5 -3.890451 0.000003 0.000008 -1.429118 -0.291436 -1.714893
    6 17.848179 0.000000 0.000001 0.000000 0.000000 0.788537
    7 15.638511 0.000000 0.000000 0.018506 -0.141439 -1.446658
    8 7.109930 0.000000 0.000000 -0.081154 -0.003131 -0.631749
    9 0.023443 3.345128 -2.981901 1.572682 0.086293 1.570382
    10 4.018332 0.000000 0.000000 -0.014579 -0.095961 0.184157
    11 3.518571 0.000000 0.000000 -0.036925 -0.065028 0.317333
    12 8.942631 0.000000 0.000000 -0.065655 0.093923 0.205143
    13 3.307273 0.000000 0.000000 3.141590 0.002673 0.400478
    14 3.593712 0.000001 0.000000 0.308783 -0.142643 0.728647
    15 2.033346 1.000768 1.101697 2.385451 -1.528127 2.146508
    16 6.809416 0.000001 0.000000 -2.651737 -1.068242 0.018775
    17 12.391796 0.000000 0.000001 0.000000 0.000000 -1.072306
    18 9.337076 0.000000 -0.000031 -0.568175 0.596152 0.153642
    19 4.454020 -0.070210 0.572073 0.095490 -0.008587 -0.706335
    20 1.426597 -0.000001 0.000000 0.055908 -0.087976 -1.504206
    21 1.322468 -0.000002 0.000000 0.009312 -0.033625 -0.575065
    22 4.477066 -0.028570 1.582474 0.481653 -0.035390 -1.246096
    23 1.344418 0.000000 0.000000 0.023466 -0.208305 -0.755723
    24 1.224671 0.000000 0.000000 0.026043 -0.124620 -0.538676
    25 2.630323 -0.345015 1.907214 -0.354022 -0.915164 -1.788195
    26 1.059292 0.000000 0.000001 -0.001067 -0.012855 0.250988
    27 0.781203 0.000000 0.000000 -0.000096 -0.003210 0.062757
    28 2.033353 1.000771 -1.101647 -3.176988 1.193701 1.415651
    29 6.809417 0.000001 0.000000 1.456145 1.099825 -0.712441
    30 12.391794 0.000000 0.000001 0.000000 0.000000 -1.820702
    31 9.337102 0.000000 0.000003 -0.792197 0.065528 0.703875
    32 4.453986 -0.073766 -0.571672 0.047699 -0.153453 -0.767464
    33 1.426599 0.000002 0.000000 -0.053883 0.078890 -1.553256
    34 1.322465 -0.000001 0.000000 -0.013603 0.036958 -0.732277
    35 4.477036 -0.043465 -1.581290 -0.332631 0.218360 0.154973
    36 1.344414 0.000000 0.000000 -0.042629 0.220735 -0.851579
    37 1.224670 0.000001 0.000000 0.008150 -0.000004 -0.000025
    38 2.630291 -0.359835 -1.904289 0.415078 0.423437 -0.720800
    39 1.059293 0.000000 0.000000 0.015101 0.038905 0.767148
    40 0.781204 0.000000 0.000000 0.004782 0.022537 0.418308
    41 -0.044717 2.528787 4.661499 -0.043304 -0.016265 0.012906
  time 32
    0 -0.951596 0.241536 36.364441 1.570626 0.000000 -0.746639
    1 3.890452 -0.000008 -0.000003 -2.211572 -0.286262 -1.275004
    2 17.848175 -0.000001 0.000000 0.000000 0.000000 0.694007
    3 15.638507 0.000000 0.000000 0.038170 0.167534 -1.231524
    4 7.109929 0.000000 0.000000 -0.007119 -0.003131 -0.631738
    5 -3.890451 0.000003 0.000008 -1.497383 -0.223439 -1.650471
    6 17.848179 0.000000 0.000001 0.000000 0.000000 0.691299
    7 15.638511 0.000000 0.000000 0.028049 -0.075405 -1.394802
    8 7.109930 0.000000 0.000000 -0.081154 -0.003131 -0.631749
    9 0.000005 3.345128 -2.981901 1.570796 0.086293 1.570796
    10 4.018332 0.000000 0.000000 -0.011799 -0.120110 0.193933
    11 3.518571 0.000000 0.000000 -0.039210 -0.083509 0.333403
    12 8.942631 0.000000 0.000000 -0.078838 0.112907 0.222365
    13 3.307273 0.000000 0.000000 3.141590 0.000000 0.400478
    14 3.593712 0.000001 0.000000 0.332198 -0.192859 0.751981
    15 2.033346 1.000768 1.101697 2.385451 -1.528127 2.146508
    16 6.809416 0.000001 0.000000 -2.694293 -0.975312 0.059953
    17 12.391796 0.000000 0.000001 0.000000 0.000000 -1.218411
    18 9.337076 0.000000 -0.000031 -0.588339 0.613447 0.243532
    19 4.454020 -0.070210 0.572073 0.095490 -0.008587 -0.706335
    20 1.426597 -0.000001 0.000000 0.055908 -0.087976 -1.504206
    21 1.322468 -0.000002 0.000000 0.009312 -0.033625 -0.575065
    22 4.477066 -0.028570 1.582474 0.481653 -0.035390 -1.246096
    23 1.344418 0.000000 0.000000 0.023466 -0.208305 -0.755723
    24 1.224671 0.000000 0.000000 0.026043 -0.124620 -0.538676
    25 2.630323 -0.345015 1.907214 -0.354022 -0.915164 -1.788195
    26 1.059292 0.000000 0.000001 -0.001067 -0.012855 0.250988
    27 0.781203 0.000000 0.000000 -0.000096 -0.003210 0.062757
    28 2.033353 1.000771 -1.101647 -3.176988 1.193701 1.415651
    29 6.809417 0.000001 0.000000 1.431063 1.169641 -0.721560
    30 12.391794 0.000000 0.000001 0.000000 0.000000 -1.834708
    31 9.337102 0.000000 0.000003 -0.790533 0.086238 0.716395
    32 4.453986 -0.073766 -0.571672 0.047699 -0.153453 -0.767464
    33 1.426599 0.000002 0.000000 -0.053883 0.078890 -1.553256
    34 1.322465 -0.000001 0.000000 -0.013603 0.036958 -0.732277
    35 4.477036 -0.043465 -1.581290 -0.332631 0.218360 0.154973
    36 1.344414 0.000000 0.000000 -0.042629 0.220735 -0.851579
    37 1.224670 0.000001 0.000000 0.008150 -0.000004 -0.000025
    38 2.630291 -0.359835 -1.904289 0.415078 0.423437 -0.720800
    39 1.059293 0.000000 0.000000 0.015101 0.038905 0.767148
    40 0.781204 0.000000 0.000000 0.004782 0.022537 0.418308
    41 -0.044717 2.528787 4.661499 -0.042654 -0.018202 0.013427
end
