// Created by Crowbar 0.62
version 1
nodes
  0 "ValveBiped.Bip01_Pelvis" -1
  1 "ValveBiped.Bip01_L_Thigh" 0
  2 "ValveBiped.Bip01_L_Calf" 1
  3 "ValveBiped.Bip01_L_Foot" 2
  4 "ValveBiped.Bip01_L_Toe0" 3
  5 "ValveBiped.Bip01_R_Thigh" 0
  6 "ValveBiped.Bip01_R_Calf" 5
  7 "ValveBiped.Bip01_R_Foot" 6
  8 "ValveBiped.Bip01_R_Toe0" 7
  9 "ValveBiped.Bip01_Spine" 0
  10 "ValveBiped.Bip01_Spine1" 9
  11 "ValveBiped.Bip01_Spine2" 10
  12 "ValveBiped.Bip01_Spine4" 11
  13 "ValveBiped.Bip01_Neck1" 12
  14 "ValveBiped.Bip01_Head1" 13
  15 "ValveBiped.Bip01_L_Clavicle" 12
  16 "ValveBiped.Bip01_L_UpperArm" 15
  17 "ValveBiped.Bip01_L_Forearm" 16
  18 "ValveBiped.Bip01_L_Hand" 17
  19 "ValveBiped.Bip01_L_Finger2" 18
  20 "ValveBiped.Bip01_L_Finger21" 19
  21 "ValveBiped.Bip01_L_Finger22" 20
  22 "ValveBiped.Bip01_L_Finger1" 18
  23 "ValveBiped.Bip01_L_Finger11" 22
  24 "ValveBiped.Bip01_L_Finger12" 23
  25 "ValveBiped.Bip01_L_Finger0" 18
  26 "ValveBiped.Bip01_L_Finger01" 25
  27 "ValveBiped.Bip01_L_Finger02" 26
  28 "ValveBiped.Bip01_R_Clavicle" 12
  29 "ValveBiped.Bip01_R_UpperArm" 28
  30 "ValveBiped.Bip01_R_Forearm" 29
  31 "ValveBiped.Bip01_R_Hand" 30
  32 "ValveBiped.Bip01_R_Finger2" 31
  33 "ValveBiped.Bip01_R_Finger21" 32
  34 "ValveBiped.Bip01_R_Finger22" 33
  35 "ValveBiped.Bip01_R_Finger1" 31
  36 "ValveBiped.Bip01_R_Finger11" 35
  37 "ValveBiped.Bip01_R_Finger12" 36
  38 "ValveBiped.Bip01_R_Finger0" 31
  39 "ValveBiped.Bip01_R_Finger01" 38
  40 "ValveBiped.Bip01_R_Finger02" 39
  41 "ValveBiped.Cod" 0
end
skeleton
  time 0
    0 1.021120 -0.609438 15.451209 1.536049 -0.192782 -0.705196
    1 3.890452 -0.000008 -0.000003 -3.382798 -1.034192 -0.104672
    2 17.848171 -0.000001 0.000001 0.000000 0.000000 2.250771
    3 15.638507 0.000000 0.000000 0.310771 0.114049 -1.494172
    4 7.109929 0.000000 0.000000 -0.007719 -0.002076 -0.434637
    5 -3.890451 0.000003 0.000008 -1.065006 -0.414982 -2.475851
    6 17.848181 0.000001 -0.000001 0.000000 0.000000 2.364663
    7 15.638511 0.000000 0.000000 -1.447105 -0.583149 0.030050
    8 7.109930 0.000000 0.000000 -0.076120 -0.005552 -1.566084
    9 -0.046871 3.345128 -2.981901 1.570796 0.047921 1.585809
    10 4.018332 0.000000 0.000000 -0.019416 -0.119343 0.257210
    11 3.518571 0.000000 0.000000 0.034576 -0.082837 0.379094
    12 8.942633 -0.000001 0.000000 -0.071997 0.116406 0.283740
    13 3.307274 0.000000 0.000000 3.141782 0.261791 0.400478
    14 3.593713 0.000001 0.000000 0.781808 0.029058 0.813002
    15 2.033346 1.000768 1.101697 2.385451 -1.528127 2.146508
    16 6.809416 0.000001 0.000000 -3.068690 -1.155683 0.432072
    17 12.391796 0.000000 0.000001 0.000000 0.000000 -0.932272
    18 9.337076 0.000000 -0.000031 -0.711194 0.470316 -0.114990
    19 4.454020 -0.070210 0.572073 0.095490 -0.008587 -0.706366
    20 1.426597 -0.000001 0.000000 0.055908 -0.087976 -1.504206
    21 1.322468 -0.000002 0.000000 0.009312 -0.033625 -0.575065
    22 4.477066 -0.028570 1.582474 0.481653 -0.035390 -1.246096
    23 1.344418 0.000000 0.000000 0.023466 -0.208305 -0.755723
    24 1.224671 0.000000 0.000000 0.026043 -0.124620 -0.538676
    25 2.630323 -0.345015 1.907214 -0.354022 -0.915164 -1.788195
    26 1.059292 0.000000 0.000001 -0.001067 -0.012855 0.250988
    27 0.781203 0.000000 0.000000 -0.000096 -0.003210 0.062757
    28 2.033353 1.000771 -1.101647 -3.176988 1.193701 1.415651
    29 6.809417 0.000001 0.000000 1.925885 1.078233 -0.202748
    30 12.391794 0.000000 0.000001 0.000000 0.000000 -1.966145
    31 9.337102 0.000000 0.000003 -0.908496 0.059170 0.893404
    32 4.453986 -0.073766 -0.571672 0.047699 -0.153453 -0.767464
    33 1.426599 0.000002 0.000000 -0.053883 0.078890 -1.553256
    34 1.322465 -0.000001 0.000000 -0.013603 0.036958 -0.732277
    35 4.477036 -0.043465 -1.581290 -0.332631 0.218360 0.154973
    36 1.344414 0.000000 0.000000 -0.042629 0.220735 -0.851579
    37 1.224670 0.000001 0.000000 0.008150 -0.000004 -0.000025
    38 2.630291 -0.359835 -1.904289 0.415078 0.423437 -0.720800
    39 1.059293 0.000000 0.000000 0.015101 0.038905 0.767148
    40 0.781204 0.000000 0.000000 0.004782 0.022537 0.418308
    41 -0.044717 2.528787 4.661499 -0.039270 0.000000 0.000000
  time 1
    0 1.173468 -0.609438 15.451209 1.536049 -0.192782 -0.705196
    1 3.890452 -0.000008 -0.000003 -3.392533 -1.039727 -0.102851
    2 17.848171 -0.000001 0.000001 0.000000 0.000000 2.248138
    3 15.638507 0.000000 0.000000 0.312923 0.104382 -1.491766
    4 7.109929 0.000000 0.000000 -0.007719 -0.002076 -0.434637
    5 -3.890451 0.000003 0.000008 -1.065101 -0.424232 -2.483324
    6 17.848181 0.000001 -0.000001 0.000000 0.000000 2.366044
    7 15.638511 0.000000 0.000000 -1.451182 -0.584196 0.042369
    8 7.109930 0.000000 0.000000 -0.076120 -0.005552 -1.566084
    9 -0.046871 3.345128 -2.981901 1.570796 0.047921 1.585809
    10 4.018332 0.000000 0.000000 -0.019416 -0.119343 0.257210
    11 3.518571 0.000000 0.000000 -0.007171 -0.080716 0.417513
    12 8.942633 -0.000001 0.000000 -0.075438 0.114705 0.253044
    13 3.307274 0.000000 0.000000 3.141782 0.261791 0.400478
    14 3.593713 0.000001 0.000000 0.823322 0.022827 0.809477
    15 2.033346 1.000768 1.101697 2.385451 -1.528127 2.146508
    16 6.809416 0.000001 0.000000 -3.031298 -1.080790 0.375369
    17 12.391796 0.000000 0.000001 0.000000 0.000000 -0.967044
    18 9.337076 0.000000 -0.000031 -0.740012 0.492379 -0.097047
    19 4.454020 -0.070210 0.572073 0.095490 -0.008587 -0.706366
    20 1.426597 -0.000001 0.000000 0.055908 -0.087976 -1.504206
    21 1.322468 -0.000002 0.000000 0.009312 -0.033625 -0.575065
    22 4.477066 -0.028570 1.582474 0.481653 -0.035390 -1.246096
    23 1.344418 0.000000 0.000000 0.023466 -0.208305 -0.755723
    24 1.224671 0.000000 0.000000 0.026043 -0.124620 -0.538676
    25 2.630323 -0.345015 1.907214 -0.354022 -0.915164 -1.788195
    26 1.059292 0.000000 0.000001 -0.001067 -0.012855 0.250988
    27 0.781203 0.000000 0.000000 -0.000096 -0.003210 0.062757
    28 2.033353 1.000771 -1.101647 -3.176988 1.193701 1.415651
    29 6.809417 0.000001 0.000000 1.975670 1.168414 -0.140639
    30 12.391794 0.000000 0.000001 0.000000 0.000000 -1.895614
    31 9.337102 0.000000 0.000003 -0.904463 0.037698 0.880279
    32 4.453986 -0.073766 -0.571672 0.047699 -0.153453 -0.767464
    33 1.426599 0.000002 0.000000 -0.053883 0.078890 -1.553256
    34 1.322465 -0.000001 0.000000 -0.013603 0.036958 -0.732277
    35 4.477036 -0.043465 -1.581290 -0.332631 0.218360 0.154973
    36 1.344414 0.000000 0.000000 -0.042629 0.220735 -0.851579
    37 1.224670 0.000001 0.000000 0.008150 -0.000004 -0.000025
    38 2.630291 -0.359835 -1.904289 0.415078 0.423437 -0.720800
    39 1.059293 0.000000 0.000000 0.015101 0.038905 0.767148
    40 0.781204 0.000000 0.000000 0.004782 0.022537 0.418308
    41 -0.044717 2.528787 4.661499 -0.039270 0.000000 0.000000
  time 2
    0 1.321910 -0.609438 15.451209 1.536049 -0.192782 -0.705196
    1 3.890452 -0.000008 -0.000003 -3.402268 -1.045168 -0.101030
    2 17.848171 -0.000001 0.000001 0.000000 0.000000 2.245431
    3 15.638507 0.000000 0.000000 0.315075 0.094763 -1.489287
    4 7.109929 0.000000 0.000000 -0.007719 -0.002076 -0.434637
    5 -3.890451 0.000003 0.000008 -1.065196 -0.433482 -2.490892
    6 17.848181 0.000001 -0.000001 0.000000 0.000000 2.367262
    7 15.638511 0.000000 0.000000 -1.455258 -0.585197 0.054784
    8 7.109930 0.000000 0.000000 -0.076120 -0.005552 -1.566084
    9 -0.046871 3.345128 -2.981901 1.570796 0.047921 1.585809
    10 4.018332 0.000000 0.000000 -0.019416 -0.119343 0.257210
    11 3.518571 0.000000 0.000000 -0.048625 -0.076965 0.455754
    12 8.942633 -0.000001 0.000000 -0.078838 0.112907 0.222365
    13 3.307274 0.000000 0.000000 3.141782 0.261791 0.400478
    14 3.593713 0.000001 0.000000 0.864456 0.015546 0.805448
    15 2.033346 1.000768 1.101697 2.385451 -1.528127 2.146508
    16 6.809416 0.000001 0.000000 -3.014467 -1.002858 0.339871
    17 12.391796 0.000000 0.000001 0.000000 0.000000 -0.997952
    18 9.337076 0.000000 -0.000031 -0.770882 0.517533 -0.080892
    19 4.454020 -0.070210 0.572073 0.095490 -0.008587 -0.706366
    20 1.426597 -0.000001 0.000000 0.055908 -0.087976 -1.504206
    21 1.322468 -0.000002 0.000000 0.009312 -0.033625 -0.575065
    22 4.477066 -0.028570 1.582474 0.481653 -0.035390 -1.246096
    23 1.344418 0.000000 0.000000 0.023466 -0.208305 -0.755723
    24 1.224671 0.000000 0.000000 0.026043 -0.124620 -0.538676
    25 2.630323 -0.345015 1.907214 -0.354022 -0.915164 -1.788195
    26 1.059292 0.000000 0.000001 -0.001067 -0.012843 0.250988
    27 0.781203 0.000000 0.000000 -0.000096 -0.003210 0.062757
    28 2.033353 1.000771 -1.101647 -3.176988 1.193701 1.415651
    29 6.809417 0.000001 0.000000 2.057825 1.257019 -0.049195
    30 12.391794 0.000000 0.000001 0.000000 0.000000 -1.825155
    31 9.337102 0.000000 0.000003 -0.900367 0.015997 0.866982
    32 4.453986 -0.073766 -0.571672 0.047699 -0.153453 -0.767464
    33 1.426599 0.000002 0.000000 -0.053883 0.078890 -1.553256
    34 1.322465 -0.000001 0.000000 -0.013603 0.036958 -0.732277
    35 4.477036 -0.043465 -1.581290 -0.332631 0.218360 0.154973
    36 1.344414 0.000000 0.000000 -0.042629 0.220735 -0.851579
    37 1.224670 0.000001 0.000000 0.008150 -0.000004 -0.000025
    38 2.630291 -0.359835 -1.904289 0.415078 0.423437 -0.720800
    39 1.059293 0.000000 0.000000 0.015101 0.038905 0.767148
    40 0.781204 0.000000 0.000000 0.004782 0.022537 0.418308
    41 -0.044717 2.528787 4.661499 -0.039270 0.000000 0.000000
end
