"VGUI_Screens"
{
   "vgui_test_screen"
   {
       "type"		"vgui_screen_panel"
       //"type"		"vgui_test_screen"
       "pixelswide"	480
       "pixelshigh"	240
       "resfile"	"scripts/screens/vgui_test_screen.res"
       //"resfile"	"resource/SteamPasswordDialog.res"
	   "acceptsinput" 1
   } 
}
