// Created by Crowbar 0.62
version 1
nodes
  0 "ValveBiped.Bip01" -1
  1 "ValveBiped.Bip01_Spine" 0
  2 "ValveBiped.Bip01_Spine1" 1
  3 "ValveBiped.Bip01_Spine2" 2
  4 "ValveBiped.Bip01_Spine4" 3
  5 "ValveBiped.Bip01_R_Clavicle" 4
  6 "ValveBiped.Bip01_R_UpperArm" 5
  7 "ValveBiped.Bip01_R_Forearm" 6
  8 "ValveBiped.Bip01_R_Hand" 7
  9 "ValveBiped.HandControlRotGrandmaR" -1
  10 "ValveBiped.HandControlRotParentR" 9
  11 "ValveBiped.HandControlRotR" 10
  12 "ValveBiped.Tip" 11
end
skeleton
  time 0
    0 -0.003761 -14.613722 -29.431251 1.570796 0.000000 0.000000
    1 0.000005 3.345129 -2.981902 1.570796 0.086293 1.570796
    2 4.018331 0.000000 0.000000 0.000000 0.000000 -0.029242
    3 3.518568 0.000002 0.000000 0.000000 0.000000 0.100336
    4 8.942643 -0.000001 0.000000 0.000000 0.000000 0.194096
    5 2.033353 1.000771 -1.937610 -1.668474 1.286518 2.942952
    6 6.028141 0.000001 -0.000001 1.648243 0.686902 -0.731820
    7 11.692554 0.000001 0.000000 0.000000 0.000000 -0.963135
    8 11.481696 0.000002 0.000001 -0.876950 0.007834 0.141775
    9 -12.294241 -19.075234 -17.728876 -2.078310 -0.025571 -1.556634
    10 11.481701 -0.000002 -0.000001 -1.564936 0.106606 0.044193
    11 -0.000001 -0.000001 0.000003 0.687198 -0.098155 -0.098175
    12 11.123108 -1.935453 -15.150163 -0.684337 -0.009375 -1.609104
  time 1
    0 -0.003761 -14.613722 -29.431251 1.570796 0.000000 0.000000
    1 0.000005 3.345129 -2.981902 1.570796 0.086293 1.570796
    2 4.018331 0.000000 0.000000 0.000000 0.000000 -0.029242
    3 3.518568 0.000002 0.000000 0.000000 0.000000 0.100336
    4 8.942643 -0.000001 0.000000 0.000000 0.000000 0.194096
    5 2.033353 1.000771 -1.937610 -1.668474 1.286518 2.942952
    6 6.028141 0.000001 -0.000001 1.644720 0.648469 -0.754794
    7 11.692554 0.000001 0.000000 0.000000 0.000000 -0.998815
    8 11.481696 0.000002 0.000001 -0.944357 0.007834 0.141775
    9 -12.266897 -18.696316 -18.049199 -2.059761 -0.022310 -1.558965
    10 11.481701 -0.000002 -0.000001 -1.564936 0.106606 0.044193
    11 -0.000001 -0.000001 0.000003 0.619820 -0.098155 -0.098175
    12 11.123108 -1.935453 -15.150163 -0.684337 -0.009375 -1.609104
  time 2
    0 -0.003761 -14.613722 -29.431251 1.570796 0.000000 0.000000
    1 0.000005 3.345129 -2.981902 1.570796 0.086293 1.570796
    2 4.018331 0.000000 0.000000 0.000000 0.000000 -0.029242
    3 3.518568 0.000002 0.000000 0.000000 0.000000 0.100336
    4 8.942643 -0.000001 0.000000 0.000000 0.000000 0.194096
    5 2.033353 1.000771 -1.937610 -1.668474 1.286518 2.942952
    6 6.028141 0.000001 -0.000001 1.637038 0.548603 -0.809398
    7 11.692554 0.000001 0.000000 0.000000 0.000000 -1.080469
    8 11.481696 0.000002 0.000001 -1.105031 0.007834 0.141775
    9 -12.149706 -17.672847 -18.807034 -2.015200 -0.003777 -1.569050
    10 11.481701 -0.000002 -0.000001 -1.564936 0.106606 0.044193
    11 -0.000001 -0.000001 0.000003 0.459143 -0.098155 -0.098175
    12 11.123108 -1.935453 -15.150163 -0.684337 -0.009375 -1.609104
  time 3
    0 -0.003761 -14.613722 -29.431251 1.570796 0.000000 0.000000
    1 0.000005 3.345129 -2.981902 1.570796 0.086293 1.570796
    2 4.018331 0.000000 0.000000 0.000000 0.000000 -0.029242
    3 3.518568 0.000002 0.000000 0.000000 0.000000 0.100336
    4 8.942643 -0.000001 0.000000 0.000000 0.000000 0.194096
    5 2.033353 1.000771 -1.937610 -1.668474 1.286518 2.942952
    6 6.028141 0.000001 -0.000001 1.629176 0.411675 -0.873763
    7 11.692554 0.000001 0.000000 0.000000 0.000000 -1.165659
    8 11.481696 0.000002 0.000001 -1.296839 0.007834 0.141775
    9 -11.907511 -16.176708 -19.650810 -1.962446 0.047006 -1.590233
    10 11.481701 -0.000002 -0.000001 -1.564936 0.106606 0.044193
    11 -0.000001 -0.000001 0.000003 0.267330 -0.098155 -0.098175
    12 11.123108 -1.935453 -15.150163 -0.684337 -0.009375 -1.609104
  time 4
    0 -0.003761 -14.613722 -29.431251 1.570796 0.000000 0.000000
    1 0.000005 3.345129 -2.981902 1.570796 0.086293 1.570796
    2 4.018331 0.000000 0.000000 0.000000 0.000000 -0.029242
    3 3.518568 0.000002 0.000000 0.000000 0.000000 0.100336
    4 8.942643 -0.000001 0.000000 0.000000 0.000000 0.194096
    5 2.033353 1.000771 -1.937610 -1.668474 1.286518 2.942952
    6 6.028141 0.000001 -0.000001 1.623100 0.261744 -0.933846
    7 11.692554 0.000001 0.000000 0.000000 0.000000 -1.219495
    8 11.481696 0.000002 0.000001 -1.457546 0.007834 0.141775
    9 -11.555938 -14.461812 -20.310987 -1.915326 0.141164 -1.621299
    10 11.481701 -0.000002 -0.000001 -1.564936 0.106606 0.044193
    11 -0.000001 -0.000001 0.000003 0.106652 -0.098155 -0.098175
    12 11.123108 -1.935453 -15.150163 -0.684337 -0.009375 -1.609104
  time 5
    0 -0.003761 -14.613722 -29.431251 1.570796 0.000000 0.000000
    1 0.000005 3.345129 -2.981902 1.570796 0.086293 1.570796
    2 4.018331 0.000000 0.000000 0.000000 0.000000 -0.029242
    3 3.518568 0.000002 0.000000 0.000000 0.000000 0.100336
    4 8.942643 -0.000001 0.000000 0.000000 0.000000 0.194096
    5 2.033353 1.000771 -1.937610 -1.668474 1.286518 2.942952
    6 6.028141 0.000001 -0.000001 1.619073 0.122516 -0.983616
    7 11.692554 0.000001 0.000000 0.000000 0.000000 -1.220127
    8 11.481696 0.000002 0.000001 -1.524919 0.007834 0.141775
    9 -11.161394 -12.821137 -20.666466 -1.881822 0.277510 -1.658648
    10 11.481701 -0.000002 -0.000001 -1.564936 0.106606 0.044193
    11 -0.000001 -0.000001 0.000003 0.039239 -0.098155 -0.098175
    12 11.123108 -1.935453 -15.150163 -0.684337 -0.009375 -1.609104
  time 6
    0 -0.003761 -14.613722 -29.431251 1.570796 0.000000 0.000000
    1 0.000005 3.345129 -2.981902 1.570796 0.086293 1.570796
    2 4.018331 0.000000 0.000000 0.000000 0.000000 -0.029242
    3 3.518568 0.000002 0.000000 0.000000 0.000000 0.100336
    4 8.942643 -0.000001 0.000000 0.000000 0.000000 0.194096
    5 2.033353 1.000771 -1.937610 -1.668474 1.286518 2.942952
    6 6.028141 0.000001 -0.000001 1.616616 0.014646 -1.021968
    7 11.692554 0.000001 0.000000 0.000000 0.000000 -1.160355
    8 11.481696 0.000002 0.000001 -1.524919 0.007834 0.141775
    9 -10.790289 -11.543754 -20.783657 -1.865587 0.442752 -1.700204
    10 11.481701 -0.000002 -0.000001 -1.564936 0.106606 0.044193
    11 -0.000001 -0.000001 0.000003 0.039239 -0.098155 -0.098175
    12 11.123108 -1.935453 -15.150163 -0.684337 -0.009375 -1.609104
  time 7
    0 -0.003761 -14.613722 -29.431251 1.570796 0.000000 0.000000
    1 0.000005 3.345129 -2.981902 1.570796 0.086293 1.570796
    2 4.018331 0.000000 0.000000 0.000000 0.000000 -0.029242
    3 3.518568 0.000002 0.000000 0.000000 0.000000 0.100336
    4 8.942643 -0.000001 0.000000 0.000000 0.000000 0.194096
    5 2.033353 1.000771 -1.937610 -1.668474 1.286518 2.942952
    6 6.028141 0.000001 -0.000001 1.615070 -0.049794 -1.049500
    7 11.692554 0.000001 0.000000 0.000000 0.000000 -1.047788
    8 11.481696 0.000002 0.000001 -1.524919 0.007834 0.141775
    9 -10.497311 -10.778105 -20.791470 -1.867720 0.616956 -1.746017
    10 11.481701 -0.000002 -0.000001 -1.564936 0.106606 0.044193
    11 -0.000001 -0.000001 0.000003 0.039239 -0.098155 -0.098175
    12 11.123108 -1.935453 -15.150163 -0.684337 -0.009375 -1.609104
  time 8
    0 -0.003761 -14.613722 -29.431251 1.570796 0.000000 0.000000
    1 0.000005 3.345129 -2.981902 1.570796 0.086293 1.570796
    2 4.018331 0.000000 0.000000 0.000000 0.000000 -0.029242
    3 3.518568 0.000002 0.000000 0.000000 0.000000 0.100336
    4 8.942643 -0.000001 0.000000 0.000000 0.000000 0.194096
    5 2.033353 1.000771 -1.937610 -1.668474 1.286518 2.942952
    6 6.028141 0.000001 -0.000001 1.613991 -0.071200 -1.067502
    7 11.692554 0.000001 0.000000 0.000000 0.000000 -0.904847
    8 11.481696 0.000002 0.000001 -1.524919 0.007834 0.141775
    9 -10.298087 -10.520285 -20.807095 -1.887579 0.777839 -1.796948
    10 11.481701 -0.000002 -0.000001 -1.564936 0.106606 0.044193
    11 -0.000001 -0.000001 0.000003 0.039239 -0.098155 -0.098175
    12 11.123108 -1.935453 -15.150163 -0.684337 -0.009375 -1.609104
  time 9
    0 -0.003761 -14.613722 -29.431251 1.570796 0.000000 0.000000
    1 0.000005 3.345129 -2.981902 1.570796 0.086293 1.570796
    2 4.018331 0.000000 0.000000 0.000000 0.000000 -0.029242
    3 3.518568 0.000002 0.000000 0.000000 0.000000 0.100336
    4 8.942643 -0.000001 0.000000 0.000000 0.000000 0.194096
    5 2.033353 1.000771 -1.937610 -1.668474 1.286518 2.942952
    6 6.028141 0.000001 -0.000001 1.613284 -0.064079 -1.077493
    7 11.692554 0.000001 0.000000 0.000000 0.000000 -0.772198
    8 11.481696 0.000002 0.000001 -1.524919 0.007834 0.141775
    9 -10.180896 -10.598413 -20.842253 -1.918281 0.899492 -1.847170
    10 11.481701 -0.000002 -0.000001 -1.564936 0.106606 0.044193
    11 -0.000001 -0.000001 0.000003 0.039239 -0.098155 -0.098175
    12 11.123108 -1.935453 -15.150163 -0.684337 -0.009375 -1.609104
  time 10
    0 -0.003761 -14.613722 -29.431251 1.570796 0.000000 0.000000
    1 0.000005 3.345129 -2.981902 1.570796 0.086293 1.570796
    2 4.018331 0.000000 0.000000 0.000000 0.000000 -0.029242
    3 3.518568 0.000002 0.000000 0.000000 0.000000 0.100336
    4 8.942643 -0.000001 0.000000 0.000000 0.000000 0.194096
    5 2.033353 1.000771 -1.937610 -1.668474 1.286518 2.942952
    6 6.028141 0.000001 -0.000001 1.613021 -0.055411 -1.080716
    7 11.692554 0.000001 0.000000 0.000000 0.000000 -0.712963
    8 11.481696 0.000002 0.000001 -1.524919 0.007834 0.141775
    9 -10.141832 -10.696072 -20.865691 -1.936038 0.948080 -1.872002
    10 11.481701 -0.000002 -0.000001 -1.564936 0.106606 0.044193
    11 -0.000001 -0.000001 0.000003 0.039239 -0.098155 -0.098175
    12 11.123108 -1.935453 -15.150163 -0.684337 -0.009375 -1.609104
end
