// Created by Crowbar 0.62
version 1
nodes
  0 "static_prop" -1
end
skeleton
  time 0
    0 0.000000 0.000000 0.000000 0.000000 0.000000 0.000000
end
triangles
grenade2
  0 0.000000 4.284700 3.376400 0.000000 1.000000 0.000000 0.681300 0.030200 1 0 1.000000
  0 -1.686700 4.284700 1.689700 0.000000 1.000000 0.000000 0.854000 0.202900 1 0 1.000000
  0 -1.192600 4.284700 2.882400 0.000000 1.000000 0.000000 0.803400 0.080800 1 0 1.000000
grenade2
  0 1.192600 4.284700 2.882400 0.000000 1.000000 0.000000 0.559200 0.080800 1 0 1.000000
  0 -1.686700 4.284700 1.689700 0.000000 1.000000 0.000000 0.854000 0.202900 1 0 1.000000
  0 0.000000 4.284700 3.376400 0.000000 1.000000 0.000000 0.681300 0.030200 1 0 1.000000
grenade2
  0 1.686700 4.284700 1.689700 0.000000 1.000000 0.000000 0.508700 0.202900 1 0 1.000000
  0 -1.686700 4.284700 1.689700 0.000000 1.000000 0.000000 0.854000 0.202900 1 0 1.000000
  0 1.192600 4.284700 2.882400 0.000000 1.000000 0.000000 0.559200 0.080800 1 0 1.000000
grenade2
  0 1.192600 4.284700 0.497100 0.000000 1.000000 0.000000 0.559200 0.325000 1 0 1.000000
  0 -1.686700 4.284700 1.689700 0.000000 1.000000 0.000000 0.854000 0.202900 1 0 1.000000
  0 1.686700 4.284700 1.689700 0.000000 1.000000 0.000000 0.508700 0.202900 1 0 1.000000
grenade2
  0 0.000000 4.284700 0.003100 0.000000 1.000000 0.000000 0.681300 0.375600 1 0 1.000000
  0 -1.686700 4.284700 1.689700 0.000000 1.000000 0.000000 0.854000 0.202900 1 0 1.000000
  0 1.192600 4.284700 0.497100 0.000000 1.000000 0.000000 0.559200 0.325000 1 0 1.000000
grenade2
  0 -1.192600 4.284700 0.497100 0.000000 1.000000 0.000000 0.803400 0.325000 1 0 1.000000
  0 -1.686700 4.284700 1.689700 0.000000 1.000000 0.000000 0.854000 0.202900 1 0 1.000000
  0 0.000000 4.284700 0.003100 0.000000 1.000000 0.000000 0.681300 0.375600 1 0 1.000000
grenade2
  0 0.631000 -4.159100 1.689700 0.484824 -0.872843 0.055603 0.204000 0.204200 1 0 1.000000
  0 1.344700 -3.534200 1.689700 0.824486 -0.565590 0.018200 0.144600 0.204200 1 0 1.000000
  0 0.950800 -3.534200 2.640600 0.570096 -0.565596 0.595896 0.177400 0.283400 1 0 1.000000
grenade2
  0 0.446200 -4.159100 1.243500 0.382121 -0.872847 -0.303516 0.219400 0.167100 1 0 1.000000
  0 1.344700 -3.534200 1.689700 0.824486 -0.565590 0.018200 0.144600 0.204200 1 0 1.000000
  0 0.631000 -4.159100 1.689700 0.484824 -0.872843 0.055603 0.204000 0.204200 1 0 1.000000
grenade2
  0 0.446200 -4.159100 1.243500 0.382121 -0.872847 -0.303516 0.219400 0.167100 1 0 1.000000
  0 0.950800 -3.534200 0.738900 0.595896 -0.565596 -0.570096 0.177400 0.125100 1 0 1.000000
  0 1.344700 -3.534200 1.689700 0.824486 -0.565590 0.018200 0.144600 0.204200 1 0 1.000000
grenade2
  0 0.950800 -3.534200 2.640600 0.570096 -0.565596 0.595896 0.177400 0.283400 1 0 1.000000
  0 1.152200 -2.734000 2.841900 0.785833 -0.168207 0.595125 0.119300 0.341500 1 0 1.000000
  0 0.000000 -2.734000 3.319100 0.134799 -0.168199 0.976493 0.256500 0.398300 1 0 1.000000
grenade2
  0 1.344700 -3.534200 1.689700 0.824486 -0.565590 0.018200 0.144600 0.204200 1 0 1.000000
  0 1.152200 -2.734000 2.841900 0.785833 -0.168207 0.595125 0.119300 0.341500 1 0 1.000000
  0 0.950800 -3.534200 2.640600 0.570096 -0.565596 0.595896 0.177400 0.283400 1 0 1.000000
grenade2
  0 1.344700 -3.534200 1.689700 0.824486 -0.565590 0.018200 0.144600 0.204200 1 0 1.000000
  0 1.629400 -2.734000 1.689700 0.976493 -0.168199 -0.134799 0.062500 0.204200 1 0 1.000000
  0 1.152200 -2.734000 2.841900 0.785833 -0.168207 0.595125 0.119300 0.341500 1 0 1.000000
grenade2
  0 0.950800 -3.534200 0.738900 0.595896 -0.565596 -0.570096 0.177400 0.125100 1 0 1.000000
  0 1.629400 -2.734000 1.689700 0.976493 -0.168199 -0.134799 0.062500 0.204200 1 0 1.000000
  0 1.344700 -3.534200 1.689700 0.824486 -0.565590 0.018200 0.144600 0.204200 1 0 1.000000
grenade2
  0 0.950800 -3.534200 0.738900 0.595896 -0.565596 -0.570096 0.177400 0.125100 1 0 1.000000
  0 1.152200 -2.734000 0.537600 0.595125 -0.168207 -0.785833 0.119300 0.067000 1 0 1.000000
  0 1.629400 -2.734000 1.689700 0.976493 -0.168199 -0.134799 0.062500 0.204200 1 0 1.000000
grenade2
  0 0.000000 -3.534200 0.345000 0.018200 -0.565590 -0.824486 0.256500 0.092300 1 0 1.000000
  0 1.152200 -2.734000 0.537600 0.595125 -0.168207 -0.785833 0.119300 0.067000 1 0 1.000000
  0 0.950800 -3.534200 0.738900 0.595896 -0.565596 -0.570096 0.177400 0.125100 1 0 1.000000
grenade2
  0 0.000000 -3.534200 0.345000 0.018200 -0.565590 -0.824486 0.256500 0.092300 1 0 1.000000
  0 0.000000 -2.734000 0.060300 -0.134799 -0.168199 -0.976493 0.256500 0.010200 1 0 1.000000
  0 1.152200 -2.734000 0.537600 0.595125 -0.168207 -0.785833 0.119300 0.067000 1 0 1.000000
grenade2
  0 -0.950800 -3.534200 0.738900 -0.570096 -0.565596 -0.595896 0.335700 0.125100 1 0 1.000000
  0 0.000000 -2.734000 0.060300 -0.134799 -0.168199 -0.976493 0.256500 0.010200 1 0 1.000000
  0 0.000000 -3.534200 0.345000 0.018200 -0.565590 -0.824486 0.256500 0.092300 1 0 1.000000
grenade2
  0 -0.950800 -3.534200 0.738900 -0.570096 -0.565596 -0.595896 0.335700 0.125100 1 0 1.000000
  0 -1.152200 -2.734000 0.537600 -0.785833 -0.168207 -0.595125 0.393800 0.067000 1 0 1.000000
  0 0.000000 -2.734000 0.060300 -0.134799 -0.168199 -0.976493 0.256500 0.010200 1 0 1.000000
grenade2
  0 -1.344700 -3.534200 1.689700 -0.824486 -0.565590 -0.018200 0.368500 0.204200 1 0 1.000000
  0 -1.152200 -2.734000 0.537600 -0.785833 -0.168207 -0.595125 0.393800 0.067000 1 0 1.000000
  0 -0.950800 -3.534200 0.738900 -0.570096 -0.565596 -0.595896 0.335700 0.125100 1 0 1.000000
grenade2
  0 -1.344700 -3.534200 1.689700 -0.824486 -0.565590 -0.018200 0.368500 0.204200 1 0 1.000000
  0 -1.629400 -2.734000 1.689700 -0.976493 -0.168199 0.134799 0.450600 0.204200 1 0 1.000000
  0 -1.152200 -2.734000 0.537600 -0.785833 -0.168207 -0.595125 0.393800 0.067000 1 0 1.000000
grenade2
  0 -0.950800 -3.534200 2.640600 -0.595896 -0.565596 0.570096 0.335700 0.283400 1 0 1.000000
  0 -1.629400 -2.734000 1.689700 -0.976493 -0.168199 0.134799 0.450600 0.204200 1 0 1.000000
  0 -1.344700 -3.534200 1.689700 -0.824486 -0.565590 -0.018200 0.368500 0.204200 1 0 1.000000
grenade2
  0 -0.950800 -3.534200 2.640600 -0.595896 -0.565596 0.570096 0.335700 0.283400 1 0 1.000000
  0 -1.152200 -2.734000 2.841900 -0.595125 -0.168207 0.785833 0.393800 0.341500 1 0 1.000000
  0 -1.629400 -2.734000 1.689700 -0.976493 -0.168199 0.134799 0.450600 0.204200 1 0 1.000000
grenade2
  0 0.000000 -3.534200 3.034400 -0.018200 -0.565590 0.824486 0.256500 0.316200 1 0 1.000000
  0 -1.152200 -2.734000 2.841900 -0.595125 -0.168207 0.785833 0.393800 0.341500 1 0 1.000000
  0 -0.950800 -3.534200 2.640600 -0.595896 -0.565596 0.570096 0.335700 0.283400 1 0 1.000000
grenade2
  0 0.000000 -3.534200 3.034400 -0.018200 -0.565590 0.824486 0.256500 0.316200 1 0 1.000000
  0 0.000000 -2.734000 3.319100 0.134799 -0.168199 0.976493 0.256500 0.398300 1 0 1.000000
  0 -1.152200 -2.734000 2.841900 -0.595125 -0.168207 0.785833 0.393800 0.341500 1 0 1.000000
grenade2
  0 0.950800 -3.534200 2.640600 0.570096 -0.565596 0.595896 0.177400 0.283400 1 0 1.000000
  0 0.000000 -2.734000 3.319100 0.134799 -0.168199 0.976493 0.256500 0.398300 1 0 1.000000
  0 0.000000 -3.534200 3.034400 -0.018200 -0.565590 0.824486 0.256500 0.316200 1 0 1.000000
grenade2
  0 0.446200 -4.159100 2.135900 0.303516 -0.872847 0.382120 0.219400 0.241400 1 0 1.000000
  0 0.950800 -3.534200 2.640600 0.570096 -0.565596 0.595896 0.177400 0.283400 1 0 1.000000
  0 0.000000 -3.534200 3.034400 -0.018200 -0.565590 0.824486 0.256500 0.316200 1 0 1.000000
grenade2
  0 0.631000 -4.159100 1.689700 0.484824 -0.872843 0.055603 0.204000 0.204200 1 0 1.000000
  0 0.950800 -3.534200 2.640600 0.570096 -0.565596 0.595896 0.177400 0.283400 1 0 1.000000
  0 0.446200 -4.159100 2.135900 0.303516 -0.872847 0.382120 0.219400 0.241400 1 0 1.000000
grenade2
  0 0.000000 -4.284700 1.689700 0.000000 -1.000000 0.000000 0.256500 0.204200 1 0 1.000000
  0 0.631000 -4.159100 1.689700 0.484824 -0.872843 0.055603 0.204000 0.204200 1 0 1.000000
  0 0.446200 -4.159100 2.135900 0.303516 -0.872847 0.382120 0.219400 0.241400 1 0 1.000000
grenade2
  0 0.000000 -4.284700 1.689700 0.000000 -1.000000 0.000000 0.256500 0.204200 1 0 1.000000
  0 0.446200 -4.159100 1.243500 0.382121 -0.872847 -0.303516 0.219400 0.167100 1 0 1.000000
  0 0.631000 -4.159100 1.689700 0.484824 -0.872843 0.055603 0.204000 0.204200 1 0 1.000000
grenade2
  0 0.000000 -4.284700 1.689700 0.000000 -1.000000 0.000000 0.256500 0.204200 1 0 1.000000
  0 0.000000 -4.159100 1.058700 0.055603 -0.872843 -0.484824 0.256500 0.151700 1 0 1.000000
  0 0.446200 -4.159100 1.243500 0.382121 -0.872847 -0.303516 0.219400 0.167100 1 0 1.000000
grenade2
  0 0.000000 -4.159100 1.058700 0.055603 -0.872843 -0.484824 0.256500 0.151700 1 0 1.000000
  0 0.950800 -3.534200 0.738900 0.595896 -0.565596 -0.570096 0.177400 0.125100 1 0 1.000000
  0 0.446200 -4.159100 1.243500 0.382121 -0.872847 -0.303516 0.219400 0.167100 1 0 1.000000
grenade2
  0 0.000000 -4.159100 1.058700 0.055603 -0.872843 -0.484824 0.256500 0.151700 1 0 1.000000
  0 0.000000 -3.534200 0.345000 0.018200 -0.565590 -0.824486 0.256500 0.092300 1 0 1.000000
  0 0.950800 -3.534200 0.738900 0.595896 -0.565596 -0.570096 0.177400 0.125100 1 0 1.000000
grenade2
  0 -0.446200 -4.159100 1.243500 -0.303516 -0.872847 -0.382120 0.293700 0.167100 1 0 1.000000
  0 0.000000 -3.534200 0.345000 0.018200 -0.565590 -0.824486 0.256500 0.092300 1 0 1.000000
  0 0.000000 -4.159100 1.058700 0.055603 -0.872843 -0.484824 0.256500 0.151700 1 0 1.000000
grenade2
  0 -0.446200 -4.159100 1.243500 -0.303516 -0.872847 -0.382120 0.293700 0.167100 1 0 1.000000
  0 -0.950800 -3.534200 0.738900 -0.570096 -0.565596 -0.595896 0.335700 0.125100 1 0 1.000000
  0 0.000000 -3.534200 0.345000 0.018200 -0.565590 -0.824486 0.256500 0.092300 1 0 1.000000
grenade2
  0 -0.631000 -4.159100 1.689700 -0.484824 -0.872843 -0.055603 0.309100 0.204200 1 0 1.000000
  0 -0.950800 -3.534200 0.738900 -0.570096 -0.565596 -0.595896 0.335700 0.125100 1 0 1.000000
  0 -0.446200 -4.159100 1.243500 -0.303516 -0.872847 -0.382120 0.293700 0.167100 1 0 1.000000
grenade2
  0 -0.631000 -4.159100 1.689700 -0.484824 -0.872843 -0.055603 0.309100 0.204200 1 0 1.000000
  0 -1.344700 -3.534200 1.689700 -0.824486 -0.565590 -0.018200 0.368500 0.204200 1 0 1.000000
  0 -0.950800 -3.534200 0.738900 -0.570096 -0.565596 -0.595896 0.335700 0.125100 1 0 1.000000
grenade2
  0 -0.446200 -4.159100 2.135900 -0.382120 -0.872847 0.303516 0.293700 0.241400 1 0 1.000000
  0 -1.344700 -3.534200 1.689700 -0.824486 -0.565590 -0.018200 0.368500 0.204200 1 0 1.000000
  0 -0.631000 -4.159100 1.689700 -0.484824 -0.872843 -0.055603 0.309100 0.204200 1 0 1.000000
grenade2
  0 -0.446200 -4.159100 2.135900 -0.382120 -0.872847 0.303516 0.293700 0.241400 1 0 1.000000
  0 -0.950800 -3.534200 2.640600 -0.595896 -0.565596 0.570096 0.335700 0.283400 1 0 1.000000
  0 -1.344700 -3.534200 1.689700 -0.824486 -0.565590 -0.018200 0.368500 0.204200 1 0 1.000000
grenade2
  0 0.000000 -4.159100 2.320800 -0.055603 -0.872843 0.484824 0.256500 0.256800 1 0 1.000000
  0 -0.950800 -3.534200 2.640600 -0.595896 -0.565596 0.570096 0.335700 0.283400 1 0 1.000000
  0 -0.446200 -4.159100 2.135900 -0.382120 -0.872847 0.303516 0.293700 0.241400 1 0 1.000000
grenade2
  0 0.000000 -4.159100 2.320800 -0.055603 -0.872843 0.484824 0.256500 0.256800 1 0 1.000000
  0 0.000000 -3.534200 3.034400 -0.018200 -0.565590 0.824486 0.256500 0.316200 1 0 1.000000
  0 -0.950800 -3.534200 2.640600 -0.595896 -0.565596 0.570096 0.335700 0.283400 1 0 1.000000
grenade2
  0 0.446200 -4.159100 2.135900 0.303516 -0.872847 0.382120 0.219400 0.241400 1 0 1.000000
  0 0.000000 -3.534200 3.034400 -0.018200 -0.565590 0.824486 0.256500 0.316200 1 0 1.000000
  0 0.000000 -4.159100 2.320800 -0.055603 -0.872843 0.484824 0.256500 0.256800 1 0 1.000000
grenade2
  0 0.000000 -4.284700 1.689700 0.000000 -1.000000 0.000000 0.256500 0.204200 1 0 1.000000
  0 0.446200 -4.159100 2.135900 0.303516 -0.872847 0.382120 0.219400 0.241400 1 0 1.000000
  0 0.000000 -4.159100 2.320800 -0.055603 -0.872843 0.484824 0.256500 0.256800 1 0 1.000000
grenade2
  0 0.000000 -4.284700 1.689700 0.000000 -1.000000 0.000000 0.256500 0.204200 1 0 1.000000
  0 0.000000 -4.159100 2.320800 -0.055603 -0.872843 0.484824 0.256500 0.256800 1 0 1.000000
  0 -0.446200 -4.159100 2.135900 -0.382120 -0.872847 0.303516 0.293700 0.241400 1 0 1.000000
grenade2
  0 0.000000 -4.284700 1.689700 0.000000 -1.000000 0.000000 0.256500 0.204200 1 0 1.000000
  0 -0.446200 -4.159100 2.135900 -0.382120 -0.872847 0.303516 0.293700 0.241400 1 0 1.000000
  0 -0.631000 -4.159100 1.689700 -0.484824 -0.872843 -0.055603 0.309100 0.204200 1 0 1.000000
grenade2
  0 0.000000 -4.284700 1.689700 0.000000 -1.000000 0.000000 0.256500 0.204200 1 0 1.000000
  0 -0.631000 -4.159100 1.689700 -0.484824 -0.872843 -0.055603 0.309100 0.204200 1 0 1.000000
  0 -0.446200 -4.159100 1.243500 -0.303516 -0.872847 -0.382120 0.293700 0.167100 1 0 1.000000
grenade2
  0 0.000000 -4.284700 1.689700 0.000000 -1.000000 0.000000 0.256500 0.204200 1 0 1.000000
  0 -0.446200 -4.159100 1.243500 -0.303516 -0.872847 -0.382120 0.293700 0.167100 1 0 1.000000
  0 0.000000 -4.159100 1.058700 0.055603 -0.872843 -0.484824 0.256500 0.151700 1 0 1.000000
grenade2
  0 -1.629400 -2.734000 1.689700 -0.976493 -0.168199 0.134799 0.071000 0.405600 1 0 1.000000
  0 -1.616200 3.793800 1.689700 -0.990597 0.002000 -0.136800 0.071500 0.949000 1 0 1.000000
  0 -1.152200 -2.734000 0.537600 -0.785833 -0.168207 -0.595125 0.177500 0.405600 1 0 1.000000
grenade2
  0 -1.142800 3.793800 0.546900 -0.603704 0.002000 -0.797206 0.177500 0.949000 1 0 1.000000
  0 -1.152200 -2.734000 0.537600 -0.785833 -0.168207 -0.595125 0.177500 0.405600 1 0 1.000000
  0 -1.616200 3.793800 1.689700 -0.990597 0.002000 -0.136800 0.071500 0.949000 1 0 1.000000
grenade2
  0 -1.152200 -2.734000 0.537600 -0.785833 -0.168207 -0.595125 0.177500 0.405600 1 0 1.000000
  0 -1.142800 3.793800 0.546900 -0.603704 0.002000 -0.797206 0.177500 0.949000 1 0 1.000000
  0 0.000000 -2.734000 0.060300 -0.134799 -0.168199 -0.976493 0.286300 0.405600 1 0 1.000000
grenade2
  0 0.000000 3.793800 0.073500 0.136800 0.002000 -0.990597 0.286300 0.949000 1 0 1.000000
  0 0.000000 -2.734000 0.060300 -0.134799 -0.168199 -0.976493 0.286300 0.405600 1 0 1.000000
  0 -1.142800 3.793800 0.546900 -0.603704 0.002000 -0.797206 0.177500 0.949000 1 0 1.000000
grenade2
  0 0.000000 -2.734000 0.060300 -0.134799 -0.168199 -0.976493 0.286300 0.405600 1 0 1.000000
  0 0.000000 3.793800 0.073500 0.136800 0.002000 -0.990597 0.286300 0.949000 1 0 1.000000
  0 1.152200 -2.734000 0.537600 0.595125 -0.168207 -0.785833 0.394800 0.405600 1 0 1.000000
grenade2
  0 1.142800 3.793800 0.546900 0.797206 0.002000 -0.603704 0.394800 0.949000 1 0 1.000000
  0 1.152200 -2.734000 0.537600 0.595125 -0.168207 -0.785833 0.394800 0.405600 1 0 1.000000
  0 0.000000 3.793800 0.073500 0.136800 0.002000 -0.990597 0.286300 0.949000 1 0 1.000000
grenade2
  0 1.152200 -2.734000 0.537600 0.595125 -0.168207 -0.785833 0.394800 0.405600 1 0 1.000000
  0 1.142800 3.793800 0.546900 0.797206 0.002000 -0.603704 0.394800 0.949000 1 0 1.000000
  0 1.629400 -2.734000 1.689700 0.976493 -0.168199 -0.134799 0.503400 0.405600 1 0 1.000000
grenade2
  0 1.616200 3.793800 1.689700 0.990597 0.002000 0.136800 0.503400 0.949000 1 0 1.000000
  0 1.629400 -2.734000 1.689700 0.976493 -0.168199 -0.134799 0.503400 0.405600 1 0 1.000000
  0 1.142800 3.793800 0.546900 0.797206 0.002000 -0.603704 0.394800 0.949000 1 0 1.000000
grenade2
  0 1.629400 -2.734000 1.689700 0.976493 -0.168199 -0.134799 0.503400 0.405600 1 0 1.000000
  0 1.616200 3.793800 1.689700 0.990597 0.002000 0.136800 0.503400 0.949000 1 0 1.000000
  0 1.152200 -2.734000 2.841900 0.785833 -0.168207 0.595125 0.612300 0.405600 1 0 1.000000
grenade2
  0 1.142800 3.793800 2.832600 0.603704 0.002000 0.797206 0.612300 0.949000 1 0 1.000000
  0 1.152200 -2.734000 2.841900 0.785833 -0.168207 0.595125 0.612300 0.405600 1 0 1.000000
  0 1.616200 3.793800 1.689700 0.990597 0.002000 0.136800 0.503400 0.949000 1 0 1.000000
grenade2
  0 1.152200 -2.734000 2.841900 0.785833 -0.168207 0.595125 0.612300 0.405600 1 0 1.000000
  0 1.142800 3.793800 2.832600 0.603704 0.002000 0.797206 0.612300 0.949000 1 0 1.000000
  0 0.000000 -2.734000 3.319100 0.134799 -0.168199 0.976493 0.721000 0.405600 1 0 1.000000
grenade2
  0 0.000000 3.793800 3.305900 -0.136800 0.002000 0.990597 0.721000 0.949000 1 0 1.000000
  0 0.000000 -2.734000 3.319100 0.134799 -0.168199 0.976493 0.721000 0.405600 1 0 1.000000
  0 1.142800 3.793800 2.832600 0.603704 0.002000 0.797206 0.612300 0.949000 1 0 1.000000
grenade2
  0 0.000000 -2.734000 3.319100 0.134799 -0.168199 0.976493 0.721000 0.405600 1 0 1.000000
  0 0.000000 3.793800 3.305900 -0.136800 0.002000 0.990597 0.721000 0.949000 1 0 1.000000
  0 -1.152200 -2.734000 2.841900 -0.595125 -0.168207 0.785833 0.829500 0.405600 1 0 1.000000
grenade2
  0 -1.142800 3.793800 2.832600 -0.797206 0.002000 0.603704 0.829500 0.949000 1 0 1.000000
  0 -1.152200 -2.734000 2.841900 -0.595125 -0.168207 0.785833 0.829500 0.405600 1 0 1.000000
  0 0.000000 3.793800 3.305900 -0.136800 0.002000 0.990597 0.721000 0.949000 1 0 1.000000
grenade2
  0 -1.152200 -2.734000 2.841900 -0.595125 -0.168207 0.785833 0.829500 0.405600 1 0 1.000000
  0 -1.142800 3.793800 2.832600 -0.797206 0.002000 0.603704 0.829500 0.949000 1 0 1.000000
  0 -1.629400 -2.734000 1.689700 -0.976493 -0.168199 0.134799 0.935700 0.405600 1 0 1.000000
grenade2
  0 -1.616200 3.793800 1.689700 -0.990597 0.002000 -0.136800 0.935300 0.949000 1 0 1.000000
  0 -1.629400 -2.734000 1.689700 -0.976493 -0.168199 0.134799 0.935700 0.405600 1 0 1.000000
  0 -1.142800 3.793800 2.832600 -0.797206 0.002000 0.603704 0.829500 0.949000 1 0 1.000000
grenade2
  0 -1.142800 3.793800 2.832600 -0.777618 -0.220205 0.588914 0.829500 0.949000 1 0 1.000000
  0 -1.675600 4.054200 1.689700 -0.966291 -0.220198 0.133399 0.937200 0.970700 1 0 1.000000
  0 -1.616200 3.793800 1.689700 -0.966291 -0.220198 -0.133399 0.935300 0.949000 1 0 1.000000
grenade2
  0 -1.142800 3.793800 2.832600 -0.777618 -0.220205 0.588914 0.829500 0.949000 1 0 1.000000
  0 -1.184800 4.054200 2.874500 -0.588914 -0.220205 0.777618 0.829500 0.970700 1 0 1.000000
  0 -1.675600 4.054200 1.689700 -0.966291 -0.220198 0.133399 0.937200 0.970700 1 0 1.000000
grenade2
  0 0.000000 3.793800 3.305900 -0.133399 -0.220198 0.966291 0.721000 0.949000 1 0 1.000000
  0 -1.184800 4.054200 2.874500 -0.588914 -0.220205 0.777618 0.829500 0.970700 1 0 1.000000
  0 -1.142800 3.793800 2.832600 -0.777618 -0.220205 0.588914 0.829500 0.949000 1 0 1.000000
grenade2
  0 0.000000 3.793800 3.305900 -0.133399 -0.220198 0.966291 0.721000 0.949000 1 0 1.000000
  0 0.000000 4.054200 3.365300 0.133399 -0.220198 0.966291 0.721000 0.970700 1 0 1.000000
  0 -1.184800 4.054200 2.874500 -0.588914 -0.220205 0.777618 0.829500 0.970700 1 0 1.000000
grenade2
  0 1.142800 3.793800 2.832600 0.588914 -0.220205 0.777618 0.612300 0.949000 1 0 1.000000
  0 0.000000 4.054200 3.365300 0.133399 -0.220198 0.966291 0.721000 0.970700 1 0 1.000000
  0 0.000000 3.793800 3.305900 -0.133399 -0.220198 0.966291 0.721000 0.949000 1 0 1.000000
grenade2
  0 1.142800 3.793800 2.832600 0.588914 -0.220205 0.777618 0.612300 0.949000 1 0 1.000000
  0 1.184800 4.054200 2.874500 0.777618 -0.220205 0.588914 0.612300 0.970700 1 0 1.000000
  0 0.000000 4.054200 3.365300 0.133399 -0.220198 0.966291 0.721000 0.970700 1 0 1.000000
grenade2
  0 1.616200 3.793800 1.689700 0.966291 -0.220198 0.133399 0.503400 0.949000 1 0 1.000000
  0 1.184800 4.054200 2.874500 0.777618 -0.220205 0.588914 0.612300 0.970700 1 0 1.000000
  0 1.142800 3.793800 2.832600 0.588914 -0.220205 0.777618 0.612300 0.949000 1 0 1.000000
grenade2
  0 1.616200 3.793800 1.689700 0.966291 -0.220198 0.133399 0.503400 0.949000 1 0 1.000000
  0 1.675600 4.054200 1.689700 0.966291 -0.220198 -0.133399 0.503400 0.970700 1 0 1.000000
  0 1.184800 4.054200 2.874500 0.777618 -0.220205 0.588914 0.612300 0.970700 1 0 1.000000
grenade2
  0 1.142800 3.793800 0.546900 0.777618 -0.220205 -0.588914 0.394800 0.949000 1 0 1.000000
  0 1.675600 4.054200 1.689700 0.966291 -0.220198 -0.133399 0.503400 0.970700 1 0 1.000000
  0 1.616200 3.793800 1.689700 0.966291 -0.220198 0.133399 0.503400 0.949000 1 0 1.000000
grenade2
  0 1.142800 3.793800 0.546900 0.777618 -0.220205 -0.588914 0.394800 0.949000 1 0 1.000000
  0 1.184800 4.054200 0.504900 0.588914 -0.220205 -0.777618 0.394800 0.970700 1 0 1.000000
  0 1.675600 4.054200 1.689700 0.966291 -0.220198 -0.133399 0.503400 0.970700 1 0 1.000000
grenade2
  0 0.000000 3.793800 0.073500 0.133399 -0.220198 -0.966291 0.286300 0.949000 1 0 1.000000
  0 1.184800 4.054200 0.504900 0.588914 -0.220205 -0.777618 0.394800 0.970700 1 0 1.000000
  0 1.142800 3.793800 0.546900 0.777618 -0.220205 -0.588914 0.394800 0.949000 1 0 1.000000
grenade2
  0 0.000000 3.793800 0.073500 0.133399 -0.220198 -0.966291 0.286300 0.949000 1 0 1.000000
  0 0.000000 4.054200 0.014200 -0.133399 -0.220198 -0.966291 0.286300 0.970700 1 0 1.000000
  0 1.184800 4.054200 0.504900 0.588914 -0.220205 -0.777618 0.394800 0.970700 1 0 1.000000
grenade2
  0 -1.142800 3.793800 0.546900 -0.588914 -0.220205 -0.777618 0.177500 0.949000 1 0 1.000000
  0 0.000000 4.054200 0.014200 -0.133399 -0.220198 -0.966291 0.286300 0.970700 1 0 1.000000
  0 0.000000 3.793800 0.073500 0.133399 -0.220198 -0.966291 0.286300 0.949000 1 0 1.000000
grenade2
  0 -1.142800 3.793800 0.546900 -0.588914 -0.220205 -0.777618 0.177500 0.949000 1 0 1.000000
  0 -1.184800 4.054200 0.504900 -0.777618 -0.220205 -0.588914 0.177500 0.970700 1 0 1.000000
  0 0.000000 4.054200 0.014200 -0.133399 -0.220198 -0.966291 0.286300 0.970700 1 0 1.000000
grenade2
  0 -1.616200 3.793800 1.689700 -0.966291 -0.220198 -0.133399 0.071500 0.949000 1 0 1.000000
  0 -1.184800 4.054200 0.504900 -0.777618 -0.220205 -0.588914 0.177500 0.970700 1 0 1.000000
  0 -1.142800 3.793800 0.546900 -0.588914 -0.220205 -0.777618 0.177500 0.949000 1 0 1.000000
grenade2
  0 -1.616200 3.793800 1.689700 -0.966291 -0.220198 -0.133399 0.071500 0.949000 1 0 1.000000
  0 -1.675600 4.054200 1.689700 -0.966291 -0.220198 0.133399 0.069600 0.970700 1 0 1.000000
  0 -1.184800 4.054200 0.504900 -0.777618 -0.220205 -0.588914 0.177500 0.970700 1 0 1.000000
grenade2
  0 -1.184800 4.054200 2.874500 -0.796261 -0.047698 0.603070 0.829500 0.970700 1 0 1.000000
  0 -1.686700 4.284700 1.689700 -0.989478 -0.047699 0.136597 0.937500 0.989800 1 0 1.000000
  0 -1.675600 4.054200 1.689700 -0.989478 -0.047699 -0.136597 0.937200 0.970700 1 0 1.000000
grenade2
  0 -1.184800 4.054200 2.874500 -0.796261 -0.047698 0.603070 0.829500 0.970700 1 0 1.000000
  0 -1.192600 4.284700 2.882400 -0.603070 -0.047698 0.796261 0.829500 0.989800 1 0 1.000000
  0 -1.686700 4.284700 1.689700 -0.989478 -0.047699 0.136597 0.937500 0.989800 1 0 1.000000
grenade2
  0 0.000000 4.054200 3.365300 -0.136597 -0.047699 0.989478 0.721000 0.970700 1 0 1.000000
  0 -1.192600 4.284700 2.882400 -0.603070 -0.047698 0.796261 0.829500 0.989800 1 0 1.000000
  0 -1.184800 4.054200 2.874500 -0.796261 -0.047698 0.603070 0.829500 0.970700 1 0 1.000000
grenade2
  0 0.000000 4.054200 3.365300 -0.136597 -0.047699 0.989478 0.721000 0.970700 1 0 1.000000
  0 0.000000 4.284700 3.376400 0.136597 -0.047699 0.989478 0.721000 0.989800 1 0 1.000000
  0 -1.192600 4.284700 2.882400 -0.603070 -0.047698 0.796261 0.829500 0.989800 1 0 1.000000
grenade2
  0 1.184800 4.054200 2.874500 0.603070 -0.047698 0.796261 0.612300 0.970700 1 0 1.000000
  0 0.000000 4.284700 3.376400 0.136597 -0.047699 0.989478 0.721000 0.989800 1 0 1.000000
  0 0.000000 4.054200 3.365300 -0.136597 -0.047699 0.989478 0.721000 0.970700 1 0 1.000000
grenade2
  0 1.184800 4.054200 2.874500 0.603070 -0.047698 0.796261 0.612300 0.970700 1 0 1.000000
  0 1.192600 4.284700 2.882400 0.796261 -0.047698 0.603070 0.612300 0.989800 1 0 1.000000
  0 0.000000 4.284700 3.376400 0.136597 -0.047699 0.989478 0.721000 0.989800 1 0 1.000000
grenade2
  0 1.675600 4.054200 1.689700 0.989478 -0.047699 0.136597 0.503400 0.970700 1 0 1.000000
  0 1.192600 4.284700 2.882400 0.796261 -0.047698 0.603070 0.612300 0.989800 1 0 1.000000
  0 1.184800 4.054200 2.874500 0.603070 -0.047698 0.796261 0.612300 0.970700 1 0 1.000000
grenade2
  0 1.675600 4.054200 1.689700 0.989478 -0.047699 0.136597 0.503400 0.970700 1 0 1.000000
  0 1.686700 4.284700 1.689700 0.989478 -0.047699 -0.136597 0.503400 0.989800 1 0 1.000000
  0 1.192600 4.284700 2.882400 0.796261 -0.047698 0.603070 0.612300 0.989800 1 0 1.000000
grenade2
  0 1.184800 4.054200 0.504900 0.796261 -0.047698 -0.603070 0.394800 0.970700 1 0 1.000000
  0 1.686700 4.284700 1.689700 0.989478 -0.047699 -0.136597 0.503400 0.989800 1 0 1.000000
  0 1.675600 4.054200 1.689700 0.989478 -0.047699 0.136597 0.503400 0.970700 1 0 1.000000
grenade2
  0 1.184800 4.054200 0.504900 0.796261 -0.047698 -0.603070 0.394800 0.970700 1 0 1.000000
  0 1.192600 4.284700 0.497100 0.603070 -0.047698 -0.796261 0.394800 0.989800 1 0 1.000000
  0 1.686700 4.284700 1.689700 0.989478 -0.047699 -0.136597 0.503400 0.989800 1 0 1.000000
grenade2
  0 0.000000 4.054200 0.014200 0.136597 -0.047699 -0.989478 0.286300 0.970700 1 0 1.000000
  0 1.192600 4.284700 0.497100 0.603070 -0.047698 -0.796261 0.394800 0.989800 1 0 1.000000
  0 1.184800 4.054200 0.504900 0.796261 -0.047698 -0.603070 0.394800 0.970700 1 0 1.000000
grenade2
  0 0.000000 4.054200 0.014200 0.136597 -0.047699 -0.989478 0.286300 0.970700 1 0 1.000000
  0 0.000000 4.284700 0.003100 -0.136597 -0.047699 -0.989478 0.286300 0.989800 1 0 1.000000
  0 1.192600 4.284700 0.497100 0.603070 -0.047698 -0.796261 0.394800 0.989800 1 0 1.000000
grenade2
  0 -1.184800 4.054200 0.504900 -0.603070 -0.047698 -0.796261 0.177500 0.970700 1 0 1.000000
  0 0.000000 4.284700 0.003100 -0.136597 -0.047699 -0.989478 0.286300 0.989800 1 0 1.000000
  0 0.000000 4.054200 0.014200 0.136597 -0.047699 -0.989478 0.286300 0.970700 1 0 1.000000
grenade2
  0 -1.184800 4.054200 0.504900 -0.603070 -0.047698 -0.796261 0.177500 0.970700 1 0 1.000000
  0 -1.192600 4.284700 0.497100 -0.796261 -0.047698 -0.603070 0.177500 0.989800 1 0 1.000000
  0 0.000000 4.284700 0.003100 -0.136597 -0.047699 -0.989478 0.286300 0.989800 1 0 1.000000
grenade2
  0 -1.675600 4.054200 1.689700 -0.989478 -0.047699 -0.136597 0.069600 0.970700 1 0 1.000000
  0 -1.192600 4.284700 0.497100 -0.796261 -0.047698 -0.603070 0.177500 0.989800 1 0 1.000000
  0 -1.184800 4.054200 0.504900 -0.603070 -0.047698 -0.796261 0.177500 0.970700 1 0 1.000000
grenade2
  0 -1.675600 4.054200 1.689700 -0.989478 -0.047699 -0.136597 0.069600 0.970700 1 0 1.000000
  0 -1.686700 4.284700 1.689700 -0.989478 -0.047699 0.136597 0.069200 0.989800 1 0 1.000000
  0 -1.192600 4.284700 0.497100 -0.796261 -0.047698 -0.603070 0.177500 0.989800 1 0 1.000000
end
