// Created by Crowbar 0.62

$modelname "weapons/w_grenade.mdl"

$bodygroup "studio"
{
	studio "w_grenade_Grenade_reference.smd"
}


$surfaceprop "grenade"

$contents "solid"

$illumposition -0.006 0.017 0.003

$cdmaterials "models\weapons\w_grenade\"

$cbox 0 0 0 0 0 0

$bbox -2.048 -1.761 -4.439 2.014 1.748 4.445

$animation "a_idle" "w_grenade_anims\idle.smd" {
	fps 30
}

$sequence "idle" {
	"a_idle"
	activity "ACT_VM_IDLE" 1
	fadein 0.2
	fadeout 0.2
}


$collisionmodel "w_grenade_physics.smd"
{
	$mass 1
	$inertia 1
	$damping 0
	$rotdamping 0
	$rootbone " "
	$concave

}
