// Created by Crowbar 0.62

$modelname "items/largeboxmrounds.mdl"

$staticprop

$bodygroup "body"
{
	studio "largeboxmrounds_reference.smd"
}


$contents "solid"

$illumposition -4.02 4.58 6.876

$cdmaterials "models\items\"

$cbox 0 0 0 0 0 0

$bbox -19.662 -15.6 -0.451 10.502 7.561 14.203

$animation "a_IDLE" "LargeBoxMRounds_anims\IDLE.smd" {
	fps 5
	loop
}

$sequence "IDLE" {
	"a_IDLE"
	fadein 0.2
	fadeout 0.2
}

